"Nama Item","Url Item",Harga,"Url gambar","Username Toko","Url Toko"
"ADIDAS SUPERFLEX BLACK OREO ORIGIMAL",https://www.tokopedia.com/sneakersof/adidas-superflex-black-oreo-origimal?trkid=f%3DCa0000L000P0W0S0Sh00Co0Po0Fr0Cb0_src%3Dshop-product_page%3D1_ob%3D11_q%3D_po%3D1_catid%3D1845,420000,https://ecs7.tokopedia.net/img/cache/300-square/product-1/2019/1/30/3974875/3974875_c54d9bba-582d-4c1e-8d9a-8a998c9ff39f_640_640.jpg,2?sort=8,https://www.tokopedia.com/sneakersof/page/2?sort=8
"ADIDAS SUPERFLEX ARMY ORIGINAL",https://www.tokopedia.com/sneakersof/adidas-superflex-army-original?trkid=f%3DCa0000L000P0W0S0Sh00Co0Po0Fr0Cb0_src%3Dshop-product_page%3D1_ob%3D11_q%3D_po%3D2_catid%3D1845,420000,https://ecs7.tokopedia.net/img/cache/300-square/product-1/2019/1/30/3974875/3974875_9064ab76-aa74-4cca-b858-6c8119d353b9_640_640.jpg,2?sort=8,https://www.tokopedia.com/sneakersof/page/2?sort=8
"ADIDAS QUESTAR RIDE BLACK BLACK ORANGE ORIGINAL",https://www.tokopedia.com/sneakersof/adidas-questar-ride-black-black-orange-original?trkid=f%3DCa0000L000P0W0S0Sh00Co0Po0Fr0Cb0_src%3Dshop-product_page%3D1_ob%3D11_q%3D_po%3D3_catid%3D1845,390000,https://ecs7.tokopedia.net/img/cache/300-square/product-1/2019/1/30/3974875/3974875_3d50413c-a306-4ff2-b840-10e341f74547_640_640.jpg,2?sort=8,https://www.tokopedia.com/sneakersof/page/2?sort=8
"ADIDAS LITE RACER GREY ORIGINAL",https://www.tokopedia.com/sneakersof/adidas-lite-racer-grey-original?trkid=f%3DCa0000L000P0W0S0Sh00Co0Po0Fr0Cb0_src%3Dshop-product_page%3D1_ob%3D11_q%3D_po%3D4_catid%3D1845,350000,https://ecs7.tokopedia.net/img/cache/300-square/product-1/2019/1/30/3974875/3974875_8551318e-7019-489b-9f87-a0c2e62290e0_640_640.jpg,2?sort=8,https://www.tokopedia.com/sneakersof/page/2?sort=8
"ADIDAS LITE RACER NAVY PING ORIGINAL",https://www.tokopedia.com/sneakersof/adidas-lite-racer-navy-ping-original?trkid=f%3DCa0000L000P0W0S0Sh00Co0Po0Fr0Cb0_src%3Dshop-product_page%3D1_ob%3D11_q%3D_po%3D5_catid%3D1908,380000,https://ecs7.tokopedia.net/img/cache/300-square/product-1/2019/1/30/3974875/3974875_45e845f3-e6e7-490d-9467-47ad1ef0c341_640_640.jpg,2?sort=8,https://www.tokopedia.com/sneakersof/page/2?sort=8
"ADIDAS SWIFT RUN BLACK WHITE ORANGE",https://www.tokopedia.com/sneakersof/adidas-swift-run-black-white-orange?trkid=f%3DCa0000L000P0W0S0Sh00Co0Po0Fr0Cb0_src%3Dshop-product_page%3D1_ob%3D11_q%3D_po%3D6_catid%3D1845,399000,https://ecs7.tokopedia.net/img/cache/300-square/product-1/2019/1/30/3974875/3974875_750dc732-746c-4e0e-b381-f1193f55b994_640_640.jpg,2?sort=8,https://www.tokopedia.com/sneakersof/page/2?sort=8
"ADIDAS SWIFT RUN GREY TOSCA ORIGINAL",https://www.tokopedia.com/sneakersof/adidas-swift-run-grey-tosca-original?trkid=f%3DCa0000L000P0W0S0Sh00Co0Po0Fr0Cb0_src%3Dshop-product_page%3D1_ob%3D11_q%3D_po%3D7_catid%3D1908,370000,https://ecs7.tokopedia.net/img/cache/300-square/product-1/2019/1/11/3974875/3974875_3ab03b2b-dc90-4d0f-bd17-f830e83d28b6_640_640.jpg,2?sort=8,https://www.tokopedia.com/sneakersof/page/2?sort=8
"ADIDAS SWIFT RUN CREAM PEACH ORIGINAL",https://www.tokopedia.com/sneakersof/adidas-swift-run-cream-peach-original?trkid=f%3DCa0000L000P0W0S0Sh00Co0Po0Fr0Cb0_src%3Dshop-product_page%3D1_ob%3D11_q%3D_po%3D8_catid%3D1908,370000,https://ecs7.tokopedia.net/img/cache/300-square/product-1/2019/1/11/3974875/3974875_3c8e3dbe-2b87-4abb-bbc3-34f10b4df89a_640_640.jpg,2?sort=8,https://www.tokopedia.com/sneakersof/page/2?sort=8
"ADIDAS SWIFT RUN WHITE LIST PEACH ORIGINAL",https://www.tokopedia.com/sneakersof/adidas-swift-run-white-list-peach-original?trkid=f%3DCa0000L000P0W0S0Sh00Co0Po0Fr0Cb0_src%3Dshop-product_page%3D1_ob%3D11_q%3D_po%3D9_catid%3D1908,370000,https://ecs7.tokopedia.net/img/cache/300-square/product-1/2019/1/11/3974875/3974875_2634b555-09dc-4c95-84c3-3b60457b5f8b_640_640.jpg,2?sort=8,https://www.tokopedia.com/sneakersof/page/2?sort=8
"ADIDAS SWIFT RUN CORE BLACK ORIGINAL",https://www.tokopedia.com/sneakersof/adidas-swift-run-core-black-original?trkid=f%3DCa0000L000P0W0S0Sh00Co0Po0Fr0Cb0_src%3Dshop-product_page%3D1_ob%3D11_q%3D_po%3D10_catid%3D1845,370000,https://ecs7.tokopedia.net/img/cache/300-square/product-1/2019/1/11/3974875/3974875_96f0cff5-970a-4c59-9ea9-6d191707249d_640_640.jpg,2?sort=8,https://www.tokopedia.com/sneakersof/page/2?sort=8
"ADIDAS SWIFT RUN OREO BLACK ORIGINAL",https://www.tokopedia.com/sneakersof/adidas-swift-run-oreo-black-original?trkid=f%3DCa0000L000P0W0S0Sh00Co0Po0Fr0Cb0_src%3Dshop-product_page%3D1_ob%3D11_q%3D_po%3D11_catid%3D1845,370000,https://ecs7.tokopedia.net/img/cache/300-square/product-1/2019/1/11/3974875/3974875_6d51c15f-e8df-4e02-bb84-ea167d95c703_640_640.jpg,2?sort=8,https://www.tokopedia.com/sneakersof/page/2?sort=8
"ADIDAS QUESTAR RIDE NAVY SOLE GUM ORIGINAL",https://www.tokopedia.com/sneakersof/adidas-questar-ride-navy-sole-gum-original?trkid=f%3DCa0000L000P0W0S0Sh00Co0Po0Fr0Cb0_src%3Dshop-product_page%3D1_ob%3D11_q%3D_po%3D12_catid%3D1845,390000,https://ecs7.tokopedia.net/img/cache/300-square/product-1/2019/1/11/3974875/3974875_d61b6b8d-ac45-4e82-b441-f6ab61ca996c_640_640.jpg,2?sort=8,https://www.tokopedia.com/sneakersof/page/2?sort=8
"ADIDAS QUESTAR RIDE MULTICOLOR SOLE ORANGE ORIGINAL",https://www.tokopedia.com/sneakersof/adidas-questar-ride-multicolor-sole-orange-original?trkid=f%3DCa0000L000P0W0S0Sh00Co0Po0Fr0Cb0_src%3Dshop-product_page%3D1_ob%3D11_q%3D_po%3D13_catid%3D1845,390000,https://ecs7.tokopedia.net/img/cache/300-square/product-1/2019/1/11/3974875/3974875_f3afb074-cb80-4f48-a60f-db4dc5ae6757_640_640.jpg,2?sort=8,https://www.tokopedia.com/sneakersof/page/2?sort=8
"ADIDAS QUESTAR FLOW NAVY VERTICAL ORIGINAL",https://www.tokopedia.com/sneakersof/adidas-questar-flow-navy-vertical-original?trkid=f%3DCa0000L000P0W0S0Sh00Co0Po0Fr0Cb0_src%3Dshop-product_page%3D1_ob%3D11_q%3D_po%3D14_catid%3D1845,390000,https://ecs7.tokopedia.net/img/cache/300-square/product-1/2019/1/11/3974875/3974875_e2ad05f4-70f9-412d-be4f-33541e2b65f0_640_640.jpg,2?sort=8,https://www.tokopedia.com/sneakersof/page/2?sort=8
"ADIDAS QUESTAR FLOW WHITE LIST BLACK ORIGINAL",https://www.tokopedia.com/sneakersof/adidas-questar-flow-white-list-black-original?trkid=f%3DCa0000L000P0W0S0Sh00Co0Po0Fr0Cb0_src%3Dshop-product_page%3D1_ob%3D11_q%3D_po%3D15_catid%3D1845,390000,https://ecs7.tokopedia.net/img/cache/300-square/product-1/2019/1/11/3974875/3974875_07ed66fc-4af7-404a-af3a-113ca2c663d8_640_640.jpg,2?sort=8,https://www.tokopedia.com/sneakersof/page/2?sort=8
"ADIDAS QUESTAR FLOW BLACK CORE WHITE ORIGINAL",https://www.tokopedia.com/sneakersof/adidas-questar-flow-black-core-white-original?trkid=f%3DCa0000L000P0W0S0Sh00Co0Po0Fr0Cb0_src%3Dshop-product_page%3D1_ob%3D11_q%3D_po%3D16_catid%3D1845,390000,https://ecs7.tokopedia.net/img/cache/300-square/product-1/2019/1/11/3974875/3974875_88411662-84ba-4c4e-af01-d61592f13b22_640_640.jpg,2?sort=8,https://www.tokopedia.com/sneakersof/page/2?sort=8
"ADIDAS QUESTAR FLOW NAVY WHITE ORIGINAL",https://www.tokopedia.com/sneakersof/adidas-questar-flow-navy-white-original?trkid=f%3DCa0000L000P0W0S0Sh00Co0Po0Fr0Cb0_src%3Dshop-product_page%3D1_ob%3D11_q%3D_po%3D17_catid%3D1845,390000,https://ecs7.tokopedia.net/img/cache/300-square/product-1/2019/1/11/3974875/3974875_ee489428-f065-4a36-86b6-bf24b842436e_640_640.jpg,2?sort=8,https://www.tokopedia.com/sneakersof/page/2?sort=8
"ADIDAS QUESTAR FLOW ALLBLACK ORIGINAL",https://www.tokopedia.com/sneakersof/adidas-questar-flow-allblack-original?trkid=f%3DCa0000L000P0W0S0Sh00Co0Po0Fr0Cb0_src%3Dshop-product_page%3D1_ob%3D11_q%3D_po%3D18_catid%3D1845,390000,https://ecs7.tokopedia.net/img/cache/300-square/product-1/2019/1/11/3974875/3974875_cddcbd85-ede5-44d9-9500-3fc039b5f8ae_640_640.jpg,2?sort=8,https://www.tokopedia.com/sneakersof/page/2?sort=8
"ADIDAS CF QUESA GREY BLACK ORIGINAL",https://www.tokopedia.com/sneakersof/adidas-cf-quesa-grey-black-original?trkid=f%3DCa0000L000P0W0S0Sh00Co0Po0Fr0Cb0_src%3Dshop-product_page%3D1_ob%3D11_q%3D_po%3D19_catid%3D1845,350000,https://ecs7.tokopedia.net/img/cache/300-square/product-1/2018/12/29/3974875/3974875_cb07b698-a8a9-42dd-834a-6769f6aa337a_640_640.jpg,2?sort=8,https://www.tokopedia.com/sneakersof/page/2?sort=8
"ADIDAS CAMPUS DRAK IJO ORIGINAL",https://www.tokopedia.com/sneakersof/adidas-campus-drak-ijo-original?trkid=f%3DCa0000L000P0W0S0Sh00Co0Po0Fr0Cb0_src%3Dshop-product_page%3D1_ob%3D11_q%3D_po%3D20_catid%3D1845,399000,https://ecs7.tokopedia.net/img/cache/300-square/product-1/2018/12/29/3974875/3974875_6870094a-4667-46ac-88d2-6ebdfe2d304a_640_640.jpg,2?sort=8,https://www.tokopedia.com/sneakersof/page/2?sort=8
"ADIDAS QUESTAR RIDE GREY BLUE ORIGINAL",https://www.tokopedia.com/sneakersof/adidas-questar-ride-grey-blue-original?trkid=f%3DCa0000L000P0W0S0Sh00Co0Po0Fr0Cb0_src%3Dshop-product_page%3D1_ob%3D11_q%3D_po%3D21_catid%3D1845,390000,https://ecs7.tokopedia.net/img/cache/300-square/product-1/2018/12/29/3974875/3974875_91c8b5a3-668a-4f40-8e7b-2e81fdce2962_640_640.jpg,2?sort=8,https://www.tokopedia.com/sneakersof/page/2?sort=8
"ADIDAS QUESTAR RIDE GREY SOLE ORANGE ORIGINAL",https://www.tokopedia.com/sneakersof/adidas-questar-ride-grey-sole-orange-original?trkid=f%3DCa0000L000P0W0S0Sh00Co0Po0Fr0Cb0_src%3Dshop-product_page%3D1_ob%3D11_q%3D_po%3D22_catid%3D1845,390000,https://ecs7.tokopedia.net/img/cache/300-square/product-1/2018/12/29/3974875/3974875_c0e0f6e0-9373-46d5-b0a6-8aa60670f8cf_640_640.jpg,2?sort=8,https://www.tokopedia.com/sneakersof/page/2?sort=8
"ADIDAS QUESTAR RIDE BLUE ORIGINAL",https://www.tokopedia.com/sneakersof/adidas-questar-ride-blue-original?trkid=f%3DCa0000L000P0W0S0Sh00Co0Po0Fr0Cb0_src%3Dshop-product_page%3D1_ob%3D11_q%3D_po%3D23_catid%3D1845,390000,https://ecs7.tokopedia.net/img/cache/300-square/product-1/2018/12/29/3974875/3974875_7d381698-c27f-462b-9c88-d6c2789feffd_640_640.jpg,2?sort=8,https://www.tokopedia.com/sneakersof/page/2?sort=8
"ADIDAS QUESTAR FLOW ICE BLUE ORIGINAL",https://www.tokopedia.com/sneakersof/adidas-questar-flow-ice-blue-original?trkid=f%3DCa0000L000P0W0S0Sh00Co0Po0Fr0Cb0_src%3Dshop-product_page%3D1_ob%3D11_q%3D_po%3D24_catid%3D1908,390000,https://ecs7.tokopedia.net/img/cache/300-square/product-1/2018/12/29/3974875/3974875_83134371-db7c-4f15-9081-daa6cf24bc99_640_640.jpg,2?sort=8,https://www.tokopedia.com/sneakersof/page/2?sort=8
"ADIDAS SWIFT RUN DARK GREN WHITE ORIGINAL",https://www.tokopedia.com/sneakersof/adidas-swift-run-dark-gren-white-original?trkid=f%3DCa0000L000P0W0S0Sh00Co0Po0Fr0Cb0_src%3Dshop-product_page%3D1_ob%3D11_q%3D_po%3D25_catid%3D1845,370000,https://ecs7.tokopedia.net/img/cache/300-square/product-1/2018/12/29/3974875/3974875_6ab5609f-75ad-403e-af9b-2806fd7efc00_640_640.jpg,2?sort=8,https://www.tokopedia.com/sneakersof/page/2?sort=8
"ADIDAS SWIFT RUN FULLHITE GOLD ORIGINAL",https://www.tokopedia.com/sneakersof/adidas-swift-run-fullhite-gold-original?trkid=f%3DCa0000L000P0W0S0Sh00Co0Po0Fr0Cb0_src%3Dshop-product_page%3D1_ob%3D11_q%3D_po%3D26_catid%3D1908,370000,https://ecs7.tokopedia.net/img/cache/300-square/product-1/2018/12/29/3974875/3974875_5aa6cdec-8713-44d7-b2a2-6733f748b5ba_640_640.jpg,2?sort=8,https://www.tokopedia.com/sneakersof/page/2?sort=8
"ADIDAS TRUE CHILL GREY BLACK ORIGINAL",https://www.tokopedia.com/sneakersof/adidas-true-chill-grey-black-original?trkid=f%3DCa0000L000P0W0S0Sh00Co0Po0Fr0Cb0_src%3Dshop-product_page%3D1_ob%3D11_q%3D_po%3D27_catid%3D1845,330000,https://ecs7.tokopedia.net/img/cache/300-square/product-1/2018/12/29/3974875/3974875_034d1fb2-1232-428e-a92d-9dc0d31d6379_640_640.jpg,2?sort=8,https://www.tokopedia.com/sneakersof/page/2?sort=8
"ADIDAS QUESTAR FLOW NAVY ORIGINAL",https://www.tokopedia.com/sneakersof/adidas-questar-flow-navy-original?trkid=f%3DCa0000L000P0W0S0Sh00Co0Po0Fr0Cb0_src%3Dshop-product_page%3D1_ob%3D11_q%3D_po%3D28_catid%3D1845,390000,https://ecs7.tokopedia.net/img/cache/300-square/product-1/2018/12/29/3974875/3974875_0964d615-7e18-4614-a5fb-792ee80a239a_640_640.jpg,2?sort=8,https://www.tokopedia.com/sneakersof/page/2?sort=8
"ADIDAS QUESTAR RIDE GREY MULTICOLOR SOLE GUM ORIGINAL",https://www.tokopedia.com/sneakersof/adidas-questar-ride-grey-multicolor-sole-gum-original?trkid=f%3DCa0000L000P0W0S0Sh00Co0Po0Fr0Cb0_src%3Dshop-product_page%3D1_ob%3D11_q%3D_po%3D29_catid%3D1845,390000,https://ecs7.tokopedia.net/img/cache/300-square/product-1/2018/12/20/3974875/3974875_95ac10d7-03f1-43db-9bfa-f2907f401f14_1280_1280.jpg,2?sort=8,https://www.tokopedia.com/sneakersof/page/2?sort=8
"ADIDAS QUESTAR RIDE BLACK LIST BLACK SOLE GUM ORIGINAL",https://www.tokopedia.com/sneakersof/adidas-questar-ride-black-list-black-sole-gum-original?trkid=f%3DCa0000L000P0W0S0Sh00Co0Po0Fr0Cb0_src%3Dshop-product_page%3D1_ob%3D11_q%3D_po%3D30_catid%3D1845,390000,https://ecs7.tokopedia.net/img/cache/300-square/product-1/2018/12/20/3974875/3974875_2a593e83-01dc-4743-8420-72cc8782ae6e_1280_1280.jpg,2?sort=8,https://www.tokopedia.com/sneakersof/page/2?sort=8
"ADIDAS QUESTAR RIDE FULLBLACK LIST WHITE ORIGINAL",https://www.tokopedia.com/sneakersof/adidas-questar-ride-fullblack-list-white-original?trkid=f%3DCa0000L000P0W0S0Sh00Co0Po0Fr0Cb0_src%3Dshop-product_page%3D1_ob%3D11_q%3D_po%3D31_catid%3D1845,390000,https://ecs7.tokopedia.net/img/cache/300-square/product-1/2018/12/20/3974875/3974875_4ec29f00-e7b4-425a-8fa0-25fef8cdfe2f_1280_1280.jpg,2?sort=8,https://www.tokopedia.com/sneakersof/page/2?sort=8
"AIDIDAS QUESTAR RIDE FULLBLACK ORIGINAL",https://www.tokopedia.com/sneakersof/aididas-questar-ride-fullblack-original?trkid=f%3DCa0000L000P0W0S0Sh00Co0Po0Fr0Cb0_src%3Dshop-product_page%3D1_ob%3D11_q%3D_po%3D32_catid%3D1845,350000,https://ecs7.tokopedia.net/img/cache/300-square/product-1/2018/12/20/3974875/3974875_097b4ec9-aa0c-4519-b234-9da9fe0a2818_1280_1280.jpg,2?sort=8,https://www.tokopedia.com/sneakersof/page/2?sort=8
"ADIDAS PUREMOTION BLACK ORIGINAL",https://www.tokopedia.com/sneakersof/adidas-puremotion-black-original?trkid=f%3DCa0000L000P0W0S0Sh00Co0Po0Fr0Cb0_src%3Dshop-product_page%3D1_ob%3D11_q%3D_po%3D33_catid%3D1845,320000,https://ecs7.tokopedia.net/img/cache/300-square/product-1/2018/12/20/3974875/3974875_fc27b05d-1ef9-4ced-80f4-fb8727b04d87_1080_1080.jpg,2?sort=8,https://www.tokopedia.com/sneakersof/page/2?sort=8
"ADIDAS PUREMOTION GREY ORIGINAL",https://www.tokopedia.com/sneakersof/adidas-puremotion-grey-original?trkid=f%3DCa0000L000P0W0S0Sh00Co0Po0Fr0Cb0_src%3Dshop-product_page%3D1_ob%3D11_q%3D_po%3D34_catid%3D1845,300000,https://ecs7.tokopedia.net/img/cache/300-square/product-1/2018/12/20/3974875/3974875_50d83d26-2d89-4d1f-8639-6312c49964a1_1080_1080.jpg,2?sort=8,https://www.tokopedia.com/sneakersof/page/2?sort=8
"ADIDAS QUESTAR RIDE CORE BLACK WHITE ORIGINAL",https://www.tokopedia.com/sneakersof/adidas-questar-ride-core-black-white-original?trkid=f%3DCa0000L000P0W0S0Sh00Co0Po0Fr0Cb0_src%3Dshop-product_page%3D1_ob%3D11_q%3D_po%3D35_catid%3D1845,390000,https://ecs7.tokopedia.net/img/cache/300-square/product-1/2018/12/20/3974875/3974875_fa1e36bb-0dad-4169-b6f9-ece9364df88f_1080_1080.jpg,2?sort=8,https://www.tokopedia.com/sneakersof/page/2?sort=8
"ADIDAS QUESTAR FLOW MAROON ORIGINAL",https://www.tokopedia.com/sneakersof/adidas-questar-flow-maroon-original?trkid=f%3DCa0000L000P0W0S0Sh00Co0Po0Fr0Cb0_src%3Dshop-product_page%3D1_ob%3D11_q%3D_po%3D36_catid%3D1845,390000,https://ecs7.tokopedia.net/img/cache/300-square/product-1/2018/12/20/3974875/3974875_1c9cae54-6d48-43a9-8413-e2acaa28adb8_1080_1080.jpg,2?sort=8,https://www.tokopedia.com/sneakersof/page/2?sort=8
"ADIDAS QUESTAR RIDE GREY LIST ORANGE SOLE GUM ORIGINAL",https://www.tokopedia.com/sneakersof/adidas-questar-ride-grey-list-orange-sole-gum-original?trkid=f%3DCa0000L000P0W0S0Sh00Co0Po0Fr0Cb0_src%3Dshop-product_page%3D1_ob%3D11_q%3D_po%3D37_catid%3D1845,390000,https://ecs7.tokopedia.net/img/cache/300-square/product-1/2018/12/20/3974875/3974875_e471c728-3dfe-4bc7-a45c-7e4aa90f6278_1280_1280.jpg,2?sort=8,https://www.tokopedia.com/sneakersof/page/2?sort=8
"ADIDAS QUESTAR RIDE BLACK LIST BLACK ORIGINAL",https://www.tokopedia.com/sneakersof/adidas-questar-ride-black-list-black-original?trkid=f%3DCa0000L000P0W0S0Sh00Co0Po0Fr0Cb0_src%3Dshop-product_page%3D1_ob%3D11_q%3D_po%3D38_catid%3D1845,390000,https://ecs7.tokopedia.net/img/cache/300-square/product-1/2018/12/20/3974875/3974875_b2bce5f4-31d4-4858-8e8a-6342c4452e0b_1280_1280.jpg,2?sort=8,https://www.tokopedia.com/sneakersof/page/2?sort=8
"ADIDAS LITE RACER FULLWHITE ORIGINAL",https://www.tokopedia.com/sneakersof/adidas-lite-racer-fullwhite-original?trkid=f%3DCa0000L000P0W0S0Sh00Co0Po0Fr0Cb0_src%3Dshop-product_page%3D1_ob%3D11_q%3D_po%3D39_catid%3D1845,330000,https://ecs7.tokopedia.net/img/cache/300-square/product-1/2018/12/11/3974875/3974875_7ddbd424-986e-42c3-88df-f8baa3debe6f_1280_1280.jpg,2?sort=8,https://www.tokopedia.com/sneakersof/page/2?sort=8
"NIKE TANJUN KHAKI GOLD ORIGINAL",https://www.tokopedia.com/sneakersof/nike-tanjun-khaki-gold-original?trkid=f%3DCa0000L000P0W0S0Sh00Co0Po0Fr0Cb0_src%3Dshop-product_page%3D1_ob%3D11_q%3D_po%3D40_catid%3D1845,330000,https://ecs7.tokopedia.net/img/cache/300-square/product-1/2018/12/11/3974875/3974875_9f1be34a-1ace-4d6c-9272-31c43f09cb63_1280_1280.jpg,2?sort=8,https://www.tokopedia.com/sneakersof/page/2?sort=8
"NIKE TANJUN GREEN GOLD ORIGINAL",https://www.tokopedia.com/sneakersof/nike-tanjun-green-gold-original?trkid=f%3DCa0000L000P0W0S0Sh00Co0Po0Fr0Cb0_src%3Dshop-product_page%3D1_ob%3D11_q%3D_po%3D41_catid%3D1845,330000,https://ecs7.tokopedia.net/img/cache/300-square/product-1/2018/12/11/3974875/3974875_64e36645-854c-4d31-a771-699c5b5c49a1_1280_1280.jpg,2?sort=8,https://www.tokopedia.com/sneakersof/page/2?sort=8
"ADIDAS QUESTAR FLOW RED ORANGE ORIGINAL",https://www.tokopedia.com/sneakersof/adidas-questar-flow-red-orange-original?trkid=f%3DCa0000L000P0W0S0Sh00Co0Po0Fr0Cb0_src%3Dshop-product_page%3D1_ob%3D11_q%3D_po%3D42_catid%3D1845,390000,https://ecs7.tokopedia.net/img/cache/300-square/product-1/2018/12/11/3974875/3974875_b70f392c-9a85-4282-8643-0fb0f18159ba_1080_1080.jpg,2?sort=8,https://www.tokopedia.com/sneakersof/page/2?sort=8
"ADIDAS QUESTAR FLOW MULTICOLOR ORIGINAL",https://www.tokopedia.com/sneakersof/adidas-questar-flow-multicolor-original?trkid=f%3DCa0000L000P0W0S0Sh00Co0Po0Fr0Cb0_src%3Dshop-product_page%3D1_ob%3D11_q%3D_po%3D43_catid%3D1845,390000,https://ecs7.tokopedia.net/img/cache/300-square/product-1/2018/12/11/3974875/3974875_7aef5fda-8139-4ad2-b560-58f444f14c87_1080_1080.jpg,2?sort=8,https://www.tokopedia.com/sneakersof/page/2?sort=8
"ADIDAS DURAMO 9 GREY BLACK ORIGINAL",https://www.tokopedia.com/sneakersof/adidas-duramo-9-grey-black-original?trkid=f%3DCa0000L000P0W0S0Sh00Co0Po0Fr0Cb0_src%3Dshop-product_page%3D1_ob%3D11_q%3D_po%3D44_catid%3D1845,400000,https://ecs7.tokopedia.net/img/cache/300-square/product-1/2018/12/11/3974875/3974875_7063e0aa-97de-4dac-8db9-3c5c31895ef7_1280_1280.jpg,2?sort=8,https://www.tokopedia.com/sneakersof/page/2?sort=8
"ADIDAS QUESTAR RIDE FULLWHITE SOLE GUM ORIGINAL",https://www.tokopedia.com/sneakersof/adidas-questar-ride-fullwhite-sole-gum-original?trkid=f%3DCa0000L000P0W0S0Sh00Co0Po0Fr0Cb0_src%3Dshop-product_page%3D1_ob%3D11_q%3D_po%3D45_catid%3D1845,390000,https://ecs7.tokopedia.net/img/cache/300-square/product-1/2018/12/8/3974875/3974875_bd83228d-7824-4583-b17e-be3303a36271_1280_1280.jpg,2?sort=8,https://www.tokopedia.com/sneakersof/page/2?sort=8
"ADIDAS QUESTAR RIDE MAROON SOLE ORNAGE ORIGINAL",https://www.tokopedia.com/sneakersof/adidas-questar-ride-maroon-sole-ornage-original?trkid=f%3DCa0000L000P0W0S0Sh00Co0Po0Fr0Cb0_src%3Dshop-product_page%3D1_ob%3D11_q%3D_po%3D46_catid%3D1845,390000,https://ecs7.tokopedia.net/img/cache/300-square/product-1/2018/12/8/3974875/3974875_556c2114-653b-48f4-bc76-73a6471ce16a_1280_1280.jpg,2?sort=8,https://www.tokopedia.com/sneakersof/page/2?sort=8
"ADIDAS DURAMO 9 GREY ORIGINAL",https://www.tokopedia.com/sneakersof/adidas-duramo-9-grey-original?trkid=f%3DCa0000L000P0W0S0Sh00Co0Po0Fr0Cb0_src%3Dshop-product_page%3D1_ob%3D11_q%3D_po%3D47_catid%3D1845,580000,https://ecs7.tokopedia.net/img/cache/300-square/product-1/2018/12/3/3974875/3974875_f42e33da-0ccf-4adc-a00b-665e36379870_1080_1080.jpg,2?sort=8,https://www.tokopedia.com/sneakersof/page/2?sort=8
"ADIDAS DURAMO 9 BLACK MOTIF ORIGINAL",https://www.tokopedia.com/sneakersof/adidas-duramo-9-black-motif-original?trkid=f%3DCa0000L000P0W0S0Sh00Co0Po0Fr0Cb0_src%3Dshop-product_page%3D1_ob%3D11_q%3D_po%3D48_catid%3D1845,580000,https://ecs7.tokopedia.net/img/cache/300-square/product-1/2018/12/3/3974875/3974875_6e424cd3-98b0-4a17-999d-72bacc515a10_1080_1080.jpg,2?sort=8,https://www.tokopedia.com/sneakersof/page/2?sort=8
"ADIDAS DURAMO 9 RED LIST BLACK ORIGINAL",https://www.tokopedia.com/sneakersof/adidas-duramo-9-red-list-black-original?trkid=f%3DCa0000L000P0W0S0Sh00Co0Po0Fr0Cb0_src%3Dshop-product_page%3D1_ob%3D11_q%3D_po%3D49_catid%3D1845,580000,https://ecs7.tokopedia.net/img/cache/300-square/product-1/2018/12/3/3974875/3974875_26696f9e-5739-4339-90bf-c693936847e0_1080_1080.jpg,2?sort=8,https://www.tokopedia.com/sneakersof/page/2?sort=8
"ADIDAS QUESTAR FLOW ALLWHITE ORIGINAL",https://www.tokopedia.com/sneakersof/adidas-questar-flow-allwhite-original?trkid=f%3DCa0000L000P0W0S0Sh00Co0Po0Fr0Cb0_src%3Dshop-product_page%3D1_ob%3D11_q%3D_po%3D50_catid%3D1845,390000,https://ecs7.tokopedia.net/img/cache/300-square/product-1/2018/12/3/3974875/3974875_56fd5f34-f7ac-4058-8f5e-9bd5cb1670b6_1280_1280.jpg,2?sort=8,https://www.tokopedia.com/sneakersof/page/2?sort=8
"ADIDAS CITY RACER BLACK MOTIF ORIGINAL",https://www.tokopedia.com/sneakersof/adidas-city-racer-black-motif-original?trkid=f%3DCa0000L000P0W0S0Sh00Co0Po0Fr0Cb0_src%3Dshop-product_page%3D1_ob%3D11_q%3D_po%3D51_catid%3D1845,290000,https://ecs7.tokopedia.net/img/cache/300-square/product-1/2018/12/3/3974875/3974875_ec7b2a1d-155e-4d7e-834a-36693834e9d7_1280_1280.jpg,2?sort=8,https://www.tokopedia.com/sneakersof/page/2?sort=8
"ADIDAS QUESTAR RIDE NAVY ORIGINAL",https://www.tokopedia.com/sneakersof/adidas-questar-ride-navy-original?trkid=f%3DCa0000L000P0W0S0Sh00Co0Po0Fr0Cb0_src%3Dshop-product_page%3D1_ob%3D11_q%3D_po%3D52_catid%3D1845,390000,https://ecs7.tokopedia.net/img/cache/300-square/product-1/2018/11/26/3974875/3974875_59e116f4-efc7-4516-a3d3-95605f49549a_1280_1280.jpg,2?sort=8,https://www.tokopedia.com/sneakersof/page/2?sort=8
"ADIDAS QUESTAR RIDE FULLWHITE ORIGINAL",https://www.tokopedia.com/sneakersof/adidas-questar-ride-fullwhite-original?trkid=f%3DCa0000L000P0W0S0Sh00Co0Po0Fr0Cb0_src%3Dshop-product_page%3D1_ob%3D11_q%3D_po%3D53_catid%3D1845,390000,https://ecs7.tokopedia.net/img/cache/300-square/product-1/2018/11/26/3974875/3974875_6dbfff69-b374-40e0-911b-913cb43cda73_1080_1080.jpg,2?sort=8,https://www.tokopedia.com/sneakersof/page/2?sort=8
"ADIDAS GAZELLE WHITE LIST PINK ORIGINAL",https://www.tokopedia.com/sneakersof/adidas-gazelle-white-list-pink-original?trkid=f%3DCa0000L000P0W0S0Sh00Co0Po0Fr0Cb0_src%3Dshop-product_page%3D1_ob%3D11_q%3D_po%3D54_catid%3D1908,399000,https://ecs7.tokopedia.net/img/cache/300-square/product-1/2018/11/20/3974875/3974875_40125c99-0f87-4832-a868-a4707a869fc6_1080_1080.jpg,2?sort=8,https://www.tokopedia.com/sneakersof/page/2?sort=8
"ADIDAS QUESTAR FLOW CORE BLACK ORIGINAL",https://www.tokopedia.com/sneakersof/adidas-questar-flow-core-black-original?trkid=f%3DCa0000L000P0W0S0Sh00Co0Po0Fr0Cb0_src%3Dshop-product_page%3D1_ob%3D11_q%3D_po%3D55_catid%3D1845,390000,https://ecs7.tokopedia.net/img/cache/300-square/product-1/2018/11/20/3974875/3974875_6cee9f25-01d9-40f3-90fa-89e3b692d50c_1080_1080.jpg,2?sort=8,https://www.tokopedia.com/sneakersof/page/2?sort=8
"ADIDAS QUESTAR FLOW PEACH WHITE ORIGINAL",https://www.tokopedia.com/sneakersof/adidas-questar-flow-peach-white-original?trkid=f%3DCa0000L000P0W0S0Sh00Co0Po0Fr0Cb0_src%3Dshop-product_page%3D1_ob%3D11_q%3D_po%3D56_catid%3D1908,390000,https://ecs7.tokopedia.net/img/cache/300-square/product-1/2018/11/20/3974875/3974875_47a3eea3-874e-4d1f-ba43-21fa92534b1d_1280_1280.jpg,2?sort=8,https://www.tokopedia.com/sneakersof/page/2?sort=8
"ADIDAS QUESTAR FLOW WHITE CORE BLACK ORIGINAL",https://www.tokopedia.com/sneakersof/adidas-questar-flow-white-core-black-original?trkid=f%3DCa0000L000P0W0S0Sh00Co0Po0Fr0Cb0_src%3Dshop-product_page%3D1_ob%3D11_q%3D_po%3D57_catid%3D1845,390000,https://ecs7.tokopedia.net/img/cache/300-square/product-1/2018/11/17/3974875/3974875_a1fd2272-d5bf-4dd8-91fc-01a738d84368_1280_1280.jpg,2?sort=8,https://www.tokopedia.com/sneakersof/page/2?sort=8
"ADIDAS QUESTAR FLOW BLACK PINK ORIGINAL",https://www.tokopedia.com/sneakersof/adidas-questar-flow-black-pink-original?trkid=f%3DCa0000L000P0W0S0Sh00Co0Po0Fr0Cb0_src%3Dshop-product_page%3D1_ob%3D11_q%3D_po%3D58_catid%3D1908,390000,https://ecs7.tokopedia.net/img/cache/300-square/product-1/2018/11/17/3974875/3974875_bbe10977-3f76-45bd-b815-ec00990ecf4a_1280_1280.jpg,2?sort=8,https://www.tokopedia.com/sneakersof/page/2?sort=8
"ADIDAS LITE RACER GEOGRAPICH CAMOUFLAG ORIGINAL",https://www.tokopedia.com/sneakersof/adidas-lite-racer-geograpich-camouflag-original?trkid=f%3DCa0000L000P0W0S0Sh00Co0Po0Fr0Cb0_src%3Dshop-product_page%3D1_ob%3D11_q%3D_po%3D59_catid%3D1845,330000,https://ecs7.tokopedia.net/img/cache/300-square/product-1/2018/11/14/3974875/3974875_499d6285-79d1-4cf2-8faa-3078fee0cd79_1280_1280.jpg,2?sort=8,https://www.tokopedia.com/sneakersof/page/2?sort=8
"ADIDAS LITE RACER BLACK MULTICOLOR ORIGINAL",https://www.tokopedia.com/sneakersof/adidas-lite-racer-black-multicolor-original?trkid=f%3DCa0000L000P0W0S0Sh00Co0Po0Fr0Cb0_src%3Dshop-product_page%3D1_ob%3D11_q%3D_po%3D60_catid%3D1845,299000,https://ecs7.tokopedia.net/img/cache/300-square/product-1/2018/11/14/3974875/3974875_df33275a-afbf-44c5-9cb9-bf8f649fc755_720_720.jpg,2?sort=8,https://www.tokopedia.com/sneakersof/page/2?sort=8
"ADIDAS SWIFT RUN WHITE GOLD ORIGINAL",https://www.tokopedia.com/sneakersof/adidas-swift-run-white-gold-original?trkid=f%3DCa0000L000P0W0S0Sh00Co0Po0Fr0Cb0_src%3Dshop-product_page%3D1_ob%3D11_q%3D_po%3D61_catid%3D1908,370000,https://ecs7.tokopedia.net/img/cache/300-square/product-1/2018/11/14/3974875/3974875_40b9db02-b7d4-4964-a181-9edbb794a60f_1280_1280.jpg,2?sort=8,https://www.tokopedia.com/sneakersof/page/2?sort=8
"ADIDAS SWIFT RUN MAROON ORIGINAL",https://www.tokopedia.com/sneakersof/adidas-swift-run-maroon-original?trkid=f%3DCa0000L000P0W0S0Sh00Co0Po0Fr0Cb0_src%3Dshop-product_page%3D1_ob%3D11_q%3D_po%3D62_catid%3D1845,370000,https://ecs7.tokopedia.net/img/cache/300-square/product-1/2018/11/17/360627790/360627790_4d4533ec-0f42-4b51-8648-67ce417e3c99_1280_1280.jpg,2?sort=8,https://www.tokopedia.com/sneakersof/page/2?sort=8
"ADIDAS QUESTAR FLOW BLACK WHITE ORIGINAL",https://www.tokopedia.com/sneakersof/adidas-questar-flow-black-white-original?trkid=f%3DCa0000L000P0W0S0Sh00Co0Po0Fr0Cb0_src%3Dshop-product_page%3D1_ob%3D11_q%3D_po%3D63_catid%3D1845,390000,https://ecs7.tokopedia.net/img/cache/300-square/product-1/2018/11/14/3974875/3974875_72002111-1993-47b9-a1ca-55086273c4b5_1280_1280.jpg,2?sort=8,https://www.tokopedia.com/sneakersof/page/2?sort=8
"ADIDAS QUESTAR FLOW WHITE BLACK ORIGINAL",https://www.tokopedia.com/sneakersof/adidas-questar-flow-white-black-original?trkid=f%3DCa0000L000P0W0S0Sh00Co0Po0Fr0Cb0_src%3Dshop-product_page%3D1_ob%3D11_q%3D_po%3D64_catid%3D1845,390000,https://ecs7.tokopedia.net/img/cache/300-square/product-1/2018/11/14/3974875/3974875_077e0288-26a3-442b-975d-13bca95ed69f_1280_1280.jpg,2?sort=8,https://www.tokopedia.com/sneakersof/page/2?sort=8
"SEPATU ADIDAS SLIP ON REFINE ADAPT NAVY ORIGINAL",https://www.tokopedia.com/sneakersof/sepatu-adidas-slip-on-refine-adapt-navy-original?trkid=f%3DCa0000L000P0W0S0Sh00Co0Po0Fr0Cb0_src%3Dshop-product_page%3D1_ob%3D11_q%3D_po%3D65_catid%3D1909,299000,https://ecs7.tokopedia.net/img/cache/300-square/product-1/2018/11/7/3974875/3974875_a56fe076-7fb8-4cb0-ae13-2d1cc2d93540_700_700.jpg,2?sort=8,https://www.tokopedia.com/sneakersof/page/2?sort=8
"SEPATU ADIDAS SLIP ON REFINE ADAPT ICE BLUE ORIGINAL",https://www.tokopedia.com/sneakersof/sepatu-adidas-slip-on-refine-adapt-ice-blue-original?trkid=f%3DCa0000L000P0W0S0Sh00Co0Po0Fr0Cb0_src%3Dshop-product_page%3D1_ob%3D11_q%3D_po%3D66_catid%3D1909,299000,https://ecs7.tokopedia.net/img/cache/300-square/product-1/2018/11/7/3974875/3974875_cc0b1c5a-9d42-4669-8b2f-6b6bb291172b_700_700.jpg,2?sort=8,https://www.tokopedia.com/sneakersof/page/2?sort=8
"SEPATU ADIDAS SLIP ON REFINE BLACK WHITE ORIGINAL",https://www.tokopedia.com/sneakersof/sepatu-adidas-slip-on-refine-black-white-original?trkid=f%3DCa0000L000P0W0S0Sh00Co0Po0Fr0Cb0_src%3Dshop-product_page%3D1_ob%3D11_q%3D_po%3D67_catid%3D1846,299000,https://ecs7.tokopedia.net/img/cache/300-square/product-1/2018/11/7/3974875/3974875_16bbbd6e-86b1-4d68-82e8-a10dda974648_1280_1280.jpg,2?sort=8,https://www.tokopedia.com/sneakersof/page/2?sort=8
"ADIDAS SLIP ON ADAPT PEACH ORIGINAL",https://www.tokopedia.com/sneakersof/adidas-slip-on-adapt-peach-original?trkid=f%3DCa0000L000P0W0S0Sh00Co0Po0Fr0Cb0_src%3Dshop-product_page%3D1_ob%3D11_q%3D_po%3D68_catid%3D1909,299000,https://ecs7.tokopedia.net/img/cache/300-square/product-1/2018/11/7/3974875/3974875_781e373a-a0b0-489b-b3d4-867e891c6794_1080_1080.jpg,2?sort=8,https://www.tokopedia.com/sneakersof/page/2?sort=8
"NIKE TANJUN GREY WHITE ORIGINAL",https://www.tokopedia.com/sneakersof/nike-tanjun-grey-white-original?trkid=f%3DCa0000L000P0W0S0Sh00Co0Po0Fr0Cb0_src%3Dshop-product_page%3D1_ob%3D11_q%3D_po%3D69_catid%3D1845,330000,https://ecs7.tokopedia.net/img/cache/300-square/product-1/2018/10/31/3974875/3974875_438d4ef1-f443-4328-9e16-6bcf1ba28de4_1280_1280.jpg,2?sort=8,https://www.tokopedia.com/sneakersof/page/2?sort=8
"NIKE CORTEZ XLV NYILON BLACK ORIGINAL",https://www.tokopedia.com/sneakersof/nike-cortez-xlv-nyilon-black-original?trkid=f%3DCa0000L000P0W0S0Sh00Co0Po0Fr0Cb0_src%3Dshop-product_page%3D1_ob%3D11_q%3D_po%3D70_catid%3D1845,800000,https://ecs7.tokopedia.net/img/cache/300-square/product-1/2018/10/31/3974875/3974875_4468070d-795d-40c2-8fd2-ca7c9ecac563_712_712.jpg,2?sort=8,https://www.tokopedia.com/sneakersof/page/2?sort=8
"ADIDAS SWIFT RUN GREY LIST BLACK ORIGINAL",https://www.tokopedia.com/sneakersof/adidas-swift-run-grey-list-black-original?trkid=f%3DCa0000L000P0W0S0Sh00Co0Po0Fr0Cb0_src%3Dshop-product_page%3D1_ob%3D11_q%3D_po%3D71_catid%3D1845,370000,https://ecs7.tokopedia.net/img/cache/300-square/product-1/2018/10/31/3974875/3974875_17e501c2-38e8-4fb3-957e-5bf5991c9673_600_600.jpg,2?sort=8,https://www.tokopedia.com/sneakersof/page/2?sort=8
"ADIDAS QUESTAR RIDE MULTICOLOR ORIGINAL",https://www.tokopedia.com/sneakersof/adidas-questar-ride-multicolor-original?trkid=f%3DCa0000L000P0W0S0Sh00Co0Po0Fr0Cb0_src%3Dshop-product_page%3D1_ob%3D11_q%3D_po%3D72_catid%3D1845,390000,https://ecs7.tokopedia.net/img/cache/300-square/product-1/2018/10/31/3974875/3974875_b0e591c4-b39a-47a3-b392-6105a7dea950_700_700.jpg,2?sort=8,https://www.tokopedia.com/sneakersof/page/2?sort=8
"SEPATU ADIDAS LITE RACER TRACE OLIVE ORIGINAL",https://www.tokopedia.com/sneakersof/sepatu-adidas-lite-racer-trace-olive-original?trkid=f%3DCa0000L000P0W0S0Sh00Co0Po0Fr0Cb0_src%3Dshop-product_page%3D1_ob%3D11_q%3D_po%3D73_catid%3D1845,350000,https://ecs7.tokopedia.net/img/cache/300-square/product-1/2018/10/27/3974875/3974875_1eb4e9bb-f969-4ce7-8be4-95f706993043_1280_1280.jpg,2?sort=8,https://www.tokopedia.com/sneakersof/page/2?sort=8
"ADIDAS LITE RACER GREY PEACH ORIGINAL",https://www.tokopedia.com/sneakersof/adidas-lite-racer-grey-peach-original?trkid=f%3DCa0000L000P0W0S0Sh00Co0Po0Fr0Cb0_src%3Dshop-product_page%3D1_ob%3D11_q%3D_po%3D74_catid%3D1908,299000,https://ecs7.tokopedia.net/img/cache/300-square/product-1/2018/10/27/3974875/3974875_33b0b8df-7be6-43d6-a766-aefefa73900f_1080_1080.jpg,2?sort=8,https://www.tokopedia.com/sneakersof/page/2?sort=8
"SEPATU ADIDAS SWIFT RUN NAVY ORIGINAL",https://www.tokopedia.com/sneakersof/sepatu-adidas-swift-run-navy-original?trkid=f%3DCa0000L000P0W0S0Sh00Co0Po0Fr0Cb0_src%3Dshop-product_page%3D1_ob%3D11_q%3D_po%3D75_catid%3D1845,370000,https://ecs7.tokopedia.net/img/cache/300-square/product-1/2018/10/27/3974875/3974875_55d0231e-f722-4176-88b9-38706ed85c5c_1280_1280.jpg,2?sort=8,https://www.tokopedia.com/sneakersof/page/2?sort=8
"ADIDAS QUESTAR RIDE FLOW FULLBLACK ORIGINAL",https://www.tokopedia.com/sneakersof/adidas-questar-ride-flow-fullblack-original?trkid=f%3DCa0000L000P0W0S0Sh00Co0Po0Fr0Cb0_src%3Dshop-product_page%3D1_ob%3D11_q%3D_po%3D76_catid%3D1845,390000,https://ecs7.tokopedia.net/img/cache/300-square/product-1/2018/10/24/3974875/3974875_1b1a0e33-5e3d-4298-aa5a-c23c15f5aecf_1280_1280.jpg,2?sort=8,https://www.tokopedia.com/sneakersof/page/2?sort=8
"ADIDAS SWIFT RUN FULLBLACK ORIGINAL",https://www.tokopedia.com/sneakersof/adidas-swift-run-fullblack-original?trkid=f%3DCa0000L000P0W0S0Sh00Co0Po0Fr0Cb0_src%3Dshop-product_page%3D1_ob%3D11_q%3D_po%3D77_catid%3D1845,370000,https://ecs7.tokopedia.net/img/cache/300-square/product-1/2018/10/24/3974875/3974875_d7486285-21be-4c25-b9ae-87baf5d5c067_1280_1280.jpg,2?sort=8,https://www.tokopedia.com/sneakersof/page/2?sort=8
"ADIDAS SWIFT RUN BLACK BLACK WHITE ORIGINAL",https://www.tokopedia.com/sneakersof/adidas-swift-run-black-black-white-original?trkid=f%3DCa0000L000P0W0S0Sh00Co0Po0Fr0Cb0_src%3Dshop-product_page%3D1_ob%3D11_q%3D_po%3D78_catid%3D1845,370000,https://ecs7.tokopedia.net/img/cache/300-square/product-1/2018/10/24/3974875/3974875_2e0609b3-da73-4be8-9f47-53c534012a0a_700_700.jpg,2?sort=8,https://www.tokopedia.com/sneakersof/page/2?sort=8
"ADIDAS SWIFT RUN FULL WHITE ORIGINAL",https://www.tokopedia.com/sneakersof/adidas-swift-run-full-white-original?trkid=f%3DCa0000L000P0W0S0Sh00Co0Po0Fr0Cb0_src%3Dshop-product_page%3D1_ob%3D11_q%3D_po%3D79_catid%3D1845,370000,https://ecs7.tokopedia.net/img/cache/300-square/product-1/2018/10/24/3974875/3974875_39f4ed27-b4ff-4e13-8fe3-7e55e51a1774_700_700.jpg,2?sort=8,https://www.tokopedia.com/sneakersof/page/2?sort=8
"ADIDAS SWIFT RUN GOLD BLACK ORIGINAL",https://www.tokopedia.com/sneakersof/adidas-swift-run-gold-black-original?trkid=f%3DCa0000L000P0W0S0Sh00Co0Po0Fr0Cb0_src%3Dshop-product_page%3D1_ob%3D11_q%3D_po%3D80_catid%3D1845,370000,https://ecs7.tokopedia.net/img/cache/300-square/product-1/2018/10/24/3974875/3974875_b6129604-3324-479b-a739-2f63655203e2_700_700.jpg,2?sort=8,https://www.tokopedia.com/sneakersof/page/2?sort=8
