Userid,Username,Fullname
5231760403,mamahmbie,"Mamah Mbie"
5529631895,gitasari7685,gitasari
2000751529,thania_panjaitan96,"Thania Panjaitan"
4304834999,nasution.alif,"Alif Nasution"
4770141485,putritasyarahmadhani,"desi kurniasari"
2058881834,ayoe_kayla,"Ayoe kayla salsabilla annazwa"
6650710769,soekopi_,
7182052331,indri.indriyani19,"Indri indriyani"
3159810195,montenegromon,"Montenegro Mon"
1563519973,natasya_dyah,"Natasya Dyah Puspitasari"
1914281353,niniszainal,NZ
4528487943,rhezty_arkha_hermawan,"rhezty arkha hermawan"
3471167188,hera_rj,"Hera jsm"
1569171990,herlin_dian,herlindian#26
3957642082,sri_nabilagwen,"srimulyati256@gmail. com"
205826785,uhs_montox,"Ury Shinta"
7699695294,te_marika__,Te_Marika_
628030966,dianputriamelia_,"Dian Putri Amelia"
1736722416,yus_diputra,"Yus Paidi Nanan Diputra"
3090127346,sahranraden0974,
1284858756,uchulldt,uchulldt
2601867622,icha_sahbana,"Icha Anisa"
6095994506,esinzara8,"SShop 👕👖👗🎒👜👟👠👡👢👒💄"
5727437888,cikk_diana98,"30.10.1998 🐯"
3756615205,ivonlado,"Ivon Lado"
355624466,romeo_rulyss,❤❤❤
4073535939,mama_sofia_zaky,"anita turisia"
6649091876,tiens.pedia06,"PROMO TIENS MURAH"
785671361,ciemonkqoe,ciemonk
4876075568,bebynyu,Fiyahowew
2989272547,sri_salon_,sri_salon
3262478345,bety0623,"bety putri Ragiel"
4155209591,gracedwiutariyani,"Grace Yani"
1709901819,rafael.pro_id,Rafael
6208028678,rohaeti_dede,"Dede R"
3056330207,sarinah_binti_mt.ari,"Sarinah Ina"
1904503078,wulan_sucikhadariani,wulansucikhadariani
3313459487,selvia_haryani_tuna_rungu_74,"Selvia haryani"
3166281234,genkslank,GenkSlank
3156383330,nyonya_mega,"Winandar 😇😇"
1566153390,edw_ricard_huer_amez,edw🏁⛽
1659121418,turbananak.sby,umbae_kids
1198661848,tanaoke_wu,"Tanaoke Wu"
4037028361,ristyfashionshop,"Risty Fashionshop"
4242299170,hastiniyuni,"yuni hastini"
6442338606,soviyantipurba,"Soviyanti Purba"
5375601562,sudiashaputu,sudiasa
534381610,aguseka542,"Agus Eka"
2063084905,dharmasoetjipto10,"dharma soetjipto10"
3538339607,silvia_sumbogoo,"E S"
4484684226,triananirasanti,"Ambu OziL"
3306737818,rafiyspeed,Rafiy
1277339309,azhari_assegafi,"Azhari Assegafi"
1597002652,soundsofcantata,"Sounds Of Cantata"
4515413476,nursucijulitakawarmala76,🌹🌹🌹🌹🌹
5392617862,elisa.perwita,"beby iradath"
4075302953,bachtiarsubhan03,"📷 BachtiarSubhan 📷"
2043859420,syaikhu_jaseen,"Made Syaikhu Yasin"
4649167898,diah.arisuryani,"diah ari suryani"
3063338226,hanifatur_rahmah,"Hanif Rahma"
3248951414,zuheldanani,"Nazwa Onlineshop"
6172650073,srimulyaningsih1616,"rania tas yg paling kuat"
1422784316,vey_juwita,"Vety Rieke juwita"
5648579584,wawin_gagulu,"Win Ce Tegar"
5551239272,fajarcollectionstore,"Fajar Collection Store"
3505135142,susiabinpgzr,"i love abin gazara"
6314539008,adimhafizento,adimhafizenton900@gmail.com
6752941940,riethaajjah,"itha ajjah"
5358971017,mukti_2019,mukti
4840122751,mahkota_pengantin_shop,"Mahkota Pengantin Shop"
2838213840,diana.syaputri,Diana
4824790026,dachriedasim,"Dachrie Dasim"
4775326045,dya.franz,&iAtienyfranz
4484725700,shivanz._x,"Shiva Nayla Zahra"
1965762323,reny_nayla09,"reny assyifa amalia adrianto"
1747233336,dinni_kawaii,"dinni kawaii"
4089922404,anyshoeswoman,"sepatu wanita import"
4737552440,mustikalaras_03,"Mustika Laras"
5901797448,jiva_hasna,"Jiva Hasna Kamila"
4546137247,meilyanurularwani,Meawenk
6150120214,jaka.hidayat.33,"Jaka Hidayat"
257507820,rifansapta_phnutrition,"rifan sapta muharam"
2225253094,anakgundu,"ANAKYAYOI BATCH 1"
1594422188,janpin.malau,Janpin
6747036092,nnsyfqa,NurSyfqazamre🕊
5414670159,herma_saras,"herma saras wati 💃💃"
3004431389,hastuti_surent,t-rel-v
6932396086,resagemblong,"Resa Gemblong"
2994822037,vanesaangek,muh.Rasul
3955082843,bagoezprabowo,"Bagoez Prabowo"
5396515542,mank_apriliani,"Komang April"
1732934607,jessica_benytha,"Jessica Collection"
2053521668,nana_handoko,NanaHandoko1414
3420697926,ciremaibordir,"Ciremai Bordir"
5500740939,astuti2663,"Lina Astuti"
7173473095,yunia79722018,🐈yuniriandre🐆
3235149113,idesh_anggalovers,idesh_anggalovers
6551025848,sodiq.jaelani,"Sodiq Jaelani"
4294321021,firli_bunga_aprillia,"Lia Bunga Auliaa"
5771872154,dedenriza,"Deden Riza"
4953602085,markaban7817,markaban
1599431632,mayamalisa,"🎓 Bachelor Of Economic Unsyiah"
811112685,niken_bunga801,"michaelle sheren yee loon chai"
2889639313,iramaya_autama,"Ira Maya Autama"
4669524059,reynaldonazara,"Reynal naz"
2233115353,pytter_zebua,"Pytter Zeb"
3079326765,oki_fadhil23,"Oki Fadhil Setiawan"
6693273999,nazwa2698,nazwa
4150127062,leniimelda,"leni imelda lubis"
5766922696,samanashooh,Abdollah
5569797755,pipihaissyah,
5689842593,giyo.giyo.127,Giyo
2097112134,alam_rudraksha,"Alam Rudraksha"
4133814640,yanayuhu,"Yana Cie bhnoe"
2281377416,serlindun,"Serli Ndun"
5052479660,kiranazulkarnaen,"Miss Chandra"
2150772180,boedysantaca,"Boedy Santaca"
1475851873,aditiya.riyadii,aditiya
5509025967,buhanumcilacap22,buhanung
7168363932,ismayanti2907,ismayanti2907
1715608477,caruniarizqiisdwianawati,"Nia olshop"
3011144400,arasely.belle,"Arasely Salsabella Mashela Adi"
1611573338,rosy_kurniawan,"rosy kurniawan"
7700262932,batrotin,"Bat Rotin"
1544880579,cecil_balun,
5927444985,acheff33,A'cheff33
3512434586,hany_shaamsyon,"Key Hany Ismi"
3594940218,chaterinesimorangkir,Catherine.A.Simorangkir
7586920012,widhyae_,"그의 아내는 정국이다."
4185835759,elvhynbosco,"Elvhyn Bosco"
2244014962,pritlok3,pritlok
4114478273,marchtyas,"😘 marchtyas chornelys myking 😘"
1692759418,syifaduriankupas,"KING DURIAN JAKARTA || SYIFA"
1696556611,elis_fachria,"Elis Fachria"
1523890395,rieyz_jess,"Rieyz Jess"
1981412274,devirahmawati2695,"Devirahma makeup"
5666828241,dedaygeulizthea,ma'Vilwa
6632233890,silvia_nugraha_real,"silvia kitty"
3543865713,yawz79,yawz79
2192279419,indahsalonpuspa,"indah puspasari..Nabire-Papua"
4269414199,simarmata_tenti,"Simarmata Tenti"
4322123165,nuraeni8379,"Eva Nuraeni"
1244299948,rochmanmaulana,Arrochman
2102714568,fithri_ummu_farras,"fitri agustina"
6441902433,65_ffo,"سبحان الله وبحمده"
4317449368,snowhit3_,
4061626358,oktarinisaryanti,"oktarini saryanti"
4334636134,rifkiakbar890,"Ikky CemonG"
615183319,moiidgg,morryn
5902801889,mr.obeth_secondshoes,"Obeth Totto"
5463839923,andi.kurniawan.medik87,"Andi Saputra"
3895128664,umyshakila,"🌺BG-Shop leather🌺"
1598449794,tycha_damanick,"tycha_ damanick"
6646992258,zulfiidasarifah5988,zulfiidasarifah
5818871845,endangwerdeningsih1704,"endang werdeningsih"
6950209845,indahfatmawat105,"indah fatmawati"
2115735498,nabiltambengi,BIL
6567211091,irwan3538,"Irwan Syah"
7167649910,lufia03,@lufia~dwi03
4035079008,adzamakeysa,"AdzamaKeysa Adzamakeysa"
5489622894,anggunsigra,"Anggun Sigra"
5457213491,javaskosmetik_sumedang,"Javas kosmetik"
3142906683,weningcahya30,"Wening Cahya Puspita Ningrum 🦄"
1928174302,milaagustina14,"Mila Agustina"
2079062461,umiladiyah,UmiLaDiyah
4475780788,zeinab_daliran,zeinab_daliran
4681919031,muhajirsolissa,"Muhajir Solissa"
7604396197,aksangarut,"aksan garut"
3300489219,elharizmank,AisyahFarhana
5371083928,liani_anet,liani_anet
6275162603,iswantopakde,"pakde iswanto"
3927880896,milivan_0509,"Nou mealdey"
7249762153,ai_sahira.ira,Sahira
1526676390,rose_pudanz_juntaks,"Rosenti simanjuntak"
6675538169,ivha0102,latifa
1356128775,adeputris,adeputri
2233284804,manullangmelialilis,"Melialilis Manullang"
4511787851,keduntoliv,"Kedunt Oliv"
3937959334,hajrya1515,Hajrya
4447460073,ada_bayanganmu,"Ada Bayanganmu"
2006252797,mirah_sanoto11_dimcheller,"mirah sanoto"
4967467312,leunto,"Leunto Kachang Ijho"
4366427347,m.m.o1996,"مصمم فيدوهات"
3018550428,khaykhay85,"khaykhay 85"
4265401327,baksotetelanh.ismail,"BAKSO TETELAN H. ISMAIL"
4315092023,antonroles,"Anton roles"
5824126583,aprilia_m.e.l_11,"aprillia m.e.l"
7151398926,nenengnovita_05,Nenengnovita_05
4188462556,yulisuhana,"Hana Henna Lamongan"
6769614855,eyvainerens,"eyvairens  JOHN LEESA"
4864097807,ismatul_ralova,Ismatul_ralova
4570615642,mishjuliana,"Mish Juliana"
3814992602,nokie_aristya_siska,"Siska Hidayat Putri"
3066344505,sudip1349,"Sudip Acharjee"
4229540559,dulis_sn,"Dulis siti nurjanah"
551766505,mustikaratu85,"Muz TQa Cty"
8362889194,rusni_volcom,"Rusni "" volcom."
4558274148,destiana_sallsabilla,salsabila3107
3577065518,reayafashion,"Defni febriani"
2997194634,feri_dom,"Ferie De Ledo"
4091076317,bang_junacikaso,"bang juna cikaso"
2340750424,alanyuan1302,"Alan Yuan"
5340935610,imaswati_klinkshop,imaswati_klinkshop
4046091939,faizisab007,"faizan malik"
4557074867,cichapungki21,"cicha pungki"
5724849626,syifa1976,"syifa aulia"
1910703381,fadlizr,"Fadli zr"
3019928806,ahmadbalido,"Ahmad Balido"
4713124265,sablonplastikbali,"Sablon Plastik & Bag Bali"
6117144151,devie_pakek_v,Devieka💕
3627983949,nanadhiana1800,"Nana dhiana"
5337408544,rena_retnawati,rena
6015865711,alya_3d_steamboat,"Alya 3D Steamboat"
3485162047,ingridamitruleviciene9,ingridamitruleviciene
4781200869,nuer919,"Nur Fadilah"
5819336411,adencalabay,"Aden Calabay"
3494512924,maizatunnajwa,Mai
2957095367,kartika5461,"Kartika Sari"
2237959367,nithaarddian,nithaarddian
2265262318,noniaa92,"Oh Ha-nia"
5541510880,rohayaty_i,Rohayati
4227641893,triligita,Alviotriligita
3176134290,ikha_ristawaty,"Ikha Ristawaty"
5505741296,fitrizahra112,teavitri
1931926058,siswantoeko93,"Eko Siswanto"
4546638158,mila_franciska,"sisca ◾ DropnShop"
4118590814,riia_taa,"รักคุณ พ่อแม่💓Panda cute💋❤"
4527451707,agmegaa,"M E G A A G U S T I N"
5740746834,mayelzuhri,MayElzuhri
1481495889,siskaherwinda,siskaherwinda
5648712461,suzan_anawaruu,Suzann
4807189566,erliyanti_8897_nirwana,"Erly Depy Yanti"
4250312738,yen.vft,"예니 비비안 파이 빌라 티 와우🐨"
3186533463,sundari_kersana,sundharii2518
2303990898,anaknyamisti,
3976438015,elly_jitet,ellyNK
4022052878,dhunijuliani,"Dhini Juliani"
6759707281,susyalahkam,"susy Al-Ahkam"
2024592772,rudifajaralam,"rudi fajar nur alam"
4004133867,sithaeliasyah534,"Angel Queen"
5687816713,liendha_sharry4737,Liendha
4220725087,levis4less,"Name Brand Jeans"
5049447426,nila2925,"Nisa saputri"
3062438964,widya_alsharafi,widya_alsharafi
4890796291,tikhafebrianty,"Tikha Febrianty"
3082170636,lyla_sharie,"Lila Sari"
5340127746,uswatun_nyonyae_cempezt,uswatun
1962125928,ulfafitriaramadhani,Ulfa
8520878371,husna_chorunnisa,husna_choirunnisa
5417928045,blugrinshoppe,BluGrin
3273619278,piekandra_official,
606172616,khaleez_apparel,"Handbag Murah ❗️Free Post"
8177817817,chasakura_olshop,Icha_Onlineshop_termurah
5509870344,pratiwiawarini,"Pratiwi Awarini"
4315318606,ratnapurnamadewi3,"Ratna Leader Paytren"
8517427890,hekarahma0712,"Heka rahma0712"
3154521637,giovanni_olshop,"Meiduzi logo M, dan logo kupu2"
7828046361,astrinizar101099,"🌏 NiaTourr"
8522147224,winda_jomblo_deaf_26,"jomblo sedih😔😔"
1214487905,tere_embun89,"Tere Embun Nainggolan,SKM"
4474061084,febri8732,"Febri Yanti"
4816840164,shanty_desiawati,"Shanty BundaNya Ananda"
8136581482,itzz_christy_glory,"•°SpyzNimatoZ DesigNeR•°"
7287343541,aikomandiri,"AIKO MANDIRI LADA & AMPLANG"
1343094196,cookingmama181,🌺Yurdiana.Mci🌺
8457417024,aliessenzo134,"Muhammad Alirama"
8514670880,yenyghifari,yenyghifariSHOP
7762885736,jeniisafitri_02,"jenii safitrii_02"
4260363542,mie_ayam_jamur_nusantara,mieayamjamurnusantara
3163530222,sariemaestro,"Sarie Maestro shoop"
2176726745,niing_shakilla,"Niing shakilla azzahra"
8507900079,nisa_herballis_nasa,"DSTRBUTR NASA BATANG-JAKARTA"
8500771741,agen.gloglowing_indonesia,gloglowing_indonesia
3005161476,beiby_olla,"PutriAyu febiyolla!"
3152174414,pon_thanitsak,"Mr.Thanitsak Thanaruangkiat"
6823981898,best.free_shoutout,"Free Shoutout"
7438120997,outlet_mhca_tiens04,"AGEN RESMI TIENS INTERNASIONAL"
4787600916,gitameysha_,"GirL Vita Mega Lorensa👼"
8524779222,jamesajretail,"💂James retailing🔥"
3226971769,seong_kyan,ITSMEDANIELLA💋❤
1433795302,bulanbagstore_berl,"BulanbagStore Berl cosmetik"
7013197628,kalulaidshop,kalula.id
6279284587,shwn_clay,ONLYVES
7097828060,mycarserviceapp,"My Car Service"
4173386026,_noviawati,"""siti_noviawati"
4314056254,nurbaiti_property,"PERUMAHAN ISLAMI MURNI SYARIAH"
4075743365,rimamariyana,"Rima Mariyana"
4323438659,pretty_25791,prettyAngel
8428218990,bulgariasoulbites,"Food & Travel Diaries"
7174300670,rahmawaty9647,Rahmawaty
8933236419,muhammadfauzan155,"Muhammad Fauzan"
7246688685,bwdbwhsynl,"عبود أبو حسين الغلبان"
3057396755,ajimustopa_cahwonogiri,"mus cah xcoolwa095336983777"
8383120923,ivorosari,"Ivo Rosari"
5717705652,hoseindindar5750,hosein
7565052508,irfansh7030,"irfan sh"
1565159290,rhita_kusuma,"Rhita wibowo"
1699204936,qiqialwafii,tWoaLisLive
3226450901,gitapurnamadewi,"Gita Purnama Dewi"
924849996,dwi_camay,"Dwi Ari Mulyani"
3495062549,mutyasyahfitri,"Mutya Syahfitri"
5329870638,_sharie_bukboss_kejam_,_buk_boss_sikecil_sadiess_😎
4781886077,susantii0403,susantii
4678091938,nadyaratna24,ratnanana
6028829630,risk_takaa,"Been THAT❕"
1077577117,juttaoksanen,"Jutta Oksanen"
1530180420,putrifirnanda3,"Fadhillah Putri Firnanda"
1668485428,fitriaacs,
4625973792,mehdi_khoeiny,"mehdy khoeiny"
4817513940,shfiraesta_,Sasaq
7628840539,aatthaphonkansaen,aatthaphonkansaen
5715475859,mell028,"Imelda A.K.."
3507844445,dewicandra038,"candra dewi"
285879725,farah_nuyu,"Farah Wahida"
5791268297,dwirabie1616,"Rabi Yuniarti"
1092841807,ponco.hapsari,"Ponco Hapsari"
2045898825,nathalia.sheren,"Nathalia Sheren"
5989244906,tiasalsyabila04,tiasalsyabila04
2913582043,ervina_esa_putri,"Ervina esa putri"
7064332649,abuurafa,"ilham prabowo"
3598438160,nalendra_azran01,AZRAN
2081854422,ratnapardede1990,"🍑 🐻 Tampubolon, Mrs."
4850686880,hafiezanorumar3177,hafiezanorumar
6035573592,de_rhiani,Rhiani
3602242848,zanah_zainah,zanah_zainah
4016290268,missmilla01,Millana
2945633584,chindy_shr24,"Ndy  {{PayTren}}>>"
2203185229,mohamad_sallam_,"חמודי סלאם"
2471882443,nurulmaulida_h,"Nurul Maulida H"
4256938682,noviana21190,Novia
1692740603,imout.82,"muha imut"
2950827947,nemo___777,"ТоЛкО АЛЛАХ МоЖеТ СуДиТь МеНя"
2055425623,handsockpremiumindblack,handsock.indblack
8097771733,ali_maleki_1385,ali
7316279960,dellamaulida70,"della maulida"
1274286417,mr_ipull,"Taefur Rohman ( ipull )"
7527758210,made_widiastitimade_widiastiti,Made_widiastiti
7296743172,nin.210,ninajudes
4468357563,mariacoins,LG'g
4358786035,sisylestari98,"Sisy Lestari"
3555520745,hanielfariani,"Hani Elfariani"
6970724847,dudu.herlambang,dudu.herlambang
5331722565,julianredi294,"julian redi"
7058386195,novi_odong,Novi_Odong
7605335080,ami_hijab_collection92,"Suplier Gamis&Hijab Terbaru"
4372712531,rion.purba,"Marion Purba"
6681162750,dithamusnaini91,"Ditha Musnaini91"
5573230289,amin_adora,"amin adora"
8018152832,zelenmardiani,"ZELEN MARDIANI"
2234497453,viviaj14,"Vivi Aj"
7366095866,shubhamshinde2227,"shubham marathe"
7704381309,zetty_k04,@zetty_
4327068632,syry4502,"علاوي عسيري"
4939728678,fitriani12nov,fitriyani
3489728341,irham_santoro,"bau delonge"
7506551616,mela_aisyaah,"mubarok mela"
7105033792,mama.varisha,💕varisha🌹
4143186317,kalsum_sum,"kalsum kesya ♥ WNA"
3596096376,silvialestari2217,silvie
4201306882,noxalika,"Mimi Nox Alika"
5317731897,fe.aquarel,"Siti Fatimah"
6083790790,dodinurdiansyah38,"Dodi Nurdiansyah"
8486719439,lindanurjayanti14,"Nadia Linda"
5773778672,prolinkdidik,"Didik Prolink"
7036548800,eryanpebrosi,"Eryan Pebrosi"
1040115609,kikiprysta,"Kiki Arysandy"
2160155945,artini_08,"Ketut Artini"
6872536316,siti_masriah_20,"siti masriah"
2014061811,dyah_dyahdyah,"Agung putRa😍"
7289445371,nirmalasari4804,Nirmalasari
6189967327,veronica.3089,veronica
2016902831,dyahkartikaratnasari,"Dyah Kartika Ratnasari"
7555346770,zili_ismail,"Zili Kaka 7"
7199005479,farajuddin_ahmed,"Farajuddin Ahmed"
7495189568,anandaayunipratamaa,AnandaAyuniPratamaa
6982655067,anaa.s.m.79,Anhaa
8148840555,legiguilo_,"Vivi Maulida"
4583635039,yulianata_89,Yulianata_89
7554268931,paciccofelice,"Felice Pacicco"
4521015000,rizmasetyawatii208,"Rizma Setyawatii"
5683795336,interbarcainter7,asrulrifasuanda
7066238968,ayuchyntia98aritra,"Ayu Chyntya AritRa_29081998"
4277375938,adamsp1003,"Adam Surya Perdana"
6747134024,yerrits.yaya,"🇸🇻Yahaira🇭🇳 06/26🎉🎂"
6791836146,ulmisyw_12,Ulmisywl_12
1737900880,adesandikaputra,"Ade sandika"
773528103,nantadoanktd,"Nanta Doanktd"
3124091587,irmasary1604,Irmasary
1814472374,ellya88_,"Mom Al El"
7156447084,tasya_taskya,tasya
2965193106,suzan_susanty_suandari,"Suzan Suandari"
6081335142,ramadhani_5676,Uty❤
2008835609,ryankusumasari_,
1141662979,roberta_apare,"Roberta Rodrigues"
1566362638,salmo_96_,"Ezz-dlin Salmo"
477337794,julinac3n,"julina c3n"
7371712118,yusepnuralamsyah555,YusepNuralamsyah
6759149964,litt.id,LITT.ID
6705393219,kholilaasya_auzia_2492,kholilaasya
6239233986,ulinaperry48,"Ade Uli"
7249524229,sarinova747,sarinova_74
6110915478,veraanggraini822,"Nadia Raissa"
3482278711,sabria_sunrise18,"Sabria Sunrise"
6374356393,kizengkol,DZEIN
2282969269,rumahcom_depok_,rumahdijual
1812257759,viahariyanto90,"Venny Oktaviasari Hariyanto"
3312607085,nikzararlan30,"Nikzar Arlansyah"
6528692618,normala8316,"nor mala"
3258609589,merry7564,"merry handayani"
6306864593,diahrizkipangestika,"diah rizki pangestika"
7544008720,aristacheng,"Arista Cheng Mahotra"
7179147342,wahyunisaputri_2001,"wahyuni saputri"
4678512810,janisa_rahman,"Janisa Rahmman"
1488518894,watihasanti2094,"Watie Fahlevi Irawan"
6171674088,sellyklali,"Selly _klali"
2236646579,amysotorthea,"Amy Sotor Thea"
5545292594,madjerh_,"ᴀʜᴍᴀᴅ . иαjíв"
7043202808,sapamuhammad,"Muhammad Sapa"
4815148251,anisah_handayani1702,"Anisah Handayani"
5655709050,vieazavieaza,"Vie Aza Vie Aza"
3672630559,glovermatthew65,"Matthew Glover"
5500704880,bohdanshik15,Bohdan
4455606793,kinantilaraswati,"kinanti laraswati"
5676766086,lilis_tjuhwati,"Lilis Tjuhwati"
8566915248,asian_girl098,"Yulia D.N"
5501930767,agunk_thea_92,"Agunk Ginan Asgar Thea"
1696628941,vesagita,Vera_shop
8909740650,handbagmurahmurah27,handbagmurahmurah
6298206858,lufianalufiana,Lufiana
4852664262,roosita_ita,RUSITATA
5173618213,sitimarsidah49,"siti marsidah"
4573669473,taa.olshopmartapura,"Grosir Tas Sepatu Baju Murah"
5864244419,ambersariyajaspreet,"Jaspreet Ambersariya"
997415880,vanigryzawatie,VANI
1961879771,alin_lin_prajowo,"alin (NBM COLLECTION)"
5444005257,azmiapipil,ajhmy94
5955902454,hasnaul_ghaisya,fatimahamelia
1158922923,kimie_sulaiman,kim
4863993990,roni_dahroni,"Roni Dahroni"
7102785514,lsll1915,"محمد السلال"
2377374672,dhewie_chuun,
4284524741,ismanurutmawati,ismabella95
7569257405,yudha_tungblung,"Yudha Putra"
4010139128,pinyok_ww,"PinYok_WinkWhite 💖3.5k"
6108070396,arakrisna,"ara krisna"
4168862484,nh44218,"Nurul Anisa"
1263544836,millnef,karmila
3318790501,carlin_namur,AaLyn
6482539264,lilisfatmalasari,"Lilis Fatmalla Sary"
2242102951,ayumie81,
6836415806,nunukhariatiii,"Nunuk Hariatie"
3968972482,angelaangel726,angel
366179995,syuhada_zainal,"Syuhada Zainal"
7556543316,arash.ghafari1260,arash.ghafari
7601509925,_amenic_amena_,Պուճուր
1383162472,anis_azatulnisa,nieysa
3519498238,agoeztiono,Agoeztiono
1983543247,nita42199,"Nita Cipudan SimAre_mAre"
4434990987,zzxxcc1992814,"اسير الجروح"
5443404645,hamzaalose,"حمزه الالوسي الالوسي"
5565667008,yucinevember,"Yuci Nevember"
6085468612,miwanzakaria,"Muhammad Iwan Bin Zakaria"
8070088175,setiawatidwii,"Dwii Setiawati"
2094621143,parwatiintan,"intan parwati"
1507774362,adikarang,adikarang_MUA
8174660359,goal27_bodycare,"daisy organic"
2229622042,sariadizainal,"Ambar Sari"
3313925094,desyhidayaturrahmah,"Desy Hidayaturrahmah"
3146947013,nurharyatiatik,"Nurharyati Atik"
6727869737,changoacha13,Acha13
5331538088,bunda_chacha28,"Bunda Chacha"
5880385388,indah_wintrie,"Indah Amoorea"
4236647781,ummiaidaummiaida,"Ummi Aida Ummi Aida"
4440129563,rossabilqis21,rossa
2266310436,isnaini_alhayyu,"sakhi zaidan"
3655549894,wika_nd,Wikandari
3658243462,widyaratna.astuti,widyaratna.astuti
3965272864,sary_parawali.fs_aadzm,"NurMala Sary"
635239858,ritarfa,"Rita Rachman"
8515627368,kolamterpalkediri,"Kolam Terpal Kediri"
5379736041,lidya_lph,"Iidya Lph"
2132004119,areda.syuhada,"Nurul Syuhada"
2714148666,tika_abdullah,"tika yuliana atharini"
4539504097,uwidjiutami,"Uwidji Utami"
786128936,melan_tae19,"Melan TaeⓂ️"
4324224264,trifosamurwati,"Trifosa Bekti Murwati"
2223904991,tiniwulandari08,wul@n
4552798275,st.masitoh6479,st.masitoh
4608235633,toniet_meris_,"TONIET Meris 💋"
2050948521,yuniwilianti.37,
3022424695,novasantika14,"Nova Santika"
3102768489,ayoeafriani06,"yoe_ayda (ayu afriani)"
3284076043,annajhonter_28,"Anna Jhonter"
2366692840,norazizah_98,EyzahIbrahim
3975806554,amie_dira,amie
4181736890,widiyan202,"widiyan hermawan"
5822193738,hay_sayank,Syharulnusi
8384504038,maksum.mas,"Mas Maksum"
3228868736,lena.edwartli,lena.edwartli
3542537828,murnii_heartphilia,"Distributor lulullabi"
2744218704,tutikyanto,Tutikyanto
5360957011,cynk_bundh,"Mutiara  NuAmoorea Beauty"
4474145774,dianadiana2536,Diana
5470344028,tayekalfatih,"Tayek Alfatih"
8925572338,tokoalatskincare,"toko alat skincare"
3548305810,dshoppreloved,"Bongkar Lemari"
4138488168,anicha_viedyviechi,"Anicha Chan"
3985676667,aly_sabana45,"aly sabana"
5882547870,alisyalifia,"Alisya Lifia Septriani"
1724673214,nenny_susilowati,"nenny susilowati"
2286911447,rey_rosse,"Rosida Rahmawati"
7105053059,hushush_secret,"LOVE POTION & BAJU TIDUR SEKSI"
2337630809,tarisaazhar,TarisaRG
1363264032,halilujummai,"Halilu Jummai"
1818128451,atelierducheval,"Sellerie Atelier du cheval 🐎"
8381603644,shasha_balikpapan,"ShaSha Collection Bpn"
6864417378,wulandari2622,"Fitri Wulandari"
4124142771,idayahya35,"ida yahya"
1673457336,yunita.hendrela,"yunita hendrela"
4115823609,veraw9,verawati
3598236862,nurniaagustinnn,NurNiaAgustin
5385517542,leli2400,leli
3934963366,annelieseduncan,anne🤷🏻
3584740987,ririnfazri9544,ririnfazri
8364090016,mikedave5,"Mike dave"
2069909154,sri_nova_rida_,"sri nova rida ove ove"
1523725828,label_tukang_jahit,"LABEL  PRINTED JENAMA ANDA"
4163971075,wawa_hsnh,hasanahuswah159@gmail.com
14375038,teti_relina,TetiRe
2077313175,syazslynn,alynn
5692954320,amoenktea,"amoenk tea"
4400431510,mayaanjani9333a,"maya anjani 🌺"
1911121234,dwinanda510,"Nandandika 😘"
7521630622,allena_leny8892,allena_leny
2262221854,yantimeli3,"Yanti Meli"
3757545951,sepnaliasari,"sepnalia sari"
4024145701,safira6479,"Safira Ahmad"
2236909115,jasmine_fhareel_althaf,"🌸 RATNA 🌸"
4111874154,anto_ngalam_albagaz,Anto_Ngalam_Albagaz
1441839101,anggit_bahroy,Bahroy
3912439194,rijun_a,Tn.Angkat
839562006,ayu.mrs__,w.a
3007022054,sanayakids_agen_sidoarjo,"Mukena Branded"
2235206692,yulefym,"Rey Marcel Nuradam Syah"
2525942202,lakhan_rajore,"lakhan Rajore"
4112317593,ummi_vida,"asih umi vida"
1442347324,chink_cake_fashion,"SAnty Fashion"
547545107,silvi0886,"Silvia Gunawan"
3562138860,olshop_handhayanii,"HaπdaYani (olshop)"
7276129615,realfefeadtya,🌈DORAEMON🌈22🎂
491086467,kristapancasari,
3744123636,tupperware_solo_sragen,"Tupperware Solo-Sragen 35%-40%"
1599105773,imamfauzy1907,"Imam fauzy1907"
2088464428,vera_lesmana,"vebe's snack n catering"
1441433333,beby_erviana,
8095143045,zulytak31,"Zuly Tak BebyeSirastafara"
1952076081,cikkeiyza,NFBZ
4846155533,sarfraaz_khan4263,"Sarfraaz khan"
1811749045,mbok_londokemenyek,"CREAM KLINIK glowing"
2230486632,fanifauzatunniam,ArkanaFani🐾
1650853946,fara_athirah,"fara athirah"
1700922112,jonatan_ramo5,"Jonatan Dominguez 🎸⚽🔥"
1479015561,careneza,"Fifi Solo Careneza"
4112730184,shidqi_exorcist_juniors,"lucky ashabul kahfi"
4087273846,cabielia,"Lia Cabie"
2232023600,ros_hwi,"Distributor veriefied  HWI"
2133117188,silviwulandaridari,"Silvi wulandari"
4477806581,elvi8696,avieka
6870297187,amel_linda08,"Amel Linda"
4799126334,riana_aprilia,Aprillia_Riana
2248617996,isty1313,istyyustika
5398965245,yani964581,yani96
1685007305,dennywanari,"Denis 🌸"
2224239224,eiyma.mstng,"Rahimah mastang🇲🇾"
2299998459,fretilesiana,"Freti Lesiana"
6250119871,newgirlshopid,NewGirlShopId
1714071554,ciiluvmickey,"ramasari wulan dini"
5783053561,devina.edria,"park min yeong"
5100097521,veni0202,"puji veni pramesti"
1946583651,rannyyaann,ranniiii
1911099871,cikine_96,"Muzna Shahidah🇧🇬"
1319304595,haeronifarid,"haeroni__ ownnee"
3068666706,lusionoy27,Lusi.Harun
7162294798,mulyati2541,"Mulyati dewi"
1736034702,salma_khanan_azzahra_,"Salma Khanan Azzahra"
1696656374,be74_ks,B37H4
423419748,evi_azmaini,Evi
4137162518,mifta_oktavia,miftanuroktavia
2321884279,nopphiie_os,"FASHION IMPORT & LOKAL"
2524776608,zhaynabahrun,"Zhayna Bahrun"
6752952519,melin2091,Melisa
3581436762,meggy_mellisa,Meggy_Mellisa
1680085946,jualjualinn,
2277471182,cie.tien,Stineke
3440546315,abet0304,"Abet Danuarta"
364401431,bentukmanagement,"Bentuk Management"
1717927,catwomanizer,"ANDREA GUNAWAN"
2102300013,eklaban,"Emiliana Laban"
2286525864,winngemilang,"hey,its G"
715995613,iza_zaen,"apriza haryasanti"
1764053626,yulia_crasivaya,yulia_96
5453990076,desirahmawati92,😗😗
4914803618,fatriameilita,fatria_smde
5352363625,angeliadanielfu,"AngieB 4life"
1589832246,anggraeni_agie,anggraenii
1814539453,grunya_srapyan,"Grunya Srapyan ❤️✌️👌✌️💜"
8158620818,anas.1322,"anas thind"
4914850963,ketrinmamusu25,"Ketrin Mamusu"
1826146203,melidyaartanoviemauludiyah,melidyaanm
7552849513,renychanzs,"reny chanzs"
6106478579,ifha_betahai,"Halifa Betahai"
3607908152,jessicarenref05,"J E S I C A R E N R E F"
1400190756,caroline_miranda3112,Caroline_miranda3112
5677341536,ayuchomel92,"ayu chomel"
6202772361,canqxp,""" ۱ ٩ ۰ ٦ """
2180670318,qotrunnadasafitri,"Qotrunnada safitri"
1716682921,ekha.piggy,ekha_piggy@yahoo.com
1588958261,nunuk_adi0711,Nunuk_@di0711
1476862145,zhorathamyiz,"Mutiara Zhora A. Thamyiz"
1792200341,rinecathh,Cathy.Cat
4746911695,lindayuningsih33,"linda ayuningsih"
1025831022,brigittaindahh,"Brigitta Indah Hayuningtyas"
1507967436,evhiie_bungsu,"EvhiieaZz Ntu'iyh CHepthy"
1932716426,southgate_residence,"Southgate Residence"
232942586,marisafetty,"Fetty Marisa"
519723556,anadirahzahid,"Ana DIrah Zahid"
5389509609,kenz_kenz6740,Kenz_kenz
6236876804,tiqah_iqa30,Eqamok
3292649598,pellpil,Kaleng_krupuk
2686125982,wahyudi05_12,wahyudi05_12
5587377229,lismawati_hutamie,"Nayla Putry Hutamie"
2226533623,theconnelltwin,"Christy And Carly"
4482017584,lisna_rofika,"Lisna Rofika"
3437587795,dindaaa._29,"D I N"
5483323213,andreas_1_580,
1286245401,ichank_nurdin,IrhaNurdin
7237941364,diqa_rmdan,"RAFFA DHIKA FITRA RMDAN"
2249418460,kaka1340,kaka
4991310264,anwarstemcart,"Anwar 46"
6537395292,matiusds7847,matiusds
7466691954,daxrawa_____bo__hmaesha,
7455520249,27fdl,"ﻋﺒﺎﺱ فاضل"
1998778905,siti_aznida,ammar
5730731402,rahmaendriana,"Rahma Endriana"
2176886284,syarifahghinabasiroh,"شريفه غينا بسيره"
3151001229,srisuwarti_msi,"SRI stokist msi cilodong depok"
464941199,maria_halim,"Maria Halim"
4840324253,sysilia_memey,"Ahma EyelashQue Surabaya"
2882826031,nur_aini_aprilia_,"Aini Aprilia Syng He"
3553097686,nengsyifa_06,
50790533,flewsand,Venny
23238970,anan_dita,DITA
5601826372,dewi_dwii209,DewiDedew(!)
8648549253,dewi_dwy209,DewiDew(!)
3924714885,betadwianggraini,"Beta Dwi Anggraini"
8625557278,renicubycaby,"reni cubycaby"
2217542460,pitu_27_likur,pitu_likur
4808802859,fiafida37,"Anie Umar"
1818350193,munirah.munirah,Munirah
3698503436,imalia868,"Imalia Lia"
5983582061,karismahardika,"Karis Mahardika"
6822400882,mindarmirja,MindarChantique
2158366296,ahmedbeshr94,Ahmed
3648976363,durianmedan_agenreseller,"Agen Durian Medan"
1078602539,vherielsha,vherielsha
2470361690,bunda_maniz,"bunda kirana"
7697067541,bts_army_forever_1234,"BTS Army"
2316571300,rahmahdestinur,DestiNurRahmah
6138471232,risma9369,"Risma Risma"
5360324203,idris4674,Idris
9027804708,lampungvivo,"MENDA VIVO LAMPUNG"
4042465865,ciminae,"Cimin ae"
7095878893,dadang_kertamiharja,ud.mitracoorpora
7269534870,inmeza96,"In Meza Barrantes"
4100627371,nadyasananda,"Ananda Nadyas"
4186165477,luana_melo_05,"Luana Mello"
5951765970,aura_yuliana_putri7,~LIA~
2372011557,umirahmawati077,Rahmawati077
2008336254,rudhyungu,rudhyungu
5685028347,resa_1017,"Resa 1017"
8248127790,baekhyun295,Tharaphe
5703002238,ss_pomade,"POMADE STORE PARIAMAN"
4471904113,yatiastelalove,"yati astelalove"
6869645357,rambemelly,"Melly Rambe"
6581136384,indahsimanjuntak.16,indahquantrunnada.16
4896917700,dewimonika_dk,Dewikusuma
1558395531,intan.kusuma.dewi,"Intan Kusuma Dewi"
7042048477,evrovagonka58,Евровагонка58.рф
5702714551,hobixxi,"HOBI XXI"
672429464,astrid_oktiana,AstridOktiana
8977917006,mayacemalcemilbotto,"maya cemal cemil botto"
1529347095,ayura_collections,"Yayuk Rahmawati"
6198672076,pipin_greis_riwi,"greis riwi"
4239992458,kartini1951,ninie
6943971661,castridatubara,castri
7636497444,bram_itali,"dicky rafael"
7228172411,villaninrffka_,"필리 야 네르  로 피카"
1786624091,dewisyafitri66,fitri
6300487503,regi.prabu2374,regiwahyuharjanthi
2330007995,ireneevhelynboyong,"Irene Evhelyn Boyong"
1558188172,rayyu.rayyu,"Spesialis Bahan Kaos"
2198822780,nadine_0120,"Nadine Erna"
7611965706,shahiha_ish,"indah shahiha🔵"
5548430092,minsya_00,"syahirah mohd razi"
6993171675,rhenypuspa,"Reni Puspasari"
3270251751,ranayasirmustafavi,"Rana Yasir Ali Mustafavi"
7133282033,puputzayyinn261101,MayMartinS
1986248803,nengshoppe,"NENGSHOPPE😍ONLINE TERPERCAYA"
2201742206,riadewi_id,"sewa hantaran/seserahan"
6824139348,bers_berrypop,AkbarMaulanaIbrahim😎
6710489927,yul4906,yuliana
8660498957,bumbu_mamak,"Bumbu Mamak"
779505790,fithribee,"Fithri Sundayani"
7515152991,joaopaulo_l.d.x,"João Paulo"
6899670139,yuliani1703,mikhaani_22
3649964025,haytmlacolon,"Haytm Lacolon"
5743133109,nuruellismael,"Nuruell Nuriizha Isma'el"
4277292472,novindakartikasari,Novinda89
4624678031,aryotris,"AT trans travel sewa mobil"
2958307913,resthyklau,"Resthy Klau"
1708406156,yhantie_27,"yanti rida fasa"
4482257602,adie_kutel,"adie kutel boyza"
5702076474,haliyairfani92,Haliya92
6013212415,alvabcl_,"MOHAMAD ALVA"
8484719813,solusimatasehat.co,"Mata Sehat Impian Semua Orang"
7388592690,lacrima.id,"DUAL TONE VOAL PRINTED SCARF"
2245924777,whereistheeucalyptus,vinka
7246126893,ance_bako,"Ance Bako Whyz-q"
4258639236,criss1505,"Criss Criss"
1430381487,prrameswara,"Winda Prameswara"
5600545352,ira.zarra.9,ii'aa..
8009594790,indrawati751,"Indra Wati"
766227801,rahayuarfan,rahayu
8651279010,keishajepara226,"Keisya anindita nurliana"
1833854805,jokoandik.aw,"#kopiku #semangatku"
7542491465,keyscoklat,keyscoklat
1589522023,ninikferianto,"Ninik L Rachman"
3930134974,nissaahshanty,"wife.mom of two"
432760251,indahsuryanie,"Indah Suryani"
7900686899,mala.bunda_dhifa,"nurmala sari"
5961150591,igedeekanyana,"I Gede Eka Nyana"
4706803166,acoemsumiati,"Acoem Sumiati"
4582289710,yulhianaudak,ina
5576191004,wandajasaadmin,"jasa admin IG"
3005257453,moon.075,"Ria Arista"
2067443923,ikapratiwigunawan,"Ika Pratiwi Gunawan"
2473693792,bagaziewhitequ,"Endang Fatmawaty"
3919996367,elisa_konsultan_jafra_155542,"elisa fashion"
2143537060,widyarmi,"Wiwi Widyarmi"
6675743885,alpilutipah,"Alpi Lutipah"
3133606972,ekha_raisyah_azkha,"EKHA RAISYAH AZKHA"
1603724782,vhie_sinjay,"Devi Herawati"
1445665388,trianawardhani,"Triana Hedy Puspita Wardhani"
6088380705,kameron_budo,"Kameron Budo"
5789684146,dewimayakrisna,"Dewi Maya"
3182906949,ainidiyah,"Diyah Nur Aini"
6517173820,amah2608,Rahmawati
5893894603,nilamindriyani22,"nilam indriyani"
4210183450,lia._aaaa,"Liaaa 👩💕"
3168290802,cakeresepnenek,"Cake & Cookies Banten"
2274598066,rani_sakhi_adi,maharani
3638487910,adhisty.arari,Adhisty
6612446387,dek_mira_ka_karina,namirazaniasiergar1997
1588697644,beiyla_vandon,"beiyla vandon art"
4762487526,lazyafterno0on,lazyaftern00n
6049420473,linda_andi_1505,incesnyandi
7918213590,hijacketbdg.store,hijacketbdg
2186239357,evamaharani93,azka_olshop
4021788454,devyswandajani,DevySwandajani
6352747940,sahrul3108,abizar
1918600591,penjahit_muslimah,"Penjahit Muslimah"
1049310539,little_putry,inces_iroh
5312959059,adriani.dewi,"Dewi Adriani"
3581161576,rajo_langit99,"Rajo Langit"
7456172740,yulianae616,"Jasa Titip Termurah Bandung"
4044132433,neves2981,"Ricardo Neves"
3447813190,kirin1952,kirin
783427850,chanelocta,"Chanel Octa"
6196292728,pemutih_badan_cepaat2,pemutih_badan_cepaat2
2015201526,miya.dya,miya
1996612638,tinacerina32,"Tina Cerina"
5819375046,davidandrew627,David
5639870910,rona.yuliana.musa,"Rona YuLiana Musa"
5689895286,muleipesekz,"Nur Mulei Pesekz"
1556083326,gamisdailyshaliha,"GAMIS DAILY & KHIMAR SHALIHA"
1189910646,liongzfoe,"Liongz foe"
8684312848,fitness_fashion_lads,"Fashion & Fitness 4 Ladies"
428447122,iinbunda_dzakwan_maryam,insu
1578407218,nyn_leonwijaya,"leon wijaya"
4209246726,wahanatebet,"Wahana Tebet Barat"
1538320128,dewi_wahyu21,"Dewi Dika"
1732795645,thikasimanungkalit1,"thika imut"
1464874992,jilbabmolywoly,"GROSIR KERUDUNG, MANSET TANGAN"
3033419730,rinarosyidah3,R.rosyidah
3161329611,yasirmild,"Yasir Mild"
3006818666,nanisaonah,"Nani Saonah"
6241788277,alika_manise21,alika_manise21
8506839771,barisyy6,Barisyy
8035911954,63.95375187,"wasif khan"
2196697722,arifah313,"Arifah YAR"
6891296872,galeri_bumi_gantari,"Bumi Gantari Store"
2296978784,zahrana_najwa_nabilla,"Zahrana Najwa Nabilla"
4290153843,weddingplannerby_nong,JuruMakeUpSimpel💄ByNong
3481738089,feliciaowiz,"Angel Felicia"
5739714968,dewy_masitoh03,Dewy_Masitoh03
2032814836,dessyameliajs,"Dessy Amelia"
2329951476,ina_anis08,"Ina Hayatun Nisma"
2629587161,paijodiego,"Diego Paijo"
2052688713,tour_tokomodo_emil,"komodo tour"
6722929408,iyan_kmp399,"Iyan Kmp"
4226437186,dwinilautami.com4456,dwinilautami@gmail.com
1189322546,elisahapsari,Elisa
7300321794,auliaslsbl_,"Adinda aulia salsabilaa"
7009680250,callixtavon,FNSV
1798110710,salmanekaputra,"Salman Eka Putra"
3059785100,cucucahyati2202,"cucu cahyati"
7986981051,yantii_yans,supiyanti
6294871787,vovon_wilson6096,vovon_wilson
6977570891,citacinta56,Citacinta
8505186374,eva.s.azizah.92,"Eva Siti Nur Azizah"
3016133757,thaliaaesthetic,"Thalia Aesthetic Clinic"
2072222770,wani_swan,wanimah
1569907717,novi.0911,"Novi Christiyawati"
5482623357,caluinasoegiarti960906,"Caluina Soegiarti"
1670973615,andienspicesta,"Andien S Picesta"
187194959,katarinaevalita,"Katarina Evalita"
650544238,jes.salt,"jess 💌"
2458655930,isstvni,"💫 p a n n i 💫"
1224051649,vi3_vie,Vie
1328110765,29agatha,"Maria Pertiwi (林梅花)"
1417045763,ega_raisya,"Ega Raisya"
792814613,wawann333_,"Muhammad Himawan Assydiqin"
1586063729,aryadindadwioktaviana,Aryadinda
1631200354,elsyhnls,"Laila Syahani"
5129570657,liya4318,liyacubhi_cabby
5111398066,cumanuliss,
8565615380,bryan_edoo,"bryan edo"
1969517335,de.biansyah_riyanto,"Jendra & Khaira's Mom 👨‍👩‍👧‍👦"
4014676564,gvan.priscillia,"Giovani Priscillia👀"
1835957625,agokb3jh0,"Agus Prastiyo"
2028256026,bhebytumengkol,"SzaSza M.T"
454651094,suciamwlia,"Suci Amelia"
1417639773,brlyboo,"Berly Andrean"
1938276519,rin_ch4n,"karin chan"
477503292,vintastani,devinta
6679824699,marchelinopanjimoniza,"Marchelino Panji Moniza"
1551910706,yang.terdalam,"Gloomy Poem Quote Puisi"
1626758550,sunz.t,👑【孙雅琴】
1525760304,srrn_juliawth,💫Aฬlเค
302084797,tri_ak,"tri sumarti"
5787656916,surya_0717,"surya ade"
5788321084,nandawidiawatikusuma,nanda
7526431340,genegeni_,"Genitha Maulidia"
3276184154,angelafebita,ngel.06.02.03
8435333696,isandwidyanto,QBA_wonogiri
6667031860,riyanti_gumilang,Ntet
2278481853,skywalkerssss,
5372183384,dayu592,Ayu592
3968999502,yayan_001,Shofyan
3425852187,veronamrc,
644026052,risma_novitasarii,"Risma Novita Sari Hsb"
4358974391,nadiaarianty,Rachel
9294120572,risma_karuniaa,"risma karunia"
6637264173,arezza.boer,AREZZA.BOER
4219488864,dianamasboy,DianaNovita
458792935,mrccarolina,"❤Mercia Carolina (MRC) ❤"
467869174,ayurasintaputri,"Ayu Rasinta Putri"
4429121129,radika.id,"R A D I K A since 2017"
1833667835,sandrasarieve,Sandra
2075780001,dhekarusthiian,dheriskanurbayanti
287859452,villa_elgravier,"Villa EL gravier"
2125050248,a.s.sya_1897,"AS Syarif"
1598462654,putrinrs,Putut
3168036946,novhitasari.simbolon,"Nov Sbl"
2251639131,adilaamery,MRS.arm👫>👪
1639559603,nahna678,
1976089332,desun24,"Desi Untari"
1744459357,citraeres,CitraRS
8058213208,ijeezee23,ijeezee23
6776404615,rnadewichyani,Fareeha
1742776353,pinipiw,"pipin angela (aisyah)"
6784310934,sisca_wulandari,"sisca wulandari"
1630239575,anggie.pattinaja,"anggie Krisna Afriantika"
4273518304,ajeng_queens,"Queen Ajeng Olshop👸🏻💅"
8655133957,muthia_803,muthia
1209377825,violetcyank,@tasya_cutez
3157470658,yurikee_preloved,"Yurikee Preloved"
1216245160,verajanuarti,"Vera Januarti"
707603881,kikoo.kabira,"Kikoo Kabira"
4041664680,nissa.sabyan01,"Nissa Fanbase"
561235799,pramika_sudiro,pramikaWS
6780549627,imasnurmalasari5394,ImasNurmalasari
533175750,desiekaa,"Desi Eka Nur Sofiyanti"
4526733597,trigitiahandika,"tri gitia handika putri"
1294723258,selly.zh,
1920097182,wieq_komala89,"Wiwiek Komala Febriana"
3619224179,melvia92,melvia
1696361712,rianawindy,"Riana Windy H Lapaido"
290083086,fitryawijayanty,FITRYA
184049680,arief_adkha,"Arief Adkha"
2061300226,lindamutiara23,"linda mutiara"
6222824386,tssarha_,"Tessa Rhaima"
8507406361,lilican24,liliput2526
943239772,athaliasaragih,"Athalia Natasha Saragih"
317513210,indramere,IndraLestarie💎
33130092,dwinadiary,
2138031051,itsjulieta.a,"U̥ l̥ c̥ e̥ s̥"
1476583,okilham,"OK Ilham Irsyam"
8689818821,ardhy_anggiearya,Anggiearya
8483893533,_00_i.c.o.n.i.c,"H * *@ AZMI"
1318995864,rinaachmad88,"Mom of KhivaKanaKeanu"
4187055079,mr_mrs_hebbi,DellaYP
2631903462,sarahgibson21,"Sarah Alana Gibson"
182815093,sylviadesianty,ESDE
3621980280,rizqi_f21,rizqi_fitriyah
2105890597,siska4k,"Siska 4K"
1615785470,widyastuti_daviq,widyastuti
5665963310,adilah_314,"Shofiyyah Izzatul Adilah"
7428645727,nugettpisang,"kitchen ayu"
4288645721,mahdalena8788,Mahdalena
3241236303,andicleopatra07,"Andi CleopatRa"
8129196950,kediri.myshop,kediri.myshop
918770350,ayuliu77,"yulianita liudianto"
5849234129,inadhiaseptiani,"inadhia septiani👑"
5465080512,d3wiyulia,"Yulia Dewi"
1370434063,sitinurbaetiruslan11,"Siti Nurbaeti Ruslan"
1776677105,raekawidyawati,"RA Eka Widyawati"
522044646,giesta12,"anggie nursita"
4322348091,sekarputri.f,karinn.
7926279819,rachelmelindai2018,Rachel
4205606484,ibra_sakura,ibra_sakura
2007712952,caca.casya,"AISYAH SASYAAA🌻"
4168050248,maleksizy,SizyMalek
589161874,ussyfarhati,"Ussy Farhati"
5530624180,renipramono89,renipramono
3035597800,istidwiatma,"Isti Dwi Atma Yanti"
1167848462,rya.bolilera,"Rya Oa maria"
1500860625,nilakand,kandi
9131291138,jajananinsta,jajananinsta
5839173793,rhusmaumma0804,rhusmaumma
5523600508,elsaclaudiya,
7636107869,zhaza_ameer,"Little Black"
711392609,fiionita22,mega22
1136542116,azilaamas_,"Azila Amas"
241311811,raissabianda,"Raissa Bianda"
8444545483,ponnybeautee,"Ponny Beaute"
1275191459,lestariit,"Cahaya hati"
1835807425,lindagendut,"Linda Si Gendut"
589081588,mayindrayani,"May Indrayani"
1078738046,mmuflikh,"muhammad muflikh"
31657091,19dy.anisa,"Apryanda's Wife❤"
1464236803,nila_kartikaa,ilong
3676320207,rbr_09,Rifkiiibr_
8682318170,giska_id,giska_id
2035948375,bellalvsc,"Nadya Bella Alvisca"
4517075001,folkfood_,"Food Expert"
7109752749,mama_dizi2,dizi
1640604697,fenisaori,"Feni Risnie Zaori"
5817618023,alissarumra92,Alissa
2083475177,malamallo,IkaNovitaK.
2157319047,yennypuspawati10,Yennypuspawati
8247099174,mbem_bee,"Mbem Bee"
3194457784,febrianti7016,Febrianti
5649107223,ffatmawathy,Rump_
5589848030,wiestore.id,"TOKO SERBA ADA"
1804756756,dewifatma_e,"Dewi Fatma"
7061303353,zen_kamea,"zen kamea"
8264552396,abembenk,Bembenk
1525569476,maharanidjajalelana,"Maharani Djajalelana"
9774716553,nayaknay,
5452187905,kartika5448,"Kartika Dewi"
2021363227,chechecameron,"cheche cameron"
35292499,yashintanaibaho,"yashinta naibaho"
5327802861,menjual_berbagai_macam_,shop19
934545717,elisabethsirimavo,ivoo
6106112615,crewdible,Crewdible
1421910920,chicksgoespyak,🐣💛✨
3477269114,novirustiaputri_,rus♡tia™
5584081127,laila_strong,lalapowh
1816207235,karrenaima,Rena🌞
1938831559,viecwantix,"vivi febrian"
2068150165,yulisaptaa,"Yuli Sapta"
1377411174,elsaharianja,"Elsa Harianja"
1937822640,seftianaputri,Seftianaputri
1685428863,kasidah__,idhaa
6063056486,ayskincare3009,AYSKINCARE
6246313163,sha_arwan,Mossarofah
7218263198,susanticuan,"🔎  Susanti NONA Cuan  🇮🇩🌾🎵🎵"
2874144481,tataraa_lips,"TATARAA LIPS"
5580139880,baby_massage_inject_whitening,GloryQueen
1410313919,annaamariiaanaa,Annamariana
1112464273,yenciawen,"Yensia_wen 💜💜💜"
4067903025,clelia5693,"Maria Clelia"
1520531797,mybeautyshop.blt,JUAL_PEMUTIH_TUBUH_AMPUH
4369247920,labiba_____shamim,fariha👑
591775874,brnatasha,"Bernadette Ratna Natasha"
4268824030,agitamlia,1997✨
1464331043,oni_mituhu,Oni
1315556645,huriei_gc,"gc grace"
2956960258,hairiyana.syari,
224557873,joytodaworld_,"Joyce Irene"
1467327086,kikirahardjo,"Rezki Amelia"
7472909529,marlindotumada,"Wa Ode Marlindo Tumada"
3056573345,ukhty_11_arimbi,ukhty_arimbi_99
4017575794,ditarestika.pws,"Dita Restika Putri Wulandari"
269299460,meitafilaeli,"Meita Risqi Tri Filaeli"
1542792743,kindranila,"kurnia indranila"
481385205,olandasella,"Olanda S Sembiring Milala"
1288775462,ikassimanjuntak,"Ika Sartika Simanjuntak"
2307257272,nurlisa_setyasih,"Paradise ❤ Allah"
1319329894,handsupbag,"hands up"
2274536330,r_haerunnisa,"R Khaerunnisa"
1768572768,ayunrdh,"A Y U"
5342895745,vie.nasution,"Vie Nasution"
2237963660,ariella_ingrid,"Ariella Irmigread Victor"
3037546615,sahlah_nahdiyah,
3626659621,atienkirana,"Atien KiRana"
216604547,adityarinas,"Aditya RS"
8591469528,imranshaikh8263,"Imran Shaikh"
2249757830,clarence.laurent,"Clarence Laurent A"
8326360639,eriika_young,ERIIKA_YOUNG
8596428540,tambunandesvina,"Desvina Tambunan"
4012562696,septiana_wulandari19,"Septiana Wulandari"
2009715272,thegoldenfortune,"The Golden Fortune"
3955691975,karpet_karakter779,"karpet karakter"
7218758154,azizahayuanggraini,"AZIZAH AYU ANGGRAINI"
5622146640,fitrianisanirmala,FitriAnisaNirmala16
7396520821,tamkeen89,Tamkeen
364635049,serinah_lie,"serinah lie"
4045006194,chilla9325,"Chilla Aulia Putri"
537027790,sittaisyaa,"S. Aisya Nur Khasanah"
186827081,ranitania.yohana,"Ranitania Y Astari"
1410830639,jennifer_jevinsen,jennijevin♥👫
2102085500,anggy_a.m,glowingbyam
4627658916,territiatedja_apt,"territia tedja apt"
6945313767,t.ces4127,DitaWT
1526071707,dheadarojatun,"Dhea Darojatun"
6644732823,rienrien4740,rienrien
2876309218,mamatotty7,"Mama totty(Mrs.Purba)"
5503798590,tiopanggabean,"Tio Panggabean"
4165720480,fira_1185,firaaa
1420071228,pramitaauliasari,"Pram Nst"
3918102155,tiara_gustianiani,"Tiara Gustiani"
5674060841,rini_octavia26,"rini octavia"
5813416915,titaniaaurily,"Titania AM"
5769724005,fitriu.n,Fitri
8722577604,aku_tetap_aku689,"aku tetap aku"
2328025027,aelznb,
2265062706,aureliachintya59,Aurel
1960925109,nanikmenikk,🌹Nanik🌹
6740388236,sussnnto,陳俊銓
5367374580,saputra_snowboy,"rendi hadi saputra"
358104476,arisulistiyani,"ari sulistiyani"
285245023,diahayusa,"Diah Ayu Septiani"
2373197644,rmta_9,"미따 리얀"
6927595466,mafaza_ostore,"Tiara Oktaviani"
9267017394,_bajuhijabootdku,bajuhijabootdku
1923508417,ulpasri,ulfasrimaryam
425340881,nunipru,
7270437298,rockbottom9690,Damnit
4259861214,hamidah1106,Hamidah
5323372180,semasa.ketjil,"Bunda Duo Krucilz"
4040280479,rahmyst,"سيتي رحمه عنجاني"
2252357589,bi_syarf,"Lia Syarifudin"
1521756164,demiyogi.pratiwi21,
1559478547,dvine_lee,Vina♣️
2221086944,ambu1203,"Siti Maryam"
1568320668,vebyvalentin,"Veby Valentin"
555246318,vindiats,VINDIA
5847938740,anastasiakesha,kess
1257896191,rinanoviantika,R.Noviantika
4775338433,mangestiarieka,"Rieka Harnanto"
4143525865,badiett,"ardita putri andini sinambela"
1347285413,dattymardhatillah,"Dati Mardlotillah"
2424129038,ica_desiica,"Desi Ica Afriani"
350330553,desirizzeki,"Dessie Rizzeki Putriyanti 🦋"
633773614,dianmustikahapsari,"Dian Mustika Hapsari"
2000805790,farida.indrawati,"Farida Indrawati"
1968635466,mhmmd_suhufi.ramadhan,
4116285967,putriayuvania,vania
1626170010,alisalive22,
6018193381,hananya_fega,HananYa
3555707357,hennyutami_01,"Henny Nadya Utami"
351215363,tsabitafa,"Tsabita Ariba Firyaal Afaanin"
4025811578,ainurrosyidah3703,ainurrosyidah
307111140,rnoraaaa,"R Annizya Nora"
3027730203,dewihovi,Dewi.Ho
2919771785,deesyayunurhikhmah,"Desy Ayu Nurhikhmah🐼"
3167630355,zubair8015,"M.D. ŽÛBÂÎR ŠhÊÎK"
2536380078,yuliani.marsum,"yuliani marsum"
1369898874,hanatiarahma,
2189330390,faradhillah28,faradhillah28
2048509524,catherinetjipta,"Catherine Tjipta"
3042624368,queue.please,ANA
227692877,nur_syam,Nur_
4252882026,muggis91,"""Dhyna Muggi"""
4914953848,its_rohit_dedha,"R O H I T - D E D H A"
2047400656,umi_indarmawan,Umi💃
3815029627,arinputu1,"NP Ayu Yossy Arina"
1824875631,nina_pisces,Nina_Band
2182886115,aliza15,"Siti Nur Aliza"
8535257223,shafa_nairaa,Nayyy
7366045129,haniahulfatul,"Ulfatul Hani'ah"
1732293080,ayu_cayang,"ayu cayang"
6765452849,derleyroliver,"Derley Óliver"
1347305276,keisyazahrah_,"keisya zahrah putri p"
4114242379,galih_rega,Galih_rega
9189018987,zhaafirah_hijabsby,"Zhaafirah Hijab"
5942755472,dumbas_,
294740281,nurindahlian,"Nurindah L"
6040234475,dynobite99,dynobite
295597519,vitriyuw,vitri
1822399428,sintajiminbts,(신타)
4253772150,florenciaelv,Flo♡
9270306336,raissaaaaajadah,"fatimah raissa a"
1928950921,educational.produk,"arum shop"
2238121486,amynabadhawie_,"أمي نابداوي"
1931615106,sellynilam,yayang
3189879998,epi_purtka_am.keb,"Epi purtika"
4014027229,aismldyh_,"Asyh mldyh"
1642401988,malisa.nm,"نور مليسة"
40357713,yuanitalbhar,"Yuanita Albhar"
373483217,ellysean09,"Gusti Gege"
4028581943,rhiryergant,"Rhiry Ergant"
358205355,auliaslsblashr,"Aulia Salsabila Ash"
4469071168,dhesfit_diana,DesiFitriDiana
9013260261,erni_novita11,"Erni Novita Sari"
6361467759,yuniarti697,yuniarti
6850131066,erawani_16,"Era Wani"
1353932436,syadiahkhalima,"Syadiah Khalimah"
1288646969,amaliatushaliha,"Amalia Tushaliha"
1608672553,sabria008,😀
2268994901,aprianaa0504,Apriana
2551659947,melamasliah_42,"Mela masliah"
657779204,meindiar_wikanta,"mrs.diarardhian 🌹🌹🌹"
1732009168,vanelgi_putra,"Vanelgi Putra Samudra"
1642550880,nabielachasya,KumalasariNabila
213057882,evaaja,"Eva Margaretha Sinaga"
6934117745,citra_adhi,"Mieke Damayanti"
2955364747,cici_m1296,cici
1585998818,meisyarita_witriana,"meisyarita witriana"
9169987603,q_123_a,a'yun
1380755258,savela_utari,"Savela Utari"
469372532,wardanikusma,"MAKEUP: @bywardanikusma"
1690477316,tyakstew,Tya
4450968187,shizy_rose,Shizy's
7344035075,pipoismyname,"PiPoo Design"
5413525084,telefonlar.az_,"📲 HƏR NÖV TELEFONLAR BUYURUN 📱"
6980535941,naa033_,erna_wahyuni
1683277194,dessy_deden,dessy_deden
4731898372,jihanputri.s,jihan
2103329090,acengmisna,"Aceng Misna"
8511090114,bintang_butik_muslimah,"Toko Bintang Mode"
9023103822,gk425662,Anjali
4617201145,sellyfkay,sellyfika
4185118685,bagusyuan1,Agus
5949330876,ezravita_,Ezrarevitaivanka
1485397521,rifda_aisyahlani,"Rifda Aisyahlani"
3626332030,_syfnzm_,"syafiqah nizam | MY"
2091350576,b.baesic,
2701530876,azzalina_official,azzalina_official
248085420,febyvy,"Feby Valentina Yusuf"
5411498010,nadiasalem94,NadiaSalem94
4410801703,ivahroeslan_mr,"Ivahmus R..."
2361275816,lia__ab18,"LIA AGRESSIA BOANGMANALU🙋"
9265760516,oriflame_plg15,"Cinta Oriflame"
6990312126,ghinaafairuz_,"G H I N A"
708253864,yulapopo,"Yula Wardiyana"
4255290336,bisnispaytrenindonesia,"#PayTren 100% INDONESIA 🇮🇩"
335220185,cucu_88,cucu_88
5729335392,kopiluakkkkk,rempoakasyikkk
5522152214,19sasabila,shasabilla
1622317813,cynthiapuspawaluyo,"cynthia puspa waluyo"
193997784,kameradalex,"Alex fernando's fam"
2880259415,tiur79,"tiur siahaan"
843537310,andhita15,"Andhita Sekar Ayu"
548342471,leily_april,"Leily Apriliani"
1526881649,meycasaaqta,"Mely Yuliana"
6694161589,sulvitha_,"anggita trisulvitha"
2205642166,aprntfk,"Fika Aprianti"
2285767939,nineteen196,
3313199774,anggraenii31,"Anggraeni Oktasia"
283379246,erna_rahmawt,"Erna Rahmawati"
4140314234,adeliaa_er,"Adellia Ega Rusiada 🦁"
3953112398,kitriyani_11,"kitriyani 11"
1797891747,ammalinaqa,"L I N A"
8334754141,skinglow_jatim,"DISTRIBUTOR MAGIC SKIN GLOW"
6387700234,_fairuz_zahrani_,🐩🐶🐕🐇🐥🐤🐣🐰🐼🐷🐸🐒🐳🐋
1387399582,dhiansiwik,"Dhian Siwi Kusumaningtyas"
1390536329,biancasalsabilaa,"bianca salsabila"
1651740916,septiza2309,rezza
3614499823,naunauptr_2309,나우라
9227690755,jordie_jonah,"Satu Darah"
5799251873,ekydellaerithryna,"Eky Della Erithryna"
2166359871,elisanatalia7788,"Elisa Natalia7788"
1601400544,lauwgoenyung,Yong
7944510328,rendy.271,"Hati Ku Selembut Salju"
5603812208,ayusintyawati_,"ayu sintya"
8424588757,lucy_sam7181,lucy
4159610180,chikaaasp_,"Chika Safitry R P"
4070725080,hikmahramadanti,"Hikmah Ramadanti"
1067807283,devinurfadillah_dn,"Devi NA"
7049707364,quotedamnquote,bestquote
1583461755,elzbtct,
4474417836,faidanovianulfa,Fida
2091018121,jirapzm06,Hijrah
5417082010,tariegalang,"Tarie Galang"
2076294671,irmahestyana06,IrmaHestyana
5921746385,khutzaa,Al_fiya
8577721145,fifah.zhra,"عفيفة الزهرة"
9149878169,gilang.vrgn,Gilang.vrgn
8790650433,bsrujakaceh,"BUMBU RUJAK ACEH BUNDA SARAH"
3658372853,yeyen1902__,Yeyen
3700880029,isya__rizky,"Produksi Sendri"
6112000391,caca.r,"caca rahayu"
4023416231,adenining32,"Ade Nining Yuningsih"
2194079775,ayuwulans_,"Ayu Wulan.S."
6851161939,putirnas_,PUTIRNAS🐼
3551222421,r.anggi_,"ʀɪᴢᴋʏ ᴀɴɢɢɪ sᴀᴘᴜᴛʀɪ 🍒"
8290067713,shahbas.textile,"TOKO BAHAN / TEXTILE STORE"
5346539517,vioretapputri,
1996953246,nusaima_azizah,Nusaima_A
6229011720,indachkusumaa,"Indach Kusumaa"
9136782766,nadialaau,nadilaaulia
9251913431,ksp_mino_martani,pinjaman_danacepat🔵
2282500075,santhy_rizki_f,santhyaex
7340763194,rusnaliayunitarp,"Rusnaliayunitarp Bamega"
2189746856,pipicioey,fitria
2132655098,che.aini,"che aini"
2530302694,imachoma89,"Ima Chomaidah"
1926189315,windypradhani,"Windy Ahma Pradhani"
709009311,ayundanovi,"Ayunda Novi S"
3038331189,everwhiteid,"Everwhite Beauty"
9539634865,zhirzui_bahkuuu,zhuho_ir
7151222626,yslyani_,"Y E S L I Y A N I"
9040989495,nopianibrylea,NOVIE
6197720685,riyu6022,"D.Ria Riyu"
5863628661,endapeccekk,"Riris Endayani @artofenda"
5997366493,ganana.chips,"INI HANYA AKUN UNTUK PROMOSI"
640534871,hildamarissa9_3,"Hilda Marisa"
3646832358,meraki_bracelet,"MERAKI BRACELETS"
5644631681,kavithapanneerselvam86,kavitha
3057173192,gramcaster_patungan_,"PATUNGAN GRAMCASTER MURAH"
6073760486,mmazkaolshop_,"Wilayah Seputaran Pelaihari"
6817848616,tututsawahhh,
1964289193,megayanalisa,
10149579283,salsaaz16,"Salsa Azzahra"
6341618547,ska.af17_,"سيسكا ايو فيرناندا"
10005858561,tnyputeri92,Tny.Puteri
2887029431,pendaftaran_resmi_paytren_5.17,"Agil Reola Septian"
2344844745,wiranti4662,wiranti
1950529100,pemutihgigialami.id,"SUPER WHITENING TEETH"
10332976718,_sitnaalhamgafur,_sitnaalhamgafur
4253354451,pesonadinda,"Dinda Pesona"
5712380929,ridha_agnes,"Ridha agnes"
1530173172,winaslsbla24,wina
7162520605,rangga_vlog01,RYP#154
2310244608,riskapriscilla,"ʀɪsᴋᴀ ᴘʀɪsᴄɪʟʟᴀ🔹"
6238169020,kjnan_sari,no
8522241572,dst.dnr,
9383514452,vemoshi29,"Veida purwati 🐢"
9277267186,stokis_produk_herbal.ori05,"🌿Pusat Herbal TerbaikTrusted!🌿"
6571455631,mira_dyanti,topan
1523740479,lianawinata.lia,"Liana Winata"
1003538339,michaelpormes18,"michael alfredo pormes"
5803217595,taekinekng,teew
2934265449,gerainonatia,FULLHEART-JASMINE-AYUDIA-DLL
3889689434,mao_maocat,"pussy caty"
8240851927,dapurku_store,"🌼 Dapur cantik 🌼"
6905035387,chuzznulchotimah,"_Chusnul Chotimah_"
1464268943,meredhian,
1392694193,yulianfam_,"Yulia Nurul Fadilah 🍨"
8023886563,lia_febriani_134,"Lia febriani"
8333341108,aprelia_f,
5537194443,astabettashop,AstaBettaShop
3293058871,foslive,FOSLIVE
1557168947,daivimadhur,"Daivi Madhuryanti"
579210571,fdlrxx,"fadlina r"
5811131452,raja_property_,"Raja Property"
4382666103,kmarsh_03,"Khana Marshanda Z Finishia"
263245972,cintyagstn,"Cintya A"
1417919461,themyborang,"Themy Adelweis Borang"
1390051893,juliandy809,juliana
1406734952,dwrhmdt,"Dwi Rahmadita"
2988808737,udin_tong,sfdn
8366816119,nishafara7,NishaFara
3476133566,pingkansumilat,Pingsu
1709832089,hallyoutfit,"• HALLY  OUTFIT •"
7125186539,rpdmanagement,"FREE ENDORSE ➡ DM/LINE"
1910801349,mahamunipande,"𝕸𝖆𝖍𝖆𝖒𝖚𝖓𝖎 𝖉𝖊𝖜𝖎 𝖕𝖆𝖓𝖉𝖊"
5602535345,_tasyaaazzz,SCORPIO
5726804687,amanda_rahma_milano_,"Amanda R.M (아만다🐼)"
2027117077,lijaurwati,"lija urwati luska"
1673645727,nur_eka_wulandari,"NUR EKA WULANDARI"
8661271095,learnings.yes,learnings
1451669953,reyhan_aal,"Reyhan Alif"
2726146514,_vitafitriana,"Novita Fitriana✌"
8674493919,mamanbonetto,"Maman Bonetto"
581912030,lubna_ibun_ayah,"Nung Aime Nyunyamumu"
1447184411,erma_april,"Erma Sugiarto"
8652756838,dr_rudi_bee,promilsehat02
6015994782,eatloveandyou,"eat love & you (repeat)"
4896611215,radesysuryanita07_,"Radesy Suryanita"
2945891747,amaliaghoshez,"Amalia Azizah"
4034628604,mesirifas_,"Safir BianGindas"
1533232312,yemievrina79,"yemi evrina"
8567799738,sweetword0509,
8679594469,monika_simamora29,monika_simamora29
3275873639,yolandaudria,"ʏᴏʟᴀɴᴅᴀ ᴀᴜᴅʀɪᴀ"
2240394350,puja.dnthandaru,"Puja Dianti Handaru"
9008557248,akkkbussines,rinaakaa
1333468345,chicha_shiok,"susantieka shiok"
8995053685,mitaafn__,"Mita Fahrudinarti"
6857690570,a_h_a_y_e_e_k_h_a_t_i_a_n_,"Åbdül Hayêë khañ khatian"
5467905577,nidiyaefendi_09,"Nidiya Efendi"
5383082963,kampusdaily,"KAMPUS DAILY 🛐"
5343152784,kionuscoffeeshop,"Kionus Coffee Shop"
4187074319,eyelash_bycharlotte,"eyelash extension HOME SERVICE"
7103237552,bidan_triany,"Distributor Medis & Kecantikan"
9200239567,singapore_oribrended2,"Jasa Titip Singapore"
4717032950,attvaraakbar101,"Akbar Attvara Sembiring"
8913815077,pembesar_peniiz_titan_gel,"OBAT PEMBESAR PENIS TITAN GEL"
582715807,ridanti_vr,"Ridanti Vinita Rahmasari"
10235985828,_socialmedia_marketing,Followersme_
5384717997,isabella.s29_,NonaSoludale🌻
1612035526,kezyananggiang_13,"K Kezz👽"
4920871151,nutrien_herbal_store.id,"SUPLEMEN INDONESIA"
1412633800,yonatengker,"Yona Tengker"
9729351759,kedaisekarjagadofficial,"KEDAI SEKAR JAGAD"
10151868197,kamila_meisha,Kamila
7941615029,heraasuta,"Not just a fighter.🇮🇩"
5564865632,aisyah.adn,A.A
9367977222,baramanagement,"OPEN RECRUITMENT TALENT"
5584816767,pitrianipiliang,pitrianipiliang
5866984634,karenkiaaaa_,"KIA 🥀🥀"
3692728680,safna_wati,"𝓐𝓯𝓷𝓪 🌻"
5634543774,joannacabriella14,bismillah
2007497503,lambe_turah,"Bukan Akun Haters / Fanbase 😘"
367005646,dagelan,":Dagelan - Asikin aja lagiii"
559910002,30.fps,"Ahdiat fanada"
3040086053,nasihatmuslimah_,"Nasihat Muslimah"
7294590148,yolaa65,🍒
5735762926,llndaa__,"Linda ayu"
1106297931,eistifani_fajrin,"Eistifani Fajrin"
349333166,zin_helena_song,"Zin Helena Song"
1516669949,khoirulamri__,"Khoirul Amri"
5647364791,ipul__46,syaiful
5447934141,boxofanswers.id,"Box of Answers [Indonesia]"
2274829947,merci.amie.catalogue,"Merci Amie Catalogue"
3677221927,peace.management,"Management Endorse/ PP Artist"
3624660208,forklifts2012,forklifts2012
2096574004,qalesyamecca,Ayak_
8643603942,haiykyu_yu_nishinoya,"Aditya Pratama"
7018242114,tsurayya.hijabstore,"DISTRIBUTOR A.D.E.N HIJAB"
7381602009,svsptr14,"Silvia vanessa saputri"
3000678984,novianasptr_,"Noviana saputri"
9261639238,wony_food__,"워니의 먹방 이야기♡´･ᴗ･`♡"
309631432,janetiluckysafitri,"Janeti Lucky Safitri"
574624440,theofficialpandora,PANDORA
3059858599,mynoco.id,"BAJU MURAH & BERKUALITAS!!!"
192915861,hijup,HIJUP.com
6599832466,yunita14_0,"YUNITA RAHMAWATI"
1832564683,iconic_sister,"Professional Endorse Service"
3984400439,cchannel_id,"C CHANNEL Indonesia"
2350752201,lozi.management,"FREE PROMOT OS KLIK LINK LINE👇"
54745555,ginameidinaa,"Gina Meidina Putri"
595472356,cynantiapratita,"Yuki-ko Chan ゆき子"
21256580,karishaizzati,"karisha izzati fedila"
643488895,marsyaayuannisa,👻marsyayuannisa
8619252,nabilagardena,"Nabila Gardena Putri"
18732632,nadyamaudy,"Nadya Maudy"
281223440,fatmamelati,"F A M E L"
7057873,tatjanasaphira,"Tatjana Saphira"
375053709,septriasaacha,"Acha Septriasa"
6966932497,cacamanagement,"PROMO FREE GRATIS ENDORSE"
275970856,sorayarasyid12,"Soraya Rasyid"
8034854,hestipurwadinata,"Hesti Purwadinata"
7764951,aurelie,Aurélie
23670875,deaaannisa,"DEA ANNISA"
19250141,michelleziu,"Ｍｉｃｈｅｌｌｅ  Ｚｉｕｄｉｔｈ  ｗ"
225064794,prillylatuconsina96,"Prilly Latuconsina"
237816708,laraspermatasari,
1124281,dierabachir,"*  Diera Bachir Photography"
4489002911,tyadhityaaa,"Adhitya Agustina"
286835441,seliagsel,Agselia
16150850,mandce,"Amanda Shafira"
31984910,kykuu,"Anastasia Herzigova Pamungkas"
17503150,antikarifani,"Antik Arifani🕊"
550469373,aurorafeliciaz,"Aurora Felicia"
6248390624,akademibisnisdiggital,"BELAJAR DIGITAL MARKETING"
417511561,bellmirs,"BELLA ALMIRA"
346939649,belqisegis,"belqis alfiandes"
9375815374,thebestmanagement,BESTMANAGEMENT
2003746883,jolysproject,"Bohemian Sandal Ready Stock"
258514671,callystachristy,"Callysta 🌺"
1920871008,celosiaetnik,"Celosia Etnik | Bandung, INA"
258733941,angelicachelseaaa,Chelsea
5735890,chelseaoliviaa,"Chelsea Olivia Wijaya"
477653779,chiciherlina,"Chici Herlina Malik"
26111996,cinthialouis,"CINTHIA LOUIS"
291339823,artpreneur,"Ciputra Artpreneur"
1378819990,clairineclay,"Clairine Christabel"
3179241080,hellobcr,"Creative Marketing Partner"
1606340601,deanahanifaaa,deanahanifaaa
390831990,deviennaaa,"DEVIENNA MAKEUP"
23767166,dindahw,"Dinda Hauw"
25822091,dagnesia,"Donna Agnesia"
179319550,aestetika_,"drg. Aestetika A.D Malano"
4587613371,dyamanagement,"DYA Management"
2064865581,lucky.management,"ENDORSE MANAGEMENT SELEBGRAM"
8209854372,famous.management,Endorsement
4538602912,mk.management01,"Endorsement, Campaign, Buzzer"
303277106,ersyaurel,"Ersya Aurelia"
3261799,gisel_la,"Gisella Anastasia"
196750152,gitasav,"Gita Savitri Devi"
2200986667,merci.amie,"Handcrafted Leather Bracelet"
3923935311,henju.by.gracy,"henju by gracy"
1386379043,hennikalista,"Hennika L Dewi"
4138939037,hi.management,"Hi! Welcome"
4555019653,weareinacraft,"INACRAFT 2019"
2311708339,indonesiafashionweekofficial,"Indonesia Fashion Week"
186531069,jadedarmawangsa,"Jade Dar-ma-wang-sa ✪"
447065275,jfwofficial,"Jakarta Fashion Week"
311126201,jfff_info,JakartaFashion&FoodFestival
146147037,jessicathomaas,Jessicathomas
186874048,juventinew,"Juventine Wu"
1319097434,keziaclarita,K💎
2993265,laudyacynthiabella,"Laudya Cynthia Bella"
1436050281,lidyapatriciaa,"Lidya Patricia"
1319836413,lidyapraditta,"Lidya Praditta"
552308134,lindagosann,"Linda Gosan"
4767932905,lucielle.jewelry,"Lucielle Jewelry"
6066302549,seleb.management,"Management Endorse"
2977184203,fabulous_id,"MANAGEMENT ENDORSE"
616874831,pada.management,"MANAGEMENT ENDORSE & CATALOG"
1821019,maudyayunda,"Maudy Ayunda"
256512333,melodyprima,"Melody Prima Ananda🍂"
3019498868,muslimfashionfestival,"Muslim Fashion Festival"
1410398427,nabilabellai_,"NABILA BELLA ♡"
1575677272,nabilahcil,nabil🌸
663567947,nacre.jewelry,nacre
361869464,natashawilona12,"Natasha Wilona"
6477149,ramadhaniabakrie,"Nia Ramadhani Bakrie"
999303785,nida_fahriyyah,"Nida Fahriyyah"
8272494362,ootd.hijab.style_,"ootd hijab style2019_"
6490969005,paradope.id,"PARADOPE INDONESIA™"
4677977790,shofa_craft,"Pusat Grosir Bross"
2204117854,auroramanda95,"Rachel Amanda Aurora"
6223910,raniramadhany,"Rani Ramadhany"
826782681,reistaputrii,"Reistha Dhita Putri"
197623140,rhesmanissa_,"Rhesma Annissa ♡"
457649651,nadra_shahab,"Riri Nadra Syukria"
18082448,queenisa,"Rr Annisa Nur Utami"
5859485733,rumah.buzzer,"Rumah Buzzer Management"
664200848,ruthhstefanie,"Ruth Stefanie"
11096738,sandradewi88,"Sandra Dewi"
1297336978,srhaltss,"Sarah Alatas🌻"
5160121307,oleh_segara,SEGARA
9149455100,shopping_newyear_2019,Shipping_hoodie_pants_2019
1977409299,sin.sr,"Sinta Sri Antan"
1490384529,something.fancy,"SOMETHING FANCY"
46974074,sonyapan,"Sonya Pandarmawan"
31737388,syaheerabdwhb,"Syaheera Abd Wahab 🕊"
242689196,sitiritaa,Tata
1132774401,theabernice,TB
5849366646,ateam.management,"The A Team"
4004382284,carajualan,"Tips Jualan Online"
16999073,titantyra,"Titan Tyra"
1832652847,aurelie.hermansyah,"Titania Aurelie Nurhermansyah"
29837504,titi_kamall,"Titi Kamal"
6647799029,alzahra.mutiaralombok,"Toko AlZahra Mutiara Lombok"
7502128490,fawrejewelry,"toko emas perak silver pesanan"
3045987146,trustandwell,"Trust&well Leathergoods"
273154790,vaniakwans,"Vania Kwan"
191370542,veveronika,veve.
3585502256,vevey85,Vey-vey
1397048523,vivienne.wu,"Vivienne Wu"
1203284094,byputri,"WEARABLE EVERY MOMENT"
7262728,yukikt,"Yuki Kato"
201802307,yuliafirstian,"Yulia Firstiannisa"
818333280,zaskia_gotix,"Zaskia Shinta"
52867781,zaskiasungkar15,"Zaskia Sungkar"
332414514,elisarustam,"ᴇ ʟ s ᴢ ᴜ ʀ ᴀ"
6231505585,irennakristyn,"ᴏᴘᴇɴ ᴇɴᴅᴏʀsᴇ ᴍᴀʀᴇᴛ"
2028348127,lucan.shop,"• GELANG FASHION HIGH QUALITY"
5342498,marshanda99,"⠀⠀⠀⠀⠀⠀⠀⠀             MARSHANDA"
682843402,harumi_tanoto,"はるみ ☾"
5822418604,alamandaptrr,"𝓐𝓵𝓪𝓶𝓪𝓷𝓭𝓪 𝓹𝓾𝓽𝓻𝓲 🌹"
525119062,rifkarosiyani,"𝓡𝓲𝓯𝓴𝓪 𝓡𝓸𝓼𝓲𝔂𝓪𝓷𝓲"
1388949532,auralesmana,"𝖆𝖚𝖗𝖆 𝖑𝖊𝖘𝖒𝖆𝖓𝖆 ♣️"
1417051588,ariskaarlinda,🐭
3246498060,samudra.management,"💙MANAGEMENT ARTIST💙"
502206978,irlitalmaida,💞ALMA🦄
