Userid,Username,Fullname
1601135975,pedralwatches,Pedral®
6242368334,kotaksalma.id,"BAZAAR ONLINE"
740571265,septianap21,tia
4519375519,muliarinivamulia,MULIARINI
32789825,dannypaesmakeup,"✨DANNY PAES MAKE UP✨"
5658358688,iyusranadr_,
7489390589,nezir.erkiz33,"nezir erkiz"
5932858033,saristathebecker,"Sarista TheBecker"
3293324155,onboardunit,"Mesin E Toll Pass"
2209298577,griya_azza,"TEPUNG PIZZA INSTANT"
2069461727,korekayu,KOREKAYU
4003021958,aimgrafika,aimgrafika
7887965632,berlcosmetics.bogor,"B ERL COSMETICS"
1716950775,allonatitan,Tantan
21322008,ranggapw,"Rangga Pradipta Wardhana"
214784502,kelepino,"Kelfien Jayadhano"
658158688,cacarifai,"Riza Rifa'i Arrasyid, Skep"
9987365874,lyta_agustin,"LYTA AGUSTIN"
9778023129,ayusarikopi,Ayu_sarikopi
492292737,laudhita_if,"Laudhita Iftitania"
1971466994,riskaadc__,
9457272596,diamonds_herbal_open,"PEMUTIH PENINGGI PELANGSING"
7057434181,yoseyosua,Glen
194316588,tantikartinitan,tacuphacupz🍭
2311000885,mariosianturi16,"A.M Mario Sianturi"
3987785892,royal_jassi_,"Rub Daa Banda"
2047465866,justinchandra_jcm,"Justin chandra💯real_acount"
2324446116,nicosaverosr,"Instagram of Nico"
4094456015,adhelia_pratiwi07,"Adelia D Pratiwi"
1381743401,bryanmatthew99,Bm
3139689886,hherliana07,"Hera Herliana"
1799139966,zulfikri174,"Zul Muqini"
7283819911,rahmat_maulana037,"Rahmat maulana"
1421100674,syhriidxn,"Syahri Ramadhona Gucci S.S"
433955458,ariniyuliyani,"ع ريني يولياني"
6599308328,ferdian_rizki.s,Ferdian_R.S
5400945338,nie_farah,
1647746832,nr_zia,"Allah SWT"
1230537388,devirsr,"d e p i"
535958501,pipitw_,"Pipit Wijayanti"
183133825,carloragusa,"CARLO RAGUSA | PH 4 PASSION"
2323497710,nurasiah_nugraha,"M abyan farish N"
7859373915,mustofanursidiq,"Mustofa nur sidiq"
4343125736,nevcanalma,"Nevcan Alma"
908739670,alifiorb,"Alifio Ricky"
1987643499,alkautsarrizki,"alkautsar rizki"
7730460569,nunu1102001,Nunu
7519599481,nindyaaanin,"nindya aisah indriyani"
2231977262,friiisska,"friska devina ♡"
5936472842,ahmadhadzami22,"ahmad haikal hadzami"
5456414689,deljazmine,"Delilah Jasmine"
1528249953,jericodennisp,"Jerico Dennis Panjaitan"
770935924,nugi24_,nugi
3286383309,ardeladelas,"Ardela Odinsson"
4370825584,ayu_chan1896,"Ayu Chan"
6320236407,ali_yusuf79,ali_yusuf_orakcıoğlu79
1468921168,fataalf_,
3828250259,ketty_qui,Ketty_qui
1799279244,sijamm,"siti jamilah"
1521047860,omersend,"Ömer Şen"
3204556438,jarbud1,jarbud
6015468798,febriyanti132,"Juwita Febri Yanti"
1614229416,rikaprahayu,"Rika Puji R"
7538213165,adenuryani80,"RESELLER RESMI TIGARAKSA"
3602611386,michael_george_christho,Michaelgeorgec
4034045034,mehmetergun.tkd,mehmetergün.TKD
2213567665,asil.klcoglu,"asil kılıçoğlu🔱"
2112320165,sukminimimi,Mimi
400189913,gozdeoffical,"ES Piar Ajans Danışmanlık"
2038958689,cristinep.sianturi,Tintin
4147707891,dimasap00,Dimas
5626308874,ichaliza1006,ichaliza
499378469,sitiquonata98,邱車麗
5584079605,renildawicaksono,
6817610229,ruvey_perla,ruvey_perla
486740728,arizallhk,"احمد ريزالل حربي"
540736185,daneswara.p,
4162686862,niynarahardian02,"niyna rahardian"
6242911023,magdalena_aura188,"Aura Christie"
1934706227,eva_slstyana,
6746898459,yaelahhhcuyy,
3257704560,ririsrihassanah,Ii
1537245354,danikchan,"Danik Chan"
3255069162,made_widhy89,"Made Widhy"
145299513,kadekkrama,"Kadek ""Rama"" S"
2024287403,cutsyfrandjn_,"Cut Syafira Andjani"
4699543782,putraadam_007,"poetra adam"
6268463647,ryan.alikhsan,"Ryan Alikhsan"
1430551274,yolanda.cl,YolandaClaudia
5598712117,cornelysdaniel,"Cornelys Daniel Ratulangi"
6735977517,aprilia_official_shop,"siskha official shop"
2130039960,fitriaalami,"fitria alami"
1544623351,iamdenyh,
4475599138,verezia_yolanda21,"verezia yolandanya"
641208578,cicihsavitri,"cicih savitri"
3310549732,yosiaming,"Yosia Ming"
261613559,yayi.fsonata,"Yayi F. R. Rosalisonata"
1392121923,ritahyani,
1394768208,purnamaelsbth_,"Purnama Elisabeth 💎"
3292369326,jescelynnaurelia,Jesc🔥
435594505,fierabyntr,Fier’s
1646492628,muqita_resa,muqitaresa
1932993490,muhammad_fazri15,"muadz al-fajar"
2008600461,fajaarwibowo,"Fajaar Wibowo"
3562360270,nadiya_hidayah,"N H"
1987440826,dikyfm_,"Diky Faqih Maulana"
721066524,aji_mulyanto,"A J I"
6904382060,bagajeme_kuliner,"M Rizky Pratama"
547331539,bella.crist,"Christabella Augustine"
1978250846,abienaura,abienaura
3017737638,larees_babykidsstore,"Jual produk perlengkapan bayi"
4278854414,dompuinsta,"DompuInsta_Dompu Backpacker"
3233882333,ariz_kuna,"® 🅰 _ official"
4325679360,anglsesa,"A N G E L S E S A 🔥"
2722025577,merlin_nava03,Merlin.Putrianita
1420363593,devintanaprl,"Devi Intan Aprilia"
1304860943,hilda_rona,"Hilda Rona"
7414010232,reymon_ez,rey
7564366535,rhaty21,Asratin
5379459208,_gisyakkk_,NadilaGisya
596456301,zidddqi,"Azid R"
1438758472,noval_bombastic,"Noval Bombastic"
2178446453,kanyahafsah,"Kanya Hafsah Kamilah"
6604731567,anindasariii,"Aninda Sari Susanto"
3289806352,safiraiy,"Safira Indah Yulinar"
2275873847,ramaadwy_,"Ramaa Dwyandika"
1799276965,rofiqoh_albaria,rfqhalbaria
1837761297,pungkasmp,"Pungkas Mugo Prakoso"
6480965451,red_eye_creations,"Red eye Creations"
3033748427,ancha1207,DukeYT
1493524947,shalasaa,sasa
4427310035,deviayuftr,Devi
1768837645,apaandahsih,Ash.
2148480739,boutiq.bundacantih,"Life is simple✌"
575388067,maliki_mangasi,"Maliki Mangasi"
6674994375,ozann_saiir_,bete_💜_nabe
7200495047,ramadhanishabrinanur,"shabrina nur ramadhani"
4198423508,amaliah0493,AmaliaBatik
7092718227,zaenuri7897,zaenuri
3280277332,wanaasrul,"Asrul Wana"
7455306142,tara.rsngbmn,"Risang Bimantara"
6420797537,nrlreskiyanti,NrlReskiyanti
3434547498,zerganta,Far_is
5685506094,fadil.08,M.FADIL.M
6255424083,jeje9896,jeje
4102959649,mevio7detox,"Mevio IGหลัก"
7280004655,bahasht_97_,"zrebar ایران روژهلاتی"
6773035649,rianlet17,L.O.N.E.R.A.N.G.E.R.🐺
7213772658,nrfaranis__,
1451833804,thiembuel,"Rhatieh Thiembuel"
7012879503,adam_hrt15,"support Me,5k🐯⚫️🐯🇲🇾 #followers"
3975763132,nurhasanah_renhard,"Nurhasanah Renhard"
5845809562,ardi050898,Ardi
3990569467,lindamarissa1813,"linda marissa"
5616188603,dewidekkur,"Dewi Dekkur"
7545637351,nadita.sari,Nadita.sari
6165861630,wida_kucrit,"mbunya ndis"
2269346882,isco_alfatih,"isco Al Fatih"
1423595348,zz_khansa,
5462411737,angel__ys,"A n g e l  S i b u r i a n"
6060908172,febbry_amanda,"Febbry Amanda Auliya Nafaro"
5740123411,new_dinnyrk,"Dinny Restiani"
3658625353,nurulsyafiqahika,"miss ika"
6848353275,gabi.anghel.71216,"Gabi Anghel"
2013924679,yunitawulant,"Yunita wulandari"
551610518,mauriii87_,"Mauro Patat"
6005619629,akobidzemariami,"მარიამ აკობიძე"
6915859477,abangomet,WAHYU
3541570491,floridaentandallergy,"Florida ENT & Allergy 👂🏼👃🏼 🗣"
7493525610,sunarto4474,Sunarto
7558660891,jonathan.cuero92,"Abg. Jonathan Cuero"
5473501357,nailatdp_,"🖤네일라 디다 애 프리 릴리아🖤"
7642942344,deibis8095,deibis
7656383068,kullanma11111,kullanılmıyor
7846026036,erdinc.erdinc.9404,"Huseyin Soydere"
1293064039,imanmohamad91,"Cucu Mat Adam"
7859602519,aragon335,"AJ Aragon"
979797798,yuditriharyono,Yuditri
7861548323,salihdagdel,"Salih Güray Dağdel"
7067646345,afrinayultati,"afrina yultati"
7826373738,franllerlyyanez,"Franllerly Yanez"
5735890,chelseaoliviaa,"Chelsea Olivia Wijaya"
11096738,sandradewi88,"Sandra Dewi"
6420818872,baarrysalim,"Baarry !"
8050586960,androgynous_kelly,Kelly
7929347593,freddyarmandorio,freddyarmandorios
8144828786,nanzhilei,雷楠芝
5403415377,hafsarifa,"Rifana Hafsari Lestari"
7953725116,qqqqqyj_1019,qqqqqyj
8147949819,jonescatalan,"Jones Catalan"
7981622915,_leumas17,"Samuel Pagsugiron Poño"
8069014959,debak2106,Debak
8147263277,sidifazal007,"Mr. N - O - T - T - Y"
8296377052,danielmejia0402,"Daniel Mejia"
8212450576,jayrcolinauv,"Jay'r Colina Uv"
8359147290,itsjudmarzabala,"Judmar Zabala"
8264245179,mehmet.ceksin,"Mehmet Erkuş"
8085311654,igadinar99,IgaDinarLarasati
8381350424,hamburgesa.184,carly
8474408868,nanitamati01,"Betza & Leo"
8436056992,mehmetdyb2,Mehmet
8610545415,pawan.sahani.402,"Pawan Sahani"
3068253207,derinrin_,deyin.
8574299998,atadogan2,"Hüseyin Doğan"
4849383472,viani_wempy,"Silviani Wempy"
2070197272,aadisty.y,"Kamila Zalfa Adisty Yasmin"
8457948097,joannamariejamoner,"jo anna marie jamoner"
568263172,yogasmf,"yogas muhammad fauzan"
8484844780,davidgallegos65,"David Gallegos"
8565461061,russelsuyat,"Russel Suyat"
8601157436,serintimo,SerIntimo
1810409448,farrahdina_r,R.R.H.K.W
8489325763,maeyanzzkie,MaeAnneCapili😘😘🙈🙈
8582789794,h4ck_official,°○●•Hac|~|n0b•●○°
8536871987,miilagarciia44,"mila garcia"
8802859364,m.gebhart,"Martin Gebhart"
8644443828,f.c._fashionboutique,"F.C. Rancap Fashion Boutique"
8713507845,borebogdanovski,"Bore Bogdanovski"
5317312159,nitakurniasihss,"Nita Kurniasih"
5512826677,__therabbit,chaa
8761095497,luisgustavo_rivas,"Luis Gustavo Rivas"
1391489930,radadelfi10,"Rada Delfi"
1512132627,alharis_ginanjar,
1683617424,yanasetyaprab95,"Dwiyana Setya  p"
8741727932,sofialvarez368,"Angi Alvarez"
452019774,anatasya_ct,"Anatasya C Turang"
8972692913,mohanned_altrsany,"Mohanned Altrsany"
6733640944,baksoayuk_,"Mie Ayam & Bakso Ayuk"
8997093337,veronika_drazovska_,"Verun ka Dražovská"
8938493361,kmajarkhan,"Majarkhan Khan"
3928295818,diiearyasya,"Diie Aryasya Ali"
9001622418,elzanikuradze,"Elza Nikuradze"
9041213806,amandanauraaa,Amandanaura
1657768567,chandosrgh21,"chando abigail"
8943215277,anthonyacosta47,"Anthony Acosta"
1383528409,catmoonik,"Clau Ang Tirza Moonik"
40498941,ulinulinnuha,"sayidatu ulinnuha"
9139537768,dangzwen,"Wen Dangz"
6010351675,babyckeith,BABYC-KEITH
8947452639,chatrin_hbr,"Yheni,f,hombore❤"
9140146648,maiko_qoqashvilii,maiko
4777087613,sarahnides,sarahnide
9211226650,jonatanma01,"Jonatan MA"
7536965509,byunahra,byunahra
8301304956,andung_br,Andung
9177819333,rainierp.m,"Rainier P. Malate"
9255531635,paola_nazareth.31,"Paola Indriago"
1627436816,diniihariantii,Diniiharianti
5789894348,ansprmta,ICHA
9464003140,123wdvk,123wdvk
715815731,jessicalouy,jelou
4307804854,ervianawiwi,"Wiwi Erviana"
9721416691,cottondub,"jose briceño"
3290439135,kissymeranti,"Kissy Meranti"
8478264152,veronicaivaanna,
1424788279,amaliaamelgantini,amaliaamel
9258826217,aundry_fitria,
9773936989,eliecer654,"javier eliecer"
9661090194,mari2susej22,angelesocanto
9761338477,humbertoocanto,"Humberto ocanto"
7988984607,ine281.id,"I n e -"
9787483930,xaraishvilitatia,tatiaxaraishvili
7914036850,afrl.ya,
10828075415,wahtches,watches
9752924587,wiktoria.banach.35,"Wiktoria Banach"
1044378306,rianifloie,"theresia riani"
1934065341,inimaull_____,"Maulidah Yulianti"
9643127355,camiiliithokiing,"CamoLii Kiing"
9976040344,yunusakcan677,yunusakcan
10828264895,kopi.murah75,kopimurahjkt_
1706261635,jamielau731,"Jamie Lau"
6204509515,ynitaputrip,"Yunita Putri Pratama"
9976824604,arnoldbarta,"Arnold Barta"
6790406721,dan_one_shoppe,Dan.one.shoppe
4707455186,dinawatisitompul,dinaatompul@gmailcom
329558230,natalialautner,Natalia
1258243952,natmnca,
9844786176,all3nss,"Allen Baylon"
6950237493,ramadhanishifaara,"Shifa ara ramadhani"
10014259000,olimpiaguzman23,"Olimpia Guzmán"
9408906080,rahasiaidealku,"RAHASIA IDEALKU"
9999019699,gracielaalexandra4,"Graciela Alexandra"
9963558476,mariso803,"Marisol Godoy Gonzalez"
10253426782,shiti.makura,枕紫智
2928558639,tyas_bilqis15,"tyas bilqis"
34680898,lxinhuang14,
10129147209,reynoldlagarde,kingInod
349744419,hanitavia,"Hani Trianahadi"
10371267546,serhat_201934,serhat
5860577325,arvina.zh,"Arvina Zahranti"
6645910563,nnnungkiii_30,Aazizahh_squad👊🏻
1430081013,mehmet_kurcer,"Mehmet Kürçer"
42498884,lilacbusilak,"Lilac Busilak"
1570630730,med.essami,MeD-Essami
589675567,thesadeta,"Thesa Deta Murbasari"
1737932156,aridyaa,"Hesty Aridya W"
314570511,luismillanfigueroa,"luis millan"
270796039,sunparkchillan,"Sun Park Chillán, Chile"
7887226442,muhammadzaynramadhan,"Muhammad Zayn Ramadhan"
264615585,logenta,"Mytha Logenta"
471843678,ika.sugihandoyo,AR_Collection
262543705,federicocerezuela,"Federico Cerezuela"
1483923301,iisleysanchez,"Iisley Sanchez"
1551125531,spositonidia,"Nidia Sposito"
222858227,lindaayumna,"linda ayumna"
1830424622,cristiang7428,"cristian galvez"
6124158207,susrni,"R I N I"
1703643604,dulmar_27,"Dulmar Montilla🍍🍍"
1569961053,anggipramiswari,"Dewa Ayu Anggi Pramiswari"
873245086,michelcampos28,"Luisangheris Campos."
1831072704,nuengruethaikaika,"Nuengruethai Kaika"
494818755,miyicarriazo,"Miyi Carriazo 😜✌"
1921454400,novifebri14,"Novi Febriyanti"
252067295,lisjorch,"Lisjor Ltc Chuello"
1022821125,nicnic_01,Nics
1182247586,jkarmusic,"Kristian Barreto 🌟Jkar 😎"
1453486193,felix_freites,"Ser feliz es un estilo de vida"
1100728796,silvyaprianasandy,💍ANGGYFARADHIKA
1913649716,eglimartovar,"Eglimar Tovar"
2630837795,nurziadah77,"Nur Ziadah"
457592559,dear_coe_md,วันนึงเราจะใช้ชีวิตที่เราฝัน
7112856441,lstrlulu,LULU🦄
1450168763,david.roo1,"David Roo"
1744250039,banekza,Bane
9420361462,shop_by_a_,“A”
1357308178,ana.requena,"Ana Requena"
1509723601,rusk_id,Rusk_id
8171916990,syintapramesti,"Syinta Devi Pramesti"
1816381428,lemuspedromanuel,"pedro manuel lemus"
1811710008,freddy_aldair,"Del Bombillo Soy 💙"
1497227900,stephanus_dario,stephanusd
1916479202,ricardo.guzman,"Ricardo Guzman"
7235934170,ulyarthaaa,ulyarthaa
1618751288,arianny_ofc30,"ari lsn"
1616895879,_angelasiska,
1960128162,jeekka_ospinna,"Jessica Ospina"
453306645,kikiqr23,"Kiki Yulinda Rizki"
1992136304,jonasgomez_ing,"Ing. Jonas Gomez F..."
6850143937,arditavf_,"Awanda Putra Adiningtyas♥"
1992328596,mogsrocks,"Ariel Pangilinan"
633630272,ririsvina,"VINA OKTI RISDIANA"
2135057626,anis_maa,"Anis Maa"
425068424,eghafaye,"Egha DP"
2125657685,peladoready25,EMERSON
6196452645,andinanggraini,"Andina Anggraini"
55622914,aelmanopo,RZmanopo
1988747012,rakkyg1,
1954164226,paholita_quintana_escalona,"paholita quintana escalona"
5332847004,keyshalarassati,Katiacitra
2030710334,kyeoptangmaknae,"Khate Anne Lontoc"
3574006897,noviasari._,VIA
9855726148,lala.aulia6,lala.aulia
1946415066,rafniyelti,Rafniyelti
2020894745,_heyxel_,
8141836204,kenny.maulanda,Kenny.maul
1648356272,sangayudewi91,"Sang Dewi"
5615075986,ummuaeesha_,"ازمي املي ا"
1930303428,shei0698,iam_seh
1457526628,indahayuaprily,"Indah Ayu Aprilydia"
7191314524,kartika_jaya63,"Tri Warsono"
1954503581,francis1718_perez,"Francis Perez"
10509110453,putrilorenza__,"Bellia Putri Lorenza"
2164675010,nhila_sary,"nila sary"
2301090252,yogexirodriguez15,"Rodriguez Yogexi"
7415237749,lie.ju.9,"Lie Ju"
214366530,malla_oktaviani,"Mala Oktaviani"
4839777537,gos.official,"Grosir Online Store"
2244530508,jonathans2xd,
635819954,efa_hiborang,"Efa Hiborang"
9964099443,bulansoftlens,bulansoftlens
2225050759,theilylozano,"Kely Lozano"
5752477828,chcips,Al
2379770782,yanethchiquito,"Yaneth Chiquito"
5347100256,ulirizkf,"Uli Rizkia"
3253031068,chintyarizkia_,"Chintya Rizki Andella"
2195547419,osuna14,"Jose osuna"
2314036113,elma7897,"Elma Garcia"
2355133550,apisitkamyam,"Apisit Kamyam"
2206869895,yoaliscortes,"yoalis cortes"
2251750246,desiree1744,"desiree ramirez"
3285340414,recky_syahputra22,"Recky Syahputra 🇮🇩"
2516261770,kamhiluu,"KaMhi Luu"
3027852275,indah.parawangsa,"Annisa Indah Parawangsa"
7183667928,capucino_flout,capucino
2801775349,mariojr.ramos,"Mario Jr Ramos"
2873591657,iamvianneduatin,"Vianne T. Duatin II"
9194580492,febiolachandra17_,"âûlïä líśâ🌞"
2908792201,gila_official,"angela 🥀"
1980713427,safyadesvr,safiya
321426912,oyono27,"MZ 🇲🇨"
1802001710,eganurlaelasari,DGaga_Shop
1220908537,rinnayuliany,"Rinna Yuliany"
2891821638,bonne_bgkong2,"bonne gabriel"
3677300230,meeewwmew,
2969782667,liuyang00917,刘阳
1623935301,nayashopsecond,"Sale Kaftan Shoes Bag Kids Mom"
224268686,habbanahril,"Habba Nahril Labana Addafiqi"
1797047717,rianaas___,
3318536032,sebastian_pabalan_thethird,baste_thethird
314729396,rinaadamayanti,Rina
5815241755,_amelya04,
3292744135,itsme.hamster,Miranda.Christopher
6097058409,dinadarad,"Dinada Rindu A"
3149720745,yerickfp,♚#YoAmoElFutbol
1984536030,dekaarisandi,"Bianca Anastasya 💕💞😘"
1291963941,artichadarananda,Tichabee🐝
3324226069,desireesilva166,Danielasilva166
3242411420,duvan_criado,"Duvan Criado"
3217820904,jamilexrosero,"Jamilex Rosero"
3129822563,maite.camacho,@Maite.C03
4461405064,widiyartisaputri24,"widy gonel"
3171695114,dyu_de,"Raymar Jude Chua"
2092351485,imaniafirda,
3428537517,jeanlara301,jean
3583122978,elpipo242,"Manuel 07"
7779918686,ayas456,Aya's
3565147902,haisun3564,haisun
3465599444,perroputin81,"Mimi Benitez"
5512404396,m.reizaalkhair,"Mochammad Reiza Alkhair"
3695153025,suirmanoriskalvargas,"Suirma Noriskal Vargas"
3540919218,d_rahmahidayati,"Dede Rahmah Hidayati"
3724554859,valen_smg,"Valentina San Miguel"
3585673163,dekahermawaan,"perintis studio helm"
3656795188,iverson15miranda,"Iverson Miranda"
335153917,fka_nuu,"Rafika Nasution"
3185348274,amazebouquet,"Buket Bunga Satin"
3689659913,mayirevette,mayirevette
7025242341,vickylubis5726,"ViCkY LuBiS"
10023596218,varina_salmaini_putri,"Varina salmaini pitri"
3617004421,damiianramos,"Damiian Ramos💪"
9129799607,meilyadiana,"meilya diana safitri"
3616382800,olga_parrales7n7,"♡ Olga_parrales ♡"
1555827977,santysuandiarii,16
2351635779,rendy_albaihaqi,"Rendy albaihaqi"
7043470783,ekky.prasetyo_96,eky
1506065907,fwidyst,
7470796528,sanditole2794,"sandy tole"
4248825136,francisleonett,"Francis Leonett"
8321418508,debrifagundess,DebriFagundes
9930114510,fwi.packaging,"PT FAIWONG INDOSUKSES"
391318434,dathoneyboo,
4272297476,wlaikleinismartinez,"Wlaikleinis Martínez"
957369601,farahita.rozanna,"Farahita Rozanna"
4492937338,juni_purwati,"wonosobo 017"
4131033736,loren_criollo,"Loren Criollo"
2158922547,yunitawiandari,YunitaWiandari
4271356776,pawayevaslan,"Aslan  Pawayev"
1984086665,vivian_winnie_prastyo,"vivian winnie prasetyo"
9424192043,customdesainjakarta,"Design Your Stuff Now"
4213708932,ryhqrpl,"אריה קרפל"
2314760199,fathanah.nurul,Nurulfathanah
4206478459,keidys_contreras,Kei29con
8232702388,katanya_della,DGB
4532377403,pastoraljuvenilnirgua,"Pastoral Juvenil de Nirgua"
9534593789,peje568,Kamarsecond
6796861203,insata____model,m-a-r-i-y-a_k-h-a-n
4410297839,mustakaya34,muskata64
10104944822,ratnadwitasari95,"Ratna Dwitasari"
1923790503,putra_bromo_wiaata,"arif putra bromo wisata"
7960917385,adicahyon09,Nono
4396635106,raulbongo,"Raul Bongo"
10610136220,yyjrcfa,沙友里(*´з`)
1501496098,heyrheaa,"리아 프라위라👱🏻‍♀️"
3013629425,adhiarsna,ADHIARSANA
4334207845,mrcjy_plre,"Mj quayapos pelare"
480039805,gumakukar,"SARUNG TENUN, FOCALLURE"
7638046130,varolien2407,@varolien
4636544885,lornalaguio,"Lorna Laguio"
2051416196,umieramlan,umieramlan
9785710273,avrina0218,"Navisa Aulia Avrina"
6002322569,liaa.amelia.796,"Amelia Putri"
3221135537,fadyaputrikrisna_,"Y A Y A"
4757658466,dannynazareth_15,"Osorio Amaya Daniela Nazareth💘"
10002432633,olshop20182019,Olshop2018
3434269466,mells27_,"Melina Tio Pasa"
6044136639,akussnaider32,akussnaider
4708300191,italoaldairordonez,"italo aldair ordoñez japon"
4537192174,amo_tasu,amotasu
4634165469,razonerickson,"Erickson Razon"
2218094184,rohat8221,"Rohat Öğüt"
4774289574,lis_2397,A.Lice7
4862690019,hermhynnhie,"heart reyes"
8947726448,hdytlh_dinda,"nur adinda hidayatullah"
4863228134,rexhar_who_got_hacked,enough.
3902078650,ersada_devary,Gandil_Re_itingna
841949286,chandraayuchrismianty,"Chandra Ayu Chrismianty"
5207843563,juverbano,"Juver Baño"
7804886490,mariah_ahmad17,"M a r i a h"
6425468382,sari_handayani25,sarihandayani
7475949990,syafiqahmad_1990,"아흐 마드"
5416192359,gracesimbulan18,"Marygrace Simbulan"
4123585195,papi_zibran_zidane,"PAPI ZIBRAN ZIDANE"
5467955510,edwardismailoff,"Edward IsmailOff"
7187094551,lisaboygayacantika,"PT. LISABOY GAYA CANTIKA"
4191954918,andinurullhafifah,"Andii Nurull Hafifah"
5508203828,tanasiczoran64,"Zoran Tanasić"
9207796966,gea_mega83507,Endhell
8362972859,cenossjakartans,"Cenoss Jäkartan's"
5431564956,yoxcydulceangel,"Yoxcelys Figuera"
4757040241,ahmadmakin60,@zmyb@tik
5362534154,mariajoseperinazo,"María José Perinazo"
4044799656,minasarisri,"Sri Minasari"
1405030887,dindadesy7,"Dinda Desy Kurnia Putri"
3443005135,annaya_griyarias_salatiga,Anna
5391774207,alexreyvw,alejandro
7634422585,vivizhu28,Vivi
5817539148,mania_352,foollback💦💦
5342383510,consuelo.delrocio,Rocio❤😍
1743020206,tornike_khachiuri,"Tornike Khachiuri"
3216966980,adhwa_211098,"adhwa syabil"
5824079803,dianwv__,"13 y.o  🙋  😁"
5495383896,jennygracelegisniana,"Jenny-grace Legisniana"
3689194142,yanti8lim,simpleme
8502674138,dyaanac_,"D     I     Y    A     N    A"
6684956095,yanskoy1,Yanskoy
5581632450,skieslerblues,alfredo
4474435057,bakul_tahubulat,NicoGian
4154439267,elbakh_33,"Muhammad David Bahtiar"
9944525532,wawasalsabilla,Salwasalsabilla
5558441614,youcef_moumni,"Youcef Moumni"
6195002173,angelfstr,
4377105895,umarabdilahh,UMAR
5664403678,carlosalejandro_27,"carlos Alejandro"
9866238288,arinisalmah,
10596300408,rahmandoni49,"Rahman Doni"
5540924319,mehmetdogan5193,"Mehmet Dogan"
10166668433,silaensilvia9,silaensilvia
8434973770,themoneymailmonkey,"The Money Mail Monkey"
5575318905,used.denim.shirt,used.denim.shirt
10567951121,oneredachmad23,"Ridwan Achmad"
5666015395,katirinvictoria_099_castellano,"katherin victoria"
5760584344,natalyagrishnevskaya,"Natalya  Grishnevskaya"
2949064756,renata_lian,"Renata Lian"
4253068314,ayumagfira_nasir,ayumagfira
5805141467,hamirtovar,"hamir tovar"
8782180590,nailaansaria12__,NAILA.#12🌀
3088883240,rezaaas_____,ɐzǝɹ uɐıʇdǝs
8778388766,omamiet,"Oma Miet"
5899334084,zafar.abbas.7847226,"Zafar Abbas"
9901891141,rabhadinaamrr_,"Rabhadina Amara R"
1291541709,reva_wm,Re
5933494579,xxpatlainexx,"Patricia Evangelista Pido"
1531045464,ryan.hutomo,"Bung T O M O"
1636464967,hudaanggri,"huda anggriawan"
5776807203,its_me_shawnbee,beshawnbonto
1541628756,rachma20_,rachmaYH~
6009937311,ayakkabi_sepetimm,"Ayakkabı Sepetim"
4638354481,romaithoo08,Sherina2908
6029257190,yenifertcarol,"yenifert carolina"
5470473703,salsabila_marianti,salsa🍉👑
5326754835,kennychristiantantono,"OFF WHITE"
6077554181,nhohuyen92,"Nho Đen"
6233472838,argyaha,"""PB?"""
9537597581,fajar.jaelani.5494,"Fajar Jaelani"
6032334194,riniangarainirini,"Rini Angaraini Rini"
6214254691,eemjey_,painkeeper❤
6615726653,rico_beladaz_069,rico
8924925138,shobaee_,"Bae Shop"
1060707414,amelmj_,"Amalia Mj"
6060111720,khessia_famor,"Khessia Famor"
8316491448,meisyasfn,Meisya❤
6303289769,mandaon3030,"cristian deliardi"
10242649849,yellowbeebae,"Yellow Bee"
10830640317,asgharaghacompany,"تجميل الانف،بروتز،زراعة الشعر"
6457985986,monicaenriquez04,"Monica Enriquez"
6241162784,yandricarrera,"Yandri Carrera"
5393486378,han.hanim,"Han Hanim"
7371488825,yunitarahayuningsih,"Yunita Dwi Rahayuningsih"
10426706332,rauzatan_05,"rauzatan Asyraf"
6241822211,itsrjlim,"RJ Lim"
9994470159,utari625,"alya shop"
6556974836,dini_xalcalar_,dini_xalcalar
8551416165,elvin.sonmez,"elvin Sönmez"
7272174535,adtyar8366,adtyaR
10621038994,karpetcantik_com,Ilham047
10496460025,mg_shoes84,"MG shoes"
7057632237,crzbooy51,"serafettin çoban"
1416075377,moh3enazad,Moh3en
5896198330,_ininovita,_Novitapratiwi#10
7047065032,igsubadmin,"S4 Coder"
8367890066,upbatam,"Universitas Putera Batam"
7087450184,aldrinparedes11yahoo.com2099,AldrinParedes11@yahoo.com
1563144350,fitrapramestimaharani30,"Fitra Pramesti"
211559426,paramitadewiu,"PARAMITADEWI USADI"
7163490334,neekateri,"ეკატერი 'ნე"
4791133380,dery_busaeri,"Dery Busaeri"
7163795111,salivon.liudmila,"Людмила Саливон"
6949484154,sity_rahma_sinaga,Sity_rahma_sinaga
5949642086,joanfoods,joan
1353711588,christianetompira,"Christiane Tompira"
7195909876,cathrinavillaber,"Cathrina Villaber"
20030276,rezaarista,
3035415448,indahisma_olshop,indahisma_olshop
4124349551,murad_366_,Ⓜ️Ⓜ️Ⓜ️
7423242447,ajahauhwhaksk,ahahhah
7350321842,iamfrancemae,"Iam francemae ||"
10219006524,madoonashop,Madoona
5373112620,sdcbike,"SDC Bike Shop"
7388996167,josh_ignacio_,josh🌻
3537087953,mhmmdsyakirsaidy,akill
7395071496,klever_paccha,klepoli
329608688,lofedo,"Louis Fernando"
7880436790,mandor.pbr,mandor86
7659568607,santillan_wilmer,"Wilmer Santillan"
1436768136,ilhamrusyidi,"Muhammad Ilham Rusyidi"
3517972196,simonwalmon13,Simon
7540160681,tatekks_,"Anakidze Tataa"
4142179884,fitra9758,"Fitra Yulia"
7466737392,jeniffer_moreno_15,"Jeniffer Moreno"
3170514139,diversided.id,"BASED IN MALANG"
3578114721,rektorfollowers.9,"Jasa Menaikan Followers Aktif"
7578908614,huilacalzada,"Viviana Huila Calzada"
373620945,rinaxiee,谢诗佩💖
3567599458,majukanolshopmu_,"Jasa Menaikan Followers Aktif"
8282492604,follower.specialis,"spesialis follower"
7660558103,denysnelsonhuaman,"denys nelson huaman pacco"
8309125047,pakarnyaoptimasi.olshop,"jasa naikin"
9550710877,kemeja.pria.14,"Kemeja Pria"
7638750897,aybuuun,"Ivon Lavapiez"
5623539645,followers.indo.bergaransi,"Followers Indo Bergaransi"
6198300515,folower.real.bergaransi,"Folower Real Bergaransi"
7915472230,mihai.gabriel.528,"Mihai Gabriel"
3097522956,alifiaaa_ifi,AlifiaaYH
10585566334,kootdstore,"OPEN ORDER!"
7979063355,jeonkzia,"k e z i a 👑"
7749385251,nellys.patino,"nellys patiño"
2236427780,tasquinta,"TASQUINTA PUSAT WA081252627962"
10355342824,royal.oto,"Royal Otomotif | East Jakarta"
7864747524,miguel_angel_perez_b,"Miguel Angel Perez"
3585714035,rektormarketing.10,"jasa naikin pengikut"
7747439198,im_jhanelleee21,jhaacongzon
9180482484,_mauidza_57,"《 mauidza 》"
7924605421,joygrace_28,joygrace
8018190498,ebimebim9,ผมขอด้วยคนครับ
2200352430,margaretvivik.d,Vik🌸
2026137989,telesporagrandyflora,vita
4282769644,atlind_shop,"Atlind shop leader paytren"
3586612658,rektorfollowers.14,"Jasa Menaikan akun Aktif"
8034718898,malineejeh,"Malinee Jeh"
220838149,sarenpritkaur,"Saren Prit Kaur"
10802697621,thmdegil,"barb era"
10643801335,kefo348,kefo
8781645292,beebiifashion,"GROSIR BAJU BANDUNG"
8191041447,estefaniada.bravo,stefania
9987943772,sttoika,STTOIKA
8300907772,yohannacastaldo,"Yohanna Castaldo"
8339956216,kimleypenaranda,"Kimley Penaranda"
4847500245,ila.ariesty,NabilahAriestyGunantin
2362745214,maria_si_cristi,elena
8326845687,diniyaan_nurmala1,"Diniyaan nurmala"
2297735032,ryanradetya,Ry
10846292584,melihayerlikaya93,"Meliha Yerli̇kaya"
3993821186,tarnokk,
4000245038,tasyacahya_,"tasya cahya kamila"
4624875780,veveshop4828,"GROSIR BAJU ANAK IMPORT"
1318947791,isyanasarasvaati,"isyanasarasvati ℹ"
7164387656,vittoriamarinn,VittoriaMarinn
8233286857,zeke10_insik,annikaperez
267520248,jxsephine8,"josephine ♡"
5979021376,fadilah_9744,"Fadilah Zamorah"
8536953258,giginohelbet,"Gigino Helbet"
9365743231,paradiseserpongcity_progress,"Paradise Serpong City"
8544201348,aguirreluis238,"Aguirre Luis"
3919775823,syaifulhilda,hildahanafi
10093685221,wisatakuliner.kebumen,"wisata kuliner dikebumen"
9312286900,nadhiferifqi,"nadhife rifqi kurniawan"
8524658831,gundalai_tumursukh,"Гүндалай Төмөрсүх"
8921829307,ratnasaririna43,"rina ratnasari"
1730425676,permana_rakasiwi,Rakasiwi
5903326360,_yuvella,
8564910141,robiluka,"sveta vartanova"
5820688259,hj.rina7300,"hj. rina"
10711268135,amir.hidayat97,Amir
8670242448,m.abadkheir,moradabadkheir
1463822510,putriindri_naturaworld,"Putri Indri"
3654877761,giocondagioffreda,"🔥 The Boutique Store 🔥"
9069284448,alfredogalan1,"Yoel Andres Lopez"
503514644,reginathania_,
8320257945,sentral.nyaoptimasi.olshop,"jasa naikin"
3281998110,zonakarya_senilukisan,"lukisan kayu terbaik"
9056156830,olesia.miau,"Olesia Miau"
3594724166,zonataskece_,"Gudang tas kece"
7090237227,kionnanotulungagung,"K-ION NANO TULUNGAGUNG"
8987381857,yoxanderortega,"Yoxander Ortega"
10427431852,makaroni_ummuhamas,Makaroni_UmmuHamas
9262896899,ubaidullomirzaev,"Mirzaev Ubaidullo"
1724133241,capsivator,WahyuWS²³
8272040454,gilaorderan.id,"Jasa Menaikan Followers Aktif"
7063011298,bangtanskinshop,"KPOP SKINCARE MAKEUP GOODS"
9270674147,estelita_avilez,Estelita
3460315462,watiardasa_,"Wati Khalid"
3237952440,cocokbuat.olshop,"optimasi olshop maximal"
222422245,nikendiaharini,NikenNcen
9252647004,budjorliwa,Budjorliwa
3059535503,00005mmcv,
5418644383,seratcraft,seratcraft
10663397600,mbah_parta257,mbah_parta257
10118978054,rodik.bonghanoy,"Rodik Bonghanoy"
8396641653,cathrynszymanski,
8300192378,pakarnya_olshop,"jasa tambah"
3592714388,zona_taskecestore,"Gudang tas kece terbaik"
5773888790,jackyxx4,"Jacquelyn N Amahit"
5969323609,netho_sn,kimotaki
8975429496,hy_emonn_,ARMY❤
8319928530,pakarnyaoptimasiolshop_,"jasa naikin"
2353666129,dojo_manuel10,"Dojo Manuel"
4171286090,ranitaoktrifa,
646808378,souvenirtanjungpinang,"Souvenir Tanjungpinang"
10383546400,zia_ramlan,"Zia Ramlan"
3560738659,dutamarketing_olshop,"jasa optimasi olshop"
3050766511,nahelin94,Nahelin_lukito
7970934457,edgarmoisesmorale,edgarmoisesmoralesrojas
10805942854,nisninis16_,Nis16_
4216583773,fem_beautystuff,Female_BeautyStuff
7476589714,praewwa_21,"💃🏻มาส์กยางลบ Allclear 💃🏻"
9880433759,yaoxia522410413,
8615187417,fernstrom_34b06,"Catina Fernstrom"
1215421947,neethaarief,"Neetha Arief"
3582545976,rian_371995,"Rian *95#"
1295787149,yzznun,"Yznun A Aryanti"
8210079888,privat_mengemudi_pku_,"privat mengemudi  pku & rental"
8467111570,winfredbrooks,WinfredBrooks
8326990274,dr_farma_central_ampuh,"PENINGGI. PEMUTIH. PELANGSING."
9247285336,sharifo__mhendiki,"Abo Zare Mahndiki 702✌✌👊👊"
2919877572,elynvt_,"Ely Novita Lia"
5571909534,spandallas,
1322128573,tiara.rns,"Tiara Rizqi Nur Syafitri"
10455703500,fitriani.hsn,"Nurul Fitriani Hasan"
8341958769,orizakalina1,oriza
10445660413,lestarihandayani22,"Lestari Handayani"
10451922548,nadiahputriii_123,"Nadiah Putri"
4401911939,aningcahya79,"aning cahya"
1965489354,yopitagomez22,"Yopita Gomez"
10825734296,ayulianov,"ayulia novita putri"
8559962737,alicia.mareta,
7974297666,vivisntamaulana,"Vivi Antamaulana"
8791872588,tianaa.risaa50,tianaa.risaa50
10450875424,lucas_luzardi,"Lucas Luzardi"
1547742177,alvinia_nuraini,"Alvinia Nuraini"
8665444540,breajameson7,"Brea Jameson"
5811499415,richardgarcia_813257,Richard
3884993093,iyuna5847,이유나
9673719311,sultang290,"hafid azky shodik"
10825446281,ewiddewidd,@Ewidd33🙏
5487508017,ismiragil22,"Ismi Ragil Saputri"
3092745950,imamrezkyy,
32164652,fransnorbet,"Frans Norbet Purba"
9522168825,mehmetufukbayram,"Mehmet Bayram"
7291158750,muhammedclk.36,Muhammed.Çelik
1919945007,amalia_mfda,"Amalia mufida"
9657703561,dillahhhhh__,
10273852141,barisakar1920,"Baris Akar"
10425274200,kumbul2321,"Demet Kumbul"
10434273528,imdat_talan,"Imdat TALAN"
5362369583,heyyafifa_,"A F I F A"
329080682,musyaffauthor,"Musyaffa Nailul Author"
6983034264,mastidencom,Mastiden
2228346536,mehmettekirdag,"⚓Mehmet Tekirdağ⚓"
5784984199,muliansyah.abdurrahman,"Muliansyah Abdurrahman (MA)"
1474139965,franhanata,"Fran hanata"
5384632338,desittahanifa,
253854587,fickarinna,Ficka
486053210,rezzayulian,"Rezza Yulian"
5384801916,jilbab.kekinian1,"SUPLAIYER JILBAB MURAH"
1286496965,cuensiang,❥𝔳𝔞𝔫𝔞𝔡𝔦𝔲𝔪
5897048281,alfieadhitya,"Diego Alfie Adhitya"
6192155093,_rsmidarhmi,RusmidaRahmi
10386004666,nehirdurmus8096,"Nehir DURMUŞ"
7160669739,indah_widiap,"Indah Widya Putri"
7088026257,odagirinene___,"김 예원 원"
468038183,laylarahmawati,"L A Y L A 🐝"
317571396,youngkiddoz,"hapiness comes everyday !!"
1387071501,ilfadewi,"Ilfa Dewi Prawesti"
2883908407,pebridefit,pebri
10568736447,42nigarseyrekoglu165,"Nigar SEYREKOĞLU"
1723058431,dby.dheff20,DebyyUni💅
4808470864,nagitaslavinaa.1717,nagitaslavina
3146826471,lalala.fest,"LaLaLa Festival"
1795584990,maulidaaudita28,MaulidaA
5805961128,perfectmask_beauty,"Masker PerfectMask_Beauty"
315359642,litzaaaa,"Adzania Nurhalitza."
650828681,ratnanutzz,"ratna ayu"
9938406552,masumrana159,"Masum Rana"
8944404990,joseconstantinocons,"jose constantino constantino"
4811467732,bagusarishermawan,"Bagus A Hermawan"
8411919505,selynstore,"Jilbab Fashion Cantik Murah"
7388481412,mohdhafiz.mohdhafiz.50364,"Mohdhafiz Mohdhafiz"
2162834255,michaelhadinataa,"Michael Hadinata"
10116384024,martinsetianto,"Martin Setianto"
8763787374,remutiaraaz,𝔐𝔲𝔱𝔦𝔞𝔯𝔞𝔞𝔞
1485695670,ikhsanopay,
9004908331,eskiadepratama,"Eski Ade Pratama"
6357996847,herry7389,HERRY
6685462015,planterbag_atmojaya,"Planterbag Atmojaya 🌲"
2329839057,iwan_forrge_,"Iwan Forrge W"
3815235435,saputra.adittiya09,Saputra.adittiya
9641197611,andhieyanshah,"andhie yanshah"
3174051889,aria.neurolog,"Dokter Saraf Solo Perdossi"
7363001799,zitlalyvy,ZITLALY
7177530191,mns_intan,"Intan manis"
3960357643,imassitimaesaroh3923,imassitimaesaroh
8992734726,yudowildan,yudowildan
5546495970,baihaqilullaby,"Getok Lindri"
3957983182,zaidie_jai317,"JAI muhammad zaidie eddy"
8882966799,hamza_adam_42,"sahrul adam"
10834114172,abdusulaiman16,SULAIMAN
8881014793,puji_amalia97,"Puji Amalia Putri"
452023616,desynoviantiz,"D e s y  N o v i a n t i"
9050606774,huzunlub1rsair,huzunlub1rsair
8389570253,_heyat_mene_zindandi_,Bezdom
4099901652,desy_shy,desy_shy
3006434593,davanie,Vanie🍃
9386604626,saykovine8,Saykovine
10341846888,yagmurarslanoglu475,"Yagmur ARSLANOĞLU"
3949360397,07_idal_07,💘idal💘
6105765809,ageslia,"Memayu hayuning bawono"
3072694726,s.usqun_pg,
5617149933,xox.hlmpksy.xox,"halime paksoy"
9604819912,mobile_pes_2019,"Pes 2019"
10256082875,zuyin11_,"Nobita Ap"
10564536631,erken1289,"Arife Erken"
2126012240,sulistiadwiyanti,"Sulistia Dwi Yanti"
9005028172,n.syafiera_,"N.Syafiera Najwa 🌈"
3060803855,hartadinur10,TADDI
228192212,arisyairi,"MR. GREY (S.Kep, Ns.)"
7659097307,hr__collections,"HR Collections"
3045311373,shenyekaa_,sheny
6723863156,sabrinasftr,SABRINA
202635667,prmswr,"nabilah p prameswari"
6564284564,in_dragneel,"Indra Dragneel"
3676282912,agisgunawan02,"Agis Gunawan"
2250488320,mhd_syahrial05,"Muhammad Syahrial"
9917007754,photo_shoot28,"photo uptodate"
10138612879,egidio1101,Egidio
9390833436,azharirayhanmahdi,"Rayhan Mahdi Azhari"
1639795134,nahyudin.jaya,M.nahyudin.jaya🔵
4618654639,arianti.rii,+62
4967401014,zakstevenn,"Zak Steven"
1579704345,dwikk.af,"Dwi Afrianti 🐼"
2134915268,stevani_ong,"Stevani Ong"
5761841208,tianshop92,"Tian Nasa"
471998184,dywaass,
3222507601,utami05121,"Tri Utami"
2197843721,pia_nurfiani10,"Achmad Galih Putra 💞"
1583846135,faramutiaa_,"F a r a a"
10362438332,uyanik1170,"Melik UYANIK"
10571472257,uygun3908,"Cansu Uyğun"
3228115816,arifkirind5957,"Arif Kırındı"
1228779206,marselasutanto,Sellaa🎈
10410530673,feridekara79,"Feride Kara"
10415282490,rabiagunduz4,"Rabia GÜNDÜZ"
307866890,fahimahbasrefan,FAHIMAH
8305309464,zhairafashionsolo,"Zhaira Fashion"
9685690120,keripik_spp,Keripikku
5723749209,misdarbara,Misdarbara
2328653732,erkan_52_unye,"Erkan Erkuş"
8633498771,defirst_art,"DE’ FIRST ART"
6290994325,fajarajibrata,"Fajar Ajibrata"
10428385720,caneruysal61,"Caner Uysal"
8941956622,originaljamdw,"Original Daniel Wellington ⌚"
5153800955,santisarni_suhartono,"Santi Sarni Suhartono"
6304693004,22_sukma,"Siti Nur Sukma"
1708828364,nurazisasyahbanii,AndiNurAzisaSyahbani
10428737750,gencer1099,"Fırat GENÇER"
1536371834,chrisssmundung,"Chrisjhon Mundung"
3038412728,dianamargarini,"diana margarini"
6248376509,bekir_oficiall_19,bekir_oficiall_19
2197568428,rioowisnu,"Rio Wisnu Adji"
741227850,sintyakmlsr,"Sintya Kumalasari Wibowo"
10240302359,canselsahin484,"Cansel ŞAHİN"
2102904567,umairafambayun,"Umaira Fambayun"
568765497,anthi_azzurri,"Sri Hariyanti"
6487333977,sertacengin00,"Sertaç Engin"
1264505364,sisapelukmu_,"Gilang Matthew"
1516934162,yancegusnadi,yanceceyan-
8608728938,mmahidin8,082285264660
8198378152,virnasoares19,ViRnāvalęntę💚🐷
10429529665,orak4362,"Doğukan Orak"
2255060215,sendynm,Sendy🍍
10360813595,kirachayati,"Hayati Kiraç"
10261828775,58asumanbasman993,"Asuman Başman"
9168322652,trala000,lala
4373275695,jakeamy99,"Sam Kana"
7381730829,antjok_34,"Bang Ocihid"
4832884894,lastri_ningsih31,"L. N. I. M!"
1652351701,ersa_aprl,ersaap
1904452193,zahragitaas,Zara
1480697126,ervana.v,"Ervana Vivi"
3127212827,silvia_atikaw,"silvia atika"
597464191,moramoranomi,"Morales Sibarani"
10228854996,ceylinyilmaz8121,"Ceylin YILMAZ"
2376134166,atikamilarmr,Atika.
8183582812,rahmawati5702,Amma
39064637,byrhcp,"Adhitya Bayu P."
5467178380,hayrettinvural1556,hayrettinvural
6003799559,ozgurdogan_49,"Özgür Doğan"
8435212002,batik__mia,"PUSAT GROSIR DAN SERAGAM BATIK"
1649722931,amosbertuss,amosbertus
7263143504,dff10_,Dff10_
1980710581,sofyan.mochtar,"Mochamad Sofyan Mochtar"
15583579,larasyerinita,"Baby Def⚡️"
6893719510,sertan_baskrt_2107,"Sertan BAŞKURT"
10420418198,oznurdemir39,"Öznur DEMİR"
10646314947,indah_permata_gestun,"INDAH PERMATA TOUR & TRAVEL ✈"
1722912867,intanayu_sekarsari,"Intan Ayu Sekarsari"
1798284142,mahdiyah_ana,"mahdiyah ana"
2231270625,herulprinting,"Herul Printing"
2028914241,cakarmats,
3634147481,moy_1414,"bunda keisya"
1017837628,barisayseven,"Barış Ayseven"
1815393848,ebbers_predi,"Ebber's Predi Sianturi"
1794848434,yani.magenta,"Sri Handayanii"
9387215418,rinna_watch,"FREE ONGKIR JABODETABEK"
1919291558,achmadpujisetiawan,achmadpujisetiawan
316112452,bridastr,‎بريد
2479184111,dedytumpalsiagian,"Dedy Tumpal Siagian"
10387355705,edanuraksoy293,"Edanur Aksoy"
1449086014,suehana_suehimi,suehana_suehimi
423543303,yulia_haqimena,"Owner HaQiMeNa"
346230873,hanifthalib,"Hanif thalib"
7024536920,arinipuspita2396,"Arini puspita"
6722401811,lismayuliana2707,"Lisma Yuliana"
7493461296,smith.z65,tidur
10485550321,pinjaman_onlinecepaterpercaya,"Pinjaman Online"
9364205995,misswiwik_herbal,"TIENS TERMURAH + FREE ONGKIR"
3442280393,murat_kamar_,Muro_Kamar
3649400091,dinamariana025,"Dina Dinot😎"
4838291503,nurdayanti11,nday
21974815,evoluciondeti,"⚡CHRIS MARCANO-MEDINA 🇩🇴🇺🇸"
2140911911,cindizhafira_,Sindi’s🎀
9840013005,cakenisa,Annisa
9941855045,margy___tariqwujcm,"Margy Tariq"
5320704106,frmnsyah.99,"Muhamad Firmansyah"
7582083396,komangafriany,"Yenni Rahayu"
1323793648,addnlrafif,"Addinul Rafif N"
9311394949,ninda.jamtangan,"PELUANG BISNIS murah meriah"
1420965210,danadyaksa_16,"♥Allah : (Bismillah )"
4272670024,desianadechy,Desiana
8385372214,nur_kaynak42,"Nur KAYNAK👑"
3623089854,massaidbtha,Said17
1114674510,shelatagstn,"𝓢𝓱𝓮𝓵𝓪  𝓣𝓻𝓲  𝓐𝓰𝓾𝓼𝓽𝓲𝓷𝓪"
7815159565,lokersurabayajamannow,"lowongan kerja surabaya"
507653623,melindakusuma.d,"Melinda K. Dewi🎀"
3060576405,sari_t29,"Tiwi Sari"
2719545104,annisacara,aca✨
10262956641,mete.kisa,"Mete Kisa"
8453822868,ayumegamustikasari_,Tika
371653992,hilmitf,Hilmi
10261812836,saricanbaz8101,"Alara SARICANBAZ"
10803010239,grigoryevn829,qwettt
3000251977,mirawitasari,"mira witasari"
2945498118,rjyasmin,
10628894121,aan_nht,"Aan Nht"
7169469621,gembel_ajee,
10398544693,lovepotion0808,"KRIM PAYUDARA MONTOK PEJAL"
6482298878,keanun.id,"Find Your Daily Hijab&Outfit✨"
2946880557,adhiyasaesaa,Sa
31570596,renidevvv,"Reni Devitasari"
9213938967,bisnis_j_n,bisnisjamannow
1542566899,yulianaerlen_,"Yuliana Erlen"
342055013,sharifahhasya,"Sharifah Hasya"
1452954310,whdhkm,اكيم
3098002845,mdjagad_,"Muhammad Dhamar Jagad"
1764698943,dedegiiar,"DD Giiar"
1588503094,ichanshs,"Annissa Alivia"
5600224092,narulitakurniaw,"Medical Student💉💊"
10359923762,adisanli.can,"Can ADISANLI"
1321141164,seladv,
10436585225,avseren2005,"Rahime Avseren"
3005246648,fernando_rico12,"Rico Fernando"
8780497327,smileconsultingjkt,"Smile Consulting"
10365358134,semaozturk519,"Sema  ÖZTÜRK"
6931957471,idin_dantiti,"Idin Dan Titi"
546290679,allanerlando,Alan
2955567418,ratufollowers_,
370527099,94hilal,asffhjll
1035991183,auroraaisyah,auroraaisyah
8615460051,brankovich_4bc01,"Conception Brankovich"
1590027034,putrisabil28,Sabs
1453795373,ginaagnitia_,
10377370522,liaa4810,Liaa
5548907975,andinuraslina22,"Andi Nur Aslina"
1948333873,lestarisputri,Lestarisputri
371134035,chalistads,"Chalista D Septarina"
9748087022,danielwellington.proj,danielwellington
2901711140,icllgll,"İclâl Güllü"
1109375000,victoriaabarcar,"Vicky Horlador Abarcar"
1392060522,m.icanudin,"muhammad ichsan"
10869250063,djennarozzzf__,جيّٰنْءَِّبْالليْسا
7061342333,serbestsin_serbest,
1717602964,viradtya,viraa
9397878422,my_all_shop_,"TEMPATNYA SHOPPING 💞"
1544558596,chelliimalinda,"Chelli Pratesia Imalinda"
3512647780,elisyaamalia21,"Elisya Amalia Putri"
1385958527,aldisptr_16,Hujan☔️
1412615516,atyasih,"Aty Zahra"
3076430546,pepperonie.me,
6249942670,wiwinandriyani05,"wiwin andriyani"
4115002775,ferozacaseid,"Custom Case Murah"
7171758397,boudoirbag,Boudoirbag
8766333472,c3f3rov.fu4d,#>>>•
5789131102,triananurhayati7,Triananurhayati
10360278554,tugbakasapoglu52,"Tugba Kasapoğlu"
2646197435,bajuanak_bunayya,"PRODUSEN JUBAH DAN GAMIS ANAK"
4912157345,linanfta,"N O F T A L I N A"
5808553131,finaalfi__,alfi
3870666059,charisma_b.m,"Charisma B. Majestyno"
9439703370,viexie0,Oyr
1574017629,elianaanda,ELL🐼
2382813834,mohamed__alshemy,"mohamed alshemy"
5885647871,novie_nathasya0892,novieta❤
467782179,putrialdilaa,"putri aldila"
1022996865,misna_rth,"🌸 Misna Mufrihuna 🌸"
4465149711,faridatur_rohmah37,Faridatur_Rohmah
1497367439,rayantifl_,"Rayanti Fitri Lestari"
8759455659,eniwhahyuni,eniwahyuni
9940124448,modelmakeup.gisella,"MODEL MAKEUP JAKARTA | MONOLID"
10092767850,sn.hida,
5651115097,aldarizma_,"alda rizma"
771756193,marlovin,"Marlovin Bhadrika Harun"
10084795761,riyu4847,
3075048328,putri.angelinaaa,PUTRI
41296758,ikaicho,"Ika Purwaningsih"
2880012024,irfannursyafaat,Irfan
2964358333,ikhwanyusri_,ikhwanyusri
1579019326,yuvisecarela,"Yuvise Carela Pamungkas"
10349084996,sanemkocabas74,"Sanem KOCABAŞ"
3019884915,hildafirdayanti28,"HiLda Firdayanti"
7072223132,rizka_nayla12,"Rizka Nayla Rivelina"
9410727704,fandy1881,fandy
1272106331,ampont_ona,"Teuku Rizky Fonna"
8429702273,sitishaff,sitinurshafira
4034556154,rahmatkesumapu,Rahmatkesumapu
8223466349,kevinnasher3,kevinnasher
7218258815,tv.seip.2323,avcdhhdxb
8143535373,mehmet_38.3,mehmet_kabukbelen
1722060795,cchristy.y,"OPEN PAID PROMOTE"
9543729412,orhancandannn,"Orhan Candan"
227765340,ramadhan_budyanto,"Gigieh Ramadhan Budyanto"
455184771,aufaryw,Aufar
8604108000,kenneth_dc3e1,"Brynn Kenneth"
6646770386,nugrohoagungs_1745,"Nugroho Agung S"
10854067352,myanto1981,dwi
7299427816,tifani.za,tifani
2300696815,yety_pibipibopajangbarang,"Yety Bato Payung Allo"
1246712176,pitriani_27,"Pitriani Dewi"
1300773887,mass_bibie,Abie
10428911765,zuhalerdem1650,"Zuhal Erdem"
4317556883,yunuso_47.74,"👑Yunus inan👑"
9733280507,preloved22store,"preloved and promote"
9700662447,ra.khi6377,"rakhi jat"
6850019390,_sohret80,MKA🇹🇷
7638957817,alparslan.alas,"alparslan alas63"
8912471761,feriupluk,"Feri Upluk"
6138594739,mncaitm_,Susupanda❤
5320139116,mr.matrak,"Zeynel Tuna"
8773642297,therealnukacola,nuka_cola
9737923857,qz.wyj,abc
8910548579,kralkurt1907,"İbrahim Karakurt"
3881371989,unputtojuniior,"Mohaamed JR💥"
31459547,mrsdhoniqadri,"ⒾⓃⒹⒶⒽ ⓌⓊⓁⒶⓃ ⓈⒶⓇⒾ"
3030524168,bale5,"Iqbal Adi"
3635878281,grosirgamis21humaira,"grosir gamis murah solo"
10213371628,nobod.1,Nobody
9626885094,8iirk,
8516821671,wanitajilbabmuslim,"Rina Purnawati"
1910874937,jesi.nyaa,"Jesica Lutfita R"
10691524584,fotodrones_chile,"Drones Chile"
6062212331,jamtangan_1,"Jam Tangan"
638648111,lidyaasafitri,"Lidya Safitri Simbolon"
9244737737,xx0619hxx,xxx06hxxx
521853693,widyaaningtias,"Widya A. Ningtias"
3468877400,aq.1d,AQ.1d
10423178152,seymakilic708,"Şeyma Kiliç"
6819383222,nataliaabags,"WAISTBAG GRATIS ONGKIR"
1983387584,vanessaoluoch,vee
10341063780,cerenaltun87,"Ceren ALTUN"
7281976551,tikanadapdap_,
8044255798,nell.apendiansyah_,Nellamawarni
2138610620,fenndii_,"F e n d i"
2325207062,joseputra.t,"Jose Putra Tjiptarahardja"
8231461591,yogiipranayoga,"Oktarika ❣️"
4731878158,tommyadiputra18,"Tommy Adi Putra"
8740419865,gerald.ardya,"Revaldo Ez"
1445536940,johnris_samosir,"Toyota medan"
1905320919,akhmad_hakim_atmaja,"Akhmad Atmaja"
7163070881,klrno,RDOAS
3268912566,meatyfitmentgang,"MEATY FITMENT GANG"
6439472382,sintaayuu09,
7590066040,duanqiangyong,段强勇
294777853,dianaraahma,day
1990133816,yuliacitrapertiwi,Citra
263276666,mewidjaya,"Edwin Widjaya"
453271259,yoanes.p,"Yoanes Pontjonoto"
211550614,ciciox_,"Andi Asriana Tenriawaru"
2943030380,geaalfairus,"Gea Al Fairus"
8605472870,basye_a866c,"Shavon CFF72"
4717347847,agungpradikes96,pradikes@yahoo.com
3126036896,ariq_julian_iswara2,"Ariq Julian Iswara"
981210443,calvinrahaja,"Calvin Rahaja"
917673262,ardianekananda_,"Ardian Eka Nanda"
2226280823,analuamagoy,"Yoga Maulana Ibrahim"
3297624322,ramadhan_syhputra,"Ramadhan Syahputra"
10825345172,shasad77,shashad
884603990,dnlgnwn,"Daniel Gunawan"
4084988243,kenzhi.vl,
1771633532,rosellisantino,"Santino Roselli"
1703651140,mas_lana782,MAULANA_NASUTION
1275237229,shapunana,"A n d i a n H i d a y a t"
10823491702,aninda340,aninda
1387719865,denniss_1710,Dennis
1360134564,sultannvn,"Sultan Nauvan"
10875952122,qibelbel,"bel qibel"
1695002172,babybee.rent.tasik,"Rental Perlengkapan Bayi Tasik"
1727828393,they_callme_beler,Rick
10029861971,piffsupply_id,PIFFSUPPLY_ID
1103417037,yuda_cdr,"Yudha C"
963242016,tyayumna,🙈tyum
8439575159,sahrai12_,Sahrai
1363563145,alifalivia,
10436332405,riskianiikke,
3847624677,tatapnd__,
8615305182,ferratt_73ab1,"Providencia Ferratt"
4265303414,shantysn_,"shanty setyaa ningsih"
1598293298,nurrahmi_tarigan,"Nurrahmi Tarigan💉"
4388703061,andrewfahmii2,Meidita🖤
2106570824,mega_bode,"Mega Bode"
1633727764,daniellatheresia,"F A N N I N G"
2326509983,mika.nikita,
6656801336,maromaa_26,FajriatulMikaRomah
5363845175,haniyuliati_25,hani_yuliati
4473749690,devoy_abyan,"Vhii Syafqia"
10204744388,jb_hunter_02,j_advind
1728564644,sabrinipasaribu,"Sabrini Gabriella Pasaribu"
1679662279,alvinsaerang,"Alvin Saerang"
8618755233,gilang_skate,"Gilang Ramadhan"
8475721550,lawenium2,lawenium
1438840464,sleeping.inc,PIAMA.PAJAMAS.BRIDESMAID
2215934492,nurpitasari03,Nurpitasari#03
2078054858,alifiarisnadian,"Alifia Risnadian A"
8011954797,x.ahmetbeyyy,"ahmet aslan"
8921244845,onurcsk2727,onur
6438881576,__desativadaaa_____,desativada
1379909410,rudyamran,"Rudy Amran"
330109181,ayumelodyy,"putu ayu"
9243836160,a_y_e__1999,a_y_e__1999
4344380326,limansidiq_ramdani,"Resmi Limansidiq Ramdani"
2968416126,kingsraditya,"╰ кιηᎶ•вєn  ╮"
9610166096,putriayuningtiaswork,happy.fun
9682297247,binomolasilik,binomolasılık
9624856506,being_canada_lovers,Canada💕Loverz😘
9889866782,boot123.x,boot
2260287077,drpertiwiatthaariq,"Pertiwi At Thaariq"
4256882537,adhima.mf,
1768984759,ertoscenterindonesia,"GARANSI PRODUK 100% ORIGINAL"
1654708829,devikapramesti,
39832652,inggritlampah,"Inggrit Lampah"
5678589827,wardatul_jamil,wrdtul_
13838992,arieltatum,"Ariel Tatum"
7384182835,viiaviyo,"Novia Lumaidah"
7079578008,hesenoff_046,A.Həsənov
4301904726,yuda_iswara,"Ardiana Yuda Iswara"
4013205691,tikkacaskarput88,"Karput pratama mrsyd"
3509660306,akas1010,AKAS
195299585,maikolluzardo,"Maikol Luzardo"
2396178413,arifab378,"Arif Budiman"
10256688490,chyn_mua,"MUA JATIASIH"
9468049368,store18fashion,store_18
2289634998,intan_pubiyanti,"Intan Pubiyanti"
5615520173,liangtehmedannn,liangteh
358096491,bebefebby,"Feby Nurul Hakim"
4542665661,flrat_kaplan_03,"Fırat Kaplan"
3041010921,rifkyzu,rifkyzu
9023518541,lalakk.arifai,안녕하세요
4695365743,alihan.bbcn,"👑ALİHAN BABACAN👑"
1629043132,andrianyhatta,nde's
3319739715,ibnu_abdurrahman18,"Adi Abdul Rohman Putra"
2016740443,nissa_sabyan,Khoirunissa
6869343112,nitameriana29,"itsmeNita 📷"
5618817880,gitacahyanir,"Githa Cahyani"
1216105261,tadiavenensky_,"Tadiaelianvenensky ⚡"
10415916983,selman_gktas4747,selman_goktas47
8561411032,x.nisaanur.x,"Nisanur Kızılkaya"
2994141500,m.ridwan.afyulmi,"M.Ridwan.Afyulmi (Official)"
2210315381,ahmad_ridha34,"AHMAD RIDHA"
2267557746,m_tisa,"Tysha D'izkha"
8589665591,mariska8195,ika
4792747516,k.a_berkay,"Berkay Ağaoğlu"
2600552179,rdd_18,"A J"
10206907261,melindarahmawati5026,"Melinda Rahmawati"
8554216108,2xl_lx,
9745134449,rodiahoo08,"Diah oo"
1486684332,indr5758,indr5758
10384692563,yoncagoktas7,"Yonca GÖKTAŞ"
1458307692,k.p.w.k,"krisna permai wahyu kencana"
9910192622,goktuggumrah_2,"Göktuğ Gümrah"
7907609216,itsmelaliiko,Лали🖤
8224367629,denis.a.f.o,"Denis Alfarado Fitzgerald Oey"
9532628759,milanmagar822,milanmagar567
9060172663,sriwulan548,"sri wulan"
4284011863,mee.t.a,"mitha aryaninda"
8922837314,dini.kaswari55,"Ummu Thalita"
1628036220,devipurwanti99,"d e v i e"
3263310457,guryeli09,Guryeli09
9702393817,mehmweet497,"mehmet ali"
8932318056,azrakaya8125,"Azra Kaya"
4053228116,apo_salk,
9689866966,ll_hezi.ov_ll,o7o4
7813021862,anggi.purnomo.3572,"Anggi Purnomo"
6284089553,optikataofficial,ⓞⓟⓣⓘⓚⓐⓣⓐ
4731537497,melaniaars,MelaniaArselawati
8316300068,megalidya.lidya,islamituindah
7782539072,okaye.thx,hell-o
8721196332,rezzan_acar2121,Rezzan_acar2121
7073418884,ropang.cheese,ropang.cheese
8606110899,firman.abdulrahman.925,"Firman Abdulrahman"
2226533623,theconnelltwin,"Christy And Carly"
642027895,mikenourmaa,"mike nourmaditha putri🍫"
2155065422,tiaralfatah23,"bang Z!"
1990612204,oh.hanny,"Oh Hanny"
1752489573,dianpratiwi2,"Dian Pratiwi"
4052751841,moeilhan,
3992167757,afzalsyah_,
5884118524,amedddlii.21,"CESUR OL ÖZGÜR YAŞA ♡"
913674070,tikakartikaratnasari,Ticull
6687790555,torik_kcl,torik_kcl
5521756137,m.ozdmr0.7,"Merve Özdemir"
2079331773,mariabelinda03,"Maria Belinda Setyawan"
3186375408,lidiapermatasari12,"Lidia Permata Sari"
9065316526,ahannachsaid,"Sã ïD"
1614269601,saffira___,سفر
3296420799,jihannuraliya,ᴊɪʜᴀɴ
3820090074,omermenkli,"Ömer Menkli"
2307654538,madha.rmana,madha🕉
8572642107,anindya8033,"zahra anindya"
6906913346,1ayhanayhan1,"haçim ayhan"
8656935219,lylalolie,lyla
4485596173,helmyelmorsy_,
10684369839,sapoetraadja,"Sapoetra Adja"
3558490281,hanafiahdeni,"Deni Hanafiah"
10322851472,pemutih.gigi_herbal.whitening,"pemutih Gigi"
10347554536,penggemuk_badan_original,"penggemuk badan mudah & cepat"
3958151860,nbavaqih16_,"Nadhif Bavaqih"
10337939435,pelurus_rambut.herbal,"SUPER STRAIGHTENING HAIR"
10509863375,jo.tambunan88,"Johannes Tambunan"
9431578262,letstalkenglish.vido,"Let's Talk English"
7103750165,fadhillahremi,"Remi Fadhillah"
10219605872,griyasyarimouza,"Mouza Famouz"
10333316026,birolgurbuz44,"Birol GÜRBÜZ"
5045445683,iqbalcfp,"Muhammad Iqbal S, S.H.,CFP®"
6949140877,yusryn_sry_uchy,"Yusryn sry Uchy"
5487311959,cherienleticiacalderaa,cherienleticiacaldera
9071413950,yannn.___,kepo
9061070626,holal89,"Khabib Nurmagomedov"
5565611689,g8_mr,"شاعر الاحاسيس"
9494421490,elmarmma,Elmarmma
4120963723,fevzi_ozdogan,"kusuralı fevzi..?⚠😎"
5526111225,arzan.levine,hei.tayoo
732263229,robin_limz,ROBIN.
5736882753,umut_umvar,"Umut Çelik"
8434592898,la.beaute.des.algeriens,"La Beauté Des Algériens 🇩🇿"
8714684915,adeeeeeee_ananggg,Madeeeee
8671180009,rendisentot,rendisentot
4097646615,putera_agus,"Agus Putera"
5508162238,andriyansyahscopath197,per197
4675716966,sugesty13,"Egiet Sugesty"
8036710443,abdurohman73,"Iman Abdurohman"
3272468280,dianlovitaa,"G U N G G E K"
2098465604,melsyirahma,jungitssss
8958301476,gunawansucipto65,"Gunawan Sucipto"
1967007142,pabrik_slingbag,"JOYSHOPCOLLECTION GROSIR TAS"
2160635016,danielricardoo96,"Daniel Ricardo"
9533903211,syfasyabilaa_,"Syifa Nur Salsabila"
1946929677,totox_dwi,"Totox Dwi"
7675058808,rindyeuissss_,rindaaaay🐆
4534141987,kanayart_,Aya
2065175259,dessyramita11,DesiBiel
2206875599,melaniadwil,"Melania Dwi L"
33722536,andinimasyhur,"dιnι anggraιnι мaѕyнυr"
9440832441,angeliqueconleye,"Angelique Conley"
3596999804,monika.lavender,"🇮🇩 . 🇲🇾 . 🇦🇺"
8024556163,delan_octavia,"Delan Octavia"
3534135446,aqilaahasyaa,aqilaaa
1287955971,lusynra_,Uci🍒
5567125644,nazharask,"nazhara shafa kila"
1111616320,pujianandez,"Puji Anandez"
5748271539,wahyufajar_rfo,"Wahyu Fajar"
3640205471,apriliasaputry_,"Aprilia Saputri"
1614291172,hafizhmurtado,hafizhmurtado
1933631321,redhajuliya_,"رضا جوليا الوحده"
8200316986,jonijhon12995,Emptyman
2018667603,raihanrfi,•reemon•
3507615441,silviamunarti_,
7394279260,citraayundas,"Citra Ayunda Salsabilla T"
3542655825,ajaymlk_,#LuckyPeople.
3246717311,nadiyayl,🌈🌻
3188608282,putri_enjel2,Putri
2197623552,madfaizasi_,πgo
7560719337,poetraaaa_,
2105234489,rezysetyawan72,"rezy setyawan"
1611069065,arik_dwi,"Arik Dwi Santoso"
5551421657,dhannaaaa_,"ROZAQQQQQQQ 💨"
3488499987,renatanurlaily,"renata nurlaily"
3235608827,pradika1,ThrdRipperGMLY
4857638355,_fitridm,"F I T R I 👩"
307990604,rizkyindraasyarif,"Rizky Indra Asyarif"
6393064994,hilmimalik17,HilmiMalik
2296698754,ayiqb,ayiqb
5853715463,andrieanys,"andrieany s"
2180551060,asnzandi,aprizandi
10825778,halimz,
1519966025,mhdyfarisy,"Mahdy Farisy"
2176919146,cindiananda_05,"cindi ananda putri"
9891901825,atripalasafitrii,"atri pala safitri"
8691540498,ghia.viaa89,ghia.viaa89
3240863932,rahmalidiaa,"r a h m a"
7414213731,rismma_390,"Nuroh Rismma"
1813608786,sintasukma_,"Sinta SukmaW"
7689815222,ahmet_officail21,Ahmetbudak
8057220246,intanristy2,"intan risty"
4530317555,robinludji88,"robin ludji"
1649420871,svallencia,Wjy
3304737136,tagitaakkk,"NI WAYAN GITA SARI YANA"
4050466711,cccasl_,CAN.
2095018226,ivodesry_18,"Desry Ivo"
1976044858,lindawdsr_,"linda widiasari"
9191503157,ayuswandaniii,"Ni Luh Ayu Swandani"
1916528645,ayuswandani12,
457021582,elizabethnathaniaa,"Gabrielle Elizabeth Nathania"
10831481831,thit576,"Thit Sar"
10580343400,taite_391dare_,"Taite Dare"
3897180333,agung.smy,"agung mulslihat"
1544683365,jilims,....
2044577221,juanandreasdermawan,"Juan Andreas Dermawan"
5904756531,muhammad_fadil261686,"Muhammad Fadil"
1932962074,hendrasetiawan___,"Hendra Setiawan"
1611777489,riopratama_s30,"Rio Surya Pratama"
1492803278,abd.aziez,Aziez
6112310973,fristyaarzetti,"Fristya Arzetti"
2946606541,helloween.souvenir,"Mozaik | waterbrush | siluet"
653464638,dhilazhr_,"فضيلة ازجيرا"
3503226712,novella_reva,Reva
2532725765,_bawal_,bawal
1446291112,michaelcp33,"Michael Cugiarto"
6545195349,chraizar,YA___AN
6770482492,emmysaputri_,"Emmy Saputri"
7176542140,jessica_aurel_,"jessica aurel sucipto"
5600199566,dewips666,
2069568658,idaayyu_marlinda,"Ida Ayu Marlinda"
7635948370,marzyas_,"決して あきらめない"
1764257725,melisatrich,Mels
3166753700,levisyafashion,"TERMURAH skinny 12.000"
1743200513,kosmetikpku,"SCARLET PEKANBARU"
2265359915,firzaa1212,
6786987320,cigdem_01.01,"çiğdem Korkut"
625322097,malinnorheim,"ᴍᴀʟɪɴ ɴᴏʀʜᴇɪᴍ"
5770364022,thebodyshop_sale,"SKINCARE , BODYSHOP ORI 100%"
8331025251,kurokuroclip,kuro
3606515891,_ryuli25_,"Yuli Anggraini"
4167914167,kristinmetta,"Kristin Metta"
1780915661,rajamastita,"Raja Mastita"
1381877903,loopstuff,"SUPPLIER FASHION PRIA JAKARTA"
9383157610,atindriyaaaaaa,atintud
9965733000,dicki.1,"Dicky 1"
9034990641,inform.unik,informasi.unik
5457988556,krisnapratama38,k_pratama
9262298987,investasinow,investasinow
9452544271,jejesyahputra66,"jeje syahputra"
2034716674,mialst_,"Mia Listiatul"
3618755316,irmakheir,irmairma
3662541970,miekocokmg,"Mie Kocok MG - Moal Gagal"
2973273769,rzkalbatawy,"FASHION . HIJAB . COLLECTION 💦"
4200079954,preorder.by.schminkhaus,"Schminkhaus PreOrder"
386559785,wearingklamby,"KLAMBY OFFICIAL"
2249356087,irarahayuu,irarahayu
4353951925,afifah_ang,"Afifah Anggraini"
1421685212,jilbabsyaristore,ZIZARA.AMIMA.JASMINE.SHEIKA
1506972754,benscrub,benscrub.com
2230259959,yerrimaris,"Yerri agent Prudential"
6940705810,chatstoryofficial,"hi sayang"
3973429629,leagueofmarvel.dc,"LEAGUE OF MARVEL AND DC 🎮"
5404469680,gra_gracios,Gracios_WmL
5935754613,ignorains,"Kata Bijak Cinta Dan Motivasi"
3988055755,nadiyahdyy,AndreDwiAgungSyahputra
10019120417,jancuk342,Jancuk
9189839626,adenalsa_09,Adenalsa
2346548520,hanristamba11,"H A N R I S"
9259473449,ronallo.ft,low~
9468584060,flowersthe70,Flow
9199265335,lanjutkan35,Lanjutkan
3705454811,swap_pajamas,"SUPPLIER 200K GET 3 SET"
4129199038,ticoheathwright,"Tico Heath-wright"
9405737385,iwanpjt,Iwanpjt
7426209958,algoarina,Algoarina
3456925997,jujuuuuuhg,Juju
1489517656,margiedayana98,Margie
5638171846,sevda.dnmz,"Sevda Dönmez"
1973377446,mahiraardhiani,dipa
1623935831,infiniteloved,INFINITELOVED
3172890678,jasacleaningocm,"Jasa Cleaning Service Malang"
9519254775,cbcbgh,ggg
5922681009,putriisrm,
7561498919,daaafaaaaaaaa,Alfian.dwp
5375510772,your.bouquet_fllowers,Souvenir◾Gift◾Boneka
8739382209,aamalia33,amalia33
8705412878,riska_feb02,"Riska Febby"
7435318968,kirikjowo,kirikjowo
6949835343,novita.sella,"Novita Sella"
262268066,angelagilsha,"Angela Panari"
6196395341,tipscreatived,"CREATIVES IDEAS FOR YOU 🎀"
2004713429,eninnf,"Eni Nurfatmah"
1462638543,there.xx,"maria theresia"
1763652338,ka.jab,"Abdul Jabbar"
4042118680,rindangakbr,"Rindang Akbar Rafsanjani Isaac"
9436931214,sasquad_404,SASQUAD
9773760508,adammulya107,adammulya
4641186428,stvincentnewport,"St. Vincent & Newport"
6286038909,togahutagalung_,"Toga Hutagalung"
2228996636,arisya_store,"BLOUSE TUNIC GAMIS DRESS"
1052612312,adellph,"Della Putri Harbad"
4089614226,lestarinw_,"Lestari Nurul Wahidah"
4479674938,tyasyulia57,"Yulia Ning Tyas"
3071178624,silvaenlev,"Silvaen | Indonesia🇮🇩"
1432637406,temp_rano,Dini
2178965049,rendikesuma13,"Mhd Rendi"
644220647,lynviaaa,"Lynvia A Velena"
5959613432,dherenty17,"Dhe Renty"
6811275912,_dryyyy,"I N D R I"
9479905623,riyaj_gavli007,"Riyaj Gavli"
6068643618,_insta.sya,tasya
7704332877,notebook.rumahwarna,"Notebook by Rumah Warna"
8316988266,dedi23541,"Dedi sanjaya"
10210540838,nggiriesta,"anggi ariesta"
9143407131,go_ngundang,"Undangan Pernikahan"
9684785040,mikemegawat1,"kosong brow"
2892201930,alicewl.id,"Original Watch Store"
8599817634,agan_athiya,"Abdul Ghani"
1411246113,mrickyard,"MUHAMMAD RICKY ARDHY"
9440768346,ade.i7,ADE.I
2050660839,pandu.cp,"Pandu Cahya Pratama"
9420203581,jualtas_sepatubdg,"Grosir Tas dan Sepatu"
9528282072,kimberleyhudsone,"Kimberley Hudson"
1644000489,joshuaarsidy,Jos
8579125839,ami_herbal_stok,"PENGGEMUK PELANGSING PENINGGI"
4040171371,daymontagu,daymontagu
5513597977,gilang.pranata,"Gilang Dewa Pranata"
2005846027,aldino_smith,"Aldino Smith"
7434912383,taylorarby13,ARBY
8484419307,dronefly24,"drone fly"
6419350975,elizabethwanderlast,"Elizabeth Wanderlust"
5764848206,asktanem.benim,Mutluluk😍😎
9782202447,medinazahra239,Medina_10
9226646492,awal12364,Awal1236
6962863957,m_ansarrr,MhmmdAnsar
8576260678,grosirarloji.nayla2,"JUAL JAM DAN TAS JAKARTA"
1097510586,berlianovitasari,"Berlian Novitasari"
7013698353,yacubabo,"Yacub Abo"
10139729421,cristinajlarg_,Cristina
7128666301,ruswita_oktaviani,ruswita13
8288389734,gizagesha,"Giza Geshany"
8935318550,tambah.follower.indo_gratis,follower.real
7123122457,satriaayakuzza,Satriaalfarizky
8412966909,adinur1723,"Muhammad Adi Nurohim"
6269666701,theskyinparis,Oscar
4273743137,luqmanshaw,"Luqman Nurhakim"
5741393316,koparasim,"Asım kopar"
5433420817,zeyneb_suleymanova_41,"Zeyneb Suleymanova"
861300682,sanggulemas_weddingplanner,"WeddingPlanner NegeriSembilan"
2201947070,matbayram,"🔜BAYRAM MAT🔚"
8719167039,sisir.kutu,"dream come drew!"
4484114739,tyna_paung,"Christina Marpaung 0203👸👸👸"
9948092020,mimielee98,
4870492306,onurcan.official1,"ONURCAN ABAY"
3595781813,_senan_q_ev,senan
2939883842,kisseyusuf33,"Yusuf Kısse"
4088935085,yahani_ds,"Yaahani Ayu S."
9984887040,vvbbbbbbbbbbnnjjjj,Aaa
9761420045,hadysyahid__,hadysyahid__
1239471603,rifaldi_riduan,Aldi
9186692701,juventus_ps3_clup,
2913834494,erasriyns,"Erasri Yuni Suhesti"
8446139232,savage_raylen,"Raylen hancock"
1824630031,alif_aprlian,AlifAprilian
3180101713,ayiyulitasari25,
5464607203,lihat.untung.folowermu,"Lihat Untung Folowermu"
8892700955,keranjangnissei,"GAMIS KEMEJA CELANA JILBAB"
1922934471,hugemarketing,HugeMarketing.net
8507440000,manthojr98,mantho
8200646199,destii71,"desty Lestary"
2135659257,hi.shop26,"SUPPLIER BAJU TERMURAH"
7227622659,adeputri4029,"ade putri"
9975044142,bachullats90,"papih nadin"
1132835826,markclark66,"Mark Clark"
2874623103,dimaswelah_,"SAHA SOK?"
9246608510,aisahqurkoi,qur
5918665000,yarissetiadi,"Yaris Setiadi"
10622015990,cahhayui,cahhayu
8122186593,xmustafatekex,"mustafa teke🌟"
264068265,femmyangri,FAY
3616422835,oxalis19,"your daily outfit 💕"
1215658324,rachmawaluyo,de_rachma
9232276416,pagarnusa_bengkulu,"PAGAR NUSA BENGKULU"
1353241828,dary_prdna,"Dary Rafi"
9275065353,akmjump1,HASYA
485309714,fannieclaudia,"Fannie Timisela"
9174735660,yxsfm1xh4el,YX5F
10237494370,ahiskali8620,"Cuneyt Ahiskali"
8417032663,safitry671,"Safitry Putry Putry"
5616805613,regitafaradina_,"💕 REGITA 💕"
4432315556,erenkurumlu1,ErenKurumlu
9361172310,mapriiansyahpr,"M Apriiansyahpr"
8598874611,lieyenti.makeup,"Lie Yenti MUA"
1801501857,simon_f_panjaitan,"Simon F Panjaitan"
4906817648,lutfiaayulil,lutfiayulilestari
6404549813,putrasadewaa_,"M ADZKIYA ALFAINI ZAHRO A"
3299038609,al_farizi61,
4148192142,anandamichikaa,
8161830126,yaprak_aliask,4n1k
4953830090,riskypangestu297,"Risky Pangestu"
1549050466,melih.gokce.9674,"Melih Gökçe"
4157111580,nurettn4225,"Nurettin Adıyaman"
9451439372,roger.ran,rogerran
5096453548,50watch,"50 Watch"
926863137,sudenazturel,"Sudenaz Türel"
2881958886,m.yilmaz_27_,"Muhittin Yılmaz"
8934317516,farissidqi_,Maharasa...
7681863192,mltm_byza88.92,"Meltem yapan"
9074645156,nicoptr12_,nicoadityaptr_
672409989,ira.armudi,"Ira Rismayanti Armudi"
8625553291,mertcanbilkay,mertcan
1518413119,ncila_,"Nadia Cilarisinta"
1576750549,herochanz,
9162783512,arapibusiness,Arapibusiness
9196995573,welody27,solong
10637768397,daeng_followers,"DAENG FOLLOWERS"
284960464,anastasyagumelar,"Gabrielle Anastasya"
3063074166,davidbayu__,BayBay
8690683151,skmcloth,"KAOS DISTRO SKUMANICK"
10237830382,tombul9668,"Memo Tombul"
10393660187,senemozturk31,"Senem Öztürk"
9467530595,random123flare,wawokflare
3069384093,pratiwiputri1217,"Pratiwi Putri"
8043620126,nabillanaabila14,anaabila_n14
463673837,eastzany,Eastzany_83
9058485011,tugce_olmez41,"Tuğçe Ölmez"
9950695544,watch_ku5,watch_ku
10177160503,dapur_aruhi,"Dapur Aruhi 👯"
8495526888,alnaira_2869e,"Alnaira Twombley"
8481911311,alnairah_aad6d,"Alnairah Amerio"
8510247391,barakbarbay,barakbarbay
8091648891,imahputrialjahra,Imoyy
9788610109,nihan_sky,"ٱيـــڤآ🌼 Evä"
8670008172,nadzwafauziah,"nadzwa fauziah hismatulloh"
8423640703,amirmohamab66,amirmohamab
8568333031,hoseen_zidan8,hoseen_zidan
9120960341,masker_spirulina_tiens1995,"Masker Spirulina Tiens"
10084180655,tashya_hndyni,"Tasya Handayani"
7951809028,yashpal_banna_rajput,"Yash Banna"
8472112572,a_acharon,"Angelo Acharon"
8495168523,helinsibel_budk,"helin budak"
9036366071,mysuccess_store,"INSYA ALLAH SUKSES"
8362967779,astridpeulita,astridpeulita
8514048849,lisbalisba,Lisba
7917465548,linda_girls89,ليندا
8125151146,afry_paniang,afry
8739034402,eetttttttttttt_,Wetttttt
10025986324,erickchung919,ERICK_05
3079505743,ramaasandika,"Dw Gd Rama Sandika Dawan📸"
8240454590,rizalmantovany87,"rizal mantovany"
9895099512,saif_alriany1,"سيف الرياني"
8268541878,iik_hikmatullah_22,Hikmat
8007788770,ekapratiwi1_,yossiekapp
8391320385,hernandezfrancis554,💻hernandezfrancis554@gmail.com
8563531149,gadis.rembau1605,"Fiza Mohd"
9188683643,nr_fatiniii,#Fatini.sha=)♥️💙
9268849086,beja_sepuh,"be'ja ti sepuh"
8509751307,customcasefazari,"custom case fazari"
9235791370,metineren113,"Çağla METİNEREN"
8527013695,erfan_noroozii,erfan_noroozii
8491218424,damiano4611,"Damiano Lena"
8628082775,dapuromanonon,"Pindang Bandeng Enak"
9262878507,karimazibuko,"Karimazibuko Mazibuko"
9463193576,birsenyucel56,"Birsen Yücel"
9458825950,kirwanoleng,"kirwan oleng"
