Userid,Username,Fullname
1951312639,sindyayukw,"Sindy 🌸"
9946804942,yulisakurniawati_123,"Yulisa Eka Kurniawati"
2217209453,huinadya_,"nadya bella"
3215479382,faizahnur_27,"Faizah Nur Hidayati"
1497228672,lailalutfiariyani,unknown.
1551796671,igananda79,"iga nanda"
8184649397,afera_anjani,"Neng Fera"
2137297985,meidianans_,"Meidiana N.S"
5487508017,ismiragil22,"Ismi Ragil Saputri"
1547742177,alvinia_nuraini,"Alvinia Nuraini"
2162834255,michaelhadinataa,"Michael Hadinata"
2247268039,nurulaftn_,Nurulafiyatun
9138112479,esinugraheni_,"Esi Nugraheni"
3317674441,latifah_risa,"Risa Nur Latifah"
4070535193,widyadivarizky,"Widya Divarizky Rahmadhani"
9522168825,mehmetufukbayram,"Mehmet Bayram"
6090173448,nuraini_ib,"N U R  A I N I 🇮🇩"
3174051889,aria.neurolog,"Dokter Saraf Solo Perdossi"
8646454659,lee_60fb9,"Lee Syring"
3957983182,zaidie_jai317,"JAI muhammad zaidie eddy"
9363179280,gents_alleywear,Gents_AlleyWear
253854587,fickarinna,Ficka
8882966799,sahrul_wijaya_42,"Sahrul Wijaya"
9004908331,eskiadepratama,"Eski Ade Pratama"
8992734726,yudowildan,yudowildan
7363001799,zitlalyvy,ZITLALY
10256082875,zuyin11_,"Nobita Ap"
1595136558,evava_va,EVasuryAdi
7544936105,rizkypaytren.official,"Pramudyatama Rizky Theo Fahesa"
5617149933,xox.hlmpksy.xox,"halime paksoy"
5807421601,penambah.folower.real,"Penambah Folower Real"
8065112981,triva.beautycare,"Pemutih Wajah Aman"
1741579925,babypinkmedan.testi,"INI IG KHUSUS TESTI SAJA"
5594195701,suntik.follower.real,"Suntik Follower Real"
3662289273,satria_sanjaya_,"🔄 PO Jastip China"
7548798061,janettawindy,babyanets🕊
442151224,venus_twyver_689,"Venus Twyver"
1581506721,andremians,"Andre Widya Pradana"
2198892823,inatora_,Inatora
1095693947,wahyuwidiarta,
1321141164,seladv,
1431753458,grosirkaosdistro152,"H.A.M.S DISTRO"
8172454881,gradient2.1,
1961253433,diivacahyanti_19,Diva
10398544693,lovepotion0808,"KRIM PAYUDARA MONTOK PEJAL"
1109375000,victoriaabarcar,"Vicky Horlador Abarcar"
920037483,ferdyonatan,NATAN
330948943,intan_fj,"INTAN FAJAR"
4685027664,royal_enfiled21,Boy.
8514161383,agungegitha_,
2176873714,ayukariwahyuni31,"Ayuk Ari Wahyuni"
8759455659,eniwhahyuni,eniwahyuni
1632045284,revinfahreza,"Revin Fahreza"
1548422011,pt_lisakurnia,"Lisa Kurniawati"
2525295252,demasspt,"Dewa Bagus Made Ari Saputra"
4020313258,satyalestary,
4311509902,asintadewi23,ayusinta
3657810443,triadiarinda,"NI KOMANG TRIADI ARINDA"
10854067352,myanto1981,dwi
1498469351,dewirahayu210,"Ni Kadek Dewi Rahayu"
2269118998,patricialilyana26,"Patricia Lilyana Wibawaningrum"
2880012024,irfannursyafaat,Irfan
10029861971,piffsupply_id,PIFFSUPPLY_ID
3055562199,rahmatsandii,"JOIN PROYEK LANGSING 2019"
1976044858,lindawdsr_,"linda widiasari"
4473749690,devoy_abyan,"Vhii Syafqia"
4717347847,agungpradikes96,pradikes@yahoo.com
7281976551,tikanadapdap_,
8044255798,nell.apendiansyah_,Nellamawarni
1379909410,rudyamran,"Rudy Amran"
2360880781,arienovieta,"Arie Novita"
8457728733,larrainesievers,LarraineSievers
10684369839,sapoetraadja,"Sapoetra Adja"
8224367629,denis.a.f.o,"Denis Alfarado Fitzgerald Oey"
4141219705,ubahfotomu,"kado, hadiah & sourvenir"
4485596173,helmyelmorsy_,
5351254499,yoghianggara024,#CRAZY
3558490281,hanafiahdeni,"Deni Hanafiah"
3958151860,nbavaqih16_,"Nadhif Bavaqih"
6647528412,salsaselfi,"Salsabila Selfiani"
7103750165,fadhillahremi,"Remi Fadhillah"
8615882484,adesetiawan587,"Ade Setiawan"
1797056240,furikise,"Fuad Arif R.P👈 this is my name"
5750646158,adiwnn,Wongsonegoro
2098465604,melsyirahma,jungitssss
2274515511,pusssyantik,"P U S S 🎀"
10831481831,thit576,"Thit Sar"
1572073181,christhea31,"L.V.Christhea Pontororing"
3240863932,rahmalidiaa,"r a h m a"
9891901825,atripalasafitrii,"atri pala safitri"
1492803278,abd.aziez,Aziez
6112310973,fristyaarzetti,"Fristya Arzetti"
6545195349,chraizar,YA___AN
1438840464,sleeping.inc,PIAMA.PAJAMAS.BRIDESMAID
5452974582,kaoskaki.jogja,"KAOS KAKI GROSIR"
10185280084,oilherbalessenzo,essenzo.id
4703681833,kireinahijab_,"GROSIR MUKENA & HIJAB"
5535858161,asa_galeri,"Gamis Murah Butik | 99.000"
3677610675,ocean.stuff,"Tas Firefly FREE ONGKIR SHOPEE"
10414743892,sweetnesssee,"SWEETNESS [New Account]"
8516821671,wanitajilbabmuslim,"Rina Purnawati"
8360485091,terminaljaket6.id,"GROSIR JAKET & TAS TERMURAH"
9154417800,kaylasleepwear_,"Kayla Sleepwear"
6655589899,fatayahijabs,"Fataya hijab"
10195431273,exacase.catalog,"Catalog Exacase"
7558620255,dhuhaaofficial,"DHUHAA OFFICIAL"
4072987819,gamisjakarta2019,"Baju & Busana Muslim Trendy"
10206907261,melindarahmawati5026,"Melinda Rahmawati"
10334522171,restipujianti373,"Resti Pujianti"
2066942421,nasya.id_,"PIYAMA START FROM 75,000"
1973377446,mahiraardhiani,dipa
4265321649,bahahahhh_,yyyyyyyyyy
2178965049,rendikesuma13,"Mhd Rendi"
8463042090,destiyanianita,"Anita Destiyani"
2085900527,rachel.y.m,"rachel ym"
8507440000,manthojr98,mantho
8557906817,reynafe4,reynafe
5644034012,ramlan_wingson,"Ramlan Wingson"
5772700977,jamtangan.online,"Jam Tangan"
6062212331,jamtangan_1,"Jam Tangan"
5764848206,asktanem.benim,Mutluluk😍😎
1097510586,berlianovitasari,"Berlian Novitasari"
4273743137,luqmanshaw,"Luqman Nurhakim"
485309714,fannieclaudia,"Fannie Timisela"
4343125736,nevcanalma,"Nevcan Alma"
435594505,fierabyntr,Fier’s
4157111580,nurettn4225,"Nurettin Adıyaman"
7681863192,mltm_byza88.92,"Meltem yapan"
10396826876,jam_tangan_online0,"Pasti ada give away 🙏"
7146971887,jual__jamtangan,"Jam Tangan"
6060518237,jamtangan_2,"Jam Tangan Online"
10709299202,timelessid.store,"DANIEL WELLINGTON ORIGINAL 💯!!"
1524576474,alifaldo_putra,alifaldoputra
10360964517,57.fatma.57,"Fatma Öztürk"
8632382042,kalsacolletion,Kalsacollectoin
7699878882,rainstore_accsby,Rain_Store
1391422368,shine_bright294,"ALL REAL PICT AND READY STOCK"
3253992564,ajeng_azzhr,AJENG
4343814101,lordholo,-
2686437565,reza.saputro,"reza saputro"
8560200041,dina.musila,Dina
7558559766,muhrendrau,"M. Rendra N"
7294353010,larasatiaurellia,
3260915613,benedicwiliam,Benedicwiliam
2909692057,ricky.rahardo,"RHD 王"
1386106303,rezafirmannn,"Reza Firmansyah"
3536276112,citraamandalestari,
2351410177,frdynto,ferdyanto
4279608574,te.zefanya04,"Teresia zefanya Desrayani"
10717945280,evaaaa53,Evaaaa
1528249953,jericodennisp,"Jerico Dennis Panjaitan"
5936472842,ahmadhadzami22,"ahmad haikal hadzami"
5456414689,deljazmine,"Delilah Jasmine"
5777507637,fitri180595,fitriani
770935924,nugi24_,nugi
3069384093,pratiwiputri1217,"Pratiwi Putri"
3286383309,ardeladelas,"Ardela Odinsson"
9366540929,asikinaja903,asikinaja
1492287586,juntaaaak,"Yohandres Simanjuntak"
5812446512,tirtamaya.indira41,"Tirtamaya Indira"
6397142576,_murat_yzc,"murat yazıcı"
4370825584,ayu_chan1896,"Ayu Chan"
10153062667,rivanitabunga,Riva
6832847742,jamtanganonlineshop1,"Jam Tangan Onlineshop"
7146951131,colectionjamtangan,"Jam Tangan Murah"
6320236407,ali_yusuf79,ali_yusuf_orakcıoğlu79
6015468798,febriyanti132,"Juwita Febri Yanti"
8043620126,nabillanaabila14,anaabila_n14
1521047860,omersend,"Ömer Şen"
1928114781,yuniarfhrs,"yuni arifah rarasati"
3204556438,jarbud1,jarbud
7970545777,marioneayrsav6,
1483938776,gemazalfa,"Gema Zalfa Azzuhri Purnama"
1614229416,rikaprahayu,"Rika Puji R"
2237842015,anjangrahma,
463673837,eastzany,Eastzany_83
1294429340,pramitalaksitarahmi,pramitasetiawan
10679514438,damianolena95,damiano4611
3310549732,yosiaming,"Yosia Ming"
10084180655,tashya_hndyni,"Tasya Handayani"
7000658869,hilmishop_mjk,"Saudia ansania"
4051900577,shantyssusanti,shanty
1599621196,ayumicahyani,
4871598297,arjunkardova_x,arjun
7384182835,viiaviyo,"Novia Lumaidah"
4094456015,adhelia_pratiwi07,"Adelia D Pratiwi"
4147707891,dimasap00,Dimas
10177160503,dapur_aruhi,"Dapur Aruhi 👯"
3643968315,darma_putra05,"B 🔺 L I"
5626308874,ichaliza1006,ichaliza
10513708115,casing_sub,Casing_SUB
5584079605,renildawicaksono,
1405628504,tantripratiwi_,"Ni Made Ayu Tantri Pratiwi"
4209065369,aryaadek,"Adek Arya"
4033226138,henryanto_simanjuntak,"Henryanto Simanjuntak"
5822239666,mawan.marampa,
5575843860,ferdimasdedi,loweyesgang👀
8135617872,nurpuspapuspa,"Nur Puspa"
606524757,watchsupreme.id,"DW Original"
8423640703,amirmohamab66,amirmohamab
