Userid,Username,Fullname
7372612043,xxzkalk,
3051991026,kwity.pie,
3465662260,gulalicantik,"jangan panggil aku sisca paman"
6874156978,hamsterpalembang,Hamster
4295923007,piyama_murah_bandung,"Piyama Anak dan Dewasa"
1367958623,sekenekonaqu,hiyahiyahiya
1518543566,xpopxyow,
4487868342,_nadiah88,diah🔥
9879456501,eri_novita5,"REAL ACCOUNT"
4757146746,nandamaulana_19,BGL
3745730947,ameleer,
7260897134,dw_kavrista,"Jam DW Daniel Wellington ORI"
7574899387,lutfie4145,"Lutfie A."
5499889041,rehanpolimpung,"Rehan Polimpung"
188627305,novenaparamitha,MNMP
479109046,elisabet_tan,"elisabet tan"
5843230513,alfrska08,alfriska_kusuma
5519258710,viaalfh,Alfiaah
9790923328,joandre__,"Andre Raharjo"
5822825363,dimasardiannsyah,"Dimas Ardiansyah"
3257498691,tania.atalia,"Tania A"
482610986,adinnnnnda,"Mbak Freaa 🧕🏻"
11437078718,athenadmaria,"athena dimaria"
6451489944,_katrina313,"katrina H W"
4313091511,shellafebiani_,
5648917993,despaciittoo,⚠️
5495964894,firmnf,
7224194765,scndr02,
2126668452,nandaynisak,"Nanda Yumrotun Nisak"
3296050944,ridayani_ridha,Ridayani
4617222313,yoevlof,"yoevanca lofianti"
11410329130,k_queenca,"k_queen caca👑"
9277118798,imam_almujahidin,"M. Imamal Mujahidin"
2078050273,queen_liska,Queen
1743546090,elviraaulial,yandut🐡
7392802450,diah_nadiadiah,
1271914745,nisalkhr,
8281120383,aureliana_nurul,"aureliana nurul"
341626953,dilahhrp,"Pradila Syahfitri Harahap 🙋"
7870163392,nandwahh,지민
3221705483,adyyanasarii,yanggasir
1151398132,intannbln,"Intan Nabila Nurazizah"
1293628914,fellacu,"RAFFAELA REGGI PUTRI"
4552047219,m_ariefilham,"Muhammad Arief ilham"
10135356060,deveeyyy,Veynxz
3985400647,itsrdmply,"2nd Acc"
11576108415,gt4_fpm_04,gt4🧖‍♀️
623053905,sim_cuang,i'm_Sim
11434165775,tjendra.sherly,"Sherly Tjendra"
1584110028,charrie_duank,Nofitasari
797224834,nndillaa,anfadillah
10936705438,tyasririzqa,tyasririzqa
2892908279,bethariadini,"Dini betharia"
342920111,non_raisa,
8040446810,nisauling_anamiya,SZPAY
7407807555,coklatkata_bdl,coklatkata_bdl
4693409995,aqilahgilda_,
1453120469,ria_artika,"Ria Artika,Amd.Keb"
7149842056,tp_skinglow,tp_skinglow
5593840420,ririn1404,"Ririn Ariyanti"
5564105772,iamandre16,"Andre Setiawan"
2042265411,wt_sari,
1240161546,firzaindicaa,"Fırza Indıca Alfarıdzı"
6798242903,dmyp_1,tetett
8456922624,siska19594,siska1
3265033765,eleorasitepu,"Eleora Sitepu"
11202970753,_alfnzhah,zhh.
5799327705,_zhwalfnaa,
1958924022,davidthupiank,"David thupiank"
2332288738,ichancardayo,Ecardayo
1504505673,adindainezsg,
1481094560,hamidahazzahra04,"Hamidah Azzahra S Lubis"
8043835715,adensya9,adensya
4052749140,sekarayu1992,
3959444291,greez.ly,🔞
1495455106,lukeyismyboy_,Ashley👣
7743938614,azmiathifa_21,inayakutu😉
8906061272,_awidysnt,𝙎 𝙄 𝙉 𝙏 𝘼 𝙒 𝙄 𝘿 𝙔 𝘼|𝟚𝟘𝟘𝟜☬
5393435692,candyrellaa_,"not cinderella"
1571036321,vistipertiwi,"Visti 'mbeep' Oktavi Pertiwi"
8008582760,angel_natalie_6789,ms.minn
3024009089,pereloved.byjune,junee
4078923697,leo_thelegacy,"Online Shop Teluk Kuantan"
1921444111,dwmn.dwi,Dwie.MN
3470230745,titis_2630,"Titis Wijayanti"
2060589504,vaneziawidya,
11404209779,obatpelangsingbuahplum,"obat pelangsing"
1653203496,khailaahijab,"Khailaa Hijab"
1215178111,angelikaselin,"Angelika Selin"
3952488086,syalwa0901,Syalwa
369595231,hartatisitompul,"Hartati Sri Murni Sitompul"
1216019515,kvnlesmana,KevinLesmana
377866667,ulifadhilah,"Nurul Fadhilah"
5772096381,kavristajewelery,"Titanium Xuping Vier Jewelry"
11590888872,icha_syam234,Icha
2257354202,syakilladinda15,
10819298227,asmayaniasse,"Asmayani Asse"
639746261,fakhriazulfa,"فخري زلفى"
11372633193,jenijen171,Jenijen
9146729722,sharinaasasyn,"Sharina Asasyn"
