Userid,Username,Fullname
8459157192,rozipratiwik,"rozi pratiwik"
1951312639,sindyayukw,"Sindy 🌸"
9946804942,yulisakurniawati_123,"Yulisa Eka Kurniawati"
2217209453,huinadya_,"nadya bella"
3215479382,faizahnur_27,"Faizah Nur Hidayati"
1497228672,lailalutfiariyani,unknown.
1551796671,igananda79,"iga nanda"
8184649397,afera_anjani,"Neng Fera"
2137297985,meidianans_,"Meidiana N.S"
5487508017,ismiragil22,"Ismi Ragil Saputri"
1547742177,alvinia_nuraini,"Alvinia Nuraini"
2162834255,michaelhadinataa,"Michael Hadinata"
2247268039,nurulaftn_,Nurulafiyatun
9138112479,esinugraheni_,"Esi Nugraheni"
3317674441,latifah_risa,"Risa Nur Latifah"
4070535193,widyadivarizky,"Widya Divarizky Rahmadhani"
9522168825,mehmetufukbayram,"Mehmet Bayram"
6090173448,nuraini_ib,"N U R  A I N I 🇮🇩"
3174051889,aria.neurolog,"Dokter Saraf Solo Perdossi"
8646454659,lee_60fb9,"Lee Syring"
