Userid,Username,Fullname
8462561914,tjioewilliam13,WilliamTjioe
3424355049,zoelxvi,"Zoel Faisal"
7237668833,rahmangoldsteel,"Rahman Steel"
1576068340,stenovsir,stephanie
314137908,jonathan_jota,"Jonathan Clive"
3193615552,richardowahyuputra,"Richardo Wahyu Putra"
9984893177,muhamadakhsanul_fikri,"Amank Anu-Do'if_017"
313233340,stevenchandra12,"Steven Chandra"
226780054,trivia_wu,"Tri juariyogo"
2049559528,giantwatchco,seven
7388297577,mariowibisono12,MarioWibisono
465205128,meilianag,"Meiliana Gunawan"
1103601744,anthoni_darmawan,"Anthoni Darmawan 陈福常"
1192379793,ellen_09_,"ellen liu"
1498723110,yurikowada_,"Yuriko Wada"
759394309,iv.mrairbus,叶好起
221165161,betsyiela,"Betsyiela Bebi Bianca"
237097164,sherlynnat,"Sherlyn Nathania"
264732942,mmoniquecs,Monique
1524929716,vitessereid,"i dont have one"
1508970112,yosua.06,"Yosua Kurniawan"
5938617766,amairitaazzah,"Amai Rita Azzah"
2085298995,margarethasupitwongso,"Margaretha Wongso"
1701053413,madafaqa.btch,
10215541236,violin.style.20,Violin
1641222594,_travys_st_,"Travys Stevenson"
4541410521,preshva_numb,preshva
845693641,erikalaviniaa,"ELSmakeup❄| Beautyblogger"
5598735499,sharonrisc,"sha ron"
4916133650,cokelatpayung,
1204245118,anzelikasari,"Anzelika Sari"
375285256,luthfiandrii,"Luthfi Andri"
6318993792,yekuadrat,"Hehe 💩"
5483999076,cepageti,"Sel 🐣"
1417274185,suciptotan,"Sucipto Tan"
6856884039,dedekristall,Dedekristall
3060167952,letusfollowyou_free,"free followers"
2061421026,krisnayyy_,"krisna yasa"
404150610,abigailmambu,"Abigail Mambu"
3559343911,kennethputra25,"Kenneth Putra"
4984749168,herwinkurniawan037,"win lie"
3051938686,abidtjahya_adaby,.....
303930462,gbrllamyrne,Gabeee
524144603,nathaniaraissaa,Raissa
1595475646,qisthimillah,"Qisthi Millah"
10665164588,pinkneon.clothes,"PREMIUM OUTFIT READY TO WEAR"
634356280,ranggadipaty,"Rangdips •"
2227899585,yourelllll,"who am i"
369497886,agung_glambert,"Agung Glambert"
581318267,antonlie15,"Anton Kurniawan Lie"
314654602,arnoldvrnl,AVL
5556036681,udangbakargosong,Dang!
2901399867,charleslim_11,"Charles Lim"
1477992529,steldev,stella
4370913731,b_leonardo01,Leo
2139451713,qinglan88,"Yang Jiang Mi"
180381799,deborahandojo,"Debora Putri Handojo"
261763273,michelleariesta,"Michelle Ariesta Sanjaya"
335810837,margaretaflo,"Margareta F."
5537960261,williamlim350,
511234650,cristinnct,@cristin.toyota
659574708,marceliuskevin,"K e v i n"
887532242,cedricgunn,"Cedric Gunawan"
1087577119,andika.lkm,"Andika .Lukmana"
6682668466,andianapaliling,"Andiana Paliling 🌺"
32256529,emjeimj,"Mariska Suryadinata"
1695274974,jsnyap,"Jason Yap"
425664545,thebudisdeo,"Daniel Caezario Budi K"
1543791226,ivonnytan_n,ivonnytan_n
4869769102,krebiipetii,"bellooo genks!?🍔🍔"
