Userid,Username,Fullname
5944653709,gresyasirait,Gresyaaaa
691525051,nurulscm,"Nurul Isnaini ♊"
1646480855,rizky_khy,"Rizky M"
260643641,alidadevip,"𝓪𝓵𝓲𝓭𝓪 𝓭𝓮𝓿𝓲"
4513344354,kocero__21,"SERSERİ GÖLÜMMMMMMMMMM"
6019686819,__king__leiker__,Ayaad
8287118707,christinanatalia0112,christina
6264616108,adeismi010199,"ade ismi Fatimah"
7742031306,panjayaadi,"Panjaya adi"
2213200291,khoirulmardiansyah,"Khoirul Mardiansyah"
6087264135,kikirizky.dua,kiki
1220828160,saputracsa,"A. Cecep Superatman Saputra"
1440139530,riskatampubolon,"Riska Tampubolon"
7780937466,abhishek4455kumar,"Abhishek Kumar"
9211086163,tanhamajnon2006,javad
307717973,arielarliyanus,"Ariel Arliyanus"
10855285366,yumurtas3465,"Hasan  Yumurtaş"
10689495823,saadettuncay57,"Saadet TUNÇAY"
10912689336,atlanoglu2852,"Ömer Atlanoğlu"
10852021586,93ziyasari530,"Ziya SARİ"
11049968466,buyukpastirmaci6899,"Asu Büyükpastirmaci"
10885067330,naciozbey6,"Naci ÖZBEY"
10916904725,sudenazcelik549,"Sudenaz Çeli̇k"
10833470874,beder3843,"Serra BEDER"
10842654321,derinbulur90,"Derin BULUR"
10844222054,sariekiz9197,"Nergiz SARIEKİZ"
10865660538,hatipoglu5153,"Özlem Hati̇poğlu"
10730677176,83tulayozbeyler513,"Tülay Özbeyler"
10741236621,muharrem350,"Muharrem KARAGÖZ"
11040697062,ungur9880,"Oya Üngür"
11044880649,aslankara3677,"Asu Aslankara"
11050768386,seymaaydogan6310,"Seyma AYDOĞAN"
10823903350,19zubeydekirlangic368,"Zübeyde Kirlangiç"
10826095050,kamilealtun492,"Kamile Altun"
10832046942,cildir3576,"Alara Çi̇ldi̇r"
10840286058,ozcay7056,"Kezban ÖZÇAY"
10844357941,ergunozkan592,"Ergün ÖZKAN"
10855253383,demirdag3797,"Açelya DEMİRDAĞ"
10867756500,94ceydacosgun357,"Ceyda COŞGUN"
10867996028,balsak1748,"Elvan BALSAK"
10875995781,tiras1568,"Sena Tiraş"
10888322946,naznacar6048,"Naz Nacar"
10889834879,guldamla6587,"Neşe GÜLDAMLA"
10890338580,gulserenkayhan8788,"Gülseren Kayhan"
10901978020,60ejderpazir646,"Ejder PAZIR"
10902761851,gumuscu2960,"Inci Gümüşçü"
10915441007,imamoglu1543,"Nilgün İmamoğlu"
10916096964,55yarenagca388,"Yaren AĞCA"
10920384246,remziyecetin762,"Remziye Çeti̇n"
10698455341,canacankatan4046,"Özkan CANACANKATAN"
