Userid,Username,Fullname
1809697356,margaretha_laurinsque,"Margaretha laurinsque"
1150867030,widyaaaar,"Widya Ayuni"
11043262783,kukuli__,"kuki muki"
11068172423,_loly_z,_loly_zn
11070700382,ayseerdemir12,ayseerdemir12
11088267976,roman_fake1111,Fake
11067531624,b8xdm4,شاهي
11103834326,gtbgtwkwkk.k,konyol
11071513660,fyuughd,Kenan
11117329501,fania_abdul,fania
11099960525,mm2669227,ayudewi
10859711495,juansya354,ekook
10853631478,krallargibi38,KrallarGibi38
10858359263,manojtiwaribhai,"Manoj Tiwari"
10918303206,rafli_kemochi,rafli
10879703142,sameer_editzz_46,"👑SAMEER SHAH👑"
10824430286,hztukiskis,
10804454122,santoseowens,Lol
10918286050,ikhsane21,budi
10905317756,ghita_haydi,Ghita
10856884794,jacksparrow3471,jacksparrow
10814052562,vuzedebi,fgdfg
10831412492,kaanoz82,"Kaan öz"
10886444013,akuncobaaja24,Akuncobaaja
10813811815,sekoxd4,sekoxd
10968803583,regalenaktau,"regal enak tau"
10964299216,entp91,Entp
10891186805,imanu123456,iman
10866090722,ravinarwal19980,Ravi
10834682286,elariz.akberov62019,eka
10981666239,brezilyaguates31,"mert nobre"
10919098103,komedi7971,selin.gundogan
10845937498,guzelguzel334,
10888161080,james_harieee,James
10902464935,muhammadali11191,muhammadali11
10909128787,kunti0,kunti
10830704294,modyy6298,mad456
10610951779,sajay715,Sajay
10716535768,ali_07332,ali_07
10659839524,arif38sevimli,"arif sevimli"
10713559497,mfaiyaz32,rider
10580799411,eda_keskn7,"E D A"
10737975401,draxser78,Draxser78
10653143349,enesbaturapimmm,
10643983027,ffff34219,085707497745
10689558860,amitkr620911,"Amit kumar"
10672165928,gmail.com496,gmail.com
10678309850,sarah.orozco2019,Julious
10670197780,tgeryfd,Tgeryfd
10672109386,sejubad,sejubad
