Userid,Username,Fullname
3006350534,ritaafrd,
466529094,dillaugusta,"Dilla Augusta"
4344043834,sheraa237,"Hera Setianawati"
10908832992,parjo_28_ceria,"HEREX MODOL HEREX"
1078477210,kurfad,Fadli
1996847848,elisetiyawati,ely_collection
1276988793,sumiyti,Sumiyati
3229172641,azie.faturachman,Azie
4315389973,nurindaput,"Nur Inda Putri"
10901842209,ssrrmqa,
