"Nama Item","Url Item",Harga,"Url gambar","Username Toko","Url Toko"
"Aukey Cable 1m MFi Lightning Braided Nylon – 500340",https://www.tokopedia.com/aukey/aukey-cable-1m-mfi-lightning-braided-nylon-500340?trkid=f%3DCa0000L000P0W0S0Sh00Co0Po0Fr0Cb0_src%3Dshop-product_page%3D1_ob%3D11_q%3D_po%3D1_catid%3D71,200000,https://ecs7.tokopedia.net/img/cache/300-square/product-1/2019/2/4/19973494/19973494_b0e19787-6fda-41e1-b58f-4e6561d665ee_1001_1001.jpg,aukey,https://www.tokopedia.com/aukey
"Aukey Cable Micro USB 2.0 (6Pcs) - 500334",https://www.tokopedia.com/aukey/aukey-cable-micro-usb-2-0-6pcs-500334?trkid=f%3DCa0000L000P0W0S0Sh00Co0Po0Fr0Cb0_src%3Dshop-product_page%3D1_ob%3D11_q%3D_po%3D2_catid%3D71,130000,https://ecs7.tokopedia.net/img/cache/300-square/product-1/2018/11/2/19973494/19973494_ac26cdb5-011a-488f-b64a-bc78f8e5340e_1001_1001.jpg,aukey,https://www.tokopedia.com/aukey
"Aukey Adapter Micro USB to USB-C - 500343",https://www.tokopedia.com/aukey/aukey-adapter-micro-usb-to-usb-c-500343?trkid=f%3DCa0000L000P0W0S0Sh00Co0Po0Fr0Cb0_src%3Dshop-product_page%3D1_ob%3D11_q%3D_po%3D3_catid%3D616,75000,https://ecs7.tokopedia.net/img/cache/300-square/product-1/2019/1/31/19973494/19973494_a147f355-8e6c-4e55-a475-1d91a6dc6a52_1001_1001.jpg,aukey,https://www.tokopedia.com/aukey
"Aukey Cable 2M C to C Braided Nylon - 500342",https://www.tokopedia.com/aukey/aukey-cable-2m-c-to-c-braided-nylon-500342?trkid=f%3DCa0000L000P0W0S0Sh00Co0Po0Fr0Cb0_src%3Dshop-product_page%3D1_ob%3D11_q%3D_po%3D4_catid%3D71,150000,https://ecs7.tokopedia.net/img/cache/300-square/product-1/2019/1/31/19973494/19973494_117abb6b-3236-4c0a-91cc-747393ac97ff_1001_1001.jpg,aukey,https://www.tokopedia.com/aukey
"Aukey Car Headrest Mount – 500341",https://www.tokopedia.com/aukey/aukey-car-headrest-mount-500341?trkid=f%3DCa0000L000P0W0S0Sh00Co0Po0Fr0Cb0_src%3Dshop-product_page%3D1_ob%3D11_q%3D_po%3D5_catid%3D282,235000,https://ecs7.tokopedia.net/img/cache/300-square/product-1/2019/1/31/19973494/19973494_38b6afe4-21dd-49d8-a92d-cb3d665ba828_1001_1001.jpg,aukey,https://www.tokopedia.com/aukey
"Aukey Charger 2 Ports 18W PD 2.0 & QC 3.0 - 500335",https://www.tokopedia.com/aukey/aukey-charger-2-ports-18w-pd-2-0-qc-3-0-500335?trkid=f%3DCa0000L000P0W0S0Sh00Co0Po0Fr0Cb0_src%3Dshop-product_page%3D1_ob%3D11_q%3D_po%3D6_catid%3D70,265000,https://ecs7.tokopedia.net/img/cache/300-square/product-1/2018/12/20/19973494/19973494_8845cf50-4550-41bd-b8c0-f04bd71e7e5f_1001_1001.jpg,aukey,https://www.tokopedia.com/aukey
"Aukey Headset Bluetooth Sport Earbuds, APTX - 500300",https://www.tokopedia.com/aukey/aukey-headset-bluetooth-sport-earbuds-aptx-500300?trkid=f%3DCa0000L000P0W0S0Sh00Co0Po0Fr0Cb0_src%3Dshop-product_page%3D1_ob%3D11_q%3D_po%3D7_catid%3D72,510000,https://ecs7.tokopedia.net/img/cache/300-square/product-1/2018/11/30/19973494/19973494_26bcf9ec-74c4-4770-82f0-8d5c94b312eb_1001_1001.jpg,aukey,https://www.tokopedia.com/aukey
"Aukey Speaker Mini Bluetooth - 500332",https://www.tokopedia.com/aukey/aukey-speaker-mini-bluetooth-500332?trkid=f%3DCa0000L000P0W0S0Sh00Co0Po0Fr0Cb0_src%3Dshop-product_page%3D1_ob%3D11_q%3D_po%3D8_catid%3D562,450000,https://ecs7.tokopedia.net/img/cache/300-square/product-1/2018/11/30/19973494/19973494_23642966-d232-4a89-8244-5d061ba3894f_1001_1001.jpg,aukey,https://www.tokopedia.com/aukey
"Aukey Cable 1M Braided C to C USB 2.0 - 500287",https://www.tokopedia.com/aukey/aukey-cable-1m-braided-c-to-c-usb-2-0-500287?trkid=f%3DCa0000L000P0W0S0Sh00Co0Po0Fr0Cb0_src%3Dshop-product_page%3D1_ob%3D11_q%3D_po%3D9_catid%3D71,135000,https://ecs7.tokopedia.net/img/cache/300-square/product-1/2018/11/2/19973494/19973494_5a3a2475-ab97-43b1-8fc9-da8c29d0ddc5_1001_1001.jpg,aukey,https://www.tokopedia.com/aukey
"Aukey EP-B67 Magnetic Wireless Earbuds",https://www.tokopedia.com/aukey/aukey-ep-b67-magnetic-wireless-earbuds?trkid=f%3DCa0000L000P0W0S0Sh00Co0Po0Fr0Cb0_src%3Dshop-product_page%3D1_ob%3D11_q%3D_po%3D10_catid%3D72,625000,https://ecs7.tokopedia.net/img/cache/300-square/product-1/2019/2/6/19973494/19973494_5f537df8-8eb4-4519-9f06-a1bc2aa117f9_1001_1001.jpg,aukey,https://www.tokopedia.com/aukey
"Aukey Speaker outdoor 10W Bluetooth 4.1 Wireless - 500285",https://www.tokopedia.com/aukey/aukey-speaker-outdoor-10w-bluetooth-4-1-wireless-500285?trkid=f%3DCa0000L000P0W0S0Sh00Co0Po0Fr0Cb0_src%3Dshop-product_page%3D1_ob%3D11_q%3D_po%3D11_catid%3D562,675000,https://ecs7.tokopedia.net/img/cache/300-square/product-1/2018/11/3/19973494/19973494_4ac0fc34-92d1-40c7-b61f-be6732af7c75_1001_1001.jpg,aukey,https://www.tokopedia.com/aukey
"Aukey Speaker Mini Bluetooth - 500229",https://www.tokopedia.com/aukey/aukey-speaker-mini-bluetooth-500229?trkid=f%3DCa0000L000P0W0S0Sh00Co0Po0Fr0Cb0_src%3Dshop-product_page%3D1_ob%3D11_q%3D_po%3D12_catid%3D562,450000,https://ecs7.tokopedia.net/img/cache/300-square/product-1/2018/11/3/19973494/19973494_d5dfc122-bd97-4053-95ad-abae918239fb_1251_1251.jpg,aukey,https://www.tokopedia.com/aukey
"Aukey Headset Earbuds IN-EAR HI-RES Wired - 500286",https://www.tokopedia.com/aukey/aukey-headset-earbuds-in-ear-hi-res-wired-500286?trkid=f%3DCa0000L000P0W0S0Sh00Co0Po0Fr0Cb0_src%3Dshop-product_page%3D1_ob%3D11_q%3D_po%3D13_catid%3D565,250000,https://ecs7.tokopedia.net/img/cache/300-square/product-1/2018/11/3/19973494/19973494_14567466-41a6-42a4-83ce-07083f6e6928_1001_1001.jpg,aukey,https://www.tokopedia.com/aukey
"Aukey Holder Car Phone Magnetic Air Vent - 500200",https://www.tokopedia.com/aukey/aukey-holder-car-phone-magnetic-air-vent-500200?trkid=f%3DCa0000L000P0W0S0Sh00Co0Po0Fr0Cb0_src%3Dshop-product_page%3D1_ob%3D11_q%3D_po%3D14_catid%3D73,99000,https://ecs7.tokopedia.net/img/cache/300-square/product-1/2018/11/3/19973494/19973494_104273d4-3cb3-4101-bbab-3230d5a927ae_1001_1001.jpg,aukey,https://www.tokopedia.com/aukey
"Aukey Holder Car Mount Air Vent - 500226",https://www.tokopedia.com/aukey/aukey-holder-car-mount-air-vent-500226?trkid=f%3DCa0000L000P0W0S0Sh00Co0Po0Fr0Cb0_src%3Dshop-product_page%3D1_ob%3D11_q%3D_po%3D15_catid%3D73,145000,https://ecs7.tokopedia.net/img/cache/300-square/product-1/2018/11/3/19973494/19973494_31fe1af3-591b-4b03-8b6b-6250ff478e9d_1001_1001.jpg,aukey,https://www.tokopedia.com/aukey
"Aukey Holder Mini Tripod with Smartphone Mount - 500205",https://www.tokopedia.com/aukey/aukey-holder-mini-tripod-with-smartphone-mount-500205?trkid=f%3DCa0000L000P0W0S0Sh00Co0Po0Fr0Cb0_src%3Dshop-product_page%3D1_ob%3D11_q%3D_po%3D16_catid%3D73,135000,https://ecs7.tokopedia.net/img/cache/300-square/product-1/2018/11/3/19973494/19973494_6108ba8b-5f1f-44ad-a352-808f58ca6074_1001_1001.jpg,aukey,https://www.tokopedia.com/aukey
"Aukey Cable 1.2M AUX Audio Gold Plate Braided Nylon - 500168",https://www.tokopedia.com/aukey/aukey-cable-1-2m-aux-audio-gold-plate-braided-nylon-500168?trkid=f%3DCa0000L000P0W0S0Sh00Co0Po0Fr0Cb0_src%3Dshop-product_page%3D1_ob%3D11_q%3D_po%3D17_catid%3D616,125000,https://ecs7.tokopedia.net/img/cache/300-square/product-1/2018/11/3/19973494/19973494_183823ad-b58d-439c-99e0-897b7971b5e1_1001_1001.jpg,aukey,https://www.tokopedia.com/aukey
"Aukey Adapter USB C to HDMI - 500299",https://www.tokopedia.com/aukey/aukey-adapter-usb-c-to-hdmi-500299?trkid=f%3DCa0000L000P0W0S0Sh00Co0Po0Fr0Cb0_src%3Dshop-product_page%3D1_ob%3D11_q%3D_po%3D18_catid%3D70,315000,https://ecs7.tokopedia.net/img/cache/300-square/product-1/2018/11/3/19973494/19973494_b0d84f10-aa92-4d6b-834b-9903d41911f3_1001_1001.jpg,aukey,https://www.tokopedia.com/aukey
"Aukey HUB USB C To 3 Ports USB 3.0 + Ethernet Gigabit - 500174",https://www.tokopedia.com/aukey/aukey-hub-usb-c-to-3-ports-usb-3-0-ethernet-gigabit-500174?trkid=f%3DCa0000L000P0W0S0Sh00Co0Po0Fr0Cb0_src%3Dshop-product_page%3D1_ob%3D11_q%3D_po%3D19_catid%3D343,350000,https://ecs7.tokopedia.net/img/cache/300-square/product-1/2018/11/3/19973494/19973494_7c8f1dc4-6b42-4fe8-96d0-64f4205df238_1001_1001.jpg,aukey,https://www.tokopedia.com/aukey
"Aukey Cable Micro USB 2.0 Gold Plate (3Pcs) - 500259",https://www.tokopedia.com/aukey/aukey-cable-micro-usb-2-0-gold-plate-3pcs-500259?trkid=f%3DCa0000L000P0W0S0Sh00Co0Po0Fr0Cb0_src%3Dshop-product_page%3D1_ob%3D11_q%3D_po%3D20_catid%3D71,117500,https://ecs7.tokopedia.net/img/cache/300-square/product-1/2018/11/3/19973494/19973494_df2c6f79-8736-4a81-805e-4212186d1292_1001_1001.jpg,aukey,https://www.tokopedia.com/aukey
"Aukey Cable 2M Micro USB 2.0 Gold Plate - 500258",https://www.tokopedia.com/aukey/aukey-cable-2m-micro-usb-2-0-gold-plate-500258?trkid=f%3DCa0000L000P0W0S0Sh00Co0Po0Fr0Cb0_src%3Dshop-product_page%3D1_ob%3D11_q%3D_po%3D21_catid%3D71,65000,https://ecs7.tokopedia.net/img/cache/300-square/product-1/2018/11/3/19973494/19973494_58991a91-0920-48b3-af8a-187498744721_1001_1001.jpg,aukey,https://www.tokopedia.com/aukey
"Aukey HUB Aluminium 4 Ports USB 3.0 - 500272",https://www.tokopedia.com/aukey/aukey-hub-aluminium-4-ports-usb-3-0-500272?trkid=f%3DCa0000L000P0W0S0Sh00Co0Po0Fr0Cb0_src%3Dshop-product_page%3D1_ob%3D11_q%3D_po%3D22_catid%3D343,255000,https://ecs7.tokopedia.net/img/cache/300-square/product-1/2018/11/2/19973494/19973494_53cb9b1c-bda7-481f-acb3-703c39846d0a_1001_1001.jpg,aukey,https://www.tokopedia.com/aukey
"Aukey Cable 1M PVC USB 3.0 A to C - 500255",https://www.tokopedia.com/aukey/aukey-cable-1m-pvc-usb-3-0-a-to-c-500255?trkid=f%3DCa0000L000P0W0S0Sh00Co0Po0Fr0Cb0_src%3Dshop-product_page%3D1_ob%3D11_q%3D_po%3D23_catid%3D71,80000,https://ecs7.tokopedia.net/img/cache/300-square/product-1/2018/11/2/19973494/19973494_0b7fd74e-aceb-46a9-a16d-5187aa2f9dc2_1001_1001.jpg,aukey,https://www.tokopedia.com/aukey
"Aukey Cable 2M Braided Type C USB 3.0 - 500254",https://www.tokopedia.com/aukey/aukey-cable-2m-braided-type-c-usb-3-0-500254?trkid=f%3DCa0000L000P0W0S0Sh00Co0Po0Fr0Cb0_src%3Dshop-product_page%3D1_ob%3D11_q%3D_po%3D24_catid%3D71,115000,https://ecs7.tokopedia.net/img/cache/300-square/product-1/2018/11/2/19973494/19973494_17401598-771f-48f7-9bc0-b013e2288ecc_1001_1001.jpg,aukey,https://www.tokopedia.com/aukey
"Aukey Cable 1M Braided USB 3.0 A to USB C - 500253",https://www.tokopedia.com/aukey/aukey-cable-1m-braided-usb-3-0-a-to-usb-c-500253?trkid=f%3DCa0000L000P0W0S0Sh00Co0Po0Fr0Cb0_src%3Dshop-product_page%3D1_ob%3D11_q%3D_po%3D25_catid%3D71,95000,https://ecs7.tokopedia.net/img/cache/300-square/product-1/2018/11/2/19973494/19973494_317c3a90-4b26-4fa2-aef4-ac95a09a3289_1001_1001.jpg,aukey,https://www.tokopedia.com/aukey
"Aukey Cable 2M Lightning Braided MFI Apple - 500172",https://www.tokopedia.com/aukey/aukey-cable-2m-lightning-braided-mfi-apple-500172?trkid=f%3DCa0000L000P0W0S0Sh00Co0Po0Fr0Cb0_src%3Dshop-product_page%3D1_ob%3D11_q%3D_po%3D26_catid%3D71,190000,https://ecs7.tokopedia.net/img/cache/300-square/product-1/2018/11/2/19973494/19973494_315973a3-bd53-4e95-96aa-058ece3bc59d_1001_1001.jpg,aukey,https://www.tokopedia.com/aukey
"Aukey Cable 3.2M Micro USB 2.0 - 500257",https://www.tokopedia.com/aukey/aukey-cable-3-2m-micro-usb-2-0-500257?trkid=f%3DCa0000L000P0W0S0Sh00Co0Po0Fr0Cb0_src%3Dshop-product_page%3D1_ob%3D11_q%3D_po%3D27_catid%3D71,67500,https://ecs7.tokopedia.net/img/cache/300-square/product-1/2018/11/2/19973494/19973494_be307cb3-f0e4-4d4f-ae57-c267a7717347_1001_1001.jpg,aukey,https://www.tokopedia.com/aukey
"Aukey Cable Micro USB 2.0 (5Pcs) - 500256",https://www.tokopedia.com/aukey/aukey-cable-micro-usb-2-0-5pcs-500256?trkid=f%3DCa0000L000P0W0S0Sh00Co0Po0Fr0Cb0_src%3Dshop-product_page%3D1_ob%3D11_q%3D_po%3D28_catid%3D71,85000,https://ecs7.tokopedia.net/img/cache/300-square/product-1/2018/11/2/19973494/19973494_465dabee-0c59-49d7-b7a9-45bfa341b1fc_1001_1001.jpg,aukey,https://www.tokopedia.com/aukey
"Aukey Cable 1M USB to USB C 3.0 PVC (3Pcs) - 500283",https://www.tokopedia.com/aukey/aukey-cable-1m-usb-to-usb-c-3-0-pvc-3pcs-500283?trkid=f%3DCa0000L000P0W0S0Sh00Co0Po0Fr0Cb0_src%3Dshop-product_page%3D1_ob%3D11_q%3D_po%3D29_catid%3D71,195000,https://ecs7.tokopedia.net/img/cache/300-square/product-1/2018/11/2/19973494/19973494_db8e4b36-ba38-4be6-a3a6-1e70e38e854e_1001_1001.jpg,aukey,https://www.tokopedia.com/aukey
"Aukey Cable 2M Micro High Performance Braided Red - 500297",https://www.tokopedia.com/aukey/aukey-cable-2m-micro-high-performance-braided-red-500297?trkid=f%3DCa0000L000P0W0S0Sh00Co0Po0Fr0Cb0_src%3Dshop-product_page%3D1_ob%3D11_q%3D_po%3D30_catid%3D71,80000,https://ecs7.tokopedia.net/img/cache/300-square/product-1/2018/12/1/19973494/19973494_3acf969c-a318-49bb-9349-221a2b6fdf9e_1001_1001.jpg,aukey,https://www.tokopedia.com/aukey
"Aukey Cable 2M Micro High Performance Braided Black - 500296",https://www.tokopedia.com/aukey/aukey-cable-2m-micro-high-performance-braided-black-500296?trkid=f%3DCa0000L000P0W0S0Sh00Co0Po0Fr0Cb0_src%3Dshop-product_page%3D1_ob%3D11_q%3D_po%3D31_catid%3D71,80000,https://ecs7.tokopedia.net/img/cache/300-square/product-1/2018/12/1/19973494/19973494_6562e3c7-0171-41a0-ba33-63491b107ca3_1001_1001.jpg,aukey,https://www.tokopedia.com/aukey
"Aukey Cable 1.2M Micro High Performance Braided Red - 500273",https://www.tokopedia.com/aukey/aukey-cable-1-2m-micro-high-performance-braided-red-500273?trkid=f%3DCa0000L000P0W0S0Sh00Co0Po0Fr0Cb0_src%3Dshop-product_page%3D1_ob%3D11_q%3D_po%3D32_catid%3D71,65000,https://ecs7.tokopedia.net/img/cache/300-square/product-1/2018/11/2/19973494/19973494_6f2f9d05-931b-4e80-a0fb-4e60c1f227db_1001_1001.jpg,aukey,https://www.tokopedia.com/aukey
"Aukey Cable 1.2M Micro High Performance Braided black - 500227",https://www.tokopedia.com/aukey/aukey-cable-1-2m-micro-high-performance-braided-black-500227?trkid=f%3DCa0000L000P0W0S0Sh00Co0Po0Fr0Cb0_src%3Dshop-product_page%3D1_ob%3D11_q%3D_po%3D33_catid%3D71,65000,https://ecs7.tokopedia.net/img/cache/300-square/product-1/2018/11/2/19973494/19973494_96d0dbc8-188c-4bd3-9486-2e235ccebd7e_1001_1001.jpg,aukey,https://www.tokopedia.com/aukey
"Aukey Cable Micro & USB C 2.0 (5Pcs) - 500260",https://www.tokopedia.com/aukey/aukey-cable-micro-usb-c-2-0-5pcs-500260?trkid=f%3DCa0000L000P0W0S0Sh00Co0Po0Fr0Cb0_src%3Dshop-product_page%3D1_ob%3D11_q%3D_po%3D34_catid%3D71,99000,https://ecs7.tokopedia.net/img/cache/300-square/product-1/2018/11/2/19973494/19973494_c3f0a46d-1aef-44fe-904e-fe656182cb9d_1001_1001.jpg,aukey,https://www.tokopedia.com/aukey
"Aukey Cable 1.2M USB 3.1 gen 1 to USB C Braided Red - 500331",https://www.tokopedia.com/aukey/aukey-cable-1-2m-usb-3-1-gen-1-to-usb-c-braided-red-500331?trkid=f%3DCa0000L000P0W0S0Sh00Co0Po0Fr0Cb0_src%3Dshop-product_page%3D1_ob%3D11_q%3D_po%3D35_catid%3D71,115000,https://ecs7.tokopedia.net/img/cache/300-square/product-1/2018/11/2/19973494/19973494_784e98a0-40a1-4eec-a522-9bc98c621ed5_1001_1001.jpg,aukey,https://www.tokopedia.com/aukey
"Aukey Adapter USB 3.0 to USB C - 500173",https://www.tokopedia.com/aukey/aukey-adapter-usb-3-0-to-usb-c-500173?trkid=f%3DCa0000L000P0W0S0Sh00Co0Po0Fr0Cb0_src%3Dshop-product_page%3D1_ob%3D11_q%3D_po%3D36_catid%3D335,100000,https://ecs7.tokopedia.net/img/cache/300-square/product-1/2018/11/2/19973494/19973494_39d7ac34-0624-4691-a43f-57052a27e7cb_1001_1001.jpg,aukey,https://www.tokopedia.com/aukey
"Aukey Car Charger 2 Ports 24W AiQ - 500223",https://www.tokopedia.com/aukey/aukey-car-charger-2-ports-24w-aiq-500223?trkid=f%3DCa0000L000P0W0S0Sh00Co0Po0Fr0Cb0_src%3Dshop-product_page%3D1_ob%3D11_q%3D_po%3D37_catid%3D70,110000,https://ecs7.tokopedia.net/img/cache/300-square/product-1/2018/11/2/19973494/19973494_0804df8b-d803-4e4a-a89c-bdb7802f0b2d_1001_1001.jpg,aukey,https://www.tokopedia.com/aukey
"Aukey Car Charger 2 Ports USB C PD, PD 2.0 & AiQ - 500218",https://www.tokopedia.com/aukey/aukey-car-charger-2-ports-usb-c-pd-pd-2-0-aiq-500218?trkid=f%3DCa0000L000P0W0S0Sh00Co0Po0Fr0Cb0_src%3Dshop-product_page%3D1_ob%3D11_q%3D_po%3D38_catid%3D70,240000,https://ecs7.tokopedia.net/img/cache/300-square/product-1/2018/11/2/19973494/19973494_f3b517af-e12b-4d20-b29d-eed54fe03952_1001_1001.jpg,aukey,https://www.tokopedia.com/aukey
"Aukey Car Charger 1 Port 18W USB QC 3.0 - 500195",https://www.tokopedia.com/aukey/aukey-car-charger-1-port-18w-usb-qc-3-0-500195?trkid=f%3DCa0000L000P0W0S0Sh00Co0Po0Fr0Cb0_src%3Dshop-product_page%3D1_ob%3D11_q%3D_po%3D39_catid%3D70,165000,https://ecs7.tokopedia.net/img/cache/300-square/product-1/2018/11/2/19973494/19973494_22300e97-839e-4249-905e-936d6a910994_1001_1001.jpg,aukey,https://www.tokopedia.com/aukey
"Aukey Car Charger 3 Ports 42W QC 3.0 and AiQ - 500126",https://www.tokopedia.com/aukey/aukey-car-charger-3-ports-42w-qc-3-0-and-aiq-500126?trkid=f%3DCa0000L000P0W0S0Sh00Co0Po0Fr0Cb0_src%3Dshop-product_page%3D1_ob%3D11_q%3D_po%3D40_catid%3D70,265000,https://ecs7.tokopedia.net/img/cache/300-square/product-1/2018/11/2/19973494/19973494_2f8fbbdc-db2e-4d68-8058-150337dbd5ca_1001_1001.jpg,aukey,https://www.tokopedia.com/aukey
"Aukey Powerbank 10000 mAh Slim & AiQ - 500290",https://www.tokopedia.com/aukey/aukey-powerbank-10000-mah-slim-aiq-500290?trkid=f%3DCa0000L000P0W0S0Sh00Co0Po0Fr0Cb0_src%3Dshop-product_page%3D1_ob%3D11_q%3D_po%3D41_catid%3D615,279000,https://ecs7.tokopedia.net/img/cache/300-square/product-1/2018/11/1/19973494/19973494_02f5ca1b-cd69-4387-b897-aa9b33bbdec1_1001_1001.jpg,aukey,https://www.tokopedia.com/aukey
"Aukey Powerbank 20000 mAh Lightning & Micro USB input & AiQ - 500236",https://www.tokopedia.com/aukey/aukey-powerbank-20000-mah-lightning-micro-usb-input-aiq-500236?trkid=f%3DCa0000L000P0W0S0Sh00Co0Po0Fr0Cb0_src%3Dshop-product_page%3D1_ob%3D11_q%3D_po%3D42_catid%3D615,495000,https://ecs7.tokopedia.net/img/cache/300-square/product-1/2018/11/1/19973494/19973494_db2e77e8-167a-4ac5-af9c-4de0eb9df5cc_1001_1001.jpg,aukey,https://www.tokopedia.com/aukey
"Aukey Powerbank 2 Ports 20000 mAh AiQ - 500217",https://www.tokopedia.com/aukey/aukey-powerbank-2-ports-20000-mah-aiq-500217?trkid=f%3DCa0000L000P0W0S0Sh00Co0Po0Fr0Cb0_src%3Dshop-product_page%3D1_ob%3D11_q%3D_po%3D43_catid%3D615,450000,https://ecs7.tokopedia.net/img/cache/300-square/product-1/2018/11/1/19973494/19973494_1e80afc5-70a6-4204-9a35-d9c177e1c9da_1001_1001.jpg,aukey,https://www.tokopedia.com/aukey
"Aukey Charger 2 Ports 48W PD 2.0 USB C QC 3.0 - 500220",https://www.tokopedia.com/aukey/aukey-charger-2-ports-48w-pd-2-0-usb-c-qc-3-0-500220?trkid=f%3DCa0000L000P0W0S0Sh00Co0Po0Fr0Cb0_src%3Dshop-product_page%3D1_ob%3D11_q%3D_po%3D44_catid%3D70,499000,https://ecs7.tokopedia.net/img/cache/300-square/product-1/2018/11/1/19973494/19973494_2f895092-1789-4c1c-aa58-e2a0030d2c7a_1001_1001.jpg,aukey,https://www.tokopedia.com/aukey
"Aukey Cable 1M Lightning MFI Apple Red - 500088",https://www.tokopedia.com/aukey/aukey-cable-1m-lightning-mfi-apple-red-500088?trkid=f%3DCa0000L000P0W0S0Sh00Co0Po0Fr0Cb0_src%3Dshop-product_page%3D1_ob%3D11_q%3D_po%3D45_catid%3D71,175000,https://ecs7.tokopedia.net/img/cache/300-square/product-1/2018/10/31/19973494/19973494_cc381300-201a-4c8c-8c32-8f5a00cc9da6_1001_1001.jpg,aukey,https://www.tokopedia.com/aukey
"Aukey Charger 2 Port 12W with AiQ - 500284",https://www.tokopedia.com/aukey/aukey-charger-2-port-12w-with-aiq-500284?trkid=f%3DCa0000L000P0W0S0Sh00Co0Po0Fr0Cb0_src%3Dshop-product_page%3D1_ob%3D11_q%3D_po%3D46_catid%3D70,145000,https://ecs7.tokopedia.net/img/cache/300-square/product-1/2018/10/30/19973494/19973494_a64a4389-b12d-41a4-bec2-098d5c241df0_1001_1001.jpg,aukey,https://www.tokopedia.com/aukey
"Aukey Turbo Charger 1 Port 18W QC 2.0 - 500224",https://www.tokopedia.com/aukey/aukey-turbo-charger-1-port-18w-qc-2-0-500224?trkid=f%3DCa0000L000P0W0S0Sh00Co0Po0Fr0Cb0_src%3Dshop-product_page%3D1_ob%3D11_q%3D_po%3D47_catid%3D70,145000,https://ecs7.tokopedia.net/img/cache/300-square/product-1/2018/10/30/19973494/19973494_84ebebeb-fe55-48ff-8508-a7ac0014990a_1001_1001.jpg,aukey,https://www.tokopedia.com/aukey
"Aukey Charger 4 Ports 18W QC 3.0 & AiQ - 500225",https://www.tokopedia.com/aukey/aukey-charger-4-ports-18w-qc-3-0-aiq-500225?trkid=f%3DCa0000L000P0W0S0Sh00Co0Po0Fr0Cb0_src%3Dshop-product_page%3D1_ob%3D11_q%3D_po%3D48_catid%3D70,350000,https://ecs7.tokopedia.net/img/cache/300-square/product-1/2018/10/30/19973494/19973494_bcaac129-ec30-4984-972f-984f97af7edb_1001_1001.jpg,aukey,https://www.tokopedia.com/aukey
"Aukey Charger 2 Ports 36W QC 3.0 - 500294",https://www.tokopedia.com/aukey/aukey-charger-2-ports-36w-qc-3-0-500294?trkid=f%3DCa0000L000P0W0S0Sh00Co0Po0Fr0Cb0_src%3Dshop-product_page%3D1_ob%3D11_q%3D_po%3D49_catid%3D70,295000,https://ecs7.tokopedia.net/img/cache/300-square/product-1/2018/10/30/19973494/19973494_b3b72dfa-c17b-42bb-8b19-edabacc3e0e8_1001_1001.jpg,aukey,https://www.tokopedia.com/aukey
"Aukey Charger 3 Ports 42W QC 3.0 & AiQ - 500293",https://www.tokopedia.com/aukey/aukey-charger-3-ports-42w-qc-3-0-aiq-500293?trkid=f%3DCa0000L000P0W0S0Sh00Co0Po0Fr0Cb0_src%3Dshop-product_page%3D1_ob%3D11_q%3D_po%3D50_catid%3D70,295000,https://ecs7.tokopedia.net/img/cache/300-square/product-1/2018/10/30/19973494/19973494_5a7b0a78-c291-42ce-9842-fa177782d336_1001_1001.jpg,aukey,https://www.tokopedia.com/aukey
"Aukey Charger 1 Port 18W QC 3.0 - 500291",https://www.tokopedia.com/aukey/aukey-charger-1-port-18w-qc-3-0-500291?trkid=f%3DCa0000L000P0W0S0Sh00Co0Po0Fr0Cb0_src%3Dshop-product_page%3D1_ob%3D11_q%3D_po%3D51_catid%3D70,210000,https://ecs7.tokopedia.net/img/cache/300-square/product-1/2018/10/30/19973494/19973494_d85a781d-828a-48f0-8893-4f4d63f1eaac_1001_1001.jpg,aukey,https://www.tokopedia.com/aukey
"Aukey Car Charger 2 Ports 36W QC 3.0 - 500295",https://www.tokopedia.com/aukey/aukey-car-charger-2-ports-36w-qc-3-0-500295?trkid=f%3DCa0000L000P0W0S0Sh00Co0Po0Fr0Cb0_src%3Dshop-product_page%3D1_ob%3D11_q%3D_po%3D52_catid%3D70,250000,https://ecs7.tokopedia.net/img/cache/300-square/product-1/2018/10/31/19973494/19973494_3e4aea60-e48d-4c13-aa3e-642f92adc32c_1001_1001.jpg,aukey,https://www.tokopedia.com/aukey
"Aukey Charger 3 Ports 42W QC 2.0 & AiQ - 500231",https://www.tokopedia.com/aukey/aukey-charger-3-ports-42w-qc-2-0-aiq-500231?trkid=f%3DCa0000L000P0W0S0Sh00Co0Po0Fr0Cb0_src%3Dshop-product_page%3D1_ob%3D11_q%3D_po%3D53_catid%3D70,250000,https://ecs7.tokopedia.net/img/cache/300-square/product-1/2018/10/30/20258443/20258443_efa2f37b-6332-4790-b496-aa824490054a_1001_1001.jpg,aukey,https://www.tokopedia.com/aukey
"Aukey Charger 6 Ports 60W QC 3.0 & AiQ - 500292",https://www.tokopedia.com/aukey/aukey-charger-6-ports-60w-qc-3-0-aiq-500292?trkid=f%3DCa0000L000P0W0S0Sh00Co0Po0Fr0Cb0_src%3Dshop-product_page%3D1_ob%3D11_q%3D_po%3D54_catid%3D70,415000,https://ecs7.tokopedia.net/img/cache/300-square/product-1/2018/10/30/19973494/19973494_f109ad13-b5f0-4e33-9caf-65a3e43f4e88_1001_1001.jpg,aukey,https://www.tokopedia.com/aukey
"Aukey Cable 2M LightningBraided MFI Apple black - 500212",https://www.tokopedia.com/aukey/aukey-cable-2m-lightningbraided-mfi-apple-black-500212?trkid=f%3DCa0000L000P0W0S0Sh00Co0Po0Fr0Cb0_src%3Dshop-product_page%3D1_ob%3D11_q%3D_po%3D55_catid%3D71,220000,https://ecs7.tokopedia.net/img/cache/300-square/product-1/2018/11/13/19973494/19973494_ac41a51b-dd03-4639-a900-c53fffdac71e_1001_1001.jpg,aukey,https://www.tokopedia.com/aukey
"Aukey Cable 2M LightningBraided MFI Apple Red - 500213",https://www.tokopedia.com/aukey/aukey-cable-2m-lightningbraided-mfi-apple-red-500213?trkid=f%3DCa0000L000P0W0S0Sh00Co0Po0Fr0Cb0_src%3Dshop-product_page%3D1_ob%3D11_q%3D_po%3D56_catid%3D71,220000,https://ecs7.tokopedia.net/img/cache/300-square/product-1/2018/11/13/19973494/19973494_82e31c09-1fdb-4758-ac41-828611be0c6f_1001_1001.jpg,aukey,https://www.tokopedia.com/aukey
"Aukey Cable 1.2M Lightning Braided MFI Apple Red - 500211",https://www.tokopedia.com/aukey/aukey-cable-1-2m-lightning-braided-mfi-apple-red-500211?trkid=f%3DCa0000L000P0W0S0Sh00Co0Po0Fr0Cb0_src%3Dshop-product_page%3D1_ob%3D11_q%3D_po%3D57_catid%3D71,195000,https://ecs7.tokopedia.net/img/cache/300-square/product-1/2018/11/13/19973494/19973494_04537803-7a99-4e26-88a3-ea1593e7a1d5_1001_1001.jpg,aukey,https://www.tokopedia.com/aukey
"Aukey Charger 2 Ports 24W AiQ - 500308",https://www.tokopedia.com/aukey/aukey-charger-2-ports-24w-aiq-500308?trkid=f%3DCa0000L000P0W0S0Sh00Co0Po0Fr0Cb0_src%3Dshop-product_page%3D1_ob%3D11_q%3D_po%3D58_catid%3D70,150000,https://ecs7.tokopedia.net/img/cache/300-square/product-1/2018/11/13/19973494/19973494_9e3ab05e-ece0-4aae-b355-b37b97fa28fd_1001_1001.jpg,aukey,https://www.tokopedia.com/aukey
"Aukey Cable 1.2M USB 3.1 gen 1 to USB C Braided Black - 500279",https://www.tokopedia.com/aukey/aukey-cable-1-2m-usb-3-1-gen-1-to-usb-c-braided-black-500279?trkid=f%3DCa0000L000P0W0S0Sh00Co0Po0Fr0Cb0_src%3Dshop-product_page%3D1_ob%3D11_q%3D_po%3D59_catid%3D71,220000,https://ecs7.tokopedia.net/img/cache/300-square/product-1/2018/11/2/19973494/19973494_bb8646cd-3e88-46db-98ce-bf1818094df0_1001_1001.jpg,aukey,https://www.tokopedia.com/aukey
"Aukey Charger 74.5W with PD 3.0, Quick Charge 3.0 & Aipower - 500303",https://www.tokopedia.com/aukey/aukey-charger-74-5w-with-pd-3-0-quick-charge-3-0-aipower-500303?trkid=f%3DCa0000L000P0W0S0Sh00Co0Po0Fr0Cb0_src%3Dshop-product_page%3D1_ob%3D11_q%3D_po%3D60_catid%3D70,615000,https://ecs7.tokopedia.net/img/cache/300-square/product-1/2018/11/13/19973494/19973494_e1ce2464-b6b7-4a84-8d57-da9567c91b8e_1001_1001.jpg,aukey,https://www.tokopedia.com/aukey
"Aukey HUB 4 Ports USB 3.0 5Gbps - 500306",https://www.tokopedia.com/aukey/aukey-hub-4-ports-usb-3-0-5gbps-500306?trkid=f%3DCa0000L000P0W0S0Sh00Co0Po0Fr0Cb0_src%3Dshop-product_page%3D1_ob%3D11_q%3D_po%3D61_catid%3D343,315000,https://ecs7.tokopedia.net/img/cache/300-square/product-1/2018/11/13/19973494/19973494_ac36a932-38f8-453d-867f-de1a794c1405_1001_1001.jpg,aukey,https://www.tokopedia.com/aukey
"Aukey Powerbank 10000 mAh USB C AiQ - 500330",https://www.tokopedia.com/aukey/aukey-powerbank-10000-mah-usb-c-aiq-500330?trkid=f%3DCa0000L000P0W0S0Sh00Co0Po0Fr0Cb0_src%3Dshop-product_page%3D1_ob%3D11_q%3D_po%3D62_catid%3D615,279000,https://ecs7.tokopedia.net/img/cache/300-square/product-1/2018/11/1/19973494/19973494_386098ab-1577-4e4b-8bcc-656c491fd807_1001_1001.jpg,aukey,https://www.tokopedia.com/aukey
"Aukey PB-XD20 20100mAh Power Delivery USB C Powerbank",https://www.tokopedia.com/aukey/aukey-pb-xd20-20100mah-power-delivery-usb-c-powerbank?trkid=f%3DCa0000L000P0W0S0Sh00Co0Po0Fr0Cb0_src%3Dshop-product_page%3D1_ob%3D11_q%3D_po%3D63_catid%3D615,745000,https://ecs7.tokopedia.net/img/cache/300-square/product-1/2018/8/29/20258443/20258443_f41bb462-4ca5-4c8d-86d7-0bf6fbfeeb2b_1251_1251.jpg,aukey,https://www.tokopedia.com/aukey
"Aukey PB-N42 Pocket Powerbank 10000mAh - Hitam",https://www.tokopedia.com/aukey/aukey-pb-n42-pocket-powerbank-10000mah-hitam?trkid=f%3DCa0000L000P0W0S0Sh00Co0Po0Fr0Cb0_src%3Dshop-product_page%3D1_ob%3D11_q%3D_po%3D64_catid%3D615,225000,https://ecs7.tokopedia.net/img/cache/300-square/product-1/2018/11/27/19973494/19973494_c54d14f6-4eca-436b-b710-2df46868f24e_1001_1001.jpg,aukey,https://www.tokopedia.com/aukey
