Userid,Username,Fullname
11009861,tylerjanderson,"Tyler Anderson"
243911692,hfunk1,"❤️ Heidi Funkhouser ❤️"
7597661510,gudangdistributor,"Distributor Tas Batam Import"
7289671977,mutiaralombok.grosir,ALMAHIRAMEIYO.MUTIARA
7976181835,kenshi_vvibu,samiaji
6661014107,morry_bag.id,"GROSIR TAS ,DROPSHIP ,ECERAN"
5772023600,neira.pockets,"Neira Pockets"
1921897151,ande_orie,"just ande"
8790556798,forum_gatineau,"Le Forum"
10345146273,store_jammurah,"Jam Murah ⌚️🇲🇾"
4043525180,yanotimepiece,"JAM BERGAYA😎HIDUP CERIA😊"
10488478090,businesbisnis,busines
8690059459,hunch.ads,HunchAds
9013150604,musicalartists56165,"Musical Artists"
8218000427,laola704,"laola Lskin"
10617536299,tika_leader_paytren517,Tika.Paytren517
3603166750,elia.food,"Elia Pempek Warisan"
6162316937,winewithpaige,"Paige Comrie"
7281200801,testimoni_auriz,"Auriz Bizz Collections"
3934312718,bukunota.my,"PLANNER SYABAB 2019 MALAYSIA"
8559783136,jess_9820,January♒
8478469982,lauraalles.co,"Läurä ăllęs"
297427947,bee_rndx,"(BeBee/บี) 🐝"
9295345925,bebenightgown,"Bebe Night Gown"
10132345973,larasskyy,laras
9141241255,veckyynn,Veckyynn
8137695790,archa.official,archaa
1990313935,mariaa92_,Maria
7276688864,themodernpour,"The Modern Pour™️ // Elle R."
8626862959,eclecticventurer,"Suzanne Perkins"
3554637355,outeastlife,"OUT EAST"
10513444037,accessoris_mobil69,accessoris_mobil69
1477229554,haleyandjordan7,"Haley & Jordan Orona"
7000611617,resepkulinerindonesia,"Resep Kuliner Indonesia"
3618318658,ramlaumra,"Ramla Umra"
8571707990,wasilahbisnis,Wasilah.Motivasi.Tips.Bisnis
7877086876,alamwisata.id,"Wisata Alam Keluarga"
8501954652,katieb0yland,"Katie Boyland"
10129416240,grg_gadgets,"GRG gadgets"
10351145118,kredit.pintar.online,"Pinjaman Online"
5467640591,wedhanesarindhi,"Ney Firsta"
3214106807,dinda.design,"JASA DESAIN LOGO PROFESIONAL"
52534828,psnovi,"🎯 Digital Marketer"
10568688234,jamtanganpriasuperior,"Jam Tangan Pria"
9418500578,kuncara_paytren,"🆔 PENDAFTARAN PAYTREN"
9504180986,agencypaytren.09,"🆔 PENDAFTARAN PAYTREN"
8160277965,bossgirlsportal,"Bossgirls Portal"
5635083944,suc_business,"SUCCESS BUSINESS"
7651922301,bagas_adi_12,"Bagas Adi"
2462088191,akademibisnisdigital_88,"Solusi Masalah Keuangan Anda"
10803648286,new.fadli,"fadli ahmad"
10564167260,reselleressenzoa,reselleressenzo(abdi)
10083099420,tempat.serahin,Serah.in
9553807447,estereb.business,"Ester Earl Bennett"
4811113882,_insta.consultants.5,"Insta Agency"
3323073092,billamanajemen.ig,"JASA MANAJEMEN AKUN IG"
6343922788,mei.tas,"Tas Import Batam Mei Tas"
5596774932,sugar.kosmetik,"Vimax Canada Rp 350.000"
6822234403,rozaldirozaldi,Rozaldi
7128702659,ayuandinidini48,"tini bae👠"
4028167532,lea.leach,"leach. lia"
2118522276,dilanrh,"Dila Nurhidayah"
9153075548,aurelyafajar,"Shinta Aurelya Fajar"
9009420064,fahmi_aprian,Fams98
5990397634,fitriani.siahaan.73,"Fitriani Siahaan"
7147224929,jualjam__tangan,"Jual Jam Tangan"
7727951823,tasgrosirbandung_tgb,TGB-tasgrosirbandung.com
6197231529,mochamadr3za__,"Mochamad Reza A.S."
9216401705,indihome_jepara,"INDIHOME JEPARA"
8499392401,ziggys_skate,ZIGGY'S
4320548767,meccaniche.veneziane,"Meccaniche Veneziane®"
9247253284,cecilia_insta_marketing,
8470466872,rifalsofyarita1997,"Muh Rifal Sofyarita"
8789216021,watchesandcrystals_official,watchesandcrystals_official
8143781244,wah7876,wahyu
5924895331,adithya_keanu,"Adithya keanu ar""rafif"
9064126893,sa.iful481,saiful
3067118985,alfafajarwati,"Alfafa Jarwati"
9410275172,1992toot,"toot 1992"
8378299383,as_lahana_,اصليهان
9167093439,gayawaktu,"JAM TANGAN PRIA DAN WANITA"
461661186,mouhcine.momo,Mouhcine
1085528742,nidal_alsweidani,"نضال علي السويداني"
9169723638,kreasijayaaluminium,"kreasi jaya aluminium"
3283826082,regina_chairunnisa,"Regina Chairunnisa"
3463900304,wawan_setiawan1994,"wawan setiawan"
10634129507,alinkajayaberkah,"Jual perlengkapan dan makanan"
10406286543,maufie.fifi,"maufie fifi"
5828903725,reksarahmayuni2388,reksarahmayuni
3661070217,ariezze11,Harris.Dhion
3651091245,wulaan.07,WL
9730054788,ayiemtp,"@yie Mtp"
5661270621,aprianto_ben,
6974219824,dhesmanx,dhesmanx
9172526728,wsstore14,WSstore
5473676365,septianputra2721,septianekaputra
4039891918,zaldnur,"Rizaldi M. Nur"
6094899262,followeres.anti.keriput,"Followers Anti Keriput"
2131492733,firman_aji19,firman
7880438344,_cho.98,ALex
7138686056,maydonsfashionista,"maydons olshop fashion"
1518085776,aprillianita_sinaga,April_sinaga
2997023539,ida65944,MURSIDI
4486899124,aman_manwatkar,"© 🇲​🇷​ . 🇦​🇲​🇦​🇳​™"
6169407471,mifthaudhin,"miftha udhinn"
9886767547,arga645,arga
8116180506,kiarasalawa,
8918335916,r2garage_custom,"Besi kecil berbentuk mobil😊"
8943814411,____uk_for_men____,"UK FOR MEN"
8890157962,iismellan.nugraha09,IisMellan.Nugraha99
6903475463,vhe.meme,vhe.meme
8521088720,kayan6791,"Yusuf kayan"
5356516418,aldychikho,Aldy
8279779727,mobil_aki_remot_control,"MoBIL REMOT"
2315013065,giovani_chris11,"Giovani Christian sportshop"
2301491878,black_shadow_spirittaker21,"Sir Darkness Aquarius"
8437382622,leader.hayati,"Pendaftaran Paytren"
7950131746,jumiran_falls210217,jumiran_falls210217
7895341150,putri_okta_al,"Putri Okta AL😘"
1340158293,ta_woe,Adit
8175534658,ken_sh12,"Zahraa Abbas"
6404424761,af.fe.roh_,..Vin😌
1375132771,ivanaskincare,"JAFRA SKINCARE|JOIN DISC30-50%"
1708121922,ncyhr,"ncy harisman"
7861114187,pangkas_prof.andi,✂Bengkel~Rambut✂
4645711500,taslouisvuitton_,"Jual Tas Authentic"
8247430841,merdanimranov1,"merdan imranov"
7736942667,grianchandra,"Grian Chandra"
1488072077,guh_alkhalifi,"tegguuh designTheskyline"
7630373291,mrs_shopping,"""Mrs Shopping"""
2104032997,yulish_margaretha,@Rethahouse
6668217275,dewitine2017,agustin
1533845895,padenurcahyono,"Pade Nurcahyono"
8007882885,momin.yasir,"Yasir Momin"
7973028223,aqsalzilham12.id,"Aqsal Zilham"
5692119585,bengbengmetal,"Vintage Clothing"
3902006887,batik_mif,"grosir batik Pekalongan"
6902208453,twienss_shop,"Besuki shop🛍"
4547730958,m.fahmi_jewellery999,"Muhammad fahmi"
7309274757,bambangwidodo8422,bambangswidodo
6121834724,apriliani.fauziah123.af,"apriliani fauziah"
7941972971,adeliaa_1506,
7716658991,krisnaharmian14,"Krisna Harmian"
1423961537,ayselashira,ayse
7920356463,aradiya_nasha,"Aradiya nasha"
8210456754,herdio_digipreneur,"herdio sitquitera marhaen"
4912383176,veraveryka29,verafebrianti
2290273867,enhi_whe,enhi_whe
4262836869,cha.irul.cha,Cha.Irul.Cha
7749674462,ratnaafrl,"Ratna Afrilia"
5118697453,praditia.adi,"Adi Praditia"
3541887666,khafid_s.a,"khafid H.A"
3279365159,jeane4219,"carla jeane"
8232019064,hesan_kingi,"( ͡° ͜ʖ ͡°)"
7316717065,jempoljaya.sby,"Saos Jempol Jaya(Surabaya)"
8265390129,trustedseller_tekshop,#💯trustedseller_tekshop
4531676007,fatmana_elmas,"Fatoş Elmas"
7635803378,pelisaputri.ananda,pelisaputri.ananda
5874797638,lieju_ju,李茹茹
8251614662,lancelot0179,lancelot_katalog
3120449539,le_alfian,alfian
4541303491,elyn_syar,Nailynikmah
7282898216,ades8119,"ade,s"
5582923698,sonugupta3973,"Sonu Gupta"
1911288963,samoennaufal,samoennaufal
811896342,dickie_75,Dicky
2217241940,ayu_s27,"Anggun Ayu"
2305807295,obetraditya,"Obet Raditya"
8185236994,keisha_dybala_spam,"dybala_keisha_spam..... chanel"
6470282969,wooddy_jang,"Suwit Jang"
3986175239,aldipratama2176,"Aldi pratama"
7363627882,edigaul47,"Rusnaedi Setyaki"
8188316823,assakandari11,nasywa
7576878038,mriskycahya,"Muhammad Risky"
5982473967,jamesarlvin,アルヴィン
8179505820,daniganteng668,solehoioi
7444714257,iyyasitinurkomalasari,Iyya
5907878139,muhammadsamin912,"Muhammad Husein"
1296291792,dedihhadiansyah,Dedihhadiansyah
7188347127,mebelaris,"Aris Mebel"
5517134910,mohammad_adi_kresna_primandiri,phino
4767790966,awibanten,"Awi wijaya"
8038892112,murniati649,murniati
2289908649,ayu9993,Ayu
4474968038,dellalo026,Dheela
251340302,iverkalangit,"HerrIver Aus Siau Insel"
3911872875,__althaf_khan,"Althaf khan ✌"
6814992955,m_andreansyah_88,"Muhammad Andreansyah"
6739129419,lndra09,"INDRA07 Amd°KL•"
3559429625,arosidin009,arosidin
5725042139,piet_romo,"piet romo"
7473708493,masabi.store,"Peralatan Rumah Tangga Fashion"
2707874964,gshock.vintage,"Gshock Vintage"
5917653353,ichanragel,"Ichan Ragel"
2988353462,danker84,"Dani Ramdhani"
7487461951,iismellan.nugraha99,IisMellan.Nugraha99
6786765471,ulil_liil,LiiL
1653382929,dickyblb,Dic
2291192683,hardy_batik,"hardy batik"
21698261,didisafeea,
5407733320,bangziziz,
2325982703,douglas_winchester66,
3104913522,ohhhhcaca,
4253907945,3r1_second_wow,007
6108344736,hana.nabila.riska_01,"26 - 09 - 2005 🎂"
4004793146,aganregensi95,"a,m,k,s"
7327070550,aa_dd_shoes,AA_DD_Shoes
5685384242,achokids,acho_1234
4552168465,adisebastian7297,"Adi Sebastian"
4824461840,rockshoesrock,"Adidas Nike Converse Vans"
4094070690,tegar_pengendara_astrea,"Aditya Tegar Kurniawan K"
4391785033,agusdanratna,Agus
2178871395,agustinus_naibaho,"Agustinus Naibaho"
7632579147,ahmadhasannahhas,"AHMAD HASAN NAHHAS"
4856368242,ahmadrud9457,ahmadrudy
7904016368,aisyahperwita16,aisyahperwita
4792283209,mujib_art_custem,ajib
7858887344,akang57,"akang aji"
2860100442,muhammad_aloshh,al
4805014011,al_muqsita_519,"Al Muqsita Ma'aniu"
4690125204,fahrizalalfanhanafi,alfanboncel
8173267546,amel0327_,"Amelia putri"
3011414139,_sanjani21,"Ammar Rafsanjanii"
2866510394,andikusnadi25,"andi kusnadi"
4155740271,andy_khosimm,Andy
7237027181,ardiansya6753,ardiansya
5541477142,maulanaarifdori,arifmaulana
7478121410,armando_napitu,"Armando Napitu"
6910764228,ashokmadhwani51,"ASHOK Madhwani"
6005547483,astra7038,"Astra Jingga"
4844195548,axlsecondbrand,"AxL secondbrand"
3490999085,bront.g,"Bboy Bront G /  Funky Face"
4447491995,badjoesatriawan,"bedjoe satriawan"
4672198646,bkrn_bukron,Bkrn_Bukron
4693442178,ponsinsecond,"Brand Original Second"
4746563648,90.grunge,"BUNDLE STREETWEAR"
7055768945,businessassociates05,"Business Associates"
2768914027,zulisa55,candra
6906003225,cokordangurahagung,"Cokorda Agusti Ngurah Agung"
8188543700,butterfly.fly_2,Colorful
1937040816,dikif10,D_Qaja
4642532287,denialinsaf,"Deni Al-insaf"
757153940,dennis_borracho,dennis
2117436753,paperface_id,"Design Your Own Clothes"
5001246349,juliajackson5080,"Dewi segep schrinner"
2225410277,dickyardianprayudha,"DICKY ARDIAN"
2537197644,dindinisf,"Dindin Isf"
6480187396,drdendydwi,"dr. Dendy"
3736034487,dyno_suryan24,"Dyno Suryandoni"
7437777018,eli_cjp,"eli cjp"
7163823191,ernawati2738,"ely ernawati"
5360486183,onall_khenso,Enjo
8186739325,ernawati3596,"Erna Wati Wati"
1666051926,fakyu.co,"FAKYU FAKYU FAKYU"
2958066557,farelfazil,"Farel Fazil"
2243205458,febriyani_tarigan,febry
4777773548,fransisca_dwi_jayanti,"fransisca dwi"
3560776207,fujatika_nurcahyani,"Fujatika Nurcahyani"
4678457278,6elendisenduk,"Gelendi Senduk"
8065434435,gosh_holic_terpercaya,gosh_holic_terpercaya
7324570943,gspgentsindo,"GSP GENTSINDO PERKASA"
3527329856,hapid82,"Hapidin Budianto"
4149894011,hera.iya,"Hera iya"
7874121008,ibey_cooy,"ibey cooy"
5747743963,faridaalghifarie,"Ida farida"
1823981718,fandybag_brandedmedan,idrizaffandee
1546388698,iislisawati08,"Iis Lisawati"
8186516831,ikarizkyputra25,"Ika Rizky Putra"
3991564785,imamsapoetra230,"Imam Shaputra"
2723750216,darismaniman,"Iman Darisman"
4004046492,inazainab07,Ina
1326026959,indrawatirmdhn,"Indrawati Romadhoni"
5470633665,iris.wandi,"Iris Wandi"
6218798868,iron_bjb,"iron bjb"
3543301163,izharudin45,izhar
4466460281,jasasuntikcikarang,jasasuntikcikarang
4758778092,lincifortjaslin60,"jaslin lincifort"
7936139336,jaelaniale517,Jay
6238222014,muhdmtch_,JeneralCah
1504003555,john.mathew.putra,"JM OFFICIAL"
1698862909,joeldley,joeld
4745930927,lapakkanan_,"kakikanan store"
8189406601,kapan_tinggi_knns,"Kepo Amat Si🙉"
2909440018,khan_mhk_,"Khâñ Mhk"
4509045799,ktutjohar,"ktut johar"
8070708250,lialio_shop,"LIA LIO SHOP"
4169208612,locker_davyjones,locker_davyjones
4683729039,luvirino,"Luvhy Irawan"
1933683839,m.farid123485,m.farid
3746296809,hendi_alfatih02,"mamao clothing co"
2018432515,maryachalista,maryachalista
5049855851,luluttejo,"mas Uut"
3110242595,candra_vvb_,"Mendot Pasoepati Tribun Timur"
3193527963,misay_lee,"Misay Lee"
7898135822,mitosromanza1998,mitosromanza1998
1653013167,muhammad_sulaiman_daud,MuHammaD
5393529010,nhiekuningan,"Nhie Cie Boedak Kuningan"
5944790097,nitakittynitta,"Nita Kitty Nitta"
8008123575,nurmansyah929,nurmansyah
4788273654,monzacollection,"Obaja GaolMezan"
4475696963,buted_secondshop,"ORIGINAL ALL SECOND MAKASSAR"
7645612663,silvii_anika99,Pesekk
255501362,psclass,Peter2
3017018005,poletanskaya,poletanskaya
5873379293,lianysrndng,Pribadi📍
2591053790,r45yanurochman,R45YA
8187313892,raskatan,rachmatokha
1662384143,rio_septian_nugroho,Rio.
4650296697,dielbesecond,RIPDLB
7399073005,rischaaprillina,"Rischa Aprillina"
39149531,risdi.ant,Risdi
4573440440,riza_stickpops,"riza nur arfani"
2203103653,rizayani_haqqi,Rizayani_haqqi
4443875855,rizkykhan21,Rizki_khan21
4247203727,robicandra76,"robi candra"
4390396766,ronald_iago,"Ronald Iago Tampubolon"
4787077349,ronyalhoky,RonyAlhoky
4782701702,rowfashion971,rudi
1108325802,agusafriansyah,"Ryan Ndut"
4633318487,pratamasatria901,"Satria pratama"
3655182731,agung_secondbrandshop,secondbrandshop
1725120486,nugroho_1949,"Septian Nugroho"
8189068061,silvi_nrs,silvi_nrs
1380723161,misskandaumanu,"Siska Ndaumanu"
3916615494,stefanisibarani,"Stefani Sibarani"
4610617073,street.2nd,street.2nd
7098327816,gerai_stylo,"STYLO THINGS HERE😉😉"
5959823026,yyanigmilcom9,taswintaswin
2229096332,ulie_clara,"Ulie Clara Saragi"
4585137940,uvieroslinayahoo.co.id,uvieroslina@yahoo.co.id
12620303,stella.anggoman.jacobus,"V. STELLA ANGGOMAN JACOBUS"
2060239385,wanstwns,wans
2050197834,ya55maulana,"Yass Maulana"
4632959643,ravicky_fajar,"Yunita Wulandari❤"
5408048790,mtaab20300,"العبيدي ❥♔"
7414375438,asaltorfae1394gma,"تنهای تنها"
8183953161,astimkn,"عليا سارزواتيومكين
🌺"
6081572914,ukhtiisumiati,"مافي قلبي غيرالله ورسولله"
4789892254,odwiapp,"🎧 SPOTIFY PREMIUM LIFETIME 🎧"
