Userid,Username,Fullname
2012549722,darpaji_uye,Darpaji
1654594747,amaliafifah03,"Amalia Afifah"
10144358799,warkop.podo.makmur,"WARKOP PODO MAKMUR"
6268450514,dag3lan,;Dag3lan
11539182057,ramanovtian,"Rama Novtian"
6809429176,klaten_jimshoney,"Jimshoney Klaten"
906791703,emzayadi,"Emzayadi Rachmadsyah Masril"
10461181509,ombobee,BoBe
6953634441,robby_analiza,"Robby Analiza"
1507828881,mdachlanz,"M D Zaim"
8783724011,kycaseid,"CUSTOM CASE"
7017084163,paladin_travel_pass,"Paladin Travel Pass"
6282794107,daryashevaa,"Darya/ 다리아"
1561842004,solohalalculinary,"Solo Halal Culinary"
3014037884,akademibisnisdigital_riau_,Ahmad_Basuki_ABDI
4089883718,batikkata,"Exclusive Hand painted Batik"
5760573639,jackdangerous12,"Kak Irul12"
2189578633,iancaf24,"Cahya Adhi Franata -Ian"
2294786729,akbar91091,"Muchtar AKBAR Abdurrahman"
3505619786,budi__rahmat,Budirahmat
2235397267,rizalbentoo,"Rizall Cikal"
5438213070,zahwanabiiilah_,♡Zahwa♡
3540787748,niekenoviyanti,Nieke
11405863067,desighlogo,"Desain Logo"
11193422590,customair.id,"Costum Case, Kaos, PB, USB"
10991719975,davinazimah,"davi nur azimatul khasanah"
6268059272,kingparodi,"King Parodi"
3990935696,ajipngst_02,@jipangestuu
9016622941,lapak_buku_islam,"LAPAK BUKU ISLAM"
6835729997,brotherboyshop,BrotherBoySHOP
10730073829,ikiiya.id,"Perlengkapan Fashion Dewasa"
5545983044,lisa_qotrunnada,LISA
6868822184,sukmawatinusi,"Sukmawati Nusi"
1431583432,khairaany,
1373232719,tevyfarica,tevvvyyyyyyy🍒
11549956775,annajahstore_,"📌 CUSTOM CASE HP MURAH 📱"
1529223494,viktaalam,"Vikta Novieni Alam"
1700253844,vincentnelson__,VN
11593042503,makhrojimakhroji719,"Noer Afifah"
4655730321,noviiayull_16,Novia'yullyull
4166777924,ima1196,"Ima Wahyu Utami"
2046225487,idayuswandini,"Ida Ayu Putu Swandini"
11610769678,ki_mochi00,"Ki Mochi"
4032311296,makaya.id,"MAKAYA Fashion Gaya🔹"
2059942814,natasya_chiya,"N A N A🌺"
798676527,theasamudya,"Thea Samudya"
5517769473,dluhah.mj,dluhah.MJ
1428499973,rantidaniar,"Ranti LaiLa Daniar"
3412293061,sidiknurjaman1,"Sidik Nurjaman"
3043036485,muhdarhafidi,"Muhdar Hafidi"
