Userid,Username,Fullname
4084823394,riskijohan,"Riski SIJO😎"
7314769921,ketut_semiasih,"Ketut Semiasih"
3537106097,fahrulrahmadi77,Rahmadi
4987364966,2princess_collection,"Yudha Pipit Fery p."
9644404152,second.shop.surabaya,UD_Soponyono
6752926359,haniputri_28,"hani putri wulandari"
6237811796,vniqcrown,"Kids Daily Wear"
47187586,rustamefendi_6,"rustam effendi"
3877685673,srikandicd,srikandiCD
212942139,endahlestari_el,"endah lestari"
4086683062,noviawanrio,"Rio Noviawan"
9611846846,kaylilaa299,kaylilaa
178489755,ridhwanafif,"ridhwan afif"
8925325506,kps.pinjam_online,#PINJAMAN_DANA_ONLINEINDONESIA
1270836407,njun_alkarim,"N'jun Junaedi Al'karim"
2003685619,joeraganbakmi,"Bakmi Bang Doel"
7820977823,home_label77,"home label bandung"
2887986307,fumear_,"Fungky Meta Ardhana"
2026603614,cerelaliyahrp,Cerelll
6512667287,christinewuisan,"Christine Wuisan"
3646599488,madunesia,"Madu Asli Indonesia"
7428116813,irfn.id,?
2015424173,dwimonicaangela,"Dwi Monica Angela"
1698893579,bundapurnama27,"ilopyu God.."
10442337649,dewocris,dewocris
241414467,gustuangga,"BBus., ADHM., MM. 🎓"
7457014578,mhamedfauzan,"Muhammad Fauzan"
9942666662,neop.id,"Neo People"
5509590558,jihar.01,jihar
9057030071,fahriibbb,"SEKEDAR HOLOGRAM"
10398116763,santyrizkiana,santyrizkiana
5591115269,syarraw,"Syarra Handayani"
8126879647,amandaaputrie_,"hola it’s me mancey🥀"
4025739725,loversleopard,"Leopard Lovers"
5453700294,its.dheavv_,"Adhelia n.q"
6221162604,asrul_tonyy,"asrul maulana"
1697554795,ekosumantrii,"E K O"
5588812796,sepri_wm,"Sepri WM"
2908310168,syasyahida28,"syahida hanini"
7995878546,rianrseven,"Rian Si Rseven"
2180583889,ammarmuzakky,"Bang Jeck"
8151685341,_mrmdnty,Maryama.🍭
7194208826,naufal_faruq_99,"محمد نو فل"
2340656193,zizah_nrl26,"❤zizah naurel❤"
868581548,chusnah_hijab,"PRODUSEN HIJAB MURAH"
1694973367,alquranpelangi_pramezshop,"Alquran Pelangi|Alquran Madina"
1251189379,mdl_store,"CUSTOM STICKER MURAH"
2086538287,rezkisalmaa,Kikioo
3537828569,sandyyswr,"Sandy Yogaswara"
1582825616,shasaagraini,"Shasa Agraini"
1095635417,kath.lissna,"Lissna Katy"
203142556,tiffanygoritman,Tiffany
5838469610,nininhafidzah,"Ninin Hafidzah"
2246013223,febby_gaiel,"febby Gaiel"
6653407332,mydropnshop,"OFFICIAL MYDROPNSHOP"
2291026810,endrayanago,"Endrayana A Prasetyo"
465098749,praharsacitta_,
294202011,edbertgoritman,"William Edbert Goritman"
1546360548,riarezza_makeup,"MUA JAKARTA 👄💄"
9288433675,khasindonesia34prov,"ⓚⓗⓐⓢ Oleh"" 34 provinsi"
1296686373,alfanbaedlowi,"Alfan Baedlowi"
4092407173,nr7shop,"JILBAB MOTIF BUY 3 GET 1"
181665561,siti_kamliah,liah
1943097319,ariandytubagus41,ariandytubagus
1317339789,qurniaandayani,QA
1816493532,w.a_sadewa,"Wayan Andre Sadewa.,S.Si"
37213966,ifoenkk,Ifoenk
1426399355,nia.yunia,"Yunia N.H"
7321857956,nobby_lampung,"Nobby Hijab Lampung"
10414075474,franklin.custom,"Jual Case Custom Desain Bebas"
7575275452,bukunail,"Buku Nail"
4651477125,nadhifashop_grosirmurah,"grosir murah"
10380941733,franklin.desain,"Pusat Case Custome"
555964799,maulanazakaria,"Maulana Zakaria"
2317696126,nisadedel,"Betty Sulastri"
505076468,husnaditaaa,"Husna Dita Rahmah"
9126101122,verenclothing,"Veren clothing"
232116263,denfajar,"Fajar Wibowo"
8004085148,adityabusiness.id,"LEADER RESMI DROPnSHOP"
6012770486,tasya_bochil,@Tasya_Cabi
2203376769,nesyaudacious,Nesy
3590487852,asep.anwar.sanusi.zm,"Asep Anwar Sanusi"
3260848908,sitraydn,"Sitra Yudaningrum"
10151870086,ruthandayani7,Ani
7422963385,efrilsusilo,"Efril Toto Susilo"
8943988610,mhmmad_wandy,mhmmad_wandy
10422538601,pusat_buku_billionaire_store,"Buku Bisnis Billionaire Store"
2254890848,danyipsi,"Dani warsito"
5652361277,rievaldy_rahman,RIEVALDY_RAHMAN
7742072895,picopinocio,Yosua_pico
1453987470,tiaastrn,"Tias Astriani"
6663849460,almi.collections,"SLINBAG START 10RB"
4302698387,ridwangeuning,ridwan
7442407239,malclups,malclups
7112811357,khadijahsocks,"kaoskaki muslimah start 6.500"
4317765576,juragan_l,"M.A Lukman H"
1940539121,sudarwanto38,"sudar wanto"
10211666675,wacanashop_,"WACANA SHOP🌎"
10270293109,varezt,"varezt putra"
6666577767,aprilagnesiaa_,
8398064277,yoandaaa___,@yoandaps
10240235880,asmaraanjash,"PRIA PERKASA ORDER HERE"
14372384,indungg,"Indung Gunardi"
3484187025,agustinapermatasari26,tintun
1403046506,mau_mau.94,"Always try tobe better"
1526770272,ilham_choy,IlhamLham
4134723365,riniekasari25,"Rini Ekasari"
8662970991,pusathijabainun,"DISTRIBUTOR AINUN KEBUMEN"
6734905999,ekapupit_,ekapupit_
2120931546,mr.al04,"MR. A Lauren"
8491991541,elsyindartik,Qofistore_official
6079210201,aditrey26_,Adittttt
2190682381,mardiah.ulfa,"Mardiah Ulfa"
8691254863,cicyariesthalestari,"Cicy Ariestha Lestari"
3160257730,iffahzehra,"Iffah Zehra"
4426926655,mhmmdakbarsyafullah,muhammdAkbarSyafullah
1998679667,faiqoh.masruroh,"Faiqoh Masruroh"
7866294621,nadira1545,"Nadira beauty"
2778272351,reynaldi_agung,"reynaldi agung"
3962859001,toko1166,"Toko Hijab"
9189808054,fajrul_am,"Fajrul Amin"
4368825776,citylightapartment,"City Light Apartment"
4712100488,qoobiestore,"VSCO X FULLPACK MURAH 🌹"
5630226454,sitinuraela_28,"Siti Nuraela"
9275709112,titiknolsolo,"UNDANGAN MURAH SOLO"
10338621967,andyskom,AHB83
537066832,lyaseptia,"Lya Septiarini"
7825207423,oyandh,oyandh21
6566215516,aumirs_official22,Am_rz
10433306072,asephendry286,"asep hendry"
2010713900,lla_shella,
8953006458,rumahkoiflamboyan,"Rumah Koi Flamboyan Medan®"
1987623630,bellaadoona,"Bella Dona Astuti"
5759612236,tulisan.muslim,":Tulisan Muslim🌈"
4719069833,iinnd__,innovitadewi
4817359025,prayoga.ae__,"Indra Prayoga"
2813313338,nurindahayani,"Nur Indah Handayani"
6756199739,ruang.dengar,Ruang
8885980831,made_to_order_handbag,"Ladies Bag"
322902979,agnesiwa,"Agnes Pattisahusiwa"
6046404988,hanggahrp,hanggahrp
9257272214,feridarma28,"Feri Darmawan"
2535133688,macaronirangu,"makaroni rangu"
336117346,auliasuharto,"AULIA ATIKA PRAWIBTA SUHARTO"
764723942,latasyaaaa,anetkunet
5965543280,nurlia2703,
2020504426,surya.riega,"Surya Riega"
2071824307,elizabeth_rossaaa,
9882619302,_arjn,"A r j u n"
8661721150,zasmith_789,"NURZASKIA KIRANI PRATIWI💗"
10225719723,cantikaaadewi1,cantikaD
9365301374,albertpongayouw,"Albert Pongayouw"
8139010242,asri9722,Asri02
5662753725,rennikzar_,rērē
6706718553,bronx1202,bronx
7627927006,imaswa_24,imaswa_24
3871230207,treasuryshop,"JASTIP SURABAYA MURAH 10K"
7470848987,biosystems_indonesia,"BioSystems Indonesia"
1152159506,peekaboo_delicious,"Homemade Food"
832317586,kharis78,"Muhammad Kharis"
5545006951,yuliananur231,"nur yuliana"
10157050169,dzikr165,"ذكر عبد الرحمن"
5932823786,lyandshop_,"Hijab fashion start from 10k"
3447925490,tiens_spektakuler,"HARGA TERMURAH SE-INDONESIA"
8316006407,grosirkaos23000,"Grosir Kaos Clothink Yat'z.co"
1259635349,ilfi.f,"ilfi f."
5488450075,bintanghuhu929,Taroe
10565969426,hellen_sxt,"18++ Only"
9951850762,selamethidaya_p.hd,"selamethidayat,P.hd"
1327781492,paseoroxas,"Paseo De Roxas Makati"
9889171086,fajrin_aqd,
2403711539,shendy_inst,"shandy firdaus (New Account)"
844028461,clenklen_,
350192918,riopooerwa,ᏒᎥᎾ_ᏢuᏒᎳᎪ
4532137760,mhmmdkhrllh_,"muhammad khairullah"
4675193236,laimestore.id,"Laime Store"
10422737927,wacanasukses,"Wacana Sukses"
1835745166,ceceptjahyadi,"CECEP TJAHYADI"
8676489233,angelacosmetics_,"SCARLETT, EMINA - SOLOK™"
9166450339,3elektro,"3ELEKTRO samarinda"
6706970876,sariastraisuzu,"ASTRA ISUZU BALIKPAPAN"
1464565062,ivonemargareth_,"ivone margaretha"
644319921,mayanghs,"Mayang Harum Safitri"
7114040238,elsaaindriyani,elsa
9752102948,suci._na,"Suci Sna"
1960661325,awil_md,"muhammad alwi"
4721102178,marselino_13,Acelino
3190865345,alwinpj_,"Alwin Pujiantara"
9514824966,tasimport_triulvani,"TAS IMPORT GRATISAN"
7183537542,_habiebarr,Habieb_AR
10113612757,flaporazzo,flaporazzo
1940628713,noptanto,"Dedy Noptanto Tri Kurniawan"
8222903212,msnwtii_,
7236559869,dwi_novianingrum,"dwi nurrohmah novianingrum"
2182472238,rivaldo_jl,Rivaldo
794817363,atikahfrzr,"Atikah Fairuz Renggani"
10249934139,auliaazhar.id,Azhar
9433907036,kokonat742,Kokonat
537496839,loana_id,"SPESIALIS KEMEJA&OUTER MOTIF"
5839729586,aisyah12.hijab,aisyah12.hijab
1384571928,diandranayoan,"Diandra Emily C. Nayoan"
9168647256,sam_onoyimas,"sam onoyimas"
1643927100,cosmeticslowbudget,"Cosmetics Low Budget"
1548637045,megamustika18,Meg
3589890703,isnov_13,"Istiqomah Iis"
266156437,dewaayudesy,"Dewa Ayu Desy, MD"
7940722671,gusadhi_rxd,"IB Kt Adi Permana SSn MSn"
1580270135,wahyubaw,"Wahyu Aji"
3455685737,tiffani_ang98,"Rintan Tiffani Angela"
521585062,khalisgagah,"gagah pratama"
2167154407,pomade_boss,"POMADE BOSS-MEDAN POMADE"
6759044899,yanuarwinzi,"yanuar winzi putri"
9438570354,amoorea_pkuu,"Nu Amoorea Pku"
3046323233,jiqi_aulia,"Muhammad Jiqi Aulia Berutu"
1360277497,wahyunasution2506,wahyunasution2506
9629869179,blastsanious.clothing,"Blast Sanious Official"
2294586592,lutfimubarok_22,"Lutfi Mubarok"
10573888744,heriyan_olshop,heriyan
7298629548,muticraft,MUTI_Handmade
8571888365,nurulazizah1023,"nurul azizah"
6641570815,yurisabymargy,"yuri sabrina mk"
10116487943,bandid.case,"band id"
2245449578,merisasyerin,Merisa
6545025263,riniindriani1601,RINIINDRIANI
4518742790,bawapulangaja,"Masker Kain"
8515081880,wahyu_pmg99,wahyudi
941523696,aflah28,"أفلح سيديك"
5938955724,mahasiswa.yogya,"mahasiswa yogyakarta"
8540534505,meilina_628,meilinarahmawati
1726723446,adel_kaici,"Adelia nurzanna, S.Kom"
8528453262,garbageclinical,"Garbage Clinical Insurance"
7341247444,m.imam.rivai18_08_16,"Muhammad Imam Rivai"
8410494206,ini_hildaaa,"Hilda Amalia"
7602784436,isshopee.id,isshopee
750255992,gabriellecristell,
8638874276,mymara.id,"ULTRAVINE CERRUTI CORNSKIN"
8099332363,wernowerni.shop,"wernowerni shop"
8334934393,fourstar_bandung,"Fourstar Bandung"
8188487817,mealkitchenwede,"salad buah bandung"
6962257761,ahmad_agym,
3551460545,theinnovativemuslimpreneur,"TIM | Sejak 2014"
5596721476,sisiliafera,"sisilia fera"
10222375340,paytren_id5,paytren_id
180997631,widyapuspita88,"Widya Puspita"
2067236862,naegholy,"m holy"
1374964719,baby.winda,Winda.K
3920336944,apr.sj,"APRILIA ISJAYANTI"
1564307032,kuraralc,Clara
2188529257,alfiana.eka,"Alfi Ana"
4040112059,ilook_galery,"PO GAUN, KAFTAN, DRESS"
1987201042,elpinawati,"Elpinawati Manik"
5356157720,vonny_shop_branded,"Branded Kid Clothing"
2182415079,mardi_anas,"Mardi Anas"
1459708065,sozazis,sozazis
5569432656,desasn__,"Dewi Sasmita"
2066974586,myprihouse,MYPRIHOUSE
5889294102,yunimedan90,N.wahyuniaxa
48755389,dherwita,"Dinda Herwita"
7151559727,avriel18.shop,"PRODUK LOKAL  & IMPORT 👚👖👗👘👜🎒"
4492485913,viterbladaz,"Viter Bladaz"
5394922400,praktisi.ig,"TOOLS INSTAGRAM VITGRAM"
1423094640,rif_atulain,"Rif'atul Ain"
5618112025,arief17_m,"Muhamad Arief"
1356563853,chacadhitta,"Chara pradhita seno"
2599273329,aminmuchtasir,"Amin M"
10429986370,hayubi7711,hayubi
5793227479,_january26,"26 January I Was Born"
9493892666,zommy45,ZomZomCustom
10355074221,nafaberliananurhaliza,"Nafa Berliana Nurhaliza"
5635988628,thio_brandon,"BRANDON - THIO"
3409361216,baraindhie,baraindhie
304856422,levinapipi,levinapramonoputri
6028771499,nissa_latiffa,"nissa latiffa"
4229230761,naurashaqm,"Naura Shaquilla M"
8479680810,fer.fery1,Fer
6163726237,nombro_nganya_,"Nombro hn saleleubaja"
4747881224,michellenab_,"Michele Nabila"
9899280475,muksonulpa,Muksonulpa
4345537010,bambang_deris,"Bambang Deris"
7655385220,yogikipli_026_,"#Yogikipli026#👖 blue denim"
1461590449,sixxalexx,"Alexx Triple Sixx"
9228354652,aktivasi_paytren_azis,"😎MENTOR PAYTREN TN0953182😎"
6973160949,kabeldata.murah.bali,"KABEL DATA MURAH BALI"
2129689921,anchovies_medan,"SUPER MURAH TERI MEDAN"
8743752770,bila4561,"Nabila Bila"
1337573504,q_nurul,"Nurul Isti Q"
3991016069,aang_ahmad_fauzi,fauzi
327453357,zulfaelfiza,
5593039365,julialia6884,"Julia Lia"
7665682102,nniatul_,
1688889767,globosapromote,"CUMA AKUN PROMOSI!!!!!"
9950947381,celotehh.id,"Agen Makaroni MAGETAN MADIUN"
9239827749,maskmaskeran,maskmaskeran
3635127824,gladytopia,
686331808,mfajarismantoro12,"M Fajar Ismantoro"
1347936623,erinasukmaz,
9944596208,r12stelanfutsall,"R12 SETELAN FUTSAL"
3265595692,trisilayuli_,
7905027543,sayangbule,"Bule Cantik"
8320992218,theyare024,"Majenang Cilacap Jawa Tengah"
5951209179,kawulo.gust1,badrul
1378785714,renchangmie09,"RENCHANG MIE 09"
2043242319,ronni_1414,Ronni
7310773988,shandranoveliani,Serenity
10353359476,lestary_etiiika,"lestari etika"
279120172,mashurihasan,"Mashuri Hasan"
3987613930,hero_farma,"Hero Farma"
4313868539,youdilang_ribut,"YoUdilang Ribut"
7100644238,rumahsyariah_islami,rumahsyariah
281821673,natabellla,Natabella
7182181244,kevin_irfankholidin91,"Irfan kholidin ( kepin )"
7055520359,balledigital,Baledigital
40327046,nentyeka,"Nenty Eka"
10018334920,kaha_collection,"Hijab Banda Aceh"
7594128576,itsmen.id,"Daily Motivation Entrepreneur"
7847340731,nabillaputris3,NabillaPutriS
8685412223,pmsumule,"M Sumule Patta"
1488422227,risqi_nurwidya,"Risqi Nurwidya"
1626674808,lata.shop_,"GELANG KALUNG CINCIN WANITA"
10362149760,muhammadhadi8887,"jual penghemat bbm"
3430015715,loverqueenjyho,Queen572.juvitalachicaa____💋
1707571000,arfannst51,Arfan
8166482893,fadli.05husein,"Fadli Husein"
6169892537,hokage_seluler,"HOKAGE Seluler"
10244030658,kikiivan17,kiki
7897592417,hafidhoh_husna,hafidhohhusna
8907076282,anak_hits_masasekarang73,"🇲🇾IRWAN AULIADI🇮🇩"
7124974948,natrep.daily,"KOREAN STYLE MURAH • K-BEAUTY🌻"
10256680931,moremike131,"Mike Johan"
10251163328,librandstore,librandstore
6980561848,everytimesheneeds,"Super Murah Hanya 55rb"
2141884511,aiinun_nikmah,emma
6208177786,hallo_thaa87,"Hallo_Thaa 💕"
10392602026,denden_deri,denden
6745449506,edisantanaputra,"Edi Gunawan"
5760016384,amarmim12,amar
4252740280,iwaanmals,ONE🇮🇩
7870683461,andreprecil_076,Andreprecil076🇲🇨
5335779627,tokobejo,"TOKO BEJO"
2247215144,ratih.efriyanti12,raa
9716053242,andrepercil76,Andrepercil7602🇮🇩
8782263742,tgifparfum,"TGIF Parfum"
1180998583,rhienita,"Rhienita M Orchida"
10135364929,jccmarketing,"Justin Dinsin"
7504735972,masradenj,"Mas Raden J"
3040828987,al.dian99,"Aldian Satria Putra"
3166491835,cilokgembil,"CILOK GEMBIL OFFICIAL"
1579991637,anistrihayati,anis
9605362998,anang_alus,"Maulana,"
9435370148,bagja_nugraha_999,"Bagja Nugraha Abimanyu"
6821804225,bakrikonveksisouvenirmedan,"Bakri Konveksi & Souvenir"
2178433406,muhajirarsy,muhajir
10175646483,it_dusanstuff,IT_dusanstuff
2094857429,iie_bo.i,"iis tasmiati sobandi"
2211845913,kpsondang5206,kpsondang
9153584193,nytamyshop,"BAJU ANAK BRANDED"
652448546,rizzamustika,"ريزا موسي تيكا ون ناي 🌼"
2084220562,a.y.v.i.o.n___,vioooni🍒🍃
1472234624,sparklinggdiamond,"NATURE REPUBLIC|BENTON|BSKIN"
3966975370,larasati2596,laras
4222699035,bisnisdaurulangplastik,"BISNIS DAUR ULANG PLASTIK"
5542113284,samuelpanepane,"Samuel Pane"
2221728685,areztrainingcamp,"Arez training camp"
1405407587,muhamad.fajar1,"Muhamad Fajar Bahana Ramadhan"
7204701999,thalitatulip.id,"OUTER & DAILY OUTFIT"
482149202,kurnianovy,nurviana
5913593459,hycarsofficial,"Hycars Official Makassar"
2896007711,hijaboutfitbrandcollection,MANNANBRANDCOLLECTION
3912089674,dapuribuperii,"Semua kue disini enak"
7121764331,niki_yufazakani,"Dinda niki pebriani"
6304646703,hubbyandwifestore,"BAJU ANAK BRANDED MURAH"
2071957107,ismaprl_,"Isma Trias Aprillia"
8694152075,blessingleather.id,"JAKET KULIT & SEMI KOREA"
3126120134,syf_mubarok,"Syaiful Mubarok"
7030655005,mhd_mukti17,•MuhammadMukti•
6220414049,dnmitaart,"Dio Mitaart"
1097585831,dietplum.mdn,"Diet Sehat Tanpa Nyiksa 🍎"
3895821608,miufood.id,"MIU Food"
2218742362,neko.stuff,"DRESS GAMIS SYAR'I SOLO"
9989993356,dollyhousemedan,"Handuk Souvenir Berkualitas"
2133731456,dodysetiawan11,"dody setiawan"
10397052471,house.bagg,"HOUSE bagg"
5018925898,mursalinasiti,sitimursalina
9037117031,wikkwok,Wik
4020254866,andea_beautystore,"KOSMETIK SKINCARE ORI MUA"
2350460493,lindanoviani08,"viany linda wijaya"
7799164610,tjahaja.id,"Tjahaja Hijab | 3 For 90K"
8176891684,sydnisinaga_,
10347143030,zusykft,febykm
2289811429,saanishop.id,"GAMIS CASUAL PREMIUM"
7280151966,iamjoybizer,"Joybizer58Team (JoybizerJogja)"
1528318287,laylasyari,"Layla Syar'i"
4308463975,kris__24fit,"Krisna H. W"
6674287861,endangs26,endangs26
4004482780,raff.shop88,"SAMYUNWAN ORIGINAL SAMARINDA"
7272418532,imam_koirul_mustofa,ImamGONJOL
8748708199,updatekayu,"kayu jati belanda palembang"
1214960211,aulia.cwn,•aulia•
1367683469,journeybag,"Official Journey Bag"
4512983921,hanania.kidswear,"GAMIS ANAK PREMIUM"
3170444001,andarifsti,"Winda Arif Nastiti"
1048441597,fitri_su,"Fitri Sulastri"
5959572044,arwindaika,ارويندايكافبريءنتي
5488999165,lemona_jus_diet,"LEMONA 🍋 JUS DIET 🍋 SARI LEMON"
6254005074,nezia_store,"BELI SATUAN HARGA GROSIR"
8890508325,apriyanthi_rauf_,ibnulkarim🐼
899393819,lidyakyoko,LK
242617377,iam_ariesprasetyo,"Aries ""Ompong-Cemong"" Prasetyo"
6101512470,byherlyn,"CASE CUSTOM 30K"
305487634,alvitovf,Alvito
374694247,setiadihana,"hana aprilia setiadi"
3190135783,belendesis,"be len de Sis"
4278378091,ririsaprida,ririsafrida
7798170362,unniecatchy,"UNNIECATCHY KPOP STORE"
3601151954,marthadicta,"Ellyza Marthadicta"
6190498763,mohinay.fashion,"H&M PUMA HNM ZARA MANGO  P&B"
8651590365,mitravariaprint,"Undangan Pernikahan"
9169516183,yoegaskonveksi2002,"YOEGAS KONVEKSI"
1820645840,sardy93,"Oktavianus Sardy"
8978492410,rafamalik4,"rafa malik"
7612913732,daffashop_clothing,"Daffa_shop clothing Purworejo"
2813718521,sea.weed_shop,"Seaweed Shop"
1597711763,ariashcroft,"Ari Ashcroft"
9694321262,dwi_fingerstyle,"Wardhana taylorJ200"
10569472182,putri_mantika6,"putri mantika"
3547202090,sens.daily,"DAILY HIJAB 🌻"
9785176613,agen.leggingnafaya,"AGEN LEGGING NAFAYA CIKARANG"
8926798850,dcolony.id,"D Colony"
5321136657,asyilahijab23,"HIJACKET ORIGINAL 😎"
10379628691,superproteingemukideal.id,AGENPUSATPENGGEMUKBADAN
378012874,amorastudio,"handmade jewelry by Vivin F"
209783296,fitria_martanti,"Fitria Martanti"
571083933,jualprodukkecantikann,"PRODUK KECANTIKAN"
9926924208,qazisyabil,"Osama Ruzain Tabrani"
8180708261,namilabeautyshop_,"INNISFREE ETUDE NATREP FREEMAN"
10428074182,urfav.bottles,"All About Bottle Things"
1093936304,sun_graph,"Carbon Palembang"
8677402177,galeriisirumah,"galerinya isi rumah"
1706148111,mr.lev_akbar,"mr. lev akbar"
3075062594,cheeseyou_id,"Cheese Stick - cemilan - snack"
8464598696,dindasurya7,"dinda surya f"
4780231833,hanafi_1723,"Muhammad Hanafi"
10004443835,macaronifactbdg2,"Macaroni Factory Bandung"
4353831153,auliyashop_,"Stiker Label Nama Waterproof"
4625819066,nasti.id,"Gamis dan kosmetik murah"
8712078036,chariotstyle.id,"Indonesia Fashion Corner"
1251089560,valeryayan,yayan🍄
9750805637,hellaw.bags,"totebag custom"
6865140327,denny.pay,"Denny Pay"
7402437905,_mliaa,Melia
3743034958,emy.laily,"emy laily masruroh"
6217048331,rizal_attauhid.f90,Rizal
2252000229,rara.syafa,"Rara Syafa 😎😎"
9759753256,bukajooooo,Indokuliah
8519887048,huicorp,huicorp
4615527825,deni_jatnika12,"Deni jatnika"
8296192069,rianteeee,
1925611785,emonery,gundamgo
10449824880,bayarinshopping,"Jasa Bayarin Shopping"
1051449503,iklan_makeupmegirl_,"Promote Kuy"
9143650573,jumnasiah5,jumnasiah
8513470797,lapak_puang,"Lapak Puang"
10185618325,k.loart,"K.LO ART"
3524826145,alsyahiddin,"AL syahiddin{OFFICIAL}🌎"
5884903176,mohammad_sumitra,mohammad_sumitra
6862086045,alliya06,alliya
3542357568,munafsholikah,"munafi'atus sholikhah"
5602323674,milkacia,
9672745685,byragil,"By R A G I L"
9245235898,slmn_iq,"Salman Iqbal Putra Sumadi"
9982617550,bukuotwhijrah,"OTW HIJRAH"
8131586835,sudiropj26,Ud
444696174,rslewin,"Renny Silvia Larekeng"
3555814708,shfchffh,
9271803574,rsyifa_dropnshop,"Ngawi Woozles"
868762293,hadimahesa,"Hadi Mahesa"
3582693817,ar_fad17,"Adly Fadly"
10244537690,kittymittenloki,
10250773979,jasminegallery.id,"Hantaran & Seserahan Pontianak"
7269495049,fazil_al_araby,pajill
2027697031,mella_ta,"Mella Tiara Amelia"
1734240949,ayurizkyyandarini,
7024184342,kimshop.beauty,"Kim Shop"
7115661712,bisnismotivasi_,"Motivasi Bisnis"
10376600727,hariptasetia,hariptasetia
1323020258,maztriz,"Maz Triz"
5393147193,dhidy28,"Ferdian Prayoga Dhidy"
2094137523,desima_store,"Hijab dan Scraf Sragen"
9493185260,cloudysux,"Make It Happen✨"
9227917802,akmal_sto,akmal_store
5617180278,nurhadisport,"Nurhadi Sport Store"
1320228485,raden_mas_teguh_75,"Raden Mas Teguh"
8302368068,saiful.rahman25,"saiful rahman"
1994227834,fnrtouring_apparel_custom,"FNR Touring Apparels"
5785735738,tangali_smart,"Berkarya Tanpa Batas"
3260449810,shelaafnangea08,"SKINCARE WITH MEDICAL FORMULA"
9766060142,ori_leather1,"Tas Kulit dan Sandal Kulit"
5617498235,dhillafadilah,"Bisnis Agen"
7181034961,sahall1801,"MUHAMAD SAHAL TASTURI"
202301729,adiwsnu,"Adi Wisnu"
4545226989,lailatulftryh._,"Lailatul Fitriyah🌛"
473171696,eviindahlestari,"Evi Indah Lestari"
2320314457,samsu_suwandi,"Samsu Suwandi"
10362110710,khnsfbr7,"K H A 👑"
6514635322,majidzeven17,Majid_Zeven
358187833,farahamila,Farah👑
3648459883,gumilarharis,gumilarharis
654859629,crisphi_cute,k_d
9888741292,rezaki_vco,"distributor vco Lampung"
10447216886,cindy.eleven,cindy
10404451479,lina_eka_pratiwi,
5832569140,wapoy_09,"Aprilia poppy"
2319652098,hairul_fitrii,"I'M MUSLIM 🙋"
7921596560,danti_laras_rahmadanti_1235,S.N.L😘❤
8102477608,julian_ponsel_pku,"Julian Ponsel Official"
562957049,chitradarrra,"Citra Dara"
10088287561,ummuaimanmusaddad,Ummu_Aiman
7580936574,ditaa.abcd,"D I T A"
9504363116,style_hijab_ani,radwah
717890537,muherula,"Muhammad Chaerul"
6039761063,nur_3a,"3@collection 🚺🚺🚺"
6636636801,dyanprmtaaa,
46018472,octavialdonw,"Aldo Wicaksana"
8783635957,ardis.collections,#GayaIkhwanCilikKekinian
8560480950,tiaradhamara,"Tiara Aninda Rahma D P"
8735445478,cahyo.17,24434
4706861282,_adeliasafitri,"a d e l i a"
6947567929,fromafif,"Afif yoga saputra"
8515048750,fitryani_ahmad22,Ayy
2866032013,nurcahyono10,"NUR CAHYONO"
7158097643,bengkeldakwahorg,"Bengkel Dakwah"
4530355876,olahanbonggol,"Olahan Bonggol Pisang"
2163811367,ansrina82,Rina
1781669134,azhari_tarmizi,"Azhari Tarmizi"
1239145941,nilam_ac,"🇲🇨 Indonesia 🇲🇨"
3553793814,voista___,
200289932,hanafildzah,"h a n a f i l d z a h"
1393965171,bzzrlly,🔺
2239574720,kartika13sari,"kartika sari"
10197989257,gading.lawu,"Gading lawu"
5669489272,likaagus_lestari,likaaguslestari
6110852016,fahmikazhoip,fahmikazhoip
8285479324,errixkhico_official,"Errixkhico Gilang Saputra🐼"
7534607028,yoeljgenoa,
5748602008,delvihadinata,"Delvi Hadinata"
4082867894,lutfah_iin_setyorini,"Lutfah Bimbel Hilmi"
9943694261,anakkostbangett,Anakkostbanget
4235228317,teukumuja05,Muja_Am
7415144358,diceluk,"diCeluk sapta"
2178419765,renaissance_aufklarung,aufklarung
6163718784,leoisaac753,"muhammad ishak"
10149725451,sikatshay97,Sikatshay
56011940,rantyfebrina,"RAN 🐮"
5864183643,ririnduana,Rin
9731289922,_superprotein.pusat,"Best Seller Penggemuk"
9012788328,juanadi213,Juan
8179625085,ndutt.b,"Ndutt Bae Lah"
5522656877,scarlettwhitening.ngawi,"SCARLETT BY FELICYA ANGELISTA"
8562860383,dragonchenzhen,DragonChenZhen
3972339545,fab.u.lous___,"Fab.u.lous Preloved 💕"
1039051377,etikaokta,ETHICSMAKEUP
6773770158,tia.senjaya,"Pasar Baru Bandung"
8706567989,sanah100595,مراةالحسنة
7752215192,indomedika,Millenial•Healthcare•Digital
10214190193,kaosdistrojombang,#OLSHOPTEBUIRENG
1525143860,rlpsmh,"RIAN LORENSO POSUMAH"
3123291740,aldovammylu,aldovammylu
7944230888,rusdi412,rusdi
10085586136,bay_akum02,Bay_akum
7737625956,ardanityamahatma,"Ardanitya Mahatma Creative"
7742638913,jean_property.indo,TrustYourPropertyWithSagentus
7432414576,squidfams,"🐙Rohmat Squidfam's🐙"
10171233135,pendaftaran_paytren325k,"Syaiful Mentor Paytren👨‍⚖️"
270318574,dindamgp,"Dinda Mega Puspita"
195411416,purnamiayu,"ayu purnami"
1434951636,santoso92,"Santo thepremiumproperty"
9074919058,nadeyya13,nadea
1771036638,zamronihamzah,"Zamroni Hamzah"
1784953865,setyawaneko_25,"Setyawan Eko Nugroho"
9941430824,skatertainment,skatertainment
1540743313,erie_bahana_nugraha,"erie bahana nugraha"
3232531653,kakangmastaufiq,"kakang mas taufiq"
2111788193,_beduuu,Abdurahman
2334828817,yosylaaasyahofa,"yosylasyah putri ofa"
1475958894,fadhilah_al_hafiz,"Fadil Hafiz"
1634739467,rizki_raga,"Rizki Raga Laksana Putra"
3503821328,dekkyprmbwo,"oʍoqɯɐɹԀ ıɓɓu∀ ʎʞʞǝp"
1209571578,tomy.irawan,tomy
199184127,aisyah_assya,"Aisyah Assya'diyah"
1070802715,nasya.renatha,
3736257900,nugrahaselamet,"Selamet Nugraha"
6845266585,akmd_525,Akmd_525
8606258443,arypurwanegara,"Ary Purwanegara"
1413461498,dyhwln99,"Dyah Wulandari"
3021789120,nizam07.ngs,"Nizam 🇮🇩"
8554176145,andriyanor_123,andri
9604700375,akhmad_alar384,"Akhmad Al Ar"
1730868731,vouszyhee,Yellowish
3170291188,meiicho,"Mei Choiria"
10193495387,ekosusilo58024,"Eko Susilo"
9856463691,luqmanh0,"Luqmanul Hakim"
6941025327,grosir.boneka.5205,"Boneka Grosir"
10340101643,tokospesial.co,TOKOSPESIAL.CO
7013713617,socialconnect.id,"Social Connect"
10245925711,kowahyudi,"Wahyudi Ko"
7193188092,ujang_kopi,"UJANG KOPI GAYO"
2021313170,lambangdwi,LAM
4518649835,rosyifasari,syifa
6010703252,sambal_klaten,"Sambal Kemasan Echo ( Klaten )"
1724299269,muhammadelvin,Elfah
7701558416,shareinjaryuk,"SPECIALIST SHARE IN JAR '09"
871056915,srie_widia70,
2082735219,zulvaiq_,"TYPING TRIPP"
1914631274,yeremiaturnip,"jeremia Saragih"
1723741635,anisatulbaiti,anisabaiti
5946209633,fredyajisaputra,"Fredy Aji Saputra"
6786584007,rishasyun_,"R I I S H A A 🐼"
1602271031,bella.stevany,"♔ Bella 💞"
497385931,mariansyah_andri,andri_mariansyah
8251739615,kholil58_bangkalan,kholil58_Bangkalan
10270683250,lucascasjr,"Lucas cas jr"
8505164632,haikal_fzr,"Haikal Faiz"
8405042295,aishaaayuhardinie,"Aisha Ayu"
1542525714,riivananugerah,"Rivan Anugrah"
6238707942,bahrumkhairulnurjaman,"Bahrum Khairul Nurjaman"
5710784960,aldiagustiansyah5,"O B I Y_D Y 🔵"
2257233155,ny.doloe,"S E N G K U N I"
2274815161,kmsn_br,"kemasan baru"
46527399,danniel505,"DanielPuji Raharjo"
254901929,rererojing,"Reza El Rasie"
5640042978,viatyanti,"Via Tyanti"
6454911806,laila_mardhatillah2197,"Laila Sari"
1946087465,finkylisty_,Businesswoman👜
4137260512,iamibnu_,iamibnu
652350579,thibrihamzah,"Muhibud Hamzah"
2219875275,nurislam06,Nuris
5506127967,ranggaswra,
246499100,sheilaadelina,"sheila adelina"
48211561,mungkeey,Monica
9176078998,jawa_vidgrams,"KUMPULAN VIDIO LUCU"
7210573172,prastyod094,"jeans collection"
9712139304,grosirkaospku,"Grosir Kaos Pekanbaru"
2701649346,angger3107,"M. Taufik R"
1811763186,yosi.krnwn,"Yosi K."
9280266272,emil.m.ibrahim.official,"Emil M Ibrahim Official"
2255970891,oviya_arum,"Oviya Arum Batiniah"
9064726011,gerbangdigital,"Gerbang Digital"
3211955720,bunk_ok,"Anton Nuril Huda"
9742215746,azka.zanuba,"Azka zanuba"
1359182823,inishtania,Intania
5816059350,sherly7427,ser
2209840109,yayangdewangga,"yayang dewangga"
1600944146,ssaddamhsn,"saddam husein"
1390496356,nawakara_store,"Nawakara Store"
10429489690,tnmassociation,TNM
10263168226,pendaftaran_paytren_fintech,"MENTOR-PAYTREN WA 085364329457"
6651398035,monicasorokhaibam,
9382787478,dm_bouquetsnack_,dm_bouquetsnack_
2434134582,indrawan_donny,"Donny Indrawan"
2086937717,adit_duta,"aditya pratama"
3929682975,wndhjrn_,"W I N D A"
1547317698,yayukwidiyanti,"Yayuk Widiyanti"
8018008193,mardiansyah_krikz,"Muhammad Ardiansyah"
6387419131,ucijunianathaa,Uciheee
7459620767,jeprin_ujung,"Jeprin ujung"
10402171484,sellyibrahim80060,"Selly Ibrahim"
1428096035,imannura19,"Imannura M.D.U"
6118742181,ryan_dani19,"muhamad dani riyan putra"
1622059409,fishnek_malang,"Snek ikan 🐟"
10259957106,lastkindmarketing,"CV. LASTKIND DIGITAL ASIA"
5615571452,tata.limarga,TataLimarga
6196082370,abirmisk.12345,"Abirmisk, Khaqqi Umm Mu'adz F"
9361220357,nasikotakmalang1,nasikotakmalang
3036414629,rifaharifaah,"Syaif Arifah"
647934227,aris_balinese,"卍 ARIS BALINESE 卍"
9504149280,donidipo,"Donnie deepho"
1102250331,muhammad_raisramli,"Muhammad Rais Ramli"
10242198137,yelitawjy,"Yelita Asep Wijaya"
7683523671,elinvitation,"E L - I N V I T A T I O N 💌"
9162430882,youngerbr,"Jesus Christ ❤"
3571894368,bayuurendi,"RBP|| Rendi Bayu Putra"
9980412978,jelajahbisnis,"JELAJAH BISNIS"
4908291844,iwans_preneur,iwansetiawan
2063040740,rh_handayani,"Rizki Handayani"
7570306081,sahrinaa_,"Sahrina Ritonga"
297345040,icha9,"Marissa Amelina"
3306991011,andreazuand,andrea_zh
4055430648,nuryunny88,yunny
8563273780,lacoco.cosvie.looke,lacoco.id
10368309831,pc_shop9,Pc_shop
2064848166,rjf_fashion,"Ana Fauziana"
1668410328,yusep_sae,"Putri Aji"
9005580448,divaazhrn_,"D I V A🍭"
9876812897,suminirah,Suminirah
5340148223,puspa.id,"SKINCARE MUDMASK BLUSH ON"
5618378273,cahyonovic19,@cahyonovic19
3152175345,rikaarham,"Rika Handayani"
1635174641,krisno_prabowo,KRP
3627389820,iif_aripin,"Iif Aripin"
1657523373,desuarn8,debo
49803989,tugusleo,Tugus
1597190126,asunanto,"Agus Sunanto"
9997482406,lebelleindo,"Le Belle"
2551089808,piamoon_23,"nur laili"
9867799013,new_leather1,"Tas Kulit dan Sandal Kulit"
4515235529,wawandelonk,"Wawa nDelonk"
9748209785,nicholasnicholas51,Nicholas
25344883,cika.sanurfi,"Sartika Nur Fitriani"
4587296568,zommywalker,"Zommy Walker"
2122215531,katekelly_collection,"kate kelly"
3138236864,ojanaufal,Fauzan
5588320829,tegarprmna_putra,"Apok jarwok"
8143283559,_syuh4dx._,"순교자 || 12 세"
483099684,hajarns,"aksara ananta"
6228322881,maximadgp.cikarang,"Maxima Digital Printing"
7442682718,dhella_36,"della anggraeni😇"
1516863618,roshiehansmb,im_hans
232520638,enoretra,Eno
10243933900,grosirfashion_nayashop,"grosir ecer jilbab gamis"
5004393928,carlie_lim1888win,"Eli_Lim 🐼🐼🐼"
790827105,sidixq_,"Muhammad Nur Sidiq"
1278622592,agungsnt,agungsnt
6950780704,disviters99,"DisviterS SugawA™"
995263796,diana_bunda_nizam,"Diana Sari"
7372952918,triacitanuari18,"Tria Citanuari Zahra"
8089522944,sepatu_bigsize_karawaci,"SHOES WANITA UKURAN JUMBO"
9037855940,vinaamelia347,"vina amelia"
1351328814,jurnalentrepreneur,"JURNAL ENTREPRENEUR"
7953645469,yuan.fauzan.583,"Yuan Fauzan"
1043124616,losilid,"Mohammad Khalid"
8084638453,bukugila,"Buku Gila | 🇲🇨"
10013195451,property_house7,Property_house
2236738588,randy.cat,"randy's Family"
1918608163,bergunawan,gunawan
8895374830,harbyfitra,"Harby Fitra"
463371998,salsaanns,"SALSA ANNISA"
2536343795,zhuan_tan,"Zhuan Tan"
707091004,melyanainytlh,"M E L Y"
307932160,rbprastri,"Rastri Wishesa|| Shandylova"
2206288258,kautsar_raka,"Kautsar Raka"
4217313732,monikatians,monikatians
10360934132,semua_dijual13,Palugada.com
7288396511,bisnissukses_kekinian,"BISNIS AGEN PULSA DAN KUOTA"
10218123665,grosirkaos_distro07,"Gentrax Distro || Surf & Skate"
9662998011,iroh_mai99,"Iroh maisaroh"
1560850082,ajib_collection,"Ajib's collection"
2960488007,eennuriliyah,"een nuriliyah"
3667251458,fajri_m.yusuf,"peutuwah syiek"
258652979,viasulviana,Via
6484086877,wahyu_elbayti98,"M U H A M M E D_A L B A Y T I"
10372121207,solichinvariasi,solichinvariasi
3321262267,istiartantii,"Isti Artanti"
9146625683,crzy.aquad,CRZY.SQUAD
2979939580,titinhajri_,"titin hajri"
6391715514,rumahdijualdeltamasbekasi,"DSS Property"
8595435814,prikitiw606,Prikitiw
1447906445,intaanagustina,"Intan Agustina"
5809707182,ryo_gooner99,"Ryo Addja"
2748385265,ahmadi_wh,"Ahmadi wh"
2073456298,aldyjor,"Aldy Jorhansyah"
7462717718,alz_hafizd,ZH
6630873494,tasya_pesexx,Tasya_Saobaz🍻
1796719005,haura.kanva,"Mom Haura&Kanva"
2324764898,irawanandi169,"andi irawan"
503465754,wahyunurdinda,"Wahyu Nurdinda"
1920268561,meylialubis31,"Meylia Lubis"
2000668547,nadilazumitiaptr,ndla_
7181182598,andriani.hijab,"Khimar Maxmara 100k Get 4"
6418341071,trisyadi_inst,
9690216475,bambangpur345,Bambang
595461537,febymarinov,"FEBYOLA MARINOV"
3539093942,peony.sshop,peony.shop
10230240957,miracleezt,miracle
9719272909,wildantiens.store,"MASKER SPIRULINA"
9175554108,atomy_beauty1,"Korean Beauty"
635420169,erickrinaldo,
10322437184,kakakiya.sleepwear,"Kakakiya Sleep Wear"
10082127859,paketpulsasbs,PaketPulsa
7999552257,eliyarhm11,"Eliyarhm II"
4056763652,noelfitz06,"Keyzo Eukeur"
1448448995,baroks.id,"SEPATU ORIGINAL BNIB/BNWB"
1347303443,topangunawan,"Topan Gunawan"
5588472835,septian174_,"septian abdi rohman Wijaya"
9256672722,indomiegeprek.hw,"INDOMIE GEPREK CIANJUR"
197131100,esafirm,"Esa Firman"
10357493559,steal_kekinian_store,SK_Store
1788452357,sitinazwaph,Nazwa🔆
3634242420,kue_pasar_805,"cake & bakery 805"
1937240547,ernawidya8182,Ernawidya
3050956757,twahyunings,"TMW 🌞"
5479711360,vi.silviaa,silvi
1933090336,alkusari_ali,Mentor_paytren_barokah
9020693502,loungawey,"Loung Awey"
9258588066,woelan_ndadari,woelan_ndadari
1315140217,angghit_aji,أجي
10402281238,coffillusion,"Coffee Bean and Roaster"
3735902076,megazahfarina,Megazahfarina
8225442875,geraiannafii,"Gerai Annafii"
3615315610,cottoncandy_shoppp,cottoncandy
7282932549,zxzys1,zxzys
1588867129,salmafzn_,"A salma"
9311547276,muh_ridwan02,"kps simpan pinjam dana"
9160755677,glopot99,CHiCken99
4351075375,martharinrina,"Martha RP Utami"
3182805740,tommyputra3839,"Tommy Putra"
5338281303,sw_pbg,"Sansan Wacth Purbalingga"
1442244525,riuzuky_kuroinewa,"rizki kurniawan"
416905623,natanaeltan,"Christofel Natanael Lombo"
8156342709,sat.sit,
589594429,geriindrawati,"geri indra wati"
509642778,harry_sutedi,harisutedi
7302368886,sutrisno_777,sutrisno
6196344863,ratna.setianingrum,"Ratna Setianingrum"
8535476838,ogia.leina,o.leina
10166378662,ku_mis.bah,"jual celana kerja wanita"
10217887438,store_kmb,"KMB store"
6213746755,fauzan_ruedtt,Fauzan_RUED'T
4337741563,taufik_maulana124,"Taufik Maulana"
8646833783,retafebianti,"RESA FEBRIANTI"
4322344168,buyazidnazaidan,agung❤yunita💕Z2
3192593354,teteh_manda_firdaus,"teteh manda (mommy na Qikana)"
10186229977,jamesquad56,adiruli
438419501,ninamazaya27,"LISTEN & SILENT"
10095648050,miliarder.dropnshop,"⭐BISNIS ONLINE NO.1 SE INDO⭐"
9296718580,prodipgmi16_,
2963810405,dionurfauzie_,Dio
3187413617,putrialami_,"Putri Alami"
4043511511,aliungchang88,"Aliung Chang"
8616240491,tumblerdakwah,"Tumbler Dakwah"
3215769999,sonny_setyawan1,SonnySetyawan
2255739361,deviianalestari,Deviana
1483443733,rachmad_yudantara,"⠀⠀⠀⠀⠀⠀⠀⠀ ⠀Rachmad Yudantara"
618699716,diahsatya,"Ni Kadek Mas Diah Satya R"
2338020817,nurmeli.yulianda,
1465832175,nabilabasria_,
10095749318,m_fajar_99,M_Fajar_99
9525015028,taskopermini.pku,"Slingbag  Pekanbaru"
1793334648,faliiia,"Riska Fadlia"
5404531675,ikemaul14,"Ike maul"
8552860348,surcease_brand,"°SURCEASE BRAND"
7051119743,afri.27,Afriyadi
2276089144,ratnafaozi,"Ratna Tri Wulandari"
143663296,muhammadipink,"محمد نور العارفين"
8462453534,djagungz,"agung priyadi"
3289403768,sanniyhdps,niyeeh
10335828382,muhammadyusuf.2019,Muhammad
6961210530,ladrena_mesiah,"لادرينيا المسيح"
1470091111,echyww,"Dessy Lestari"
6190092748,tyaasrii,
2150458921,nilamshd_02,"NilamSHD YC"
485154345,intanfirdauss,"Intan Firdaus"
1191702180,muarifffn,"Muarif Nasir"
3761657139,gausarequest,🐣✨
8280089578,duriandelight.malang,"pancake durian medan malang"
7063470457,riskikopas,"Riski kopashter"
10234472481,strugglelife390,happygirl
3953903896,e_dey92,E-dy
10380900716,rnh365,"Reza Nurul Haq"
1420880334,oktaviani.aharr,"Oktaviani Aharr"
1806691,eirra,"Arrie AP"
286119942,richardridwan,"Richard Ridwan"
2889819637,eldiansyah_m,"Eldiansyah Muhsin Arfah"
3638944861,hafidhismail1018,"Hafidh Ismail"
6950272611,oriflame.liashop,"liashop ORFILAME READY"
8536004822,sienbusiness,"PELUANG BISNIS MODAL KECIL"
2258941260,ibnu_destyadi,ibnu_destyadi
1546442427,miftahdmara33,"مفتاح الدامارى"
9992520591,suplier_jersey19,"Dinda Suplier Jersey Jakarta"
55193746,andrew_nugraha,"Andrew Nugraha"
9152810894,mei28_kayla,mei28_kayla
4065093987,syariefutd,Syarief_hidayat
2058916934,pandan_kue,Pandankue
1619208174,muhammad_khomeini,"Muhammad Khomeini Umratama"
9010925069,glowbeauty.kosmetik,"JUALAN PRODAK KECANTIKAN"
2128628617,akasheafy,akas
4175048557,fatimaharani_,
5525450519,nurinboek_,awin🌸
5504997050,diynovianti,D.I.N.O.V
7261333004,bintastore.id,"AGEN GAMIS SYARI"
217217726,yudisprdi,
3548468672,gian_ganzxvilla,"Gian Ginanjar"
8922661850,wahyuadam89,"Wahyu Adam"
9876645594,garut_leather1,"Tas Kulit & Sandal Kulit"
4487766519,tanniasutanto.jpg,"Tannia Sutanto"
2063920491,inungnurniarosita,"Inung Nurnia"
2963782173,asomantri43,asomantri43
10268220078,sridewi312,"sri dewi"
5588221078,23chandra_,"Chandra Budianto"
9434014918,yulieummu,"yulie ummu zubair"
10379737029,ardiansyahsurbakti1498,ardibatak99
1631337258,suryaam_69,
511500505,sekar.mawarni,"sekar mawarni"
3323432520,ernawa2212,"SKINCARE 💗 MAKE-UP 💗PARFUM💗"
1393083394,rindarti_12,"Ririn Rindarti"
4707568565,andri_trilaksana,"Andre Trilaksana"
8019492886,anggategarprakosa,"Shitboy Extraordinary"
196782349,fakhriazhar,"Muhammad Fakhri Azhari"
4835142692,tokobantalmobil,"Toko Bantal Mobil"
2899996614,warung_a.a,"Warung AA"
5359277803,daelibobby,"bobby daeli"
2132087051,rozak_id,Zack
7562451803,ilyaspraditya22,"ilyas praditya"
8254380850,aajayastore,"AA Jaya Store"
32104359,anastasiatiwi,"Anastasia Rachel Retno Pratiwi"
2016488339,riyanwjy19,"Riyan Wijaya"
2159972519,wahyoedi.noer94,wahyoedi.noer
3160701301,sabisaprint,"SABISA Design & Print"
594843683,ardianyusuf_,"Ardian Yusuf"
1565640039,frank_tan_nussi,"Franki Nussi"
5795727533,hafsahtryka_,"حفساح فتري مشتيك"
4253055991,bubungismail,"bunda zul"
9057479676,tunik_kill,"TUNIK BATIK PEKALONGAN"
7204926806,dendidonlego,"Dendi Don Lego"
245145594,stoberikiss,"Jul 🍓💋"
1762979290,fajriyatulfitri,"Fajriyatul Fitri"
9526071788,si6_creative,"Logo design & Branding Identy"
8993701287,essenzo.hidupsehat,"Essenzo Essential Oil"
7424317724,eis_haries2426,"Eis Haries"
2288918829,eghisi_hatake,"Egi Prayoga"
8209342213,raudtuljnh,"Raudotul Jannah"
4849132947,davesingh27,Davesingh
5400758,hprasidya,
8177149875,ikhlashutomo,"Ikhlash Kautsar Wahyu Utomo"
7320253118,archetomy,gustis
10223163240,kakangaris,aris
2132093727,nitasr7,Nita🌹
10363749603,bicaraforum,"Bicara Forum"
2023089166,muhajier_rm,🅙🅘🅔🅡
404748989,deviright,"Devi Herbalife"
3674556741,ahmadmiftahbaiquni,"Ahmad Miftah Baiquni"
10083415683,jual_followers_tepercaya,"Jasa/Jual Beli Follower"
8343198036,aryanii_249,Aryanii
4757551622,arhanmbah,"Arhan Mbah"
6213460687,istiqamah_,istiqamah
9242355837,triva_sprei,"SPREI & BEDCOVER"
10346524654,bearyslimez_,"Malay Base🔥✨"
3532450338,asepshndr12,"A S E P S U H E N D A R"
10354686542,richmus92,Muslichin
7422934205,ra_collection22,"cυѕтoм caѕe , powerвanĸ"
10035079620,kaos_diztro_cewek,"kaos distro"
9646994362,ecodeplus,ecodeplus
1453832920,alifianx,"Chrisye Alifian"
9552975978,_dekya22_,Nurlia
4271751605,rima._icha,
2364971580,josua_hasiholan_munthe,"Josua Hasiholan"
10250109263,fayzafalah24,"Fayza falah"
6031896704,eviica_cak,Cak
7420117055,nda__vitaloka,ndahhh
10021821585,andhyzhaynhap,"Andhy Zhaynhap Stepvhanye"
8572177975,sekedarhobysaja,sekedarhobysaja
911960516,octaratnas,"Octalia Ratnasari"
10407850812,lallutasyarif,Lallutasyarif
10208162467,sehatwithkion,"MATA SEHAT K-ION NANO"
3257125953,athayapu3,"Pu3_Bunda Athalaric"
779614700,reiisma,"Reisma Wulandari"
4361342138,lalunashop23,
8453657762,digitalnesia.id,"Master Dhani irawan, SE"
5971602861,kamila_nissa15,"Kamiela Nisa"
3615129882,lil_dick16,"⠀⠀⠀⠀⠀⠀⠀⠀⠀⠀⠀⠀⠀Dicky Risand"
296787226,ahmadamminudin,Ahmadamminudin
8083819085,monicaali92,MonikakhaerulAli
2044702935,nhanadekik,"M.khabib alfarizi baihaqi🔐"
2963770889,concept_coffee_and_steak,"@CONCEPT COFFEE and STEAK"
1511629541,andis_prast,"Andy's Prasetyo"
6651016419,anita.nm.984,anita
2250912946,plaza.bisnis,"Plaza Bisnis-Tips & Inspirasi"
4111425232,bylung_oll_shop_guitar_akustik,"Bylung oll shop guitar"
10266291089,adindaasha81,"Adinda Asha"
1120617080,cevi_permana,"Cepi Permana"
8300820392,imam_fahroni107,"Imam Fahroni"
1277747636,rzqfkaiia,"Zq Farhan"
656336305,dindin_rosidin04,"Dindin Rosidin"
10366133404,casinghpcustom2019,casinghpcustom2019
4040820983,b3ncibanci,"sepatu oke, mood-pun oke ❣️"
1127273556,sorayaanggun,"Soraya Anggun 👸"
496826484,icuk_santoso,"Icuk Santoso"
3450681434,sandi_rivaille,"Sandi J Rivaille"
1307606308,nuuruthami,ami
6194429094,fatmaafiio,Fatmaa18
8661160774,pdtalita,PdtaLita
10254004947,awakiyaaa,"Awa Qamra"
8914071356,defjam99,block
2084340185,fdiusfirdaus,Dius
9042501416,novinovi446,Berhijrah~berbisnis
2711735743,mynahijab_,"Dress Busui Kekinian"
10404712887,amy.cell,YusRi
7706453687,muhadi127,"Layanan Daftar PayTren"
5358619611,ragilpangestu1310,"Ragil Pangestu"
10438608525,fashion.ananda,"F A S H I O N"
5367880546,sussimasyitoh,"SUSSI HWI"
13108462,alphonsaa,"Maria Alphonsa"
200572280,ryanzofadilla,"Ryanzo Fadilla"
3621053196,msalehudi,"EXOTIC BALD HEAD"
1322250397,ike_rose1409,"Ike Yanti Rostika 🇮🇩"
3101765351,ygpartypeople,"YG fans X YG fams😊"
3123968191,dennysaputrasen,"Denny Saputra"
3731734452,ansarinew__,Ansarifherdinan
9536202107,askhabulumamdarmawan__,Askhabul_Umam_Darmawan
8089086933,arya.aldana,"Arya Aldana"
2005378372,sutracandra,"Sutra Candra"
546237470,indrabayuwww,"Indrabayu Wijaya"
1716560279,8moi.wear,"CELANA CHINOS"
5342467577,cindy.ashter22,"laras putrii"
6272870444,ahmadadam_id,"Ahmad Adam"
668981430,_ebud_,EB
10239829758,larasatiwinnia,LarasatiWinnia
289020685,ubaidillahprayogi,"Prayogi Ubaidillah"
6074448726,hijabalila_store,"Mau Jualan Hijab Alila?"
1578905205,robertasoeprapto,"Roberta Soeprapto"
46264896,wira_suranta,"Wira Suranta"
2176622998,ali_azis_paytren,"MENTOR PAYTREN TN0953182"
8616614450,lopezsmith0,lopezsmith
1283501068,arixngo,Ari
9906850099,greenandalasadv,"rahmat faisal"
284786200,anim_parapat,"Sa'adah Hanim Parapat"
3048389145,muniku.id,"LOCAL BRAND"
2936791878,haerulam_,"Haerul Amri"
2291665451,ranggadaluaji,"Rangga Dalu Aji Toana"
454980756,non.aminah,"Aminah Azzahra"
366207065,hannan_badjrie,"hannan badjrie"
3131524348,moonmood.apparel,"Moonmood Apparel"
10336991500,manadopawnshop,ManadoPawnShop
966644524,dytoyudistiro,"owner bakulsusu"
2531761200,mbakipeh,"Mpek-mpek Palu"
7803334057,denu.karya.adv,"Reklame • Display • Signage"
3499019411,sethya_ningsih,
4644303807,imam_nyenk,"IMAM KUSERI"
1065437918,urianto_tjong,"Urianto Tjong"
10399585401,essenzooilpku,Essenzooilpekanbaru
245444088,sirait_david,"David S"
485981420,nt_rusandi92,"Nura Takdir Rusandi"
3965943210,yoga_rizki21,"Yoga Rizkiyanto"
4712999322,mellyfitriann,Mellyfit🌻
1925826134,ariesitoresmi,"Arie Sitoresmi"
3982899423,gaurav_kumar.11,"Gaurav Kumar"
4980367336,rashalhanan,Alhanan
8341280552,djamure_shop,"D'Jamure Shop"
8286720876,dayunirwana25,"Chi Dayu Ermawana"
4547221929,dredds_,Dre
8521791012,muhammadilhamprapansyah,"Muhammad Ilham Prapansyah"
1692689855,alvonavergianti_,Vona
206172048,tatakartikasari,
1310465521,deilupi,"De Bojex'z ILupi"
38167579,widatri,"Wida Tri Maulidyawati"
307706640,pratiwiaprilia,pratiwiaprilian
2993064849,jeffrytranggono,"Jeffry Tranggono"
1649403294,david_avun,"David Avun"
1393056923,andriantoakhmad,"andrianto akhmad"
10161970664,dwisaputra.06,"Dwi Saputra"
9171954058,huang.seansa,Seans
1499066110,muhammadfaiziin,"محمد فايزن"
10228696028,gabrielanan_da,"Gabriel Ananda"
9407191952,_sefiaa_,
7321996509,marsa_nisa,MARSANISA
1721799509,nicochristianlim,"Nico Christian Lim"
3504565357,_icepeci,p_ci
1488099123,isnanovitaa,"isna novita sari"
1549400532,raul.rock,Raul
8029695325,arumine_21,"Yugi Arum Hasiline"
1729039370,arefnur,"Aref Nur"
6420153829,chua.sn,"Uswatun Hasanah"
7316019003,loteiiii,boncel_rs
252538637,coreyhafidh,"ismail hafidh"
4638085711,seplinbachrir,"Seplin Bachrir"
3674135213,luki_apriandi,looki15
4234725944,fajar_nur_cahyo_,"fajar nur cahyo"
1425920018,arymaring,Ary_M
544261074,navell_skincare_official,"Krim wajah dokter skincare"
2072282062,hafidz_hudri,"Hafidz Hudri Azandani"
10135151842,anekaolshop79,anekaolshop79
761107283,rizkioktaviani__,"Bukan Via Vallen"
9126793035,fifiayukarlia,"fifia yukarlia dewi"
6075258706,rosavilentina,RosaVilentina
1923514862,hellochoco_id,"hellochocho parfum mobil"
2221452325,hicitakadir,
324690940,najmialvinzuhair,"N. Alvin Zuhair"
3091064845,hana_almasyhur,Hanza_olshop
3639855997,gymshimbaba,#Syareva®design#
8909343511,heruiswadi09,"Heru iswadi"
10369187720,crucialminutes,"Budi Anang N"
9884883185,vistore_indonesia,"VISTORE INDONESIA"
2253462237,bisnis_paytren_samarinda,"Bisnis PayTren Samarinda"
1760154980,anggarhadytyaputra,"Angga Rhadytya Putra"
3513816225,r3zamind,"Widya Aguita"
6850701698,prasticayuni4895,prasticayuni
7936888889,ta.renata.5,"Ta Renata"
2838573995,jaya.ms,"m s jaya"
3961301025,todreambrew,Mencariyangbaik
1517988147,pesannota,"CETAK NOTA"
8302060021,ayu.tingting092,"Ayu Tingting"
1638119932,yudi_riandika,"Yudi Riandika"
3081931615,boma_mia_herawan,"Boma Mia Herawan"
371895051,laodeinsan,"Laode Insan"
1287571506,ginnaagustinn,"غنى أغوستين نينغلا"
4440160328,tohirpekalongan55,"mohamad tohir"
2327288220,nabilawati.nb,"Nabilawati Nb 🌿"
5706124638,ifnindah00,"INDAH FITRIANINGSIH"
1946447424,randy.winchester,"randy winchester"
8946175723,umik_maryam,"Maryam jameeLa"
2277283730,herlinaimran,"Herlina Imran"
9733378554,donut_sweet_e_,"Donut Sweet E_"
673831725,sisambor,"Angga Sambora"
10119581770,superprotein.gemukideal_id,AGENPUSATPENGGEMUKBADAN
4732117225,syn_april,@apriyadi
10199634593,iwayansukanila,"I Wayan Sukanila"
10240609649,cocomakassar,"Co-Co makassar"
4662245520,wahyu_widnyana_23,"wahyu widnyana"
9272135931,bossmudaaa,boss
3423859906,simanjuntakronaldcollin,"Ronald Collin Simanjuntak"
9759904660,serbaadakertajaya,"Serba Ada Kertajaya"
5516672851,saputraleoagus,"leo agus saputra"
10262363574,suatumakna,Makna
3990339860,namirahtm,
2223837605,mr.himin,mr.himin
10342230333,wicaksono_alvian,creator
8361878296,ruddyminargoliekmotor,"Ruddy minargo liek motor"
8780138130,ayeisha.id,Ayeisha.id🌸
9280147440,kaospolosprapatan,"Kaos Polos Prapatan"
10130305161,mamontoabdulwahid,"Abdul Wahid Mamonto"
5676367031,afiie84,Hafidhoh
10340166927,olshop_gosh_bellagio_indonesia,"olshop_GOSH bell indonesi997"
4138014828,syahidasyari,"Syahida Syar'i"
2367197996,m.khaidir1,"Muhammad Khaidir"
2190050363,cnc_hijabstore,"SPECIAL PRICE FOR FOLLOWERS"
9908762520,krispy.shop1,"JACKET AND SWEATER 🔵"
1581827371,yabestastu,"SPAMLIKE FREE WB 👏"
2712445074,ry_susanto,"RY Susanto"
3550620696,fatimahofficial_,"HIJAB VOALPLAIN CORNSKIN"
2787023846,wijaya_kusuma_batik,ipan
1574651962,erichaadhilya,"Ericha Adhilya"
6720587605,ahmad_sahbandi,@ahmadsahbandi
2141410897,rosyadahfz,
8663342450,saungbukuanak,"JUAL BUKU ANAK BERKUALITAS"
8035706071,afrakids.original,"Kaos Anak Premium"
246220598,lauraagies,
6216884673,ngulinerngopi,"Nguliner & Ngopi"
5428758908,sked_shop,"ROREC SHEET MASK 5.000😨😨"
10191584187,susantititiek,"Titiek Susanti"
6692303206,gendisririathabawel,Gendiesririe
10100923984,sufaherbal_,"DISTRIBUTOR RESMI TIENS"
1411718386,nadia.chalistaa,"Nadia chalista"
484674863,ristakasatya,"Ristaka Satya"
7383299524,yonscnc,"serba serbi mengenyangkan"
1811391526,alief_baihakki,"Alif Baihaqi"
10406361973,siproject.id,SIProject
6415452897,hilmy.fa,Fulan
7010534081,haidaralazra,"HAIDAR SC LW 🛵"
234605356,02__nd,
7267825689,dwinovia_ningrum,
6624893867,fitriapurnamasa,
1604956522,anggazawi1,anggazawi
9734723155,putrirahayu510,putrirahayu
3578057315,ibnuhp,
6828865323,d4ni_567,"Follow My Instagram !!"
10416609732,rendi2805saputra,RCFashionColection
4245745706,_raa.r,Raa
8584455143,asp_hkm,"Asep Hakim Z"
2089789616,zebbbbiii_,ZEBI
6408190508,im.mermaidina,"Maulidina Putri Rakhmawati"
8348703622,farhannoedin,"Farhan Noedin"
3208102018,anom_aryapangestu,"NAON MELONG?"
4714890401,greenstonia,"Greenstonia Batumulia"
472322619,fajarnauval,"nauval muhamad fajar"
2322828257,irpanmaulana64,"Irpan Maulana"
587402240,addianlawula,"Addian Lawula"
1521808576,dzuvia_ma,"Dzuvia Mughniy A"
660211419,j_nyver,yolinsshop
4243029365,gofanani,"Ahmad Tri Fanani"
2314986888,save_undur_undur,"pramastia yoga"
1650547808,ranipramudita52,"RANI PRAMUDITA"
1051614288,maszhoe,STOP..February!!!
5771235980,bayurheza_,
3447441430,juantheblues,Juan1010
551338477,amirulmarwah,"amirul marwah"
10349902124,dropshipfy,Louis
1523452608,febriansaheka,"Febriansah Eka Prasetya"
4213696929,lizazizah269,"azizah liza"
1837704356,mo.fikr_,Fikri
1403360163,kubah_motif_bangilan,"kubah motif bangilan"
6808614342,haijacket,"👤 🅷🅸🅹🅰🅲🅺🅴🆃"
2291216395,alviaando,alvian
10124862528,louisfeliix,
2331828202,misbahchoiri,"Misbah Choiri"
6486373315,andrizandika61,AndriZandika96
8932303637,ainikurnia32,"Aini Kurnia"
10235250064,sitinurjanah_dropnshop,dropnshop.official
9374120325,rahullhard21,rahullhard21
10263395639,mohamadfarihhilmy94,mohamadfarihhilmy
8940700201,hoki88.business,"Johan/WA 081260235026"
10113643842,farid.1140,"Farid Maulana"
4871550967,sunli_birdnest,SarangBurungWalet
1356349140,jer_kom,JERRY
7330812312,shoppshanty,"Shanty Shopp"
8664190188,ddewiala,
9391079925,official_yusuf45,Yusufofficial
2678941806,tiarajasng,tiarajasinaga
9013550376,kireinaonlineshop,"KIREINA ONLINE SHOP CIREBON"
9425536117,bigson_graphic,B&G_official
4118505686,hhaammbbaa_allah,hambaALLAH
3097818827,vendy_agusta,"Al Vndy"
276869156,bashori_alwi,"Muchamad Bashori Alwi"
10268459072,media_iklann,"Media Iklan"
1447256355,toserba_onlinemks,"Toserba MKS & Agen ORIFLAME"
5907754347,fauziah7016,"Hana Fauziah"
5789735941,dekyirawann,"Deky Irawan"
5653685071,raz_reall009,MUHAMMAD_RAZWIN_009
3105166493,stylebyumna,"Happy shoping, real picture"
10210301134,pantepangahierhop,#PANTAI_PANGAH
10245060903,sskr18,"Siska Rupu"
3472067110,poetman.docx,
5640349497,nataliasarip,"Natalia Sari Prihatinningsih"
5692569367,hstydnp_,👤hestydianputri
1530210968,rosyidnoer,ros_
10095604152,glxy.spply,ɠαℓαאყ.รµρρℓყ
1556013002,fang_mei7,"Mei Fang"
4046021092,ohorella_sari02,"Kemala Sari Ohorella02"
510408741,erlangga_u,
2255153973,guntur_christanto,"Guntur Christanto"
10430336698,muhdosey,"muh dosey"
4279841742,plastikbandung3,labelbaju_plastikSABLON
7609805837,ssk8922,GnR
10091267660,dropnshop_amelia73,dropNshop
6629989966,jeffryhartantotan,"Jeffry Hartanto"
8183632868,latifahbasalamah,"Latifah basalamah"
3528371812,hartono_li,"Hartono Li"
3232622629,farasmunita,"Beauty FR"
9298042441,ucilwrong,"NAKAMA OYABUN CLOTH"
1915738563,y_riku93,Day
2720900228,sahilfadisan,disansahilfa
1528724594,hessaarteja,Hessa
2967322787,ardiantosatriawan,"Ardianto Satriawan"
482756567,nurfion_safetyshoes,"Nurfion Safety Shoes"
1733360262,sergiherdianto_,"Sergi Herdianto"
7305620608,sm_rokhah,Rokhah
439709610,gungnita,
9507801900,makeyour.case,"Custom Case, PB, e-money, Kaos"
7134540926,cutbox.id,Barber▪Coffee▪Distro
1392403499,daniellferdii,daniellferdii
2238309046,zakiamuslimah_,Zakia
3469170678,assyfakhsnl,"Assyfa Khusnul"
7940665967,agung_saputrapm,"Agung Saputra Pm"
1162833513,buegultom,"Lambue R Gultom"
4299963815,ekayhantiii,"eka yhantii"
10256620036,wisleacase.id,wisleacase.id
2184593807,ngurahmb_,Ngurahmb_
3404231921,irwanpraz,"Irwan Prasetyo"
3476226382,riko.pratomo,riko.pratomo
3087322030,bassaltic99,bassaltic99
1381615974,ferdiansyah.utama,"Ferdiansyah Utama"
3199872445,indah_tasss,"konveksi koper dan aneka tas"
860575045,chenmejuwianti,"Chenme Juwianti"
1501323669,ali_saifudin,"Ali Saifudin"
1732842451,sitaramori,SitaraMori
10414832888,hansonlineshopbandung,"HANS ONLINE SHOP BANDUNG"
1914095453,sinkronzzz,"ARFIYAN PERMANA"
3990935696,ajipngst_02,@jipangestuu
8940390299,sinar.ria.71,"Sinar Ria"
7512762133,__didinn,"Dini Ariani"
9715625689,mohamaddzulfiqqar,"mohamad dzulfiqqar siddiq"
6982204997,riskyghoga,"R_I_S_K_Y_  G_H_O_G_A⏺️"
5572565186,azlina1013,azlina1013
10367212745,terusjayatoysbandung,"TerusJayaToys Bandung"
6217780222,arief_budianto_csg,"arief budianto"
3035240743,martinsapoetro,"Martin Sapoetro"
10217662511,yolahij7,
1474776708,ryn_mlvndr,
6713476243,ricogendut22,"rico gendut"
1680531099,nico_mesnan,"Nico Me"
3013452878,oneitao,"oneita trieni"
6025540842,nonaparee,"Puput | Beauty writer 📇"
2157852442,fu_jics,"Fuji Cahyadi Saputra"
1369951574,r1a_aja,Christaoctoria
1766712329,finalovehijabjakarta,"DRESS GAUN CANTIK MUSLIMAH 😙"
10264019579,harizfaqih99,hariz
1903615446,amal_rifai4,"amal rifai"
8063310942,pendi276,pendi
8550515208,kuingincantik,"Hello Cantik"
8485928088,itwoq,"CELANA CARGO"
1713151715,hardy_wang1995,"Hardi Wang"
8782347433,nadiariska.p,"NADIA RISKA PRATIWI."
2133373590,puspadiworo,puspadiworo
9860119643,chairul1524,Chairul
4774809640,sitijamilahbio,Debs&jems
243308232,fahrimochammadjabal,"Fahri بن جبل"
3665232224,iqi_kuddung,"iQi kuddung"
8783797820,strongman.channel,"💯ORIGINAL SUPLEMEN HERBAL🍃"
6910781318,sahabatsehat_id,"Sahabat Sehat"
4060788995,meisterstadtpollux,"Meisterstadt Pollux Habibie"
317496398,azizahayup,"🌵A I K🌵"
10320935883,orlov_case,"Specialist custom case"
10376136498,lazirretropolis,"Lazir Retropolis"
407261223,imagidee,"Palembang Female Photographer"
9501255166,jta.id,"Motivasi | Dakwah | Sosial"
8782744575,arinaveronika_,"ARINA VERONIKA KUSUMA."
10210839084,azzahra_alesh,"azzahra onlineshop plg"
4069477415,nikeafauzi,"Nike Ahmad Fauzi"
1309895699,jeffryhau,"Jeffry Chai"
8583654940,nandaochie52,"Agen Kuota"
47009527,intanyuinov,
1231330290,refifadhlillah,
1948667952,fernando_sastro,"FERNANDO SASTRO"
10371368469,alifcoffee,"Alif Coffee"
7196809548,ananta.h.k,"Ananta Hadi K"
672413535,utami25,"Utami Widya Hastika"
4559064687,royalfleredy,"Roy alfleredy"
241368776,zarnujisurv,zarnuji
8248774477,hmhmhmhmhmhm44,hmhmhmhm
5883846578,ria.shop_spg,"OLSHOP||WELCOME RESSELER"
4202672435,lemari.usanc,lemari.usanc
3460516892,ayyupuji_25,"Puji Sri Rahayu."
2209163169,icetea7227,"(calon) Crazy Rich Sulawesian"
9665349332,lu.lu1684,lulu
5569635533,reskyfeb.id,Reskyfeb
1372964938,ziyan_ba,"Ziyan BA"
1804337298,mc_ichawu,"MC SURABAYA, JKT, BALI, SOLO"
4033850132,morplitz.jersey,"CUSTOM JERSEY; Morph mentality"
1113467658,nilaleo21,Nila
1528244938,biablee,
8324563006,naylanafezaa,nanay
8442239086,prahasa.rmln,"Prahasa Ramlan"
10420761170,pifolashop_,"Jilbab dan Case Termurah"
2224154482,jhony_dmk,"jhony dmk"
3645998161,alsulthon,"Sulton Najib AL"
3268987142,eko_hermanto111,"eko hermanto"
794926844,md.store19,"MD Store"
4048313367,izeytv,"izey tv"
6235988741,maysawijanarko,
2355361465,ratnadewihidayat,"Euis Ratna D Hidayat"
236350844,maealliswell,Maealliswell
28297633,edwinyapeter,"Ring-a-bell photoart"
8713558437,yord_81,mhmmd.fachri
1247528690,rizalbuset,"Syamsul rizal"
2390189488,tauf_will_create,"TAUF WILL create"
5330804480,milleannisa_,
264233291,punyasashie,Sashie
1455079019,irwansyahep,"irwansyah eka putra"
2999691245,yudi_javaprime,suciadayudi17
1457637445,dua_giga,"Dua giga"
4725751211,lathufgaga,"Lathuf Gaga Ismail"
8760477300,marshallstore.inc,MARSHALL.INC
7751870898,jayin_tan,JAYIN
5151854978,heraettuekk_,"ERNA HERAWATY.SE"
2544381330,budi__7,"Budi Joko L"
7018870770,erenha_scarf,"erenha scarf"
7181985229,rumahjualan_,"KEMEJA COWOK MURAH"
8617379003,heru_khf,"HERU HKF"
2218783608,mwildan003,"M.WiLdan Salim"
2127875515,syofliapriyanil,"Syofli Apri Yanil"
4846748859,lapakbaju_ani,"Olshop baju murah solo"
3960258991,motivasi.mindset,"MOTIVASI MINDSET"
4739892687,nadyra.ap,human
2810927304,nisaka_gallery,"Abaya, Outer, Khimar Eksklusif"
10341984195,coklatcustommurah,"Coklat CustomMurah Lmg"
1095537748,windamutiara23,"Winda Ika Syukrina,S.T"
8683725573,soalmahasiswamalang,soalmahasiswamalang
2308972103,abu_abdillah_al_maisani,"BramastaSinggih | AbuAbdillah"
312096732,rizkach0403,Stalk
7596758365,nhidayati72,"Griya Herbal Lestari"
8562709166,aisyaputri_93,"Aisya Putri"
181281112,sinagafml,"Sulaikh Newlinsi Vandross Sinaga"
3437302635,irmakrisyanti_k,"🌷Irma Krisyanti"
1464225640,sabillarhm,
5321758850,deye34,Deye
3755642587,eshan_collectionid,"ESHAN Store"
4864274414,dejul_azzaela,"fahri zaen"
352267906,fitriatarwin,"Fitria Tarwin"
10382858542,dio.anggara97,anggara
511328150,chriesma_ema,"Siluman ular putih"
6449005854,alva_grallva_13,"Alva_E_ KYM_13"
7263958900,vrtcl.store,"Vertical Official"
8976084540,ceper._,🍁OMKUMIS🍁
1977403672,rivalmlna,"Rival Maulana"
1599837675,chalidmudatsir,CHALID
3735365139,istana_tas_dan_jam_tangan_,"istana tas dan jam tangan"
1604914467,kavitadr,"Kavita Dwi Restiyana"
3547281944,windsenja,windaarfiani
3809957197,adikurniawan2686,"Adi Kurniawan"
696908380,gahhchin,"Gah Chin"
3021753189,anasyaresa,"Resa Anasya"
7980168170,griyoavi_hotel,griyoavi_hotel
3246490697,i_wahyuramadhan,"إِخاء وَحَى رَمضان"
10394632932,strong_boys.id,"STRONG BOYS"
6334412773,anakfiksi,"Rizky Amarzan"
8362682748,noviasulis_,noviasulis_
308004659,monasomba,"Pricilia Mona"
2900064119,muhammad.taslim.90,"muhammad taslim"
2205514805,nazdiarifin,"Nazdi Arifin"
4833182624,javateknikmandiri,"java teknik mandiri"
5919509103,ahmadanies93,"ahmad anies"
5509808949,andaranoven,"Noven Andara"
10114231304,yandazbusiness,YandazBusiness
5531464796,melaniawibisono,"Melania Wibisono"
4609450732,loadoa,"Kata Motivasi Hidup Sukses"
10411769667,saladbuah_nada,"Salad Buah"
8379792557,itsharuranika,itsharuranika
5988575983,7_______fetra,Fetra
3101439069,ahmadihabibiee,Ahmadi
8126302278,amirul_khajj,Amirul
4350881126,roni_harmoko,"Roni Harmoko Brandalz"
5696918032,alfatih.gadget,"alfatih store"
3411717409,fadlijahja,Gaps
2537520157,herlanarios,"Herlan Ompusunggu"
9234752649,jstlya,αятнυяℓσυ
5379801177,mile_socks,"KAOS KAKI BERKUALITAS"
2311784813,pritarani_as,Pritarani
7477010200,pipelbistar,Reyn
3470665814,jonathansuryo.w,JonathanS♠
6815110532,abl_herbal,"merah maron05"
8643784291,delly_business,"RIZKY NOVALSYA/WA 081273526881"
3614825451,ichang_sr,"ichang Sr."
7080581861,budihartono_mr,"Budi Hartono"
1771235120,putrabaraaa,"Dwi Charisma Putra"
8614782235,samroh_6,samroh
7706942594,indahyunita92,"Farid Athallah"
9636374327,sadar_bersama,sadar_bersama
7452048483,putrigalihkusworo,Puput/Pgk
10102238351,maybabystuff,"Legging Katun Import Motif"
1545321125,ririnsyaadah,"Ririn Sya'adah"
2310586425,ayukusuma915,"Ayu Kusuma"
3246766327,dwinandaagustin,"Dwinanda Agustin Ratnasari"
3172463966,tikaaulia14_,"I C A 🌺"
1951914364,syarief_ahmad11,syarief
3223685899,oces_,Oces
3071854963,hendrawantarman,
2054123195,gemawisnuu,Gema
1803371443,qib.tya_,"Mariyatul Qibtiyah"
391951945,cei_hasibuan,"serirahayu kusumawaty hasibuan"
2926397059,sendokprinting,jualundangan
3299731686,fatkhulhuda7800,"Fatkhul Huda"
9896631218,yelvinthe,"All Is Well.. Thank You!!"
1718195586,dewistefanny99,
1304566502,rin_safitri,"Rina Safitri"
257971239,martinmbaihaqi,"Martin.Baihaqi #5ohibEdi"
8671275918,urban_shoes7,urban_shoes
1551845463,msfirin,
2274700515,resaansori,"R  E  S  A    A  N  S  O  R  I"
10161998322,glitz.id7,"ALL ITEM UNDER 50K (PROMO)"
10421680913,jemuranistana,"JEMURAN PARA RAJA"
3551529138,susila_wahyu_nugraha,"Susila Wahyu Nugraha"
10328220204,sysstore.case,"Custom Case Berkualitas"
5714628682,agoes.karyadi,karyadi
10138347871,yusuftriono76,"abi nizam"
5585586234,maemelani,"Ma'e Melani"
1375845000,sabjugiok,"ju gyo"
2692189688,skbpawesome,"KAOSPOLOS SKBP"
5977675466,devinchallanges,"Devin outsider03"
4315835113,veronicaluckyto,"Veronica Lim"
572763869,yuliyanti_____,"Yuli Yanti"
4472896404,arsadimh17,Arsadimus
314755504,sandra_nugraha,
1557312288,ririschoy_olshop,Riris
3001109465,putra_mulya_property,"Putra Mulya Property"
10134052905,wageday.tanahbumbu,wageday_kalimantanselatan
5734176394,hainim_crtr,"Hai Nim"
6986795789,firdaayu_p,"♐️Scarlett whitening & Hwi"
6992458675,alyadida_45,Alyadida_45
1836033770,tama_store08,"TAMA STORE"
10160022155,zea388,zea
1698748677,sirilusirvan,"Sirilus Irvan Perdana Putra"
1478971578,kilat_hagni,"Kilat Hagni"
4354350905,panji_khecill,"Panji Khecill"
1392189953,anggrikdwimerari,"Anggrik dwi merari"
3495023138,septianwahyusaputra09,"Septian Wahyu S"
709082329,ahmad_wahyu_tri_utama,"Ahmad Wahyu Tri Utama., S. T"
2633238548,ajitia_17,"[BEU SLOW!!!] official™"
1815484872,shinta.luth,"Shinta Luthfiyyah"
9264971653,ryan_marp,"Ryan Bussiness 0895601868287"
10363932831,6teenstores,"SIXTEEN STORE🔖"
5483612021,kang_ujeng_,pemuda_hijrah
599154481,hadiwilli,
4706779219,enosruru,"Samuel Jr."
9995864534,waasgar,"Wasim Ahmad"
7740305433,ayu.andira6699,"Ayu andira"
1774411542,ujangyudha,"Ujang Yudha Prayoga"
8723276533,hayyindonesia,"Follback ? Dapet Cashback !! 😱"
5872409919,seirakaksan,"Seira Kaksan"
7889440758,edsel_lobo,"Juwata Oscar Edsel Lobo"
2908193673,adra_paat,"Adra paat"
10159169858,kopiirenglampung,"KOPI PREMIUM ASLI LAMPUNG🔥🔥"
10391202818,surmochamad,"Sur Preneur id"
4188252148,uphiidr,Kenny
8679633797,andre_vantastic,"Andre Van Tastic"
8652059026,ryvaldooo,"Ryvaldo Galang Maulana"
1635491106,rahmitaputrioktavianii,"Rahmita Putri Oktaviani"
8030000755,noviyanti_seli,"Seli noviyanti"
1577145704,rismayani_n,
1566315289,iin_mayanaibaho,"indramaya fransiska naibaho"
8104376908,healthy.bwi,"AGEN RESMI KUTUS KUTUS"
6123266965,vyanisty.fans,"VIA VALLEN💕"
10261514789,al_is16,al_isfahani94
9818971,andreeeman,"Yudhi Andree Eman"
1811334393,yusuf_a.d,"Yusuf Aryadilla👣"
4572360080,chandrathebest3,chandra
6697061000,yneina,Lalala
10326095166,runteaaaa,
2271756295,bajuanak_lucumurah,"Home made KEBAYA"
10423376629,cactus_buketbunga_,Cactus_buketbunga
1989933588,sarah.agust,"Sarah Agustina Tinambunan"
233517600,amalia.prabowo,"Creative Parenting"
3556943295,fanizaaningrum,"Fanizaa Ningrum"
1391411322,naibahosumi,"Sumihar Sismayanti Naibaho"
3881771600,iswa8023,"🌸iswatun hasanah || اسوة حسنة"
337590280,luthfykahar,LK
1776037316,bestcom94,"Nur kolap"
2938038159,quraisin_11,Diyyaquraisin
1208920806,jessicakussuma,"jessica kusuma"
4939829899,sartawijaya398,"Den ucill"
2290245643,putrimaulidyawulandari,"EKPRAS ♥"
3434293955,maya.mimil,"Maya Kamila"
2319796711,angeline__cecilia,
1040906892,aldofrandinata,aldo.
9883002586,suksessejahtera2ndshop,suksessejahtera2ndshop
1425289237,ahmaddairobii,"ahmad dairobi"
8131769744,cicyariestha_lestari,CAL
8376127184,viralposs_com,"TOOLS INSTAGRAM VITGRAM"
8732203068,sanzdeemoline_4ever,SanzStore
3088906050,hasbijon,nurhawa
7038188442,adhie_1979,"Setiadi Nugroho"
6351748259,chachannisa12,"Annisa Fitriani"
4292362725,aleanasaphira,Aira
6107850277,hyungtin_,"""Tiana Margaret Dakombang"""
1307578588,atiku_batik,"Ari K Swasta"
2278572249,akbarghiffary,"akbar ghiffary pahlevy"
1033140730,___adreamer,
6423217453,obhyn1995,"obhyn 1995"
7659774312,ardhiyawanjhiww_,Ndiooo
4264117039,sokhibikhahmad,"Ahmad Oki Sokhibikh"
7750415965,beyzhagulseren,beyzhagulseren
9160524574,fansustmanbinaffan,fansustmanbinaffan
1545525816,bennyvinot,Basabasiisi
2229818805,falahesutar,"falahe sutar"
6138671887,wiwatama,"Wiwa Tama"
4277196189,nurhestylestari,"Mrs.Ardiyanto 😘😍"
3289656335,ladzfz,"Allah 🌷"
5023569751,razali_aslam,RAZALI
9051022463,rioalyrodhi_,"RIO A.R"
2321593511,darmawan.rizky_,"Rizky Darmawan"
5606834280,grace_siahaan_,"Grace Samantha Rebecca💦💦"
2144345956,ainun1799,Ainun1799
1578995107,melinurhayatii24,melii.n24
1490507414,krisnawanto.ir,Krisnawanto
7943554752,trueloftystore_catalog,trueloftystore_catalog
7293107783,kamil_alriyauwi,"Muhammad Kamil"
1652994981,arniatee,"Nia 🌿🌿"
9271785160,widyaa.silvia,"Widya Silvia"
1069272423,poetrisi,
4655289756,humairo_ira,humairoira
1344172098,bunga.satiyana,"Bunga Satiyana"
8214042547,dwi_yanti7718,yjk987
33131653,arhamsvin,arhamsvin
7843752136,sasyaya11,tasya
1719364926,wijana_kadek,"Kadek Wijana"
645692408,rizkiinaaa,Nabilla
3597893963,niidhom,Nidhom
2903775528,iam.fiaa,"N A F I A A F. 🌻"
5050392603,ferrychang10,
4928007347,ammar.bayu,"ammar bayu"
656043416,aishasabrinag,"Aisha Sabrina Gustian"
7309531985,leaftadeparfum,"Parfum Original"
4215437928,kumss.mask,
3440955016,jasatambah_follower_tertarget,"PROMOSI EFEKTIF DI INSTAGRAM"
411213240,nurjannah01,nurjannah
360633625,isyeral,"Izhye Etha"
4224916310,the_jait,"Yungkie The Jait"
2318575762,syifarofiatulhikmah,"Syifa Rofiatul Hikmah"
1366755236,angguny_,🍉
3575175804,unungkrisnawati,"unung krisnawati"
4682151248,fatimah_riz,"Fatimah Rizqi"
5800626020,fermanabery,"bery fermana"
694284761,pradipta020,"Pradipta Indraputra Wibawa"
9158463148,dubest.co,"CUSTOM CASE HiTECH JAPAN—"
1921837401,arifhartama,"Arif Hartama"
1467242659,marininurshabrina,
471531573,al.vrz,"THUG LOVE"
6758894539,berbelanja_dengan_jimat,"new price🎁🎁"
3512665376,anddav99,Handi
1504551209,aguspramanaputra96,"Agus Pramana Putra 🔵"
4010930674,sofyan8561,sofyan
1139383626,antonius_awang,Antonius
295295289,anggijasica,"Anggi Jasica"
2220228954,ratudklmnopqrstuvwxyz,"Ratu Dwi Kinanti"
10195551653,yasminalia17,"Yasmin Alia"
2220112702,angrianasafar,Angriana
9463441606,solehrahmat47,"Rahmat Solihin"
9389562165,jehafira,rara
9458322185,madu_alhuda,"Toko Madu Al-huda"
3211035988,indostudy,Indostudy
1096820217,frahmatunisa,"Fitri Rahmatunisa"
8686910266,casingcis.co,"Custom Case Terbaru & Terbaik"
8018139079,pagipositif,"Pagi Positif"
5778353928,bajupolos_bali,"Baju Polos Bali"
1633565194,jud.id,"Juhdi Al Farhan"
521635061,dhiskaraffasya,"Dhiska BaLya"
9439664925,liolshop_17,"All Olshop"
5490901149,martianuraini_,Tiaaaaaaaaaa🐣
10237577636,educationandbusiness,edub
1612430010,chadsihombing,"Ricad Michael Sihombing"
481755179,trianayy,
4650101116,nahrulhay,"محمد نهر الحياة"
1382815673,mawarvalent,
3016230473,syahhanadwika,Hana
917940647,andinigbr,"Andini GB Ramadhani"
10251019275,edwinjauwena,"edwin jauwena"
4511391089,pinahijabsyari,"Pious, Inspiring n Adorable"
4907717423,saltexecutive,"Salt Executive"
7278309883,inirayen_,Rayendraheinzprasetya.
4923283533,sssongkonic_,Kpopers
9467275435,ameenadigital,"Ameena Digital Brand Comm."
3318247566,gitar_akustik_olshop,"Jual Gitar || Toko Alat Musik"
240301402,nadiaputih,"Nadia Putih Kusumaartanti"
1905895382,luthfi.e,"Muhammad Luthfi Ni'am"
10399705954,putridindaasha,"Putri Dinda Asha"
4531259403,mahesa_azaria,"Mahesa Azaria"
8889724138,tawalliyah_01.13,syifanians
4727055719,shinshin.ta,Shinta
9130969897,ana_siti2,"Ana Siti"
6073704753,syietah27_,"S I T A H"
9374614941,southneast.coffee,"southNeast Coffee"
4780248003,novianakbar99,"Novian Akbar"
4166166216,prelovedprice,Prelovedprice
8936973508,kaoscustomkuta_,"M I L L E N I A L"
10370164121,inafatinadewi,"Ina Fatina Dewi"
10410744749,jujun822,"Jujun J"
1987911237,teguh.taqwapreneur,"TEGUH PURWANTO"
10261881407,tegar_dropnshop,TegarBagoesPrasojo
2030245731,leli_siska,"Leli Siska"
2297863156,hamalia_q,"Hartati Amalia"
9199577971,thexerumcorp_id,"THE XERUM CORP"
4203697607,meiliana_anugrahni,"meiliana anugrahni"
1488796355,aqliyaah,"Rosifatul A"
8915981283,nnhfannn,Nanaa
180897742,twamarullah,"teguh amarullah"
9264343995,alfariziemachmud,alfariziemachmud
1705726854,nurdin_starleader,"Bantuan & Informasi"
10415896373,hoola.marketing,hoola-marketing
2026299462,choirunisaalvita,"Alvita Choirunisa"
8321331285,ayu_tingting_092,"Ayu tingting"
3152746153,rajointan123,rajointan
1738347856,evidesignvisual,"👩🏻 Evi Pratiwi"
1537477119,biskaummupalestine,zaujatuArief
8300132141,ayu.ting.ting092,"Ayu Tingting"
8571372595,echaagustin_,"New Ig"
3686306367,rima.riandari,Rima
3257129648,riana280400,"Riana Ekawati"
9013022886,ziziebintuidris,"Zizie Bintu Idris"
4316098932,ikhsandugiii,"Dugi ikhsanudin Noorsy"
3054794586,komunitasyes1,"KOMUNITAS YES"
5516949655,rezapahlevy1921,"Reza pahlevy"
10335182149,infolokersingbebas,"⚜ LOKER SINGBEBAS ⚜"
9375031035,dokter_ferli_herbal.id,"TERMURAH + FREE ONGKIR"
7304768250,muhammadfaishal02,"Muhammad Faishal"
7038867569,mansungroup,"ManSun Group"
399800065,mola.me,"Siti Aminatul Maula"
9181418542,ar_7667,ar
6288035633,andretano1980,Andriyanto
9862941621,matiasjemalut,"Matias Jemalut"
7727724114,wasekofficial,@sirojkw
4799605817,dianlia8999,
10157009329,belijajanjakarta,"Beli Jajan Jakarta"
1904862002,poepy_bussines,"POEPY_BUSSINES/ Agen Kuota"
299177286,rinalrinal,Rinal
198231004,urskin77,UrSKin77
1817681301,canjikhu,Canjikhu
1562384502,naufal_bintang12,"Naufal Bintang Akbar"
5399971002,fadila_dilala,fadilah_17
10010834337,roseries.shop,"HOMESTORE HIJAB FASHION"
7117080621,larasati_regina00,"Regina Larasati"
3433406993,athovesggio,Cacing'
6673989622,sendaltrendymasakini,"SENDAL TRENDY MASA KINI"
1300073710,rahmiyunisa,rahmiyunisa
7006207521,kurniangga_avi,"anggabrtk_ _"
1673880505,dadisaputra,
3250024921,bingkai.picturecinema,"BINGKAI WEDDING"
8666822451,tom_motor0606,tom_motor0606
1530074456,veggi.ac,"Veggi A Citra"
4090795418,asr2398,ASR_makeup
2646424499,wargasehat,Bisber
1060008943,muflih_shohibul_migfar,"Muflih Shohibul Migfar"
3991507601,ripai_harahap_,KAYU
589201077,januar_adi,"januar adi saputra"
1451539926,igded,"Dedi Apudin"
2221729706,fadhl_yinvr,Fadhl
5819264672,odep_depita,"devita anggraini"
10191647291,semarangsaladbuah,saladbuahsemarang
10383256110,logorapi,"DESAIN LOGO BERKUALITAS"
1548442006,guzzleco,"GUZZLE IS BACK"
1735468631,monkey_delight,
5115453215,nrydn01,nuryadin
8903164686,nofrijunior5265,"nofri koto"
2276144933,rossa_nadhifa,Rossa⚘
8376010455,okeshop.ladies_luxury,"supplier barang barang import"
3923649909,natella.id,"wedok ayu"
1488297803,meythapiskandar,
7292795784,rifkyparadise24,RIFKY.SA
1943871473,vigihsaputra,"Vigih Saputra"
4612040370,asman.yangking,Asman
527051488,lenycathryn,"LC Parapat"
2257628020,okta4171,"Okta Viana"
551127415,titarostinai,TITA
215775926,noviantinurul,"Novi Nurul"
1472225325,ekaarin_,SOC.
6820648599,kezverlanolshop13,"kezverlan shopping"
6770171174,khuncorojo,"KhuncoRo Cucun"
1462643878,lale_atiek,"cahaya hidayah 🙏"
6001129155,vinadevila732017,sA
5513681983,dinda_amabel,"fulltime traveller"
575387811,antotang1,"Anto Tang"
3079954843,yudikalfi,Yudi
9531569168,weolshop_17,"Real Account Olshop"
7840379,asfales,
7181309809,melialavivi,"vivi meliala"
8214558169,dwiepolo,"Dwie Polo"
2988856394,davidsan6688,"David Santoso"
2015848559,wespernah,"Putra Kelana"
3866948563,mingxia1010,1010
2027671985,eka_arimbi,EkaRahmaSantyaArimbiSembiring
7905178849,wendisaputralp,wendisaputra
8575557182,hd_masker,"H&D masker organic💆"
650080107,faizal_nur,"Faizal Nurrohman"
5394575755,hikazoracokelattegal,"Produsen Coklat Huruf Karakter"
3443805985,wawan__aw,"WaWan AW"
4759942830,al.bersto_57,AlberstoIwanggaHandoko
243574242,sirun.21,Sirun
3027635882,maasaa.xu,"undangan digital invitation"
4852127783,banet01,Fy
6970781041,demasjodieyose,"Demas Jodie Yose"
3571189160,awindha_,"winda triani"
8891727523,nyongvespa,"Vespa Matic Purwokerto - BNA"
1450259116,rahyonopermana_,"Rahyono Permana"
4368166268,lia_aswan,"dharmalia safitri"
7277499445,pahrulawang,"Pahrul Awang"
2127453903,ely_pamkin,ely
9973395209,galerinyafia,"Alyfia Aqilah"
10376010819,nasaf99,nasaf.project
3040825245,riizapradana69,riizaprdana
2930389792,tripod_photovideo,Tripod
9848601532,ilham_qoyum,"Ilham Qoyum"
3142818386,aldiramdann,Aldi_RamdaN
9288287413,madkoscustom,"Ready Custom Case"
7182294772,babygeong,babygeong
4578441520,zaenal_hasidin,Zahas
1814371527,desiyanti_rifayani,"Desiyanti Rifayani"
307953035,fenyveranica,
10349963969,putrigiska_23,"giska putri"
2897223244,iyung_gayego,"Iyung Gayego"
1938244081,azriel_101,Azriel
10254512602,edhy_fly_olengg,"Edhy Nhur Triwiyanto"
2003228358,alfiana_selfi,"S E L F I A L F I A N A"
7247137387,kzm.arief,Ken
4636625742,nhallm_ur,urnhalla.sradja
8125160881,dcloveme_1416,"D e s i"
8599200055,dr_ahmadridwan,"dr Ridwan"
6514277404,ovietsa_queenestaofficial,-etsa_ovi28-
4108801406,anofa_style,
7054288395,infobongkasa_,"infobongkasa BADUNG BALI IDN"
9993439787,tiapdetik__,"tentang rasa dan karsa"
9999339795,maskerspirulina.baik01,"Masker spirulina"
5822309112,quarinafp,"Quarina Febrially"
1478679127,retyannisa,"Rhea Rahmawati"
1397112257,vinarosamutiara,"Vina Rosa Mutiara"
4141537271,audreyunyil_,nyilll
441371668,devirans,
8509877046,susilokece51,Susilo
6059117444,anggistr778,"Anggi Satrian"
9441651469,sherlockhomless11,sherlockhomeless
4113795205,joulied,"Joulied Widianto Syauqina"
3254485738,litasyahniaa_,"L 🇮🇩"
10262913828,devoazhari,"Devo azhari"
1902125422,mohammad_fajrin17,"Mohammad Fajrin"
10334709965,anugrahamong,"anugrah among siswi"
5452101695,wahyu_toray_bangkok,"Wahyu Sulistyo"
6505590647,rikhaalsan,RikhaAslanHadi
1724339644,syahnasqa,"syahnas istiqomah"
3574917283,rismaayunovitasari,"Risma Ayu Novitasari"
8305853474,richefitriaakbar3112,RICHE
6262855371,lilz.aprct,ra.
8487605484,muhammadyunus100,"Muhammad Yunus"
10193475539,gazalbarari,"Gazalbar Ari"
10149265002,lombok_idjo_,"Lombok Idjo"
1187022483,tiaratir97,TIARA
4458649759,zhralifah,"Zahra Nur Alifah"
1682574262,makmur_syahputra_saruji,"Makmur Siagian"
9611717182,tatik7635,"wahyuni tatik"
1515921036,putra_jambi69,"P U T R A"
9160470338,adekgembot,adek
5882811453,okta.komaling,"Okta Komaling"
435646298,priscillaerlina,erlina
4673254786,patrick_rifai,"fahrur rifai"
10266098259,moodgirlss._,"CEK INSTA STORY✨"
6591002673,rahmat_prudential,"Rhmat M | Prudential"
4830738314,winny_stefanie,"💖URI ARMY💖"
1522727405,tanti_rini,"tanti rini"
6606472835,uchydoang,"BELAJAR BISNIS ONLINE MUDAH"
816921909,monadiaaa,Monadia
6680037545,nina.kamil,"Be a good person"
8038762563,fikri.imansyah,"fikri imansyah"
6501820609,shirt_you_want,"You should grab it"
9375314746,_misbahsirrait,"HM misbah sirrait"
9042573084,hirukoazimi_zepeto,rukooo
9373835085,yellowhates,
10000199903,gacul_smg,"BISMILLAH BERKAH 🙏"
3444890885,bungafluffy,"bunga fluffy"
10117231066,riski_0421,riski_042
2415480294,sekar_mowopanuluh,"Thomas Synyster"
3023108039,adhyyanwar,"Adhy Yanwar"
2305681545,mr.louis93,MR.LOUIS
9987151659,jmy_jmyy,jmy.jmy
10320270832,agussupriyadi330,agussupriyadi
1926722596,evicitaaprilianti,"Bunda Aufa"
9000166022,badardarusalam,"Badar Darusalam"
4778749648,syafaacollection1,SYAFAA.collection
8783714128,rsyihan21,
1337985340,deliahnura,Odel
7405091403,___ratihhhhh,Ratihfardhilah
9692987337,crazyapple.design,"Crazy Apple Design"
1171082462,mynameosa,OSA
7479890278,yhanieuchie,"Yhanie Uchie"
9307432000,digitaloptimizationacademy_doa,"Digital Optimization Academy"
7477719098,ketutsagunan,KSN
10343013067,hikam_case1,hikam
5800337364,rafif_syah46,"rafif syah"
9998559603,taufiqarrohman68,"Taufiq Dunia Sabun"
1446298515,zahid_anugrah,"Zahid Anugrah Pratama"
375536088,parasechy,"DESY PARASMITA"
6084861690,batagor_siomay_kang_melvin,"Batagor & Siomay Kang Melvin"
18432204,wangkycom,Wangky™
1273469039,derrydessyany,"Derry Dessyany"
495113562,abizar_azka15,azka
1483052191,agungwahyudi_17,"Agung Wahyudi"
10408744800,himmamahi,himhim
6473250044,yuni.triani.7902,"Yuni Triani"
9276137439,raadeennnnn,
1740367347,toni_jupnt,"T O N J"
6532849591,ulan_4819,"ulan machdalena"
3111427569,fachry_fr,Fachry
190068066,fajarrdwij,Fajar
3991318786,itsannisaa__,Ans.
9399570169,grosir.perhiasan.315,"Grosir Perhiasan"
2048837582,hannyeggsy,Surihani
641784468,destianaf_,"Destiana Fitriani"
1718546026,annissa_ulfah,Atsuko_Rui
3442005073,si_senjaa,"Sinus Cosinus Tangen💙"
8758013791,khoirianto_hasibuan,"Khoiri Hs"
1316451487,ranasaryy,"Muthi'aranasary Permadi"
4864259460,yusuframlan31haurabakery,yusuframlan
10194039117,pembacamilenial,Ardiansyah
5796575756,karyadihanif,"Karyadi Hanif"
1695345405,argeomerta,"Argeomerta Lisva"
9215774702,buttonhole.id,Buttonhole
8751202603,cuppycake.red,"Deca Rax"
6076098990,m.putraryandi,"رين ذ"
9033213807,xx.avs,
6334983296,gerai_lukisan_bandung,gerai_lukisan_bandung
9408848918,nazrilalia,nazrilalia
3934299468,riniandriyani2510,Riniandriyani
2107857113,isma_wt29,ismaawt
2172925088,agungsobarudin,"agung sobarudin"
5372754449,alisajus2020,"Sari Lemon ALISAJUS"
6258561620,wahyudi_0103,Wahyudi
6438861377,anchaa.k,"kolom. 07"
4248229060,tazal_esquilado,"ultramen bngst"
9874638469,silvia__bussines,"🛒!!!DATABASE ONLY 50K!!"
1522625498,davitkayono,davitekokriscahyono
2316461192,nanda.paytren5758,"INFO RESMI DAFTAR  PAYTREN"
6741395365,info_harga_makanan,"info makanan,tempat 'n harga!"
9635048321,sansan_nirrol14,"sansan nirrol chisan"
2256374863,cecilchan_chan,"Cynthia Cecilia Chan"
7192615904,essenzo_update,Essenzo
1414965214,agusnyomano,楊順全
415302225,sayaaci,
10014506772,ritasinergy,"Rita Leader Sinergy"
415134744,ratna_widie,ratna_widie
9141425849,rofiudin_subekti_new,"Rofiudin Subekti"
1471636373,rahmi31,"Rahmi 🐾"
7066704694,arif.efendi23,"Arif Efendi"
7230816312,nadia_kinanti_8383,"N A D I A  K I N A N T I 🇲🇨"
5605096031,kripiktempe.momon,rumah.alit
1714751584,dea_kurnia3,"Dea Kurnia"
2096100343,putrizunitaa,Jum
4987144911,uniqloo.shop,"TASBIH DIGITAL BANJARMASIN"
640779782,kumalaaratih,"Kumala Ratih"
5385217991,asyh97hadi,"Gus Hadi"
4339609876,hasansanza,"Hasan Sanza"
8941300824,sobadbigo,"SOBAD IT'S GOOD"
1392042287,evaanmp,"Mandala Putra"
2134518419,fernandosuryana,fernando
4167859534,ayamamang,"Aya Mamang"
3227279846,tangguh_ibram99,"Tangguh Ibramtama tanur"
10187031442,mfarrassh,"Muhammad Farassah"
10340045236,belajar_kaya,BelajarKaya
6739720800,rinaisriana,rinaisriana98
10337452466,herypaytrennew,"MENTOR PAYTREN"
6950443254,pratiknohemi,"Hemi Pratikno"
784811443,totok_adhy_s,"totok adhy s"
4980842429,blog.me.af,"Positive Vibes"
10349843709,catatankelas,"SEBUAH JURNAL"
3167059284,ulultufl,"Tuflichatul Ummul"
2206297247,m.sauban_maulana,"M.Sauban Maulana"
9740726209,haloikhbal,"ikhbal nissan_datsun_cirebon"
3098274730,masketer.std,"Masketer Std"
10233363085,cccsintap,sinta_23
7561013021,panjiletkol,"Jin Kazama"
1188585324,eko_sunaryo,"Eko Sunaryo"
9464806599,rumah_apartemen_kios_ruko,"Rumah Apartemen Kios Ruko"
4400229481,noob_forious76,@Ridho_Pratama76
2210876089,ghaikhal08th,lae
1457234497,moo.ni_93,
4770644838,ripki6128,"Ripki Muhammad"
7508704854,fortaliana_art,"F. Art"
455854682,dyaschasbi,dyas
10371840559,nisaajh3,Nisaajh
174034454,billpambudi,"𝕭𝖎𝖑𝖑𝖞 𝕻𝖆𝖒𝖇𝖚𝖉𝖎"
1323674064,nugrahasimbolan,"Iwa Nugraha"
4120375004,herry_palar,"Herry Palar"
1273833764,faisalduro,FAISAL
291096459,tasyaviaq,"TASYA RABILIA VIAQ"
3642435915,jamtangan___id,"Jam Tangan ID"
3509948277,danizaelan1,"Dani Zaelani"
5707390105,andre.wb.984,"Andre Nangin"
1276068290,littlebunder,"sepatu anak , baju anak"
4553253940,haghest,haghest
2048048932,nivla_suitomit,"alvin timotius"
10250562958,ruangmodee,Dia
3516759812,dewisetiyaningrum_,"Dewi Setiyaningrum"
4632419167,bordir_facth_custom,"bordir custom"
9379377028,rumah_sehat_hni,"rumah sehat hni"
6018551101,dinista_store,"KONVEKSI BAJU MULAI 30.000"
6235668114,ronnyarianto777,ronny
7011921091,ns_mahendra,ns_mahendra
8300331957,rumahmurahkpr_syariah,"Rumah murah tanpa riba"
10182471745,mazayadermalogy,"Mazaya Dermalogy"
277554001,hasliamargareta,"Haslia Margareta Kabri"
8772905417,widodo.98,"Wid wst"
10341933092,grosirretro,grosir
5972408993,ahmddnielprtma,"d a n i e l"
7929416350,simamoramintaito,"minta ito simamora"
6546541538,adesusan_a,"Ade Susan"
2089020669,nisrinanfj,"Nisrina Nurfajriyah"
9778915352,abdul7644rahman,"Abdul Rahman"
8983972648,rita_rusnaeni_321,rita_rusnaeni
5566395485,egi_lesmara,Andromeda
5924151292,ayudyah230788,"Ayu Dyah Prastiwi"
270167813,bid_ardian,"Bid Ardian Rainbow&Cloud"
3700039180,febrianaindrapratama91,hny
3574446401,dannysurya13,"danny soerya"
6197283285,llynda_ningkiita,@LLynda_Ningkiita98
1717909875,akbar_riezky,"Akbar Riezky F"
1520019840,desi.dwiyantii,"Desi Dwiyanti"
664648976,ahmadfairamdi,"Muhammad Syafii Ramdi"
47056681,danang_wija,danang716
4271959009,dezalinadzul,"ADE ZALINA14"
10333357476,hanifacasing,"Hanifa Casing"
9217602960,tosebaku,"Toseba Toko Serba Ada"
1782362267,ekaa_junior,"Eka Maylinda Damara"
48636478,afrio_naldi,afrio_naldi
10383466070,syahru_custom,"syahru aneka kustom"
1738408660,celty.dullahan,"Ayu Puspita Sari"
343716155,yulian_arif,"Yulian Arif"
6643957607,irahadi_winata,"Irahadi Winata"
10209925111,sari_skincare_ganesh,sari_skincare_ganesh
3741073840,amal_dobleh,"Muhammad Fatkhil Amal"
9476435007,tedygawoh3,teddi_wijaya3
2094546414,rah_krisna85,RahKrisna
9611759103,kimkamal70,Kamaludin
1688737457,renaldiagus_,renaldiagus.a
9275064413,nengazagtloh,"neneng sunarti firmansyah skom"
2112415592,dea24_92,Dea
2296629690,anggautdarmy,AnggaUtd_Army
9414969000,syaah_aisyah34,"Siti Aisyah Berlianti"
3953967139,miss_indha,indha_saja
9544292998,ifixed_store,"Apple ifixed'"
5729341321,alvinchristico,"Alvin Christico"
4005959542,hulk_holden43,ውሾች
3974555179,yoyohxbineni,"Kntl yayu"
1393030644,ilhhhham,"iLham Iskandar"
2201970828,adisetiawanrico,rico
9753054565,fz.custom_stores,"FZ Custom Stores"
3143079684,desi_hartiawati,~desihrwt💖
8571928795,si_cakmat,"Cak Mat"
5583873404,meisechenn_,"Meise Chen"
2028906457,novyarisyanti,"novy arisyanti"
657059789,harris_fadillah,"Harris Fadillah"
7220167243,ijep06,ijep
3574735339,silvira_apria,"Silvira Apria"
7351969665,nu_skincare_samarinda,"Nuskin Samarinda Distributor"
10351411776,galery.id19,Galery.id
2336109267,tania8587,"Tania_____ tan"
1219526767,imahshine,"Halimah Assadiyah"
6881188846,ghazitri19,"Ghazi Gunarso"
5635610585,nadiakanisa,"Nadia Khairunisa"
9842105988,ayatquotes,Ayat_quotes
7937292903,humairaelly,"Elly Humaira"
4471283652,3ko_cikidaw,"Eko WaK _WaW"
10356531071,upcustom,upcustom
10403672092,yaudi.yaudi,Yaudi
8410201658,wardanaarga,"Arga Ditya Wardana"
5568933765,whisnusetya,"Not disturb"
2236512627,nursepryanto,
4019136328,rizalsyafii81,rizalOI
1125950693,renaldyambarita,"👉Renaldy Ambarita👈"
