Userid,Username,Fullname
4869918440,aseprohimataja,"Asep Rohimat"
3273732133,satrijo4128,wisnu
3210236890,albertusharrysitorus_,"ALBERTUS HARRY SITORUS"
2093024663,momod_26,momod
1665374926,ahmad.matin.90,"Ahmad Matin"
1593190396,duskystore,"official of dusky store"
104855901,diiim_,Lさん
9376948702,myourcitrus,"Available Stock Directly Sent"
4795578772,freftina,"Freftina Sari"
4355933404,cs1duskystore,"Duskystore Csone"
2896644682,putradr25,"Putra Delyarahman"
1933922687,robex_arm,robbymaulana
1105489599,nov.viavia,🐜
4877686484,naufaldyahmad_24,
2000060918,orbitmanik_,ᴼᴿᴮᴵᵀᵐᵃᵑᵢᵏ
220711400,wartika.7,"Mohammad Wartika"
3544360932,rifqiakmll,"Rifqi M. Akmal"
187618017,keziamelia,"Kezia Panjaitan"
2256029597,qianaleather,"Qiana_Leather Purwokerto"
1821390924,reza.artasya.id,Muh_Rezha
347115481,hanifhayaza,"Hanif Hyz"
6335567111,lintangsaricirebon,"Lintang Sari"
1952625956,yayah_wibi_priati,Wibi_1795
8759726406,aegisdigital,"Aegis Digital"
8355427990,serootooninn,
11789859819,edistore.custom.id,"Produk Custom Desain Suka-Suka"
5026837868,windra0110,"Windra Yunus"
6820944790,orson_bkg,/ahmadzignori
1458790763,khadafi_muhammad25,"Muhammad Khadafi Abubakar 🇲🇨"
3832654591,inapraptiwi,Inapraptiwi
1961056629,ryanriefky,riefkyryan26
4955543428,andiksetiawan129,Andiksetiawan
1171534637,ahmadaswadi,"Ahmad Aswadi"
7714266534,bajumuslimahkekinian_sby,"Baju Muslimah Kekinian"
6426941813,kiranahijabee,"HL,KLAMBY,DITSY,PULCHRA,ISH"
1674455925,budi_2nd,"budi syahputra silaen"
2064745194,ryanrandi31,"Ryan Randi"
8029692787,fazril25_,fzrlprjynt
9233670738,dwigiyant,"Dwigiyant amartya"
2106416376,muhmdfauzii,"Muhammad Fauzi"
5581719547,uchy_29,"Yusri La Buja"
2536258839,andreas_0807,"Wave 125"
242578637,timotiusadit_,"Timotius Aditya"
5577636104,triantianggr,Ntri
421727474,pie2nk,Piepienk
1541062231,ilham.pn_,"Ilham Puji Nugraha"
8745703137,silindung_motors,"Parlindungan Malau"
8040886901,ferry_filantoe96,"@Ferry filantoe96"
11790140860,kocaknurizal,"Nurizal Kocak"
1478692359,ardysulistyoo,"Ardy Sulistyo Putra"
