Userid,Username,Fullname
3620822085,knockoutsales,"Adam Weiss"
9468030585,schurz_a644b,Schurz
6423714535,shofie_herbal_15,TERMURAH+TRUSTED+FREEPOSTAGE
3273056663,herman.yudiono,"Herman Yudiono"
10930735436,spirulinatiens.cikarang,maskerspirulina
7879133913,tamimsoffan,"soffan tamim"
4134043050,halim9628,"Joe Halim"
3109176252,ricksonhwi,"Rieckson Marbun"
6233853573,agus_mujiono7558,"AGUS MUJIONO"
11540879650,pinjaman_online67,"butuh dana"
6078432949,mika_heijnen.fan,
296638853,captluqmanhasif769,"Just call me "" Capt "" 👨🏻‍✈️"
6117880457,border.beauty.usa,
6310229884,firsttrading,"1st Auto Trading"
10564186853,chasey_dc47c,25356
2381941284,cokors.id,COKORS.ID
8399458166,meydafa,
1827188594,ritayunepol,"Yanurita Siwi"
2027474306,wildannursyamsa,
1364151303,aloy_ho,Aloy
4156326364,garamramsol,"PT. Ramsol Garam Kristal"
7637074093,akmalhamidr_,عقملا
4300731072,aziz.sheftian,Aziz
6394174824,rockinkoper,"Rok Slokar"
8930516199,__ikhsan,
3154124950,celloprojectkediri,"Cello Project"
7401575804,nurfatimah_anisa,"Anisa Nur Fatimah"
11123359134,lamonganhijabmurahku,"Meicha Shop"
1540160124,thehaniframli,"THE HANIF RAMLI"
8947142868,sipetek_juara,"Sipetek Juara"
1698554807,yoisoweb,"Konsultan Internet Marketing"
9990736107,imelda_aufareza,"Imelda Reza"
1738662536,eid_lahidjun,"Siti Wilyamti"
11421925922,mytravelmydestinasi,mytravelmydestinasi
5728990308,dicky_1201,"D I C K Y"
8452308429,greene.piece,"Greene Piece"
10450012192,mariska_tsuga,"mariska anitsuga"
9294155160,jay_adi7777,Jayadi7777
10389055228,pomponio_7365d,41CD7
1733986428,bektiutomo_,"BEKTI UTOMO"
4030476970,balekayoe.co,"BALEKAYOE FURNITURE"
5660583169,iambendavid,Ben-David
1493693938,jopbps,"Just ordinary people"
178238664,lesmanaoka,"Oka Lesmana Putra"
2779295047,kenmuteki,"Akhmad Fauzi Afandi"
5436585025,singgitklemens,"Singgit triwahyudi ♐"
10593557531,bunbun.kukkii,"makanan homemade"
11615504044,kalimasidoarjo,"Kalima official Sidoarjo"
3603449120,hanhaveg,🐴наnна🐴
6961278719,tanisha.605,tanisha(chikku)😘
