"Nama Item","Url Item",Harga,"Url gambar","Username Toko","Url Toko"
"Casio Baby-G BA-110",https://shopee.co.id/casio-baby-g-ba-110-i.123428609.1897233559,705000,https://cf.shopee.co.id/file/b4f289a9385783e07feab6278ca0797c_tn,ampmco.id,https://shopee.co.id/ampmco.id
"Casio Baby-G BA-110",https://shopee.co.id/casio-baby-g-ba-110-i.123428609.1897232955,705000,https://cf.shopee.co.id/file/773736df517a0e6f3d9d76f119595689_tn,ampmco.id,https://shopee.co.id/ampmco.id
"Casio Baby-G BA-110",https://shopee.co.id/casio-baby-g-ba-110-i.123428609.1897231542,525000,https://cf.shopee.co.id/file/690b4dd28311e311bb27d398c390996e_tn,ampmco.id,https://shopee.co.id/ampmco.id
"Casio G-Shock GG-1000",https://shopee.co.id/casio-g-shock-gg-1000-i.123428609.1897229494,705000,https://cf.shopee.co.id/file/23c6dfcf9363513ec21f948f3b43bd13_tn,ampmco.id,https://shopee.co.id/ampmco.id
"Casio G-Shock GG-1000",https://shopee.co.id/casio-g-shock-gg-1000-i.123428609.1897228752,705000,https://cf.shopee.co.id/file/0903f12dd66452793344ce9e89ed7d3a_tn,ampmco.id,https://shopee.co.id/ampmco.id
"Casio G-Shock GG-1000",https://shopee.co.id/casio-g-shock-gg-1000-i.123428609.1897228207,705000,https://cf.shopee.co.id/file/356e07a97702d912171f225cb417591c_tn,ampmco.id,https://shopee.co.id/ampmco.id
"Casio G-Shock GA-110",https://shopee.co.id/casio-g-shock-ga-110-i.123428609.1897226353,505000,https://cf.shopee.co.id/file/858ee9d45376b5aa54b77629be8d8771_tn,ampmco.id,https://shopee.co.id/ampmco.id
"Casio G-Shock GA-110",https://shopee.co.id/casio-g-shock-ga-110-i.123428609.1897226001,505000,https://cf.shopee.co.id/file/78543d03981ae508d5a6e4a1f02e0a90_tn,ampmco.id,https://shopee.co.id/ampmco.id
"Casio G-Shock GA-110",https://shopee.co.id/casio-g-shock-ga-110-i.123428609.1897225684,505000,https://cf.shopee.co.id/file/0fa93b370595b0fbb998622b08ef08f4_tn,ampmco.id,https://shopee.co.id/ampmco.id
"Casio G-Shock GA-110",https://shopee.co.id/casio-g-shock-ga-110-i.123428609.1897225201,505000,https://cf.shopee.co.id/file/5e7921accc0853f74fe44c019e7fb1dc_tn,ampmco.id,https://shopee.co.id/ampmco.id
"Casio G-Shock GA-110",https://shopee.co.id/casio-g-shock-ga-110-i.123428609.1897224865,505000,https://cf.shopee.co.id/file/0510b12ed6acfda1ef37d372d7d1ca2b_tn,ampmco.id,https://shopee.co.id/ampmco.id
"Casio G-Shock GA-110",https://shopee.co.id/casio-g-shock-ga-110-i.123428609.1897224289,505000,https://cf.shopee.co.id/file/d7e4fdc649e7466d5e083ee68f8f023d_tn,ampmco.id,https://shopee.co.id/ampmco.id
"Casio G-Shock GA-110",https://shopee.co.id/casio-g-shock-ga-110-i.123428609.1897223887,505000,https://cf.shopee.co.id/file/96cbda32a380a580d078098c19e88f24_tn,ampmco.id,https://shopee.co.id/ampmco.id
"Casio G-Shock GA-110",https://shopee.co.id/casio-g-shock-ga-110-i.123428609.1897223338,505000,https://cf.shopee.co.id/file/d71ad443a503375562433bdfbca64d01_tn,ampmco.id,https://shopee.co.id/ampmco.id
"Casio G-Shock GA-700",https://shopee.co.id/casio-g-shock-ga-700-i.123428609.1897221663,545000,https://cf.shopee.co.id/file/5fafe793cb1e0c394ebd8caba60fa492_tn,ampmco.id,https://shopee.co.id/ampmco.id
"Casio G-Shock GA-700",https://shopee.co.id/casio-g-shock-ga-700-i.123428609.1897221293,545000,https://cf.shopee.co.id/file/fd4d6e21669b03c530192aaea46b2428_tn,ampmco.id,https://shopee.co.id/ampmco.id
"Casio G-Shock GA-700",https://shopee.co.id/casio-g-shock-ga-700-i.123428609.1897220311,545000,https://cf.shopee.co.id/file/13b1683ce1e43b60940f643c6e6133d4_tn,ampmco.id,https://shopee.co.id/ampmco.id
"Casio G-Shock GA-700",https://shopee.co.id/casio-g-shock-ga-700-i.123428609.1897219704,545000,https://cf.shopee.co.id/file/2dacefc2fa6243c6652a68ae571c7e2e_tn,ampmco.id,https://shopee.co.id/ampmco.id
"Casio G-Shock GA-700",https://shopee.co.id/casio-g-shock-ga-700-i.123428609.1897219027,545000,https://cf.shopee.co.id/file/bd50ad6548ef89615c138f0bbd3d78de_tn,ampmco.id,https://shopee.co.id/ampmco.id
"Casio G-Shock GA-700SE",https://shopee.co.id/casio-g-shock-ga-700se-i.123428609.1889370244,545000,https://cf.shopee.co.id/file/e1d3cc1805d72edb644aaf986c27e5ae_tn,ampmco.id,https://shopee.co.id/ampmco.id
"Casio G-Shock GA-700SE",https://shopee.co.id/casio-g-shock-ga-700se-i.123428609.1889369565,545000,https://cf.shopee.co.id/file/ea25ba012107025d9899d6d0c51f3767_tn,ampmco.id,https://shopee.co.id/ampmco.id
"Casio G-Shock GA-700SE",https://shopee.co.id/casio-g-shock-ga-700se-i.123428609.1889368199,545000,https://cf.shopee.co.id/file/e9dd7bea1a6939abe0cfc53a1d3af300_tn,ampmco.id,https://shopee.co.id/ampmco.id
"DW Petite Bondi Black",https://shopee.co.id/dw-petite-bondi-black-i.123428609.1888237898,550000,https://cf.shopee.co.id/file/6a1f1c20b916500d0bb0987093a08611_tn,ampmco.id,https://shopee.co.id/ampmco.id
"DW Petite Bondi White",https://shopee.co.id/dw-petite-bondi-white-i.123428609.1888237217,550000,https://cf.shopee.co.id/file/cfbefd8655d6e797ea4c59750d0f3f47_tn,ampmco.id,https://shopee.co.id/ampmco.id
"DW Petite Melrose",https://shopee.co.id/dw-petite-melrose-i.123428609.1888231043,550000,https://cf.shopee.co.id/file/65ef3f09d2262e2ee5eadd1f1fd5c3da_tn,ampmco.id,https://shopee.co.id/ampmco.id
"DW Petite Ashfield",https://shopee.co.id/dw-petite-ashfield-i.123428609.1888230364,550000,https://cf.shopee.co.id/file/23caa661f0e6ac89a5260428cb1c20fe_tn,ampmco.id,https://shopee.co.id/ampmco.id
"DW Petite Sterling",https://shopee.co.id/dw-petite-sterling-i.123428609.1888229521,550000,https://cf.shopee.co.id/file/48e937eedfb8877ffd19ab426dbe4563_tn,ampmco.id,https://shopee.co.id/ampmco.id
"DW Classic White Nato Series 40mm",https://shopee.co.id/dw-classic-white-nato-series-40mm-i.123428609.1888228416,550000,https://cf.shopee.co.id/file/cf35e3df6a7a544274707a5496f7e32f_tn,ampmco.id,https://shopee.co.id/ampmco.id
"DW Classic White Nato Series 36mm",https://shopee.co.id/dw-classic-white-nato-series-36mm-i.123428609.1888227711,550000,https://cf.shopee.co.id/file/e5d56f7a90233a40f7455290b825afdc_tn,ampmco.id,https://shopee.co.id/ampmco.id
"DW Classic Black Nato Series 40mm",https://shopee.co.id/dw-classic-black-nato-series-40mm-i.123428609.1888226853,550000,https://cf.shopee.co.id/file/d28f2b656977a230c994e2c2b38fea40_tn,ampmco.id,https://shopee.co.id/ampmco.id
