Userid,Username,Fullname
9391915025,mira_watch,"OPEN RESELLER/DROPSHIP"
1687973796,hortencia_dula_811,"Hortencia Dula"
1109375000,victoriaabarcar,"Vicky Horlador Abarcar"
532992954,michael_delfianto_s,"Michael Ds"
1946415066,rafniyelti,Rafniyelti
10825529342,maduroyal.saheela,"JUAL MADU ASLI"
7411571735,usemewatch.co,"GUDANG JAM ORI TERPERCAYA🔥"
9953951261,medicine.herbal8,"MASKER,PEMUTIH,PELANGSING"
6054367971,arif_ap16,"Arif AP16"
9676237843,pinjaman_resmi,pinjaman_resmi
5425196455,ngasem_official,NGASEM.COM
8730682172,salsanadifahhh,mutia
9069983401,leisureluxe,"Improve your Instagram"
9663332736,suriya_arif,"arif suriya"
6766295471,female_health_inspo2,"Wellness and Fitness for All"
453059497,batitustabintangr,"batitusta bintang r"
3870666059,charisma_b.m,"Charisma B. Majestyno"
2646197435,bajuanak_bunayya,"PRODUSEN JUBAH DAN GAMIS ANAK"
1914914905,gabriellaelnes,"Gabriella Elnes"
7171758397,boudoirbag,Boudoirbag
3076430546,pepperonie.me,
4190021443,anggraeni_wa,
10869250063,djennarozzzf__,جيّٰنْءَِّبْالليْسا
9748087022,danielwellington.proj,danielwellington
10485286165,skinydipapap,Skinydipap
10377370522,liaa4810,Liaa
232328795,rahmawincoko,WIDYA
8615460051,brankovich_4bc01,"Conception Brankovich"
7798791358,nanadya22,"Anything About My Lust"
2955567418,ratufollowers_,
8780497327,smileconsultingjkt,"Smile Consulting"
3005246648,fernando_rico12,"Rico Fernando"
458100761,faiznazmie,"faiz nazmie"
5600224092,narulitakurniaw,"Medical Student💉💊"
8167477029,rere.resti.54772,key
1542566899,yulianaerlen_,"Yuliana Erlen"
31570596,renidevvv,"Reni Devitasari"
10398544693,lovepotion0808,"KRIM PAYUDARA MONTOK PEJAL"
3094892006,ayuanggoro_p,"Ayu Anggoro Puspitorini"
10628894121,aan_nht,"Aan Nht"
10803010239,grigoryevn829,qwettt
5697292015,betterpersonwannabe,"it's me🐰♊"
210224792,natashadeboratho,
431686571,astya1328,"Made Astya"
507653623,melindakusuma.d,"Melinda K. Dewi🎀"
7815159565,lokersurabayajamannow,"lowongan kerja surabaya"
10646314947,indah_permata_gestun,"INDAH PERMATA TOUR & TRAVEL ✈"
1677395228,reny_situmeang,"dr. Reny Tresiana Situmeang"
253854587,fickarinna,Ficka
9311394949,ninda.jamtangan,"PELUANG BISNIS murah meriah"
7582083396,komangafriany,"Yenni Rahayu"
329080682,musyaffauthor,"Musyaffa Nailul Author"
21974815,evoluciondeti,"⚡CHRIS MARCANO-MEDINA 🇩🇴🇺🇸"
1215421947,neethaarief,"Neetha Arief"
1521817615,14retnowulandari,RWD.
1060891455,dea_nesia,deaputrinesia
9364205995,misswiwik_herbal,"TIENS TERMURAH + FREE ONGKIR"
10485550321,pinjaman_onlinecepaterpercaya,"Pinjaman Online"
6722401811,lismayuliana2707,"Lisma Yuliana"
5123745190,bambang.sadino,bambang.sadino
2479184111,dedytumpalsiagian,"Dedy Tumpal Siagian"
285380997,christabellaclarissa,Clara
9387215418,rinna_watch,"FREE ONGKIR JABODETABEK"
8158307479,anti5820,anti
10337378301,adeel.murtza,"Adeel Murtza Cheema"
6868130454,wynnurlina,"Ni Wyn Nurlina Ekasari"
8231623641,umayah.nindie,"Harga MurahMeriah Jam-Tangan"
10567951121,oneredachmad23,"Ridwan Achmad"
5326754835,kennychristiantantono,"OFF WHITE"
4589417551,khffh28_,S.n.khafifah
9708904427,aplababu_official,"Nitin Kadam"
2957441683,batik_binzen,"Batik BinZen"
546879588,rafyanzhasatria,"Rafyanzha S W"
2119741971,angelamarissaa,Angel
6335632268,kemal.atatur26,KEMAL.ATATUR
324614115,ichfanaldiansyah,ichfan
1076353580,dimonalisa,"Diah Monalisa"
344363968,garagesaleindonesia,"👗 ALL PRICE UNDER 150rb!!"
1298212881,captain_sam93,"Hishyamudin Sait"
10156188290,01metaltasikmalaya,"01 Metal Tasikmalaya"
7451289819,testibinzensalma,"testi batik binzen & salmaa"
9992567135,ksp_sejahtra_bersama,ksp_sejahtra
6981380326,winduaprillia,"Windu Aprillia"
4254664862,ririrahyu,"riri rahyu"
833023933,ericcalimm,"Erica Lim"
2082896817,lafashionaksesoris,"Ladies Fashion Aksesoris"
9744311142,sao_gudangsosmed,"jual akun murah !!"
3633847965,armamukhtar_,"Arma Mukhtar🍓"
10582165533,fitrohiis,"iis fitroh"
8612772503,inspirepast2purpose,"Inspire-CEO Mrs.Toya Taylor"
1360635128,joelrenaldoo,"a freaky virgo"
6472548631,lasi2402,Lasi
10596300408,rahmandoni49,"Rahman Doni"
10584221149,yadalmu,aming
6316425802,tasmurmershop91,olshopkece&kekinian
10568261878,83nuriilhan408,"Nuri İLHAN"
10632521630,yanniadnan,"Adnan YANNİ"
10477865947,42nilizgi420,"Nil İzgi̇"
10622650434,ozkanli9048,"Muhammed Özkanli"
10606011391,kirli3214,"Ibrahim  KIRLI"
10570885679,8fatmayildiz667,"Fatma YILDIZ"
10594404368,iplikci3355,"Havva İPLİKÇİ"
10595810832,elakaradag2444,"Ela Karadağ"
10634081605,kalkan8766,"Ceren KALKAN"
10456077435,fatmanurdagli60,"Fatmanur DAĞLI"
10561110075,cebrail8242,"Cebrail Kavukoğlu"
10582061002,behlul2055,"Behlül GÖRMELİ"
10574348880,feyzullah4777,"Feyzullah Akçay"
10597108109,yurek5080,"Gülhan Yürek"
10610947345,34sonaysozer636,"Sonay SÖZER"
10610465385,zaim.elif,"Elif Zai̇m"
10423863700,32fundabolsoy153,"Funda Bolsoy"
10425039693,remzisen7697,"Remzi Şen"
10431759060,68rumeysatazeoglu812,"Rümeysa TAZEOĞLU"
10436502963,gonulsahin4773,"Gönül ŞAHİN"
10431358611,19ranaberekatoglu229,"Rana BEREKATOĞLU"
10444030434,13dilaraurkmez399,"Dilara Ürkmez"
10458653128,gulsumunal91,"Gülsüm Ünal"
10467292874,nizamettintatli35,"Nizamettin Tatli"
10486099614,sengultoprak126,"Şengül Toprak"
10497114529,sakalli9494,"Öznur Sakalli"
10498865682,mihribanyilmaz5862,"Mihriban Yilmaz"
10565061542,altinboga3581,"Yelda Altinboğa"
10583108986,erdal.nejat,"Nejat ERDAL"
10605259530,sinici2798,"Zeliha SINICI"
10642816995,leylamercan4,"Leyla Mercan"
10426359409,kaylan2817,"Asya Kaylan"
10428783325,iremgokce7497,"Irem GÖKCE"
10437806912,metehancetin34,"Metehan Çeti̇n"
10439454794,neseyazici88,"Neşe Yazici"
10445862311,70rasimkaya733,"Rasim Kaya"
10453813583,birgulozer56,"Birgül Özer"
10475732268,erhanerden356,"Erhan ERDEN"
10485155646,turksoy478,"Efecan TÜRKSOY"
10490370899,bayrakci2642,"Ebru Bayrakçi"
10501825202,ferda5634,"Ferda DİKİCİ"
10580277057,omerbal768,"Ömer Bal"
10603035028,halil3933,"Halil Hati̇poğlu"
10624178135,77barantasar248,"Baran TAŞAR"
10651592371,meneksesahin419,"Menekşe Şahi̇n"
10426647474,hayriyeyildiz435,"Hayriye YILDIZ"
10428807404,baglars8675,"Kamile BAGLARS"
10432079018,70efsanedemir346,"Efsane Demi̇r"
10441246703,sedakaplan386,"Seda KAPLAN"
10442102401,hanifeaydin684,"Hanife Aydin"
10454173623,gumusay9975,"Naciye GÜMÜŞAY"
10476036103,emindemir4987,"Emin DEMİR"
10575317534,1nursenuluba716,"Nurşen ULUBA"
10579765274,arikan9458,"Dilan Arikan"
10593860369,orman1959,"Beste Orman"
10594123851,nazyilmaz1174,"Naz Yilmaz"
10628145832,kadirtoy538,"Kadir TOY"
10654168152,pazir9611,"Pakize Pazir"
10421575835,berfinyuksel374,"Berfin Yüksel"
10419535395,tanerimali,"Taner İMALI"
10444782050,kezbanerdem51,"Kezban Erdem"
10419637438,ismail.gozugul,"İsmail Gözügül"
10452181431,beyzanurmoran89,"Beyzanur MORAN"
10465692760,mehmetturan409,"Mehmet Turan"
10569445861,cemredemirel8552,"Cemre Demi̇rel"
10567685816,makbuleoguz6876,"Makbule OĞUZ"
10581341180,meryembulur6,"Meryem Bulur"
10584300859,eminakyol4741,"Emin Akyol"
10586628720,candansahin770,"Candan Şahi̇n"
10590108535,pekel7522,"Gülseren PEKEL"
10591612384,mikailozdil2748,"Mikail Özdi̇l"
10605194223,burakdemir6806,"Burak Demi̇r"
10626482211,bilalgokcek65,"Bilal Gökçek"
10637097523,36cankilinc369,"Can Kilinç"
10639153379,umitkahraman81,"Ümit Kahraman"
10643568929,sessizsahin5973,"Sessiz Şahi̇n"
10654688315,ozuak315,"Birsen Özüak"
10448181797,nurgulcetiner27,"Nurgül ÇETİNER"
10430085458,gerger9985,"Ecrin Gerger"
10478363867,efeersoy590,"Efe Ersoy"
10480571811,atakansumer6961,"Atakan Sümer"
10489939249,yasan8243,"Gizem Yaşan"
10490603154,50egementasci607,"Egemen TAŞCI"
10495346878,yeliz_kasapoglu,"Yeliz KASAPOĞLU"
10501578401,buyukcam9518,"Edanur Büyükcam"
10507697968,ozata3857,"Hanife Özata"
10579525108,aykol989,"Hayat AYKOL"
10583684848,13tufanyurdseven458,"Tufan Yurdseven"
10590316575,avnikaraman4749,"Avni Karaman"
10594972295,ergincomert17,"Ergin Cömert"
10609251369,vahit3462,"Vahit Sertoğlu"
10621794569,alaattin1663,"Alaattin ÖZTÜRK"
10641529089,bilaloz251,"Bilal Öz"
10645088925,meryemturgut94,"Meryem TURĞUT"
10645696864,iskenderkaradag1624,"Iskender KARADAĞ"
10648288728,cinkirkazim,"Kazim ÇINKIR"
10648888634,akduman4512,"Meltem Akduman"
10651736531,sedayilmaz6452,"Seda YILMAZ"
10430055060,suayip3091,"Şuayip Yildirim"
10442358707,kolsuz4517,"Ipek Kolsuz"
10444326530,25sinemhidiroglu883,"Sinem HIDIROĞLU"
10483011743,kuyucu9237,"Idris KUYUCU"
10486131531,senguleroglu721,"Aynur Şengüleroğlu"
10504858228,uralalican,"Alican URAL"
10579181217,kurulogulcan,"Oğulcan KURUL"
10606971511,meryemozturk730,"Meryem Öztürk"
10632545686,selenkose10,"Selen KÖSE"
10639993370,ozertopaloglu79,"Özer Topaloğlu"
10653904129,nisanesen15,"Nisan Esen"
10426415469,isikli1168,"Ebrar Işikli"
10437390948,metehangiray42,"Metehan Gi̇ray"
10447190085,nilguntunc32,"Nilgün Tunç"
10458901124,altuna1709,"Merwe Altuna"
10565118117,bugrulturkan,"Türkan BUĞRUL"
10568797764,aylabekar4013,"Ayla BEKAR"
10588372641,albas4340,"Mavi Albaş"
10601475823,yenidunya4210,"Görkem Yeni̇dünya"
10608675148,uluoz4299,"Tayfun Uluöz"
10614538353,87aliosmankarakus813,"Ali osman Karakuş"
10638489369,51berkankeles51,"Berkan Keleş"
10640873037,okcu9255,"Kazim Okçu"
10431279237,40erdoganozer269,"Erdogan ÖZER"
10399495180,kirecci957,"Asu KİREÇÇİ"
10434766980,rafetkaplan15,"Rafet KAPLAN"
10465844892,gulhankottas,"Gülhan KOTTAŞ"
10484043744,serradogan989,"Serra Doğan"
10494490909,fikriyalcin6046,"Fikri Yalçin"
10514225756,hasimoglu7089,"Izzet HAŞİMOĞLU"
10588060742,feyzayildiz545,"Feyza Yildiz"
10592148365,86abdurrahimtepe951,"Abdurrahim TEPE"
10613770840,bagli5896,"Kubra Bağli"
10624450509,zaim1820,"Azra ZAİM"
10648240340,yaci6812,"Ceylan Yaci"
10654352139,ibrahimyildirim568,"Ibrahim YILDIRIM"
10418959974,muhammedbabus,"Muhammed BABUŞ"
10424391715,karcin703,"Zafer Karçi̇n"
10444678470,cihatkunak,"Cihat Kunak"
10444381580,refik6649,"Refik Göktaş"
10464220880,mikailsert38,"Mikail SERT"
10473468450,atilla9921,"Atilla KAYABAŞ"
10480499964,22bilgekaya205,"Bilge KAYA"
10498458665,serpilsener118,"Serpil ŞENER"
10606347185,20periyildiz77,"Peri Yildiz"
10612083052,melahatcakir254,"Melahat Çakir"
10637921406,89oyaakpinar614,"Oya AKPINAR"
10638393375,semanuruygun137,"Semanur UYĞUN"
10639417108,pervincelik9955,"Pervin Çeli̇k"
10638609053,mukaddesersoy45,"Mukaddes Ersoy"
10647592846,isikli1485,"Hicran Işikli"
10425439708,ileri1085,"Arife İLERİ"
10425102835,erel6439,"Eylül EREL"
10464924896,gulsahyildirim6246,"Gülşah YILDIRIM"
10483131842,gorkembaser66,"Görkem Başer"
10563830277,nurcanaydogan64,"Nurcan AYDOĞAN"
10624954336,suzandagli6,"Suzan DAĞLI"
10459396942,1ibrahimgurbostan482,"İbrahim GÜRBOSTAN"
10567629961,berekatoglu3369,"Selma Berekatoğlu"
10588420631,muhammedalivurgan,"Muhammed ali Vurgan"
10588236497,nuhhamdemirci,"Nuh Hamdemi̇rci̇"
10622826488,lutfiyeyildiz454,"Lütfiye Yildiz"
10653448289,sertkaya_pelin,"Pelin SERTKAYA"
10656680097,aytenozsoy434,"Ayten ÖZSOY"
10661232006,konuralp4810,"Canberk Konuralp"
10429111340,gormeli5874,"Özge GÖRMELİ"
10466988547,muratdemir3618,"Murat Demi̇r"
10486163413,bahtiyar2033,"Bahtiyar Eraslan"
10489267271,dayangac.cagatay,"Çağatay DAYANGAÇ"
10490531215,kudretkilic9481,"Kudret Kiliç"
10496946608,zekiyeyildirim1608,"Zekiye Yildirim"
10498569798,melahatkaran,"Melahat KARAN"
10570149818,kuru7297,"Özer Kuru"
10567917714,sozer4653,"Leman SÖZER"
10567981698,mehmetcanilbay4,"Mehmetcan İlbay"
10573885504,bogan6534,"Sevcan BOĞAN"
10603203700,100halimeucgul486,"Halime ÜÇGÜL"
10652040309,ozkanilkay20,"Ozkan İlkay"
10654576222,inan.yagcizeybek,"Inan Yağcizeybek"
10446126426,eker8694,"Alican EKER"
10475252220,sonayates329,"Sonay Ateş"
10505962020,nazmiyegunduz18,"Nazmiye Gündüz"
10579821065,firdevsgulizarkoc95,"Firdevsgülizar KOÇ"
10594892239,yakisan5130,"Şeyma YAKIŞAN"
10424815248,sezenzengin3672,"Sezen Zengi̇n"
10468292657,selmayazici98,"Selma YAZICI"
10473924346,zuhal_merhametsiz,"Zuhal MERHAMETSİZ"
10482515804,senolaydin472,"Senol Aydin"
10489235103,handeilhan925,"Hande İlhan"
10492722931,cankaya.ferhan,"Ferhan ÇANKAYA"
10493370901,ibrahimyaman36,"Ibrahim  Yaman"
10576933299,doganguzel9095,"Zuhal DOĞANGÜZEL"
10590132588,nergisaslanalp,"Nergis ASLANALP"
10585523781,canacankatan2576,"Selçuk Canacankatan"
10611642972,sadullah7645,"Sadullah İlbay"
10651120688,baklaci6940,"Rüzgar Baklaci"
10443302354,cetin.kapar,"Çetin KAPAR"
10565110146,nurcanduran5983,"Nurcan Duran"
10579173207,duruk_hilmi,"Hilmi Duruk"
10637049413,elanurgerilmez,"Elanur Geri̇lmez"
10647312780,42nazmigul795,"Nazmi Gül"
10426791569,pazirbelgin,"Belgin Pazir"
10452093956,kacer7090,"Hayal KAÇER"
10465132846,minaates752,"Mina ATEŞ"
10476300289,altunyaprakayca,"Ayça ALTUNYAPRAK"
10500954385,76iremcansever645,"İrem CANSEVER"
10512153695,2nesekocayigit709,"Neşe KOCAYİĞİT"
10588724622,sebnemsezen590,"Şebnem SEZEN"
10604403490,duygukhalil12,"Duygu Khali̇l"
10619626647,serin_ahmetcan,"Ahmetcan SERİN"
10623906355,85alaragode116,"Alara GÖDE"
10645280905,tolga.inanmaz,"Tolga İNANMAZ"
10431727119,nihalaydin5558,"Nihal AYDIN"
10438302728,seymauyar42,"Şeyma Uyar"
10466548897,esenyilmaz5754,"Esen Yilmaz"
10458100412,aydemir5002,"Rana AYDEMİR"
10578453332,cigdemkara369,"Cigdem KARA"
10587724794,ilaydasert82,"İlayda SERT"
10588868613,ebrukaya196,"Ebru Kaya"
10599571921,guveren1610,"Ayşegül GÜVEREN"
10612539100,onrat7467,"Şule Onrat"
10619114643,nuriakin420,"Nuri Akin"
10648816741,gezici5822,"Serap GEZİCİ"
10431135249,ufukozdogan190,"Ufuk ÖZDOĞAN"
10429687067,84sahraaktan422,"Sahra Aktan"
10451093813,gizemkaradeniz47,"Gizem Karadeni̇z"
10506273888,zuhaltas4870,"Zuhal TAŞ"
10596524249,yenergunduz571,"Yener Gündüz"
10595732083,71abdulkadiryenin851,"Abdulkadir Yeni̇n"
10596811435,cevat3670,"Cevat Kütükoğlu"
10623402507,hacerdeniz4214,"Hacer DENİZ"
10632617694,cansel.aktug,"Cansel Aktuğ"
10651216423,atabay354,"Şerif ATABAY"
10453772844,baznevzat,"Nevzat BAZ"
10497914655,32gokselbuyukpastirmaci370,"Göksel Büyükpastirmaci"
10594468282,satiroglu1741,"Nurdan ŞATIROĞLU"
10609411307,karakaya9185,"İnci Karakaya"
10592474842,dinler9875,"Ismet Di̇nler"
10647120726,1nurersoy192,"Nur Ersoy"
10656760114,nurcin5471,"Toprak Nurçi̇n"
10453829335,35sergenkisa187,"Sergen Kisa"
10460676942,abdulkadirteoman,"Abdulkadir Teoman"
10493314919,ulgen9534,"Aygül ÜLGEN"
10581053089,genez6634,"Celal GENEZ"
10591692334,ugurcankisa491,"Uğurcan KISA"
10594396226,40umutezer863,"Umut EZER"
10597420170,tola5431,"Soner TOLA"
10618426770,ilknursozen498,"İlknur SÖZEN"
10628473917,ayselkose38,"Aysel Köse"
10640489278,kubilayyaci,"Kubilay Yaci"
10644400960,28ahmetcanbasman651,"Ahmetcan BAŞMAN"
10655832111,adadogan20,"Ada Doğan"
10442254651,neslihankol1,"Neslihan KOL"
10439702531,faik7037,"Faik Pi̇rdoğan"
10565822139,26ozlemkoseoglu324,"Ozlem KÖSEOĞLU"
10567677867,ertugrulbaskan11,"Ertugrul Başkan"
10565901152,cosgun7299,"Rabia COŞGUN"
10606083565,kayhan.duruk,"Kayhan Duruk"
10415383873,baytan_yunus,"Yunus Baytan"
10422231736,sevtapekici88,"Sevtap Eki̇ci̇"
10435862938,arslankececioglu2930,"Elmas Arslankeçeci̇oğlu"
10453845555,gulsencoban916,"Gülsen ÇOBAN"
10475492276,kaptan6428,"Kaptan Pi̇rdoğan"
10495482881,62sabanbozoglan390,"Şaban BOZOĞLAN"
10575821521,hicranyildiz8921,"Hicran Yi̇ldi̇z"
10578957256,nurgulyagci97,"Nurgül YAĞCI"
10609883209,melekaslan210,"Melek Aslan"
10650336677,hakyol2580,"Ferdi Hakyol"
10421031893,guner.basci,"Güner BAŞCI"
10458437236,ozgecelik513,"Özge ÇELİK"
10471500527,guldamlasoner,"Soner GÜLDAMLA"
10491171129,duger8281,"Tuana Düger"
10503794244,asuguzel866,"Asu Güzel"
10612691023,erken1760,"Peri Erken"
10444870452,gulistangul76,"Gülistan Gül"
10476236151,adisanli6165,"Kezban ADISANLI"
10579629246,alevkor54,"Alev Kor"
10608427396,gurselakdemir227,"Gürsel Akdemi̇r"
10431927058,50ilaydagurel61,"İlayda Gürel"
10443838448,yanik_doga,"Doğa YANIK"
10566022041,sonayaydin3800,"Sonay Aydin"
10579565129,ulas1141,"Remziye ULAŞ"
10575116671,ulger7243,"Aysegül Ülger"
10471795883,aylinyilmaz2580,"Aylin Yilmaz"
10598060058,sevilkaya3594,"Sevil KAYA"
10623586431,semanuryavuz83,"Semanur YAVUZ"
10453333374,kuralay5860,"Doruk KURALAY"
10473708057,hazalyilmaz874,"Hazal YILMAZ"
10507657991,aleynaekiz40,"Aleyna Eki̇z"
10583252872,kazan3164,"Ceylan KAZAN"
10594668256,9altaysert195,"Altay Sert"
10613307007,yeterkoseoglu83,"Yeter Köseoğlu"
10637176668,nurdanturan8199,"Nurdan TURAN"
10637312210,ordek6390,"Gülçin Ördek"
10427951108,mumcuoglu1232,"Adnan Mumcuoğlu"
10447286068,bican2817,"Hasan  BİCAN"
10452037754,toy3439,"Alev Toy"
10476580251,pusat_seyrekoglu,"Pusat Seyrekoğlu"
10514313584,18aysenurdemir916,"Ayşenur DEMİR"
10583020924,habibeyildirim842,"Habibe YILDIRIM"
10590548457,meralkaya12,"Meral KAYA"
10609737604,zerrinsumer820,"Zerrin SÜMER"
10466580854,bardakci4194,"Sabriye Bardakçi"
10501098415,caglayangokalp31,"Çağlayan Gökalp"
10480401719,uykur1410,"Pinar UYKUR"
10615394950,eraycicek273,"Eray Çi̇çek"
10625577586,81yenerkirhan632,"Yener KIRHAN"
10482195774,25berfinboluk228,"Berfin Bölük"
10579989201,serifeunal264,"Şerife Ünal"
10636929530,mariatas60,"Maria TAŞ"
10426567444,ergungungor894,"Ergun GÜNGÖR"
10508641987,kubrayilmaz7151,"Kubra Yilmaz"
10583740934,melahatdikoglu,"Melahat DİKOĞLU"
10572755628,dogukandemir30,"Dogukan DEMİR"
10630841904,ilbay6200,"Tuana İlbay"
10467468780,bedirhan8211,"Bedirhan ERTÜRK"
10648272743,mucahitkaplan7687,"Mücahit KAPLAN"
10446030426,saliha_aldinc,"Saliha ALDİNÇ"
10644025002,pervinsu53,"Pervin SU"
10497098580,alici1341,"Halis ALICI"
10603763715,buseakturk314,"Buse Aktürk"
10608675453,mehmetalisenturk381,"Mehmetali ŞENTÜRK"
10428463445,yunusemreyilmaz501,"Yunus emre YILMAZ"
10496066698,cavit.segmen,"Cavit Seğmen"
10634705561,15tugbayegin473,"Tuğba  YEGİN"
10436062935,budun1812,"Ecrin BÜDÜN"
10477771887,pelinsenemtasi,"Pelin Senemtaşi"
10455061524,aysungenc9875,"Aysun Genç"
10457786591,kutlucan_sanem,"Sanem KUTLUCAN"
10653736225,ilgen9024,"Ergin İlgen"
10443046371,haydarozdemir102,"Haydar ÖZDEMİR"
10565798140,secilfidan88,"Seçil Fi̇dan"
10442093813,zelalakgul6,"Zelal Akgül"
10499130413,98ibrahimokudan739,"Ibrahim  OKUDAN"
10648504645,nerimankankilic9,"Neriman Kankiliç"
10488243245,65nazeren283,"Naz EREN"
10596892168,saral.elcin,"Elçin SARAL"
10581149187,2yeteryilmaz491,"Yeter YILMAZ"
10640217394,nimetigil7825,"Nurdan NİMETİGİL"
10419399985,ferhatkaradag4,"Ferhat KARADAĞ"
10455069600,mustafakemalasil595,"Mustafa kemal Asi̇l"
10569045853,ture1707,"Erkan TÜRE"
9226238427,rahasia_tinggii,"SUPLEMEN PENINGGI BADAN"
9727385639,danurahm3,danurahmatdani
10653984343,beder3525,"Nezahat Beder"
10642657038,suvarol526,"Su Varol"
10460172983,pelintoker296,"Pelin TOKER"
10616826837,ozuak4514,"Neşe Özüak"
10603307516,guveren587,"Nazli GÜVEREN"
10607731339,kiyak1886,"Gul Kiyak"
10610683226,hayrettintepe96,"Hayrettin Tepe"
10631273611,duducelik706,"Dudu ÇELİK"
10421247842,seymacengiz5568,"Şeyma Cengi̇z"
10450901842,emeli1365,"Ersin Emeli̇"
10461892976,siga2059,"Hava Si̇ğa"
10570621528,yasminbekar1749,"Yasmin Bekar"
10594900194,veziroglu296,"Ömer VEZİROĞLU"
10620474294,nurtengokcek314,"Nurten Gökçek"
10625514269,akkoyunlu6529,"Ayşenur AKKOYUNLU"
10628273962,tiras2843,"Kamuran TIRAŞ"
10637105410,nejlacandan3,"Nejla Candan"
10411223933,hamidesevinc421,"Hamide SEVİNÇ"
10448837988,nursenoden,"Nurşen Öden"
10467548737,dilekturkay9,"Dilek Türkay"
10503257514,korkmazoglu1110,"Yeliz KORKMAZOĞLU"
10610707056,zeynepbulur513,"Zeynep BULUR"
10617050853,birkan1548,"Birkan KAYACAN"
10634009381,24abbascanturk292,"Abbas CANTÜRK"
10643689008,begumguveren,"Begüm Güveren"
10644400815,neseonat34,"Neşe ONAT"
10651872318,ozudogru7750,"Aynur Özüdoğru"
10470372690,cemalduyan,"Cemal Duyan"
10471844509,74aysekapar879,"Ayse Kapar"
10494858902,meraltepe9,"Meral TEPE"
10514209469,kaptanesen95,"Kaptan ESEN"
10498809010,burcinsavran34,"Burçin Savran"
10618154641,artuc.gulcin,"Gülçin Artuç"
10642048912,ahmetcanyaman7,"Ahmetcan YAMAN"
10442878496,hasibepolat2952,"Hasibe Polat"
10442406445,kizildagemrecan,"Emrecan Kizildağ"
10446942069,nerminberk632,"Nermin Berk"
10468492670,bulakci5659,"Sevim Bulakçi"
10515009579,emrecansari68,"Emrecan SARI"
10566541944,87hicranmanav91,"Hicran MANAV"
10574525481,candemir4058,"Pusat CANDEMİR"
10579221124,tarkan_bulakci,"Tarkan Bulakçi"
10612267035,duzkalir5518,"Gülnur Düzkalir"
10616690841,humeyraaltas62,"Hümeyra Altaş"
10622410066,korkmazoglu1733,"Asuman Korkmazoğlu"
10627018063,kayhan2691,"Kayhan KAYA"
10652968276,kayman976,"Hayriye Kayman"
10417831365,basdas4967,"Merve BAŞDAŞ"
10429063259,53birsenmuftuoglu967,"Birsen MÜFTÜOĞLU"
10443182221,sahraozturk128,"Sahra ÖZTÜRK"
10449877835,sahbaz5236,"Nurten Şahbaz"
10483035691,asumancoban965,"Asuman Çoban"
10486947387,cumayuksel5048,"Cuma YÜKSEL"
10494186924,kayki8765,"Vildan Kayki"
10497434802,yukselpolat8558,"Yüksel Polat"
10504602165,seyhmus4292,"Şeyhmus Akbaş"
10609091173,dokumacioglu2904,"Saliha DOKUMACIOĞLU"
10631001678,ranayanni,"Rana Yanni̇"
10652624297,karpuzoglu_hatice,"Hatice Karpuzoğlu"
10431839114,42canerbayraktaroglu134,"Caner Bayraktaroğlu"
10434974972,arzugulsan5700,"Arzu  GÜLŞAN"
10468068834,sunaarkan1,"Suna Arkan"
10472140312,gencturk9909,"Ilayda Gençtürk"
10496946448,evik2762,"Kadriye EVİK"
10503034439,nihalayyildiz85,"Nihal AYYILDIZ"
10505081888,esengokce107,"Esen GÖKCE"
10566454013,55susevimli130,"Su SEVİMLİ"
10594292203,hanifi8571,"Hanifi Mercan"
10605162641,40ipekyardimci369,"İpek Yardimci"
10653312262,sahindemirbas199,"Şahin DEMİRBAŞ"
10429263328,fadimeak314,"Fadime Ak"
10610635181,uykur356,"Bedri Uykur"
10612987133,kozanoglu_ihsan,"Ihsan KOZANOĞLU"
10439494740,100sakinegozacan259,"Sakine Gözaçan"
10473572339,11selviaksel568,"Selvi Aksel"
10574077511,gorkemkaran9920,"Görkem KARAN"
10611291132,51kudretbicer966,"Kudret BİÇER"
10418535947,erenyardimci6,"Eren YARDIMCI"
10434302874,dokumacioglu8998,"Candan DOKUMACIOĞLU"
10454845397,cigdemaslan32,"Cigdem ASLAN"
10506617947,emirbaran50,"Emir Baran"
10571885416,gulenay7149,"Nil Gülenay"
10627729995,kalkan5990,"Ipek Kalkan"
10467764594,cavit7539,"Cavit Gökce"
10574845492,nihangursoy39,"Nihan Gürsoy"
10611643232,pasa.bakirci,"Paşa BAKIRCI"
10421567714,adanir6303,"Ceylin ADANIR"
10424999515,ranacandan38,"Rana CANDAN"
10440806328,gurhan4415,"Gürhan YILDIZ"
10643952976,betultekin5235,"Betül TEKİN"
10657296009,bilgesezgin4763,"Bilge Sezgi̇n"
10427599379,berivankurtulus713,"Berivan Kurtuluş"
10589900388,merwe2669,"Merwe ÖCALAN"
10610178945,beyzaabacioglu,"Beyza ABACIOĞLU"
10499434397,demirayceylin,"Ceylin DEMİRAY"
10481266367,seyfi7450,"Seyfi ŞAHAN"
10647568749,alaaddinoral929,"Alaaddin Oral"
10645752716,beder3288,"Dilara Beder"
10451293835,tanin6644,"Yasemin TANİN"
10507113837,perihantoktas,"Perihan TOKTAŞ"
10566381864,ilaydaeken9,"İlayda Eken"
10585156617,43ruyaozmen510,"Rüya Özmen"
10609387286,isikalan545,"Hande IŞIKALAN"
10631777739,cinkir7665,"Begüm ÇINKIR"
10606545092,84neslihansahin806,"Neslihan Şahi̇n"
10649024589,recai1425,"Recai ÜNAL"
10425191338,hilalarslan32,"Hilal Arslan"
10427423302,basturk7170,"Hanife BAŞTÜRK"
10403687294,parasiz2305,"Ada Parasiz"
10457541276,gokceaksu3652,"Gökçe AKSU"
10496386525,ibrahimkahraman912,"Ibrahim  KAHRAMAN"
10272462676,tolu3594,"Pınar TOLU"
10584660818,cemilmenekse2987,"Cemil Menekşe"
10592836273,serkanoflaz9,"Serkan OFLAZ"
10429863244,kahreman6556,"Şerife KAHREMAN"
10495402652,ozkanli5445,"Bahar ÖZKANLI"
10506001921,alay7030,"Hafize ALAY"
10568781867,62babaosmanca110,"Baba OSMANCA"
10597116012,24sengulsaglam978,"Şengül SAĞLAM"
10607947172,15erdalselcuk667,"Erdal SELÇUK"
10429183135,serdargoktas2846,"Serdar GÖKTAŞ"
10429919101,ayseozturk7208,"Ayşe ÖZTÜRK"
10440798533,emelcantay6,"Emel CANTAY"
10449605784,kardelensahin19,"Kardelen ŞAHİN"
10476540158,tarakci6303,"Ege Tarakci"
10482051826,muharremcicek319,"Muharrem Çi̇çek"
10562854036,95neslihancelikten150,"Neslihan ÇELİKTEN"
10574317531,tombul8846,"Talat Tombul"
10569277219,elmas.osmanca,"Elmas OSMANCA"
10581596834,58beyhanatak741,"Beyhan ATAK"
10611531133,belginak8631,"Belgin Ak"
10650600462,feyzagokcek9966,"Feyza GÖKÇEK"
10445478124,naimkaradag2,"Naim KARADAĞ"
10458125193,saadetalbayrak2,"Saadet Albayrak"
10461077035,baharbasargan,"Bahar BAŞARGAN"
10490371209,surucu2294,"Yeliz Sürücü"
10579397167,yurtdas_hediye,"Hediye Yurtdaş"
10583900800,selcangul1483,"Selcan GÜL"
10593356373,dursun_karaagac,"Dursun Karaağaç"
10596235972,yildizoglu.celil,"Celil Yildizoğlu"
10501810351,keskek731,"Tuana KEŞKEK"
10502146076,sevtapkoksal896,"Sevtap KÖKSAL"
10508273859,ilgun6509,"Meltem İlgün"
10512617504,berentselin,"Selin Berent"
10574565435,78merweduysak206,"Merwe DUYSAK"
10585076742,eryavuz2702,"Merve ERYAVUZ"
10597939938,beyhangozcu6,"Beyhan Gözcü"
10624610025,cengizhan.kayacan,"Cengizhan KAYACAN"
10652952305,suzangunes2647,"Suzan Güneş"
10433478984,fundasavas49,"Funda SAVAŞ"
10503730202,66halilseyrek572,"Halil SEYREK"
10649480573,alihan.ozdil,"Alihan ÖZDİL"
10419943721,husamettinkaya70,"Hüsamettin KAYA"
10437222979,91nazliciftci816,"Nazli Çi̇ftci̇"
10437334838,aysenkaya44,"Ayşen KAYA"
10269543783,dagdelendudu,"Dudu DAĞDELEN"
10567253966,dilanturkmen120,"Dilan TÜRKMEN"
10577389375,konuralp176,"Kamile Konuralp"
10598227800,ebruak9677,"Ebru AK"
10610259150,98leylakula167,"Leyla KULA"
10623786439,ozanavci700,"Ozan AVCI"
10628024477,cinkit5180,"Açelya Çinkit"
10444470202,yigitsarp56,"Yiğit SARP"
10445270004,kamilkurt446,"Kamil KURT"
10470380682,yaprakbakar419,"Yaprak BAKAR"
10486923275,keklikcioglu4778,"Asuman KEKLİKÇİOĞLU"
10579485203,araskol489,"Aras Kol"
10579885099,ilbay8893,"Gökçe İlbay"
10634409556,tansuozel172,"Tansu Özel"
10651576151,78serensezgin566,"Seren SEZGİN"
10471684336,nigaraygun974,"Nigar AYGÜN"
10493800931,67rumeysaozdemir946,"Rümeysa ÖZDEMİR"
10567133702,saricanbaz4704,"Semiha SARICANBAZ"
10574036838,baskan1140,"Tarkan BAŞKAN"
10589116457,nilgunsavran1,"Nilgün SAVRAN"
10620562537,28mukaddeskeklikcioglu165,"Mukaddes Kekli̇kçi̇oğlu"
10633081517,elcinyalcin544,"Elçin YALÇIN"
10660392016,72yoncayildiz985,"Yonca Yildiz"
10455021318,12irfanbaklaci148,"İrfan BAKLACI"
10469195995,kubat4853,"Ersoy KUBAT"
10484787358,kamuranulutas535,"Kamuran ULUTAŞ"
10488587199,leymuncicegi_sener,"Şener Leymunçi̇çeği̇"
10499666435,ebubekir8087,"Ebubekir Başci"
10501834317,dilmen292,"Ahmet DİLMEN"
10501834258,seldaburak5275,"Selda BURAK"
10509297851,erdogangencer231,"Erdogan Gençer"
10583588901,emirhangultekin5,"Emirhan Gülteki̇n"
10588156539,ozek7821,"Meltem ÖZEK"
10607802825,yukselbulbul88,"Yuksel Bülbül"
10618722638,fatihakan6777,"Fatih AKAN"
10624506083,eceozkan69,"Ece ÖZKAN"
10649368667,bolatkale4857,"Sedanur BOLATKALE"
10627872639,39seymaozdemir850,"Şeyma Özdemi̇r"
10423679538,nazangormus15,"Nazan Görmüş"
10432391115,sevdegunes71,"Sevde GÜNEŞ"
10439694723,kuralay8181,"Alara Kuralay"
10449645757,icbay2791,"Haci İçbay"
10473924353,berrinozdemir482,"Berrin ÖZDEMİR"
10480867841,nalanbudunoglu,"Nalan BUDUNOĞLU"
10484883627,defnecetin4521,"Defne Çeti̇n"
10491899071,26apoicbay498,"Apo İçbay"
10445346915,mustiservet6747,"Musti SERVET"
10478346691,elvinbulut5186,"Elvin BULUT"
10498098329,berrintopalkara,"Berrin Topalkara"
10563966071,canselvural317,"Cansel Vural"
10596676136,melisbalci139,"Melis BALCI"
10599363753,46faikuzuncan148,"Faik UZUNCAN"
10610155212,sehertuncer8,"Seher Tuncer"
10617130772,59rabiatopcu805,"Rabia TOPÇU"
10638257219,besteozcan2530,"Beste ÖZCAN"
10638769129,16zeynepcan660,"Zeynep CAN"
10654416355,yuzer2729,"Sudenaz Yüzer"
10404983761,ekinci8809,"Nurdan Eki̇nci̇"
10423911736,fikrieroglu23,"Fikri EROĞLU"
10402735658,nuryuksel476,"Nur YÜKSEL"
10426015320,gozugul_sirin,"Şirin Gözügül"
10433030419,gulsenates494,"Gülşen Ateş"
10444038162,esenyildiz361,"Esen Yildiz"
10444070126,sagcan6756,"Gülhan Sağcan"
10445462058,cembolat32,"Cem BOLAT"
10447590002,68volkanozdemir60,"Volkan ÖZDEMİR"
10471620524,somay3278,"Raziye Somay"
10471140395,52aylinerat928,"Aylin ERAT"
10472116393,sirzaihayal,"Hayal ŞİRZAİ"
10446420323,hepkaya.yonca,"Yonca Hepkaya"
10492338949,tansugulec6,"Tansu Güleç"
10496034817,suveran7232,"Kahraman SÜVERAN"
10504906321,hamzadeniz1570,"Hamza DENİZ"
10512041738,cinpolat8987,"Yusuf Çi̇npolat"
10563822203,33melisabasaran128,"Melisa Başaran"
10572341522,recai1730,"Recai DÜZKALIR"
10578317058,yeral8147,"Dogukan Yeral"
10587604688,soykamer8163,"Nilay Soykamer"
10596164217,67aliyebabacan759,"Aliye BABACAN"
10616434871,celiloglu.zeynep,"Zeynep Celi̇loğlu"
10617666738,nisayilmaz1206,"Nisa YILMAZ"
10618778635,adaatak,"Ada ATAK"
10624114474,sivri4599,"Peri Si̇vri̇"
10603882240,hasibeyavuz74,"Hasibe Yavuz"
10630841780,asilyildiz942,"Asil YILDIZ"
10635289572,ecesahin7084,"Ece Şahi̇n"
10638609429,buketkoseoglu5619,"Buket Köseoğlu"
10638337387,azakferide,"Feride AZAK"
10643056993,enver1628,"Enver DALYAN"
10605288855,oguzdursun3559,"Oguz Dursun"
10645176263,esmaozturk7302,"Esma Öztürk"
10423943744,begumatik86,"Begüm Ati̇k"
10427983511,94aysegulakcayir594,"Aysegül AKÇAYIR"
10425351436,kocayigit5892,"Burçin Kocayi̇ği̇t"
10423942992,tanjupinarbasili,"Tanju Pinarbaşili"
10435070950,abdurrahmankaya5993,"Abdurrahman Kaya"
10434398929,alaaddinarslan2284,"Alaaddin ARSLAN"
10458093261,hayatibozkurt577,"Hayati BOZKURT"
10460773110,tamerguclu32,"Tamer Güçlü"
10460892967,mahsun7417,"Mahsun HASSAN"
10436380907,perihankaya335,"Perihan Kaya"
10471532486,ekineraslan8163,"Ekin Eraslan"
10477859831,vahit_tilbe,"Vahit Ti̇lbe"
10507425821,senanurakyol578,"Senanur Akyol"
10506713806,demiray3413,"Ceyda Demi̇ray"
10509017793,senaygokturk1051,"Şenay Göktürk"
10510289716,15ipekkosker373,"Ipek Köşker"
10504609492,oztas2523,"Taha Öztaş"
10570661483,28halitozdemir966,"Halit ÖZDEMİR"
10584004656,8gulayman961,"Gul AYMAN"
10597948075,gulen2863,"Anil GÜLEN"
10593467742,37fatmamerden792,"Fatma MERDEN"
10607587416,52irembicer943,"Irem Bi̇çer"
10607219399,kubraaydin9757,"Kubra Aydin"
10607979335,mursel6222,"Mürsel DEMİRKAPI"
10608643319,gokankaya8546,"Gökan KAYA"
10620698596,bastemir_naim,"Naim Baştemi̇r"
10620706455,serkandincer86,"Serkan DİNCER"
10623698079,gozdearslan33,"Gözde ARSLAN"
10618929914,cebeci4400,"Münevver CEBECİ"
10630017829,nerimankavurgaci,"Neriman KAVURGACI"
10641913065,alexcengiz664,"Alex Cengi̇z"
10651752444,cebeci7478,"Dilek Cebeci̇"
10652320302,selcanyilmaz622,"Selcan YILMAZ"
10652080253,derman3264,"Derman DEMİRHAN"
10654104158,periisik7060,"Peri IŞIK"
10653320142,61arifeilgen988,"Arife İlgen"
10417695746,batmazsakine,"Sakine Batmaz"
10423447643,hicranunal6616,"Hicran Ünal"
10430063123,mariadogan33,"Maria Doğan"
10447022138,cinkir1690,"Nermin Çinkir"
10446566057,57mugeakman711,"Müge Akman"
10449629740,berengulsan1,"Beren GÜLŞAN"
10449573419,candancelik551,"Candan ÇELİK"
10466844762,akcayir7081,"Kaptan AKÇAYIR"
10468660754,ozdemirkiran.mine,"Mine Özdemi̇rkiran"
10487331567,guvercin7920,"Münevver Güverci̇n"
10504610425,cilemkaraca422,"Çilem KARACA"
10504634173,93nurcanertem11,"Nurcan Ertem"
10510257920,memetoglu5504,"Çağla MEMETOĞLU"
10509625817,nusret.iplikci,"Nusret İPLİKÇİ"
10510593716,olcay9980,"Olcay İLBAY"
10513145699,kubrakaradeniz49,"Kubra Karadeni̇z"
10583556925,eminekoksal6754,"Emine KÖKSAL"
10589836377,erenkaradeniz390,"Eren Karadeni̇z"
10597379545,melikekilic8,"Melike Kiliç"
10611515062,ademcelik2869,"Adem Çeli̇k"
10611402966,tayfungul75,"Tayfun Gül"
10616122806,figenkaraoglanoglu,"Figen Karaoğlanoğlu"
10622458444,alimerdogan5152,"Alim Erdoğan"
10624786219,rumeysaakyol78,"Rümeysa Akyol"
10625866000,76edanurkavukoglu869,"Edanur KAVUKOĞLU"
10630537921,imdat2431,"Imdat İnanmaz"
10631641903,nazmiyeakdemir7,"Nazmiye Akdemi̇r"
10636737507,rojdatemel33,"Rojda Temel"
10638129228,berrinkarahan68,"Berrin Karahan"
10649248518,bahattincelik7905,"Bahattin ÇELİK"
10424159412,salihalevent5259,"Saliha Levent"
10412774865,tunahanozdemir8054,"Tunahan Özdemi̇r"
10434094841,ozdemirkiran922,"Rahime ÖZDEMİRKIRAN"
10439742553,aynurmert5965,"Aynur Mert"
10446510089,mahsum7716,"Mahsum Öztürk"
10448517780,galip.gerdan,"Galip Gerdan"
10449693722,vedatozdemir933,"Vedat Özdemi̇r"
10430029349,arpat9820,"Talha Arpat"
10461445196,cilemakinci4403,"Çilem Akinci"
10468804566,mercankilic1980,"Mercan Kiliç"
10474068559,kivrak3571,"Gökçe KIVRAK"
10476132232,nehirkose38,"Nehir KÖSE"
10474228189,feridekir7881,"Feride KIR"
10475988134,perihanguler82,"Perihan GÜLER"
10480995888,gokhankankilic7,"Gökhan KANKILIÇ"
10487259253,muzeyyenbasaran9,"Müzeyyen BAŞARAN"
10494234703,muhammedcetinkaya96,"Muhammed ÇETİNKAYA"
10496098663,dagdelenfikriye,"Fikriye DAĞDELEN"
10496986637,mukaddesisik1737,"Mukaddes IŞIK"
10497034545,vedatbulut499,"Vedat BULUT"
10495961937,fundasahin715,"Funda ŞAHİN"
10506241825,tokat3556,"İlayda Tokat"
10561734313,ibisoglu4477,"Ecem İBİŞOĞLU"
10573837537,pusatnar5,"Pusat NAR"
10578437215,reissimsek28,"Reis Şi̇mşek"
10579269038,gokay.olgac,"Gökay OLGAÇ"
10586220808,sebahattin6681,"Sebahattin ÇOMUT"
10599803730,poyrazdogan747,"Poyraz Doğan"
10592547650,bedri_osmanca,"Bedri Osmanca"
10610731116,dogukankaratas87,"Dogukan Karataş"
10609995104,banubayram17,"Banu BAYRAM"
10617562701,gokay6209,"Gökay Mi̇rza"
10620450510,87sedeftasar345,"Sedef Taşar"
10623322496,gencpinar8688,"Ozlem Gençpinar"
10629721926,sokerfatos,"Fatos SÖKER"
10637249403,damlapolat84,"Damla POLAT"
10644464906,ergunozen5626,"Ergun ÖZEN"
10646576756,lutfiyebasar55,"Lütfiye Başar"
10650984401,nazmiyildiz188,"Nazmi Yi̇ldi̇z"
10653016363,11songulkarakoyunlu64,"Songül KARAKOYUNLU"
10422055875,aygulsezgin4536,"Aygül Sezgi̇n"
10424487325,fadimeocak4410,"Fadime Ocak"
10460653072,kocarslan8178,"Sabahattin Koçarslan"
10470100460,akbudak4078,"Ayşen Akbudak"
10473924351,yasan1124,"Helin Yaşan"
10491275117,aydugan9182,"Azra Ayduğan"
10494666789,ferman3133,"Ferman GÜNDÜZ"
10498154527,abdullah13057,"Abdullah 1"
10506745987,serbetci7713,"Şerife ŞERBETÇİ"
10475433973,3cenkkala172,"Cenk KALA"
10506425901,hayriyebicer884,"Hayriye Bi̇çer"
10508785804,aytenucgul51,"Ayten ÜÇGÜL"
10563750188,turkerilhan57,"Türker İLHAN"
10573053584,99alevkaya600,"Alev KAYA"
10572885495,sarac1027,"Berra SARAÇ"
10578421253,elmascandan64,"Elmas CANDAN"
10586404772,gulayyildiz88,"Gul Ayyildiz"
10586276604,mersin6567,"Ceylan Mersi̇n"
10604827579,tacettindemircan9,"Tacettin Demi̇rcan"
10604378933,burcinboluk393,"Burçin BÖLÜK"
10618026811,hazarince617,"Hazar İnce"
10639337322,gamzesimsek524,"Gamze ŞİMŞEK"
10639329115,gozcu1390,"Zehra  Gözcü"
10642537045,sivri8201,"Cemal Si̇vri̇"
10639800698,nejla7157,"Nejla Kirlangiç"
10649176520,altinsoy4371,"Reyhan Altinsoy"
10650528136,97selcanyildirim952,"Selcan YILDIRIM"
10653560063,bozarslan1981,"Çiğdem BOZARSLAN"
10657936000,91salihkeskek66,"Salih Keşkek"
10419687932,seymakoksal82,"Şeyma Köksal"
10424591672,14fatmanurkaya90,"Fatmanur KAYA"
10426351563,selimkaya989,"Selim Kaya"
10429431423,sertan3065,"Sertan Türkay"
10443734586,31alpaslanyilmaz166,"Alpaslan YILMAZ"
10443430378,hamideyildirim12,"Hamide YILDIRIM"
10442462355,kocaman2571,"Son KOCAMAN"
10424158294,koraydogan3304,"Koray DOĞAN"
10444334192,sudeniz9072,"Su DENİZ"
10448398169,aslaner2031,"Rabia Aslaner"
10455605336,selimince555,"Selim İnce"
10464628921,gozacanecem,"Ecem GÖZAÇAN"
10468028692,dokmeci8703,"Handan Dökmeci̇"
10473020402,tubamenekse81,"Tuba Menekşe"
10481923760,musalar3907,"Rafet Musalar"
10481995149,guvencelik3861,"Güven ÇELİK"
10497178588,47fikrikebapcilar573,"Fikri KEBAPCILAR"
10504330321,ekindurmus32,"Ekin Durmuş"
10504370168,kahreman6084,"Şaban KAHREMAN"
10504618166,konuralp2367,"Neriman Konuralp"
10513225542,kelerciogluhamide,"Hamide Kelerci̇oğlu"
10564614101,huseyinakin7711,"Hüseyin AKIN"
10563885952,melikebilgic76,"Melike BİLGİÇ"
10578117159,kutlar3905,"Nilüfer Kutlar"
10585100695,berrinvural4092,"Berrin Vural"
10593468285,nasuhbeyoglusevki,"Şevki NASUHBEYOĞLU"
10599708005,aleveren9552,"Alev EREN"
10606011565,gurhanadisanli,"Gürhan Adisanli"
10615058845,mumcuoglu2707,"Nagihan MUMCUOĞLU"
10623554303,ozlemeroglu605,"Özlem Eroğlu"
10624226264,kocarslan9784,"Aysegül KOÇARSLAN"
10623234262,sadierkan47,"Sadi ERKAN"
10624330119,molla9835,"Cemal MOLLA"
10632961575,haci_duz,"Haci DÜZ"
10623120251,sil.alihan,"Alihan Si̇l"
10441550519,yorganci4888,"Efe Yorganci"
10445214381,derinlevent7,"Derin LEVENT"
10450373892,eryavuz1394,"Nursel ERYAVUZ"
10458285280,cipe6767,"Nuri Çi̇pe"
10457205186,izgi8501,"Gülhan İZGİ"
10463644361,gumuscubeste,"Beste Gümüşçü"
10476588152,boluk5920,"Aydın Bölük"
10480467796,yagmurdincer687,"Yagmur Di̇ncer"
10493107193,beyza.dokmeci,"Beyza Dökmeci̇"
10511697778,buyukbulut1139,"Memet BÜYÜKBULUT"
10513977363,tepe2665,"Candan TEPE"
10581117136,berfinyancar,"Berfin Yancar"
10581804830,88niluferertekin365,"Nilüfer ERTEKİN"
10585948721,sevalyucel7353,"Seval YÜCEL"
10605211490,ersoy.ekiz,"Ersoy EKİZ"
10621514458,mahmutkulaksiz7,"Mahmut Kulaksiz"
10597969265,ufacik673,"Eylem Ufacik"
10641673029,cisem3797,"Çisem Yazici"
10421415821,gulerdemirel6479,"Güler DEMİREL"
10428055253,lemanerdogan84,"Leman ERDOĞAN"
10442926395,tasdelen9942,"Sabiha Taşdelen"
10443422315,sirintastekin,"Şirin TAŞTEKİN"
10445254175,yurek9712,"Sevtap YÜREK"
10447205948,rahimbozarslan,"Rahim BOZARSLAN"
10453453770,yasminkaya7982,"Yasmin KAYA"
10453261658,koroglu_seref,"Şeref KÖROĞLU"
10442861202,yoncakilic28,"Yonca KILIÇ"
10466804929,hikmetsezer9345,"Hikmet SEZER"
10486515465,zuleyhasahin4115,"Züleyha Şahi̇n"
10499714352,83sanemkesgin302,"Sanem Kesgi̇n"
10510897734,boraozturk95,"Bora Öztürk"
10513849472,turkankaradeniz89,"Türkan KARADENİZ"
10514113409,31hamityildirim216,"Hamit Yildirim"
10265151937,cekic554,"Nuran ÇEKİÇ"
10263663251,kosker4430,"Ayça Köşker"
10574605542,korkmazoglu832,"Kudret Korkmazoğlu"
10584308881,37nurgenc807,"Nur GENÇ"
10645344808,kesgin3776,"Funda KESGİN"
10650496533,5kadriatmis294,"Kadri Atmiş"
10652656156,eylemsozen76,"Eylem SÖZEN"
10418799958,uguz6784,"Sedanur Uğuz"
10449381810,pervinkilic6977,"Pervin KILIÇ"
10443613106,83sabriyesevinc592,"Sabriye SEVİNÇ"
10472076402,55nihaleren886,"Nihal Eren"
10480219786,ziyabulut135,"Ziya BULUT"
10485427351,bozarslanlale,"Lale BOZARSLAN"
10496889229,gurcankayka,"Gürcan KAYKA"
10599363852,turkaybetul,"Betül Türkay"
10605691642,sonaykaran979,"Sonay KARAN"
10630761868,okcu5107,"Vildan OKÇU"
10641056915,51resitaslan492,"Reşit ASLAN"
10653256163,hayalkaya902,"Hayal Kaya"
10655032142,gurdal3083,"Candan Gürdal"
10415487397,nargalip,"Galip Nar"
10484035394,92birsenyildiz968,"Birsen Yi̇ldi̇z"
10486738844,yarenerol19,"Yaren Erol"
10584764720,78sunakilic590,"Suna KILIÇ"
10591940307,sevgidincer441,"Sevgi Di̇ncer"
10644696957,89aylainseloz266,"Ayla İnselöz"
10396967902,ecringurbuz7434,"Ecrin Gürbüz"
10497674380,ceyhunkaplan86,"Ceyhun Kaplan"
10570445627,79harunalbayrak353,"Harun Albayrak"
10586884717,ihsanmusalar,"Ihsan Musalar"
10599123787,zelihademirtas958,"Zeliha Demi̇rtaş"
10623058413,ilker_cimbek,"Ilker CİMBEK"
10453045535,gulsenkaya9943,"Gülşen KAYA"
10455653259,fahriorhan5,"Fahri Orhan"
10459853238,sabanakkaya4,"Saban AKKAYA"
10469116339,34semakarpuzoglu761,"Sema  Karpuzoğlu"
10503530246,34tansukorkmaz698,"Tansu Korkmaz"
10502586194,danisoglu3614,"Zelal Danişoğlu"
10439982394,98seyityalcin240,"Seyit Yalçin"
10451517881,melissacimen518,"Melissa Çi̇men"
10467548772,nebahatcicek7,"Nebahat Çi̇çek"
10475244272,kulac6340,"Kubilay Kulaç"
10567485978,tubayagan,"Tuba YAĞAN"
10623298206,karaaslan9182,"Nurcan KARAASLAN"
10647280571,haticekol9879,"Hatice KOL"
10417887973,meltem18310,"Meltem 1"
10443606306,agca2997,"Berk Ağca"
10482907623,mutluerumut,"Umut MUTLUER"
8517864787,laurenciusraphael,nice/try
10503218208,bilici2020,"Demet Bi̇li̇ci̇"
10505850200,gulsenkilic5166,"Gülşen Kiliç"
10493194597,narindemirel259,"Narin DEMİREL"
10625130072,ferdaakbas68,"Ferda AKBAŞ"
10506689976,27ozlemyanardag934,"Özlem Yanardağ"
10607219465,dirican2008,"Cansel Di̇ri̇can"
10646928757,nuroren521,"Nur ÖREN"
10566261945,99fermancolak611,"Ferman ÇOLAK"
10511009770,mahirkarli45,"Mahir KARLI"
10513729534,nuranergun78,"Nuran Ergün"
10452341412,ugurcankeskin86,"Uğurcan Keski̇n"
10602611644,asyaelci9702,"Asya Elçi̇"
1228502371,violitagemaf,VIOL🦄
10584532811,7ercumentayik154,"Ercüment Ayik"
10594508220,5hayriturksoy893,"Hayri Türksoy"
10627921910,turanoglu7060,"Gülnur Turanoğlu"
10459533111,candemir303,"Selin Candemi̇r"
10482531439,veysi_tekir,"Veysi Teki̇r"
10617194638,ustundag4351,"Berk Üstündağ"
10472500315,kiraslanhalis,"Halis KIRASLAN"
10476876167,huseyni_mustafakemal,"Mustafa kemal HÜSEYNİ"
10615074849,nergizselim6,"Nergiz SELİM"
10654648055,makbulegokce1148,"Makbule Gökce"
10416303954,keskek1390,"Çiçek Keşkek"
10494490731,ranayigit8164,"Rana YİĞİT"
10452725528,emel.erdag,"Emel Erdağ"
1564431251,devi_wedayanti,"Devi Wedayanti"
10590692118,ksp_nova_kristanto0,"KSP Nova Kristanto"
8648660471,elsempoi,elsempoiiii
10575628124,wahyupratamaid,"Wahyu Pratama"
1503194698,andridhh,"Andri Dwi Hartanto"
7521775229,rammclasico,"Ramm Clasico"
2520913872,arahnegara,"Isu Politik Millenial"
6062104280,oktavia9289,
6264423466,mactime.id,"BARANG BRANDED ORI TERMURAH"
610307461,vian_kl,
7366271235,pummoooosky,Chongchit
10020659295,gotaholiday,"Jual Tiket Pesawat Promo Murah"
6600449531,dwianggiapermadi,"Dwi Anggia Permadi"
623171093,yunyunie_jojo,"one rahardjo"
6612089740,lathifah_riyyasy_juhaida,"lathifah riyyasy juhaida"
10351154789,batik.id_collection,"BATIK ID_COLLECTION"
3547025057,haniffah.mi,Haniffahmi
7014169962,wulannastiti411,Nanas
8534206873,afuan_asyura,"afuan ayura"
1381026900,thessalonicaleonny,Leonny
4173289381,tricase_id,"CASE BRANDED IPHONE OPPO"
9193515332,hlindaekaningtyas,"HLinda Ekaningtyas"
1988320245,justfor_onlineshop,"Only For Olshop"
3603427557,din.dindo,"Dindin badindin oi"
9368354766,romanova68094,"Iuliia Romanova"
5443292262,schirber_b,"schirber bridgett"
3211748839,atmaja.jati,atmajajati
8197284307,instawow_pages,instawow_pages
10566747370,sachio313,Sachio
6219752564,bocaheval,"Ars 1 Ars"
6189760175,almania_sepatuanak,"sepatu lampu anak"
2178661786,khabkhun_thaitea,"khabkhun thai tea official"
10204043905,cyin.cyin,•👙🛍👜👠💄🔮✨
316779140,anggitarzq,Anggita
3226112371,grace.shopaa,Grace.shopaa
6326078088,deore.id,"SUBSIDI ONGKIR VIA SHOPEE"
4029305638,_rimaaaaaaa_,
8549198820,bisnis_paytren_mantap,Bisnis_Paytren_Mantap
4301269200,fitria_dropnshop,"OFFICIAL MYDROPNSHOP"
9261428725,lisnas768,Lisnasari
7216806278,setiyadi_soewonoputro,"heru setiyadi"
9549892788,arumkemangibatik,"Batik Premium | Batik Pejabat"
9202540842,bestos.id,Bestos.id
8606113769,maul_ana.paytren,"Maulana Ibrohim"
3886739871,skayeyey,
7595262166,kenzomicheal,"Kenzo Micheal"
3546214295,bundabellazaza,"Bunda Bella Zaza"
207089401,gracielanabelle,"S Anabelle Graciela K | 沈佩珊"
9215993443,jannah_indo,"TIENS TERMURAH + FREE ONGKIR"
1964214062,suherni310,"ernie jhubek"
6326032613,thecanvas.id,"SUPPLIER KAOS POLOS"
10338223509,tinaheleora,"Tinah Eleora"
10431161210,amanah125,AMANAH
1052261511,caramelouxx_,
9960037280,arjunashop84,Jamtangankeren
2749046644,_iimaam_,"Imam Samudera"
5602531929,people_tiens.02,FREEONGKIR+TERMURAH+TERPERCAYA
874113990,wowskinindo,"Wowskin Serum Indonesia"
1696632864,nurfellabeauty_indonesia,"NB Scar Acne  Cream Therapy"
9887816707,cewthetic,"CEWEK WAJIB MAMPIR"
7147261681,farizi__14,Farizi
7498795856,_nurutamii_,"نور ويوتامي هيدايانتي"
6960828380,ralkhalif,Rmdylen
1972223111,bandung_customdenim,"Vendor Denim & Cargo"
8228909532,princejalali143,"asraf jalali"
6979150929,decali_shop,"decali shop"
3108109826,callistaptr_,
1573243820,aiziez,"Ibnoe Aiziez"
3661830035,christiannadjamuddin,"Barista - Drummer"
3970930997,grosiran_jam_tangan_termurah,"RL COLLECTION"
9159556177,wdy__collection,"TUNIK GAMIS HIJAB KAOS"
4334782565,lukman_910,"Muhammad Lukman Mustofa"
1989004677,koperpink_,Chill.
3633188556,danielnohan,"PoK NyaA ( DaNiEl )"
1224799916,nacl2010,"Ezike Simon Sunday"
6105409030,susiloedri,"Edri Susilo"
558252848,hedwigfebby,"Febby Puspitarini"
6073150848,moreprodkms_,"🔵Свежие Морепродукты"
8067717561,watch.idjkt01,"LAPAK JAM TANGAN TERMURAH"
539603678,wisnumaulana,"wisnu maulana"
8613930248,netizenya,
3208241497,alivah75,"sri Alivah"
6534582563,jam_tangan_alexander_original,"Jam tangan original"
4606329526,anwarblaze_,"M Khaerul Anwar"
2949205077,offical_sahil_singla,"Sahil Singla"
9471983718,herbal_spirulina.id05,"🌱JUAL MASKER SPIRULINA ORI 🌱"
4362355116,jamileth888,Ale
2137486436,secondjoss,"SecondJoss Semarang"
6439317430,twentysixvinx,
7436501742,laksmimhr,"Siti Laksmi Maharani"
2346558245,favfood.co,"Food Lovers Jabodetabek"
7546889732,gustiayu1990,"gusti ayu"
9370259947,bossyofficialclothing,"🅑🅞🅢🅢🅨 🅞🅕🅕🅘🅒🅘🅐🅛"
7890851570,keisecacc,keikei123
7721369242,ndahpusp,"Indah Puspita Sari"
8093290344,ashilarizqia,"Ashila Rizqia Ramadhani"
9851761189,ashiillachristie,"Ashilla Christie Caroline"
1548046940,bilakautiba,"Nabila S"
382728078,fitiyah,
1209388429,nathanielgosti,"Nathaniel Christianto Gosti"
1485854814,sandalkakikuproject,"SANDALKAKIKU INDONESIA"
5186344696,m_rafi070804.akmal,@Rafi_Akmal
786020673,baguswiat,"Bagus Wicaksono"
372578247,nerrviana,"Nerissa Arviana✨"
9943350376,dikarstore,"toko online jam tangan"
4043809340,heivikss,"V I K A 🌸"
2217362751,rizkisepta_,"Rizki Septa Rismansyah"
9991306951,gulelmas3441,"Gül Elmas"
3107784380,noni_khonsa,"east borneo"
3259453470,pizza_lasagna,lol
6368030805,kmt_garage,"SALE ADVISOR🔹INSURANCE🔹ROADTAX"
7377545136,fashion_fafashop,"Hijab Murah"
1398732213,lis_ningrumtya,"MsGlow Reseller Lombok"
1430738663,eiz_89,"Eiz Karmila"
9780519987,52ejderarpat130,"Ejder Arpat"
10085252603,baskak4423,"Ecrin BAŞKAK"
10116338426,habibuyar5,"Habib UYAR"
10119986190,fakioglu884,"Özgür Fakioğlu"
9972683531,makbulegursoy378,"Makbule GÜRSOY"
10083146325,10seyitgumusay792,"Seyit Gümüşay"
9928314703,gokceates60,"Gökçe ATEŞ"
9918599016,perihankaya78,"Perihan Kaya"
10140328817,ruyaakgul144,"Rüya Akgül"
10146384245,inan.bozarslan,"Inan Bozarslan"
9964372049,ekingenc8128,"Ekin GENÇ"
9932342184,23yagmursekerler273,"Yağmur ŞEKERLER"
10119682161,melisbabacan28,"Melis BABACAN"
10018424187,cennetceylan7536,"Cennet Ceylan"
10083220391,nihalakgul387,"Nihal Akgül"
10145936383,sudenaz2693,"Sudenaz MÜEZZİNOĞLU"
10122801394,ecrinsuzan5454,"Ecrin Suzan"
10009032632,64melihaarkan149,"Meliha ARKAN"
9974802785,karabag9677,"Kamuran Karabağ"
10020456002,melisaatay9324,"Melisa Atay"
10129353475,rumeysayilmaz796,"Rümeysa YILMAZ"
10119194175,birgulozkan5133,"Birgül Özkan"
9931540400,ilknurkaragoz703,"Ilknur Karagöz"
10112050707,kalem9668,"Seda KALEM"
9915991599,30aliosmanbagcik54,"Ali osman BAĞCIK"
10095819829,elverdi9802,"Ayse ELVERDİ"
9938805966,selintanrikulu743,"Selin Tanrikulu"
9905054161,kahya5539,"Ayşegül KAHYA"
9956268455,berrinyavuz632,"Berrin Yavuz"
9927358738,meralbaskan45,"Meral Başkan"
10101835518,adali2611,"Duygu ADALI"
9984122667,niyazikarakas29,"Niyazi KARAKAŞ"
10146672473,havvayilmaz541,"Havva Yilmaz"
9991416803,berk.celebi,"Berk ÇELEBİ"
9956988705,kamileakbas924,"Kamile AKBAŞ"
9924358983,caliskanturk798,"Leman Çalişkantürk"
9963443524,sagcan6531,"Nurdan SAĞCAN"
9786021639,karadurak931,"Hayal Karadurak"
10110554840,nilkoc464,"Nil KOÇ"
9992057938,karagoz1874,"Beyhan KARAGÖZ"
9928822765,nehirkol33,"Nehir KOL"
9977850899,karaagac4474,"Hacer KARAAĞAÇ"
9970616439,apaydin4275,"Ümit Apaydin"
10100667602,zahideduran5107,"Zahide DURAN"
9954740839,99sonayaslaner672,"Sonay Aslaner"
9971411548,uzunca5791,"Utku UZUNCA"
9961332397,olgen.rifat,"Rifat OLGEN"
9952684286,berrakaksoy1654,"Berrak Aksoy"
9924246914,zaim590,"Kardelen ZAİM"
10106306967,75ipekkebapcilar932,"Ipek KEBAPCILAR"
10105722797,zelalsen36,"Zelal Şen"
10010960687,nuraykilic5091,"Nuray KILIÇ"
9875983286,elcin.sevuk,"Elçin SEVÜK"
9743207575,yasar3158,"Yasar Kaçer"
9992442090,ozturkeri9416,"Irmak ÖZTÜRKERİ"
9908455860,muzeyyenceylan3,"Müzeyyen CEYLAN"
9996072340,nadirten9,"Nadir TEN"
9935806206,83esinazak161,"Esin AZAK"
9936789958,kagan7244,"Kağan KOLSUZ"
10129801365,kulaksiz4160,"Aysu KULAKSIZ"
9992338084,sevimcetinkaya561,"Sevim ÇETİNKAYA"
10002064558,65cemalozdenoglu97,"Cemal ÖZDENOĞLU"
10091891649,nalbant5007,"Reyhan NALBANT"
9934821541,beyhanatila3,"Beyhan ATİLA"
9996585871,nurtenerdogan805,"Nurten ERDOĞAN"
9781375747,nihalkaplan4466,"Nihal KAPLAN"
9774039116,masaldede6,"Masal DEDE"
10139584668,bircan9647,"Bircan YILDIZ"
9955667363,samiozdemir19,"Sami ÖZDEMİR"
10107793544,uyanik4377,"Damla UYANIK"
9783199971,kirhan772,"Sude KIRHAN"
10141696683,ayranci2418,"Yuksel Ayranci"
9878943818,ozaslan_necmi,"Necmi ÖZASLAN"
9905799987,leventtemel83,"Levent TEMEL"
9923167093,sengulkahraman2,"Şengül Kahraman"
9784999785,sencan5411,"Kamile ŞENCAN"
9931941928,hilmikilic722,"Hilmi KILIÇ"
10090476252,berenkilic726,"Beren Kiliç"
10144840433,tacettinerdogan72,"Tacettin ERDOĞAN"
10114570586,pervinbas8,"Pervin Baş"
9966291622,berkant_mertol,"Berkant Mertol"
9987114361,evmez_mithat,"Mithat EVMEZ"
10091451885,55gokayaluclu534,"Gökay Aluçlu"
10113610365,haticeakin376,"Hatice Akin"
9786183495,tugbaozer722,"Tuğba  Özer"
10131065238,edayucel588,"Eda YÜCEL"
9753055531,48aydinbudunoglu600,"Aydın BUDUNOĞLU"
10125049818,asudemirel7,"Asu DEMİREL"
10147488173,sacli2083,"Türkan Saçli"
9949101178,sinasi_ersoz,"Şinasi Ersöz"
9962859287,orta1545,"Sevil ORTA"
9783823850,senguleroglu2821,"Sema  ŞENGÜLEROĞLU"
9765142882,cemre.tola,"Cemre TOLA"
9965547892,cigdemunal42,"Cigdem ÜNAL"
9986986157,mikailyilmaz6152,"Mikail YILMAZ"
9964436022,olgunuysal237,"Olgun UYSAL"
9940541931,22nursencamur607,"Nurşen Çamur"
10146616309,berent1339,"Hüseyin Berent"
10119945799,yesimakyol9146,"Yesim AKYOL"
10010760587,baranyilmaz4627,"Baran Yilmaz"
9908789774,inciyildirim7418,"Inci YILDIRIM"
9954292738,ridvan_kesik,"Rıdvan KESİK"
10013880285,11sonayyaci905,"Sonay Yaci"
10146688265,demirturk_perihan,"Perihan DEMİRTÜRK"
9934732803,firatcoskun2603,"Fırat COŞKUN"
9982146455,kavurgacifuat,"Fuat Kavurgaci"
9984224375,rasimozcelik49,"Rasim ÖZÇELİK"
10103675359,aksahin7593,"Emre AKŞAHİN"
9780126547,hasretucar279,"Hasret Uçar"
10084676553,asilturkay9732,"Asil TÜRKAY"
9936732153,ozek8255,"Cemile Özek"
9974851202,yonca_buyukdogan,"Yonca Büyükdoğan"
10135616952,laledogan62,"Lale Doğan"
9962211800,pervintunc5384,"Pervin TUNÇ"
10084972210,daraman3419,"Sevim DARAMAN"
10088506586,tasdelen3243,"Hayal TAŞDELEN"
9983650665,fikriyeozdemir920,"Fikriye ÖZDEMİR"
9923589568,seherakbas10,"Seher Akbaş"
9705157755,koca2820,"Ünal KOCA"
10112497423,kuyucu.lokman,"Lokman KUYUCU"
9987026514,86asilyaci52,"Asil YACI"
9945128706,melahatacar90,"Melahat Acar"
9939653886,41sirinturkyilmaz62,"Şirin Türkyilmaz"
10015112391,akinci9385,"Fadime AKINCI"
10088756414,yuce_habib,"Habib Yüce"
9974491261,candan.turmus,"Candan Turmuş"
9964115832,seldasert206,"Selda SERT"
9989098274,erzurum832,"Nigar ERZURUM"
9724895942,cumali4864,"Cumali Aslan"
9910597595,gokmeydan9327,"Ilayda GÖKMEYDAN"
9766494479,caglarturgut8,"Çağlar TURGUT"
9979874413,suzanbolat458,"Suzan Bolat"
9997001522,elmassuman15,"Elmas SUMAN"
10119073842,soylemez9586,"Mihriban SÖYLEMEZ"
10094315752,ozlemyilmaz8050,"Ozlem YILMAZ"
9932486060,nilaydogan61,"Nilay Doğan"
10108721791,38esatselvioglu749,"Esat SELVİOĞLU"
9936622173,ergoz6278,"Rabia ERGÖZ"
10009880254,gelegen2566,"Firat GELEGEN"
10084172267,45fuatkaraalp838,"Fuat Karaalp"
9917291387,lalesarp539,"Lale SARP"
9955500864,burcinerkan46,"Burçin Erkan"
9999361653,78gulistancansever308,"Gülistan CANSEVER"
10110994652,dogankaya892,"Dogan Kaya"
10111834620,zubeyir5019,"Zübeyir Candan"
10133904964,senguleroglu_zekai,"Zekai Şengüleroğlu"
9786431478,cinarlik3251,"Olcay ÇINARLIK"
9992521445,eminegundogdu279,"Emine Gündoğdu"
9760791032,nergizyilmaz6846,"Nergiz YILMAZ"
9932014277,ulgen1203,"Kamuran Ülgen"
9974755417,pirim_cihat,"Cihat PİRİM"
10105203084,belginkus5983,"Belgin KUŞ"
10128145142,hilalgokcek8844,"Hilal GÖKÇEK"
10105899079,cavit2858,"Cavit ŞEN"
10117553238,meralozcan79,"Meral ÖZCAN"
9789719208,kamile.soyler,"Kamile Söyler"
10082572742,dilmen872,"Selma DİLMEN"
10110258767,ihsancelik84,"Ihsan ÇELİK"
10114962471,akaslan_yonca,"Yonca AKASLAN"
10110729633,nurayorhan833,"Nuray ORHAN"
9978946948,reyhanarslanoglu5,"Reyhan Arslanoğlu"
10086771501,59elvanboduroglu569,"Elvan BODUROĞLU"
10097642067,guney_kolsuz,"Güney Kolsuz"
9945268089,akkas_coskun,"Coşkun Akkaş"
10128265501,ridvan_kiziltepe,"Ridvan KIZILTEPE"
9956395243,uruc6577,"Şule URUÇ"
10104226791,tezel8378,"Sabriye Tezel"
10145496073,34alaraesmeray288,"Alara ESMERAY"
9779983719,kizanoglu6520,"Suna Kizanoğlu"
10117978125,belginozbek6890,"Belgin ÖZBEK"
9970330193,nevzatyildiz675,"Nevzat Yildiz"
9930070119,30berratarlan124,"Berra Tarlan"
10106466625,cagil7206,"Sevilay ÇAĞIL"
9941492329,kudretdogan126,"Kudret Doğan"
9894191625,tanju7882,"Tanju GÖZCÜ"
10132345241,gunes9410,"Cemile Güneş"
9927597638,ozgeakyol211,"Özge Akyol"
10000297499,meltemcetin25,"Meltem ÇETİN"
9992338054,sevdacelik939,"Sevda ÇELİK"
9789655446,deveci5286,"Nilgün DEVECİ"
10098474075,handebal911,"Hande BAL"
9793237903,tazeoglu_ruya,"Rüya TAZEOĞLU"
9938909907,semanurozturk71,"Semanur Öztürk"
10149224197,ilknurvural73,"Ilknur Vural"
9926574459,62asiyeyurdakok983,"Asiye Yurdakök"
9966747804,muzeyyencandan16,"Müzeyyen CANDAN"
10092244052,mukaddes.akova,"Mukaddes AKOVA"
9960460531,tutas6961,"Büşra TUTAŞ"
10109650181,bugrakoc20,"Buğra Koç"
10080356750,ozlembag12,"Ozlem BAĞ"
9920959203,nihanerdogan7333,"Nihan ERDOĞAN"
9958196459,akyilmaz.taha,"Taha AKYILMAZ"
9985080733,sedauysal50,"Seda UYSAL"
9976019131,serhatguven66,"Serhat Güven"
10016352217,tacettin_ozdamar,"Tacettin ÖZDAMAR"
10104267298,kasikci7441,"Caner KAŞIKÇI"
9918319177,asuuzun87,"Asu UZUN"
10122754036,cesur.dede,"Cesur DEDE"
9928118774,dirican6891,"Songül DİRİCAN"
10009712261,alihaneyup3880,"Alihan EYÜP"
10088980423,mehtapozkan791,"Mehtap ÖZKAN"
10081244923,cevat3170,"Cevat TOPALKARA"
10096707425,nagihansarikaya59,"Nagihan SARIKAYA"
10147384309,ebruyucel8181,"Ebru Yücel"
9941781647,eraslan9584,"Müge ERASLAN"
9986882339,artuc2753,"Asiye Artuç"
9784743359,karakurt4086,"Kazim KARAKURT"
10145472384,ahmedtas4674,"Ahmed TAŞ"
9967602167,daglioglu8102,"Servet DAĞLIOĞLU"
10093555940,aysecakir7024,"Ayse Çakir"
10129153115,dudu.ozaslan,"Dudu Özaslan"
10016240143,koca2899,"Atakan Koca"
10117602335,19firatozdenoglu471,"Fırat ÖZDENOĞLU"
9951778747,aykus9273,"Fikri Aykuş"
9931870284,golemez8439,"Songul GÖLEMEZ"
9977449571,seydakaya856,"Şeyda KAYA"
9937909580,senoz3278,"Mehmetcan ŞENÖZ"
9998705694,kayki.talha,"Talha Kayki"
9758462018,konuralp_asli,"Asli KONURALP"
10142080634,susarikaya1,"Su Sarikaya"
10128664093,hediyeyazici3412,"Hediye Yazici"
9790598909,karakoyun2998,"Semiha Karakoyun"
9915175648,paksoy.nizamettin,"Nizamettin PAKSOY"
9915934505,duysak_zeynel,"Zeynel DUYSAK"
9986234473,kubat3940,"Melissa Kubat"
9952836551,tanju9596,"Tanju TAŞ"
10103531302,45lemankircali611,"Leman KIRCALI"
9960844497,kaya_soykamer,"Kaya Soykamer"
10011872680,son.degirmenci,"Son DEĞİRMENCİ"
10083524721,ceydaozturk671,"Ceyda ÖZTÜRK"
10096491473,karakoyun3830,"Maria Karakoyun"
10147736163,urfali7192,"Rukiye Urfali"
9890990041,hikmet_yaci,"Hikmet YACI"
10129057456,duruk4215,"Bade Duruk"
9785455717,baysal5703,"Veli BAYSAL"
10118554134,aysegultekin275,"Ayşegül TEKİN"
9972107610,baziki2660,"Yeter BAZİKİ"
9742422535,sebnemyildirim879,"Şebnem YILDIRIM"
10101579364,nigarcoskun1,"Nigar Coşkun"
9929142559,karasu_timur,"Timur Karasu"
9871053964,tugbayildiz577,"Tugba Yildiz"
10008424697,rabiasu27,"Rabia SU"
9910789577,akbudak9874,"Ayla Akbudak"
9969747702,ercanmoran1,"Ercan MORAN"
9781614503,guray.cepni,"Güray ÇEPNİ"
9898510973,kankilic7004,"Cansu Kankiliç"
9965107723,figenozdemir1629,"Figen ÖZDEMİR"
10126481655,hulyaerdogan727,"Hülya  ERDOĞAN"
10000169123,hidayet2344,"Hidayet IŞIK"
10096153479,63seyfullahalmacioglu123,"Seyfullah ALMACIOĞLU"
9964419612,hayatikoksal72,"Hayati Köksal"
10003777249,ekinakcay1,"Ekin AKÇAY"
10115105692,suleyilmaz6747,"Şule Yilmaz"
9937677932,olmaz4947,"Kadriye OLMAZ"
9951572907,sebnemozcan357,"Şebnem ÖZCAN"
9909902892,denizakgul267,"Deniz Akgül"
9973393263,fatosburak5,"Fatos BURAK"
10147136212,coker1686,"Beyzanur Çoker"
10081451423,yalcinkaya_berfin,"Berfin Yalçinkaya"
10081004906,coskunaydin191,"Coskun Aydin"
10140296841,bulutavci8722,"Bulut AVCI"
9911855828,soylemez1894,"Ekin SÖYLEMEZ"
10095795756,bukum7514,"Özkan BÜKÜM"
9933717588,hilalbulut9528,"Hilal BULUT"
10018472213,tamer.azrak,"Tamer Azrak"
10017648033,koylu5912,"Adil KÖYLÜ"
10087996420,fatmanurkaba59,"Fatmanur KABA"
9794998991,tugrul8931,"Tuğrul YILMAZ"
9957244555,keklikcioglu6967,"Rojda KEKLİKÇİOĞLU"
10114786299,sametx278,SametX-27
3081836673,kevinguntur17,"Kevin Guntur"
9975298505,sanem.yasa,"Sanem Yasa"
9959155754,azra.erginel,"Azra ERGİNEL"
9949500211,12sedanurozkanli657,"Sedanur Özkanli"
9888830085,bayrak.fikri,"Fikri Bayrak"
10080027731,aytenizgi93,"Ayten İZGİ"
10129368223,diyarbasar39,"Diyar BAŞAR"
9963555540,gozugul532,"Bilge GÖZÜGÜL"
9947346584,yeldaerol893,"Yelda Erol"
9909997661,tiras8188,"Lara Tiraş"
9958211879,kir4020,"Nergis KIR"
10103114698,nimetduman5,"Nimet Duman"
9937997534,belma_onvermez,"Belma ÖNVERMEZ"
10001056662,tiras2362,"Zuhal TIRAŞ"
9893767744,20perikose590,"Peri Köse"
9794022459,baharkurt6246,"Bahar KURT"
10109298284,tugbayucel919,"Tuğba  Yücel"
9937276971,serbest5656,"Safiye SERBEST"
9933221707,tulintaskin654,"Tülin TAŞKIN"
10140984166,nazliozkan3062,"Nazli Özkan"
10126728183,nesecan6240,"Neşe CAN"
10085763634,kayihan8674,"Songül KAYIHAN"
9988257663,izgi_turan,"Turan İZGİ"
9897735177,turkoglu5082,"Banu TÜRKOĞLU"
9919974053,gulcinyilmaz56,"Gülçin Yilmaz"
9790766693,turgutbozkurt78,"Turgut BOZKURT"
9949219794,cengizhan1974,"Cengizhan Eren"
9973392592,erden6076,"Sinem ERDEN"
10142440081,kayabozkurt89,"Kaya Bozkurt"
9981536220,albayrak8996,"Münevver Albayrak"
9907823648,bukum6123,"Fatma BÜKÜM"
9993777314,avsar4344,"Yağmur Avşar"
9954356429,kucukyildiz8652,"Selin Küçükyildiz"
9907207530,bulentcelik592,"Bülent ÇELİK"
10093627156,heybet398,"Temel HEYBET"
10120689502,emrahmete139,"Emrah Mete"
10097299238,melekgunduz129,"Melek Gündüz"
9789718075,coskuner5699,"Melis Coşkuner"
10089690665,egemen2135,"Egemen Yüksel"
9988193550,gulsentuncer455,"Gülşen TUNCER"
10084628078,cinbiz_meliha,"Meliha CİNBİZ"
9928347783,caglacoskun299,"Çağla Coşkun"
9961091868,cosar7060,"Yasin COŞAR"
9789205351,unus.aysel,"Aysel Ünüş"
10093987415,cantay2030,"Derya CANTAY"
9979594142,kalipci255,"Serra KALIPCI"
9919670783,85lalecanatan489,"Lale CANATAN"
9957659907,ulusoy7104,"Jale Ulusoy"
9984441269,bekir_kesim,"Bekir KESİM"
9966651247,serdaryildirim9608,"Serdar Yildirim"
9991840569,kalipci6137,"Ayşegül KALIPCI"
9921620549,duyan9456,"Yasmin Duyan"
9997489138,melissu7,"Melis Su"
9780782703,gurkan_bayam,"Gürkan Bayam"
10109178206,belmaselcuk488,"Belma Selçuk"
9784650958,tugbakose219,"Tuğba  Köse"
9890495285,ozay5581,"Özay AKKAYA"
9968618885,cetin2122kaya,"Çetin Kaya"
10139512278,soykamer474,"Seyhan SOYKAMER"
10135952280,nejlakaradas2482,"Nejla KARADAŞ"
10101962908,selmabilge4825,"Selma BİLGE"
10118841530,turksoy.aliihsan,"Ali ihsan Türksoy"
9794053629,saricanbaz_melahat,"Melahat SARICANBAZ"
9970402172,bulentkilinc39,"Bülent Kilinç"
10013176088,berent3878,"Hediye Berent"
9782305759,tarkanoz956,"Tarkan Öz"
9787926898,huriyekilic1606,"Huriye KILIÇ"
10132072562,zelalakbas15,"Zelal Akbaş"
9915894514,pehlivan3634,"Halime PEHLİVAN"
9951435540,ergunozkan918,"Ergun ÖZKAN"
10102434789,19secilhepkaya539,"Seçil HEPKAYA"
9977154622,nurgulsari1145,"Nurgül SARI"
9973856810,efsaneuyar4,"Efsane Uyar"
10133688459,esmanurkoyuncu8,"Esmanur Koyuncu"
9997736800,toprakkilic68,"Toprak Kiliç"
9885015636,esencay23,"Esen Çay"
9774351722,mihribantoy9,"Mihriban Toy"
9917254673,sevcanersoy858,"Sevcan Ersoy"
9772518793,23abbasyesilfidan598,"Abbas YEŞİLFİDAN"
10096267227,sevgiersoy899,"Sevgi Ersoy"
10003928537,sinemdogan5102,"Sinem DOĞAN"
9938293005,yenin901,"Berivan YENİN"
9940139014,8muharremtayyar628,"Muharrem Tayyar"
10133152662,genel501,"Çilem Genel"
9981042032,kardas4714,"Narin Kardaş"
9932349825,aykan7059,"Duygu Aykan"
9965610895,49cihangirgozcu537,"Cihangir Gözcü"
9968986665,mithat3806,"Mithat TURAN"
9912522349,nejlauzun7509,"Nejla UZUN"
9786830581,uluba.orcun,"Orçun ULUBA"
10088739503,mehmetalisever1,"Mehmetali SEVER"
10094554113,hayatceylan87,"Hayat CEYLAN"
9978112679,selcukozcan6657,"Selçuk Özcan"
9736119340,71nebikumral749,"Nebi KUMRAL"
10088667394,saniyeakyol1,"Saniye Akyol"
10097034924,hoke.cesur,"Cesur HÖKE"
10087835755,ogulcan9425,"Oğulcan ARICI"
9873383779,bagli.atalay,"Atalay Bağli"
10103977781,sudenazunal535,"Sudenaz Ünal"
10122673388,sude_kacer,"Sude KAÇER"
10000120620,azadyildirim579,"Azad Yildirim"
9990601561,kizildag4439,"Kadir KIZILDAĞ"
9988697535,81rafetgoktas438,"Rafet GÖKTAŞ"
10139448247,kilac8283,"Zuhal KILAÇ"
9925125691,47fidanyadigaroglu286,"Fidan YADİGAROĞLU"
9937859196,56belgingencturk814,"Belgin Gençtürk"
9792438572,kadak8197,"Gonca KADAK"
9956355373,denizeyup721,"Deniz EYÜP"
9789710454,sanhalilker,"Ilker Sanhal"
9793374285,serkanguler1260,"Serkan GÜLER"
9943196937,kucukozkan.mahmut,"Mahmut Küçüközkan"
9988561668,yuce9635,"Ferit YÜCE"
9946020609,fadimeozkan5966,"Fadime Özkan"
10095752073,64bahtiyaratilgan386,"Bahtiyar Atilgan"
9988841358,selcukozcan21,"Selcuk Özcan"
10086331935,caglayanbal7,"Çağlayan BAL"
9948420295,kutukogluyelda,"Yelda KÜTÜKOĞLU"
9909943420,yigitcan6624,"Yiğitcan GÖKÇEK"
9979458302,sevcanyilmaz838,"Sevcan Yilmaz"
9993896202,fehmi4647,"Fehmi Ünal"
9974176390,gulistansen51,"Gülistan ŞEN"
9794451925,92meldakucukceran517,"Melda Küçükceran"
10099298322,sansarci146,"Gülsen Sansarci"
10000960877,kahremansait,"Sait KAHREMAN"
10097242415,gulcanozcan5659,"Gülcan Özcan"
9948300454,beyazbaran2428,"Beyaz BARAN"
10085864623,nevinkaraca608,"Nevin Karaca"
9916134904,ahu6304,"Ahu GÜRER"
10086435827,necdet5920,"Necdet Vural"
10103882691,gulerdoruk3,"Güler DORUK"
9962923102,veyseldemir44,"Veysel DEMİR"
9979841371,saldiray1512,"Nalan SALDIRAY"
10112913510,zubeydeal49,"Zübeyde Al"
10125145051,nese3660,"Neşe Kizildağ"
9759374744,eylultan9008,"Eylül Tan"
9950124105,caf1237,"Hasibe CAF"
9957347679,akmese901,"Sevim Akmeşe"
9943434649,badem4464,"Fikret Badem"
10108970381,nezahatsari7,"Nezahat SARI"
9936285577,melisagunes3581,"Melisa Güneş"
9789246689,koraykasapoglu9500,"Koray KASAPOĞLU"
9890878659,yilmaztunc5591,"Yilmaz TUNÇ"
9956186559,gulozdogan323,"Gul Özdoğan"
9926182029,suluk911,"Türkan Sülük"
9792886052,aksun_semiha,"Semiha Aksun"
9975362665,dumludag_melis,"Melis Dumludağ"
10093723412,unver7991,"Nurten ÜNVER"
9937992783,aykan4272,"Fırat AYKAN"
9986857748,kayman8548,"Irem Kayman"
10120409455,suleymantasci9673,"Suleyman TAŞCI"
9920228545,atbasatila,"Atila ATBAŞ"
9961387627,aksel2454,"Şeyda Aksel"
9789158227,nazpolat2020,"Naz Polat"
9952179839,soker5298,"Ayça SÖKER"
9975298057,yagli4188,"Ayşe YAĞLI"
9998360736,bolukbas6564,"Meliha BÖLÜKBAŞ"
9785429970,belgemensezai,"Sezai Belgemen"
10116393127,mariakala6,"Maria KALA"
9939609939,sebahat_berekatoglu,"Sebahat Berekatoğlu"
9941813170,cinkir187,"Merve ÇINKIR"
9902559136,burcinozdemir685,"Burçin ÖZDEMİR"
10106298226,giray_elcin,"Elçin GİRAY"
9996329048,cafer729,"Cafer Genez"
9950851112,seyhanyavuz8,"Seyhan YAVUZ"
9960923285,vurgan3436,"Sarp VURGAN"
9966459148,nuhveren913,"Candan NUHVEREN"
9960027535,birgulcoskun93,"Birgül Coşkun"
10133896009,oneryuksel3437,"Öner YÜKSEL"
10081603920,gozcu9654,"Semra GÖZCÜ"
9781837316,caliskanturk9834,"Filiz Çalişkantürk"
10084539941,sevdavural5,"Sevda Vural"
9884326168,gurakan6488,"Sude Gürakan"
9749998794,yanardag4044,"Leyla Yanardağ"
10117617649,unsalbalci219,"Ünsal BALCI"
10123033357,uzum4616,"Sercan ÜZÜM"
9960971121,karkin4574,"Melis KARKIN"
9967402955,kudretozdemir8461,"Kudret ÖZDEMİR"
9939148890,mutluer8659,"Seval MUTLUER"
10008496183,pehlivan6447,"Arzu  PEHLİVAN"
9923134372,51remziakhun306,"Remzi AKHUN"
9790484851,nejat6861,"Nejat AKTAŞ"
9968602352,zubeyir_kucukceran,"Zübeyir Küçükceran"
9914599117,halealtun2,"Hale Altun"
10092699463,yasarozdemir429,"Yaşar ÖZDEMİR"
10128720952,64semihtola523,"Semih Tola"
9947548274,sevtapkarakaya97,"Sevtap Karakaya"
10101722839,baser2659,"Gülşah Başer"
9790278691,sami_ayik,"Sami Ayik"
9997984756,78nuriyetekis757,"Nuriye TEKİŞ"
10080075749,agit.ilker,"Agit İLKER"
10114024543,sagdik925,"Elvan Sağdik"
9972754555,fatiharda124,"Fatih Arda"
9929053855,sanemyildiz230,"Sanem YILDIZ"
9913198970,sedaozmen11,"Seda Özmen"
9968250988,omeraltun5628,"Ömer Altun"
10102954755,nurtenyildirim61,"Nurten Yildirim"
9772047884,doganguven209,"Doğan Güven"
9907271671,mehtap5025,"Mehtap Havas"
9987881839,ensar8625,"Ensar ÇETE"
10006632409,azak4403,"Sedef Azak"
9923998243,elverdi1971,"Sinem ELVERDİ"
10092522782,seymakaya228,"Şeyma Kaya"
10109698245,gonulunal491,"Gönül Ünal"
10009904013,senayince8790,"Şenay İNCE"
9790597742,sevalgul174,"Seval GÜL"
10128208905,47sonaysavran933,"Sonay SAVRAN"
10094179407,elanurkoroglu96,"Elanur KÖROĞLU"
9892982878,feridetas8312,"Feride Taş"
9989169747,azak5961,"Dilan Azak"
10002568737,ogulcan3527,"Oğulcan YALÇIN"
10130872555,ejderozcan25,"Ejder ÖZCAN"
9882414668,sabriye1785,"Sabriye Duruk"
9933828997,cetin_etlec,"Cetin Etleç"
9957923439,necmi7607,"Necmi KAPLAN"
10089634319,78alimakcali92,"Alim Akçali"
9957523963,tansuselvi3,"Tansu SELVİ"
9975024552,dududemir294,"Dudu DEMİR"
9782398683,altinboga468,"Ayse Altinboğa"
9898631818,nacar7344,"Naz Nacar"
9914366490,aynurturkay19,"Aynur Türkay"
9918709674,minegundogdu94,"Mine GÜNDOĞDU"
9774559905,karaagac1383,"Vildan KARAAĞAÇ"
9891455200,cayli3380,"Coskun ÇAYLI"
9961066658,sertkaya867,"Helin SERTKAYA"
10136784399,yaci_merwe,"Merwe YACI"
9785287163,uykur5090,"Murat UYKUR"
9761814899,ozaslan2736,"Sinem Özaslan"
9954844093,bahri_tohumoglu,"Bahri TOHUMOĞLU"
10087811560,yonca_burulday,"Yonca Burulday"
10126425139,merveozdemir.akdur,"Merve ÖZDEMİR AKDUR"
9911151120,79kutayerdogmus710,"Kutay Erdoğmuş"
9915870963,kazbek_humeyra,"Hümeyra Kazbek"
9966722363,cemalozen5757,"Cemal ÖZEN"
9778039548,selamiyildirim5842,"Selami YILDIRIM"
10081588062,buyukpastirmaci5735,"Sezen Büyükpastirmaci"
10119769534,huseyinozturk632,"Hüseyin Öztürk"
10114721502,ordulu_beyaz,"Beyaz ORDULU"
10107001280,nuranunal4398,"Nuran ÜNAL"
9876927592,gencdal6696,"Özlem Gençdal"
9968923015,saf.sahra,"Sahra SAF"
10005648449,meneksedemir2654,"Menekşe DEMİR"
9753111344,ceylininan21,"Ceylin İNAN"
9768566865,bestetas98,"Beste Taş"
10104306129,semraalici81,"Semra ALICI"
9950340448,21sibelmuezzinoglu58,"Sibel MÜEZZİNOĞLU"
9951859982,edip1060,"Edip Akyol"
9983001405,sevvalaydin170,"Şevval AYDIN"
9983265130,ferdaozdogan3,"Ferda ÖZDOĞAN"
9943180884,dagdelen6391,"Nehir Dağdelen"
9938004645,rasit8668,"Raşit COŞAR"
9952444351,ibrahimozgur3,"Ibrahim Özgür"
9962571430,seymaguven266,"Şeyma GÜVEN"
10107530040,alici7172,"Suzan Alici"
9974410652,yagci7829,"Fatih YAĞCI"
9979954335,fatmayildiz8235,"Fatma Yildiz"
9967002283,rumeysayakut485,"Rümeysa YAKUT"
10000632665,ertugrul9340,"Ertuğrul KİREÇÇİ"
10006560438,ecemaslan25,"Ecem Aslan"
9985633319,tola7170,"Hayriye TOLA"
10006576525,emrah.melekoglu,"Emrah Melekoğlu"
9781629620,karli_feyza,"Feyza KARLI"
9895303217,dursunisik1217,"Dursun Işik"
10109130119,zuleyhaaktas58,"Züleyha AKTAŞ"
9899135535,orak9779,"Latif Orak"
9942845155,kusakci8638,"Candan Kuşakçi"
9946412643,aysegulbicer7,"Aysegül BİÇER"
10119921150,canselsonay787,"Cansel SONAY"
9927798098,muhammetsaglam8914,"Muhammet SAĞLAM"
9977650195,hayalgungor5,"Hayal Güngör"
9790406525,aycaozturk250,"Ayça ÖZTÜRK"
9902607499,minayasar65,"Mina YAŞAR"
9916454843,nart1182,"Vildan Nart"
9931381822,yigitdogan54,"Yiğit Doğan"
9911103274,yanmaz6819,"Mehmet Yanmaz"
9979986313,seyrek5223,"Sevde Seyrek"
9964801842,ertekin5599,"Sanem ERTEKİN"
9960651709,cicek_orcun,"Orçun ÇİÇEK"
10133032209,guvercin_vatan,"Vatan GÜVERCİN"
10105562414,hasimyilmaz993,"Haşim YILMAZ"
9944524441,makbulemolla2,"Makbule Molla"
10109858096,nazmiyeyuce836,"Nazmiye YÜCE"
9888423600,daglioglu419,"Nisanur Dağlioğlu"
10008944189,gulenay4447,"Beyza Gülenay"
10116320119,ceren.kayihan,"Ceren Kayihan"
9923453954,nesekoc79,"Neşe Koç"
9936781495,kamileyildiz2246,"Kamile Yildiz"
9980530335,ozlem.erdag,"Özlem ERDAĞ"
9791366000,caliskanturk4734,"Aysu ÇALIŞKANTÜRK"
10132432609,irmakselcuk83,"Irmak Selçuk"
9910175257,anilcakmak238,"Anil ÇAKMAK"
9928845570,ilhansahin1811,"Ilhan ŞAHİN"
10103848950,ecemakgul5634,"Ecem Akgül"
9962865225,zuhalkahraman3210,"Zuhal Kahraman"
10011664121,beyza.atilla,"Beyza ATİLLA"
9784709685,ture1900,"Eda TÜRE"
10095539288,aktug625,"Asil AKTUĞ"
10131720679,kubrayilmaz6294,"Kubra YILMAZ"
9979449467,gerger8515,"Paşa Gerger"
9772687907,ozkanisik312,"Özkan Işik"
9787518947,kaanyildirim109,"Kaan Yildirim"
9739246879,sercantoprak774,"Sercan Toprak"
9972874778,hayrimutlu4515,"Hayri MUTLU"
9949930357,nacar_ferhan,"Ferhan Nacar"
10007032362,izgi2731,"Sedanur İZGİ"
10091995320,irmakkarakaya962,"Irmak Karakaya"
9982640437,meryemozel33,"Meryem ÖZEL"
9933005549,atar5526,"Aysegül Atar"
9972256738,sefer5335,"Sefer SULHAN"
9773215488,hayriyep,"Hayriye PEKEL"
10089763581,budun962,"Ayşegül Büdün"
9922646468,demiroz6008,"Cem DEMİRÖZ"
9947548720,nesrinalan61,"Nesrin Alan"
9954756085,resat8124,"Reşat CAN"
9765070361,recepulu471,"Recep Ulu"
10104162669,gulhancoskun993,"Gülhan Coşkun"
10124440838,aysenuraydemir9686,"Ayşenur AYDEMİR"
10138576298,ozgurulu5,"Özgür Ulu"
9895287404,49sonayeyup236,"Sonay Eyüp"
9777591263,ordulu7610,"Erdal ORDULU"
9920133301,nilaysezer724,"Nilay SEZER"
9941981140,sait9796,"Sait Şen"
9991057442,ordulu5029,"Yücel ORDULU"
9971530168,zeybek7055,"Sevtap Zeybek"
9773431330,sokmen3642,"Naim Sökmen"
10110081650,nisaak628,"Nisa Ak"
10006752440,orman5496,"Esmer Orman"
10007832347,olgen8000,"Elvan OLGEN"
9966059185,neclayildirim317,"Necla Yildirim"
9785223098,hasretguney107,"Hasret GÜNEY"
9791270535,yelizpolat848,"Yeliz Polat"
10010856150,baytan878,"Ozlem Baytan"
10141248006,sedagozcu9,"Seda GÖZCÜ"
9940812872,alimli2409,"Türkan ALIMLI"
9973898839,topak1324,"Nurgül Topak"
10083364048,demetbayram748,"Demet BAYRAM"
10100786893,belmacakmak7937,"Belma ÇAKMAK"
9786151150,asig8667,"Şeyda Asig"
10096794958,nuray_ertem,"Nuray Ertem"
10136424419,kemalyilmaz592,"Kemal YILMAZ"
9976866432,veli11590,"Veli 1"
9955859818,59dilankayayurt707,"Dilan KAYAYURT"
9989841699,tamerduran9,"Tamer Duran"
9923350325,sebnemkahraman36,"Şebnem Kahraman"
9772392862,fevzi1507,"Fevzi AKIN"
10090379460,satiroglu.kerim,"Kerim Şatiroğlu"
9888527993,sahinonder295,"Sahin Önder"
9930365880,zekeriyakara79,"Zekeriya KARA"
10089306958,tugba_ordulu,"Tugba Ordulu"
10141040008,nebahatkaya704,"Nebahat KAYA"
9931461876,asig236,"Saniye ASIG"
9776583497,defnelevent90,"Defne Levent"
9789286144,melisacay5533,"Melisa Çay"
10098010936,ornek2947,"Doğukan ÖRNEK"
9992249321,canbaz8369,"Derya CANBAZ"
9978632163,zehraaltun747,"Zehra  Altun"
10113385847,emrecan.karademir,"Emrecan KARADEMİR"
10084171976,yurdam3311,"Simge YURDAM"
9944291929,bade3390,"Bade VURAL"
9911495184,hilmi5727,"Hilmi GENÇDAL"
9955980263,temelerdogan8,"Temel ERDOĞAN"
10121801033,deveci_tekin,"Tekin DEVECİ"
9958499886,habibedemirel69,"Habibe DEMİREL"
10096634580,gokmeydan130,"Songul GÖKMEYDAN"
10126760263,burcuerdem783,"Burcu ERDEM"
9781230843,buketgokcek8,"Buket GÖKÇEK"
9790198717,kamilhassan2473,"Kamil Hassan"
10083497667,derman4770,"Derman İZCİ"
9904471706,ulubasoglu.dilara,"Dilara Ulubaşoğlu"
9938261308,kutluyurdu866,"Meral Kutluyurdu"
10107826395,bakirci1344,"Seray BAKIRCI"
10128480708,bulakci810,"Erkan BULAKÇI"
9943820925,lutfiye9641,"Lütfiye Tokar"
9945132859,berrintunc3725,"Berrin TUNÇ"
9959635121,gulcincoban317,"Gülçin Çoban"
9784485902,hodjaoglu6741,"Şevval HODJAOGLU"
9903279884,gunyel8514,"Berna Günyel"
9941163513,nuran_selvioglu,"Nuran SELVİOĞLU"
9953516284,50inanonay953,"Inan ONAY"
9794052314,sevilsahan2,"Sevil Şahan"
10094427329,raziyesu149,"Raziye Su"
10084250896,gozdefiliz935,"Gözde FİLİZ"
10110010219,ridvanozel78,"Rıdvan Özel"
9912399225,alparslan9399,"Alparslan Korkmaz"
10121985237,eryilmaz4849,"Tuncay Eryilmaz"
9928971520,aynurgunduz273,"Aynur GÜNDÜZ"
10004944420,memo.kutlar,"Memo KUTLAR"
9995496704,14mariasaglam764,"Maria SAĞLAM"
10128040662,baskan9469,"Koray Başkan"
9983994000,62mehmetcanbinboga54,"Mehmet can BİNBOĞA"
9999040448,zubaroglunisan,"Nisan ZUBAROĞLU"
9945908892,kamaci1103,"Kağan Kamaci"
10010448193,celiker6235,"Nergis ÇELİKER"
9999232896,zerrin.kircali,"Zerrin KIRCALI"
9792862464,erzurum9067,"Şahin Erzurum"
9903863189,kilavuz1436,"Masal KILAVUZ"
9929645537,onat7108,"Necla ONAT"
9982794096,zubeydealp425,"Zübeyde Alp"
9959648765,kaylan.burcin,"Burçin Kaylan"
9885983513,aysuntunc774,"Aysun TUNÇ"
9935797362,ebrarozturk4395,"Ebrar ÖZTÜRK"
9951820231,nebahat7166,"Nebahat Kahya"
9966240989,gumusay6004,"Asiye Gümüşay"
10117097670,hasretkilic1669,"Hasret Kiliç"
10102106887,huriyesarac707,"Huriye SARAÇ"
9946908908,golemez6592,"Derin Gölemez"
10138352269,22asiyekocarslan822,"Asiye KOÇARSLAN"
9911887174,erdag2351,"Yüksel ERDAĞ"
10118825515,tugcekankilic21,"Tuğçe KANKILIÇ"
9979234429,buseyilmaz192,"Buse Yilmaz"
9793085952,metineren906,"Meral METİNEREN"
9793550261,fatmaozturk951,"Fatma Öztürk"
10085979871,nuraysonmez12,"Nuray SÖNMEZ"
9889911060,6saniyeinanc279,"Saniye İNANÇ"
9945220966,gungormez688,"Hakan Güngörmez"
9989944959,raziye6105,"Raziye Aksoy"
9789022501,fatmanurdemir996,"Fatmanur DEMİR"
10108280736,nurgulyildiz52,"Nurgül Yildiz"
9997144861,feridesak712,"Feride SAK"
10119993420,zuhalcelik1268,"Zuhal ÇELİK"
10082906766,sevimcelik56,"Sevim ÇELİK"
9934972316,mustialtun47,"Musti Altun"
9958267719,ayseceylan307,"Ayşe CEYLAN"
10097202949,sevki5227,"Şevki TOPER"
9956315522,nuhveren363,"Rüya NUHVEREN"
9984546078,ercan_lagarli,"Ercan LAĞARLI"
9788214925,huriyeyilmaz38,"Huriye Yilmaz"
9993537286,ceyhansen18,"Ceyhan ŞEN"
9994744791,okmen5256,"Berkay ÖKMEN"
9916910880,soylemez_tulay,"Tülay Söylemez"
9994888727,hayri2481,"Hayri Asig"
10122433266,soyler3886,"Hatice SÖYLER"
9979769759,esmabayraktar71,"Esma Bayraktar"
9911061414,pinaruzun345,"Pınar Uzun"
9947577390,genel_olcay,"Olcay Genel"
9787758918,sokmen7681,"Gözde Sökmen"
9901566725,zuhalsahin3061,"Zuhal ŞAHİN"
9953194972,mukaddesakbas978,"Mukaddes AKBAŞ"
9987528592,sinanakyol6,"Sinan Akyol"
9927046206,86tulaykocar808,"Tülay Koçar"
10080995269,fevzikilic4915,"Fevzi KILIÇ"
9910598913,seymagokcek4981,"Seyma GÖKÇEK"
9989081256,topalkara1518,"Selda TOPALKARA"
9782935141,nazlisaglam78,"Nazli SAĞLAM"
9794206092,paksoy8842,"Ayşe PAKSOY"
10095131335,27nurkacer600,"Nur KAÇER"
10081545244,bertan1445,"Hande BERTAN"
9950851568,hulyaoz5930,"Hülya  Öz"
9746766837,elvanbak2,"Elvan BAK"
9908477843,irfandam2,"Irfan DAM"
9945060843,seckinyuksel251,"Seçkin Yüksel"
9973018787,onvermez634,"Gülcan Önvermez"
9988577168,nurayyucel786,"Nuray YÜCEL"
9721575390,kubilay6182,"Kubilay Yildirim"
10091507566,gurcan4520,"Gürcan SOYDAN"
9925789697,berktuncay226,"Berk Tuncay"
9774247968,erenoguz26,"Eren OĞUZ"
9772087895,nart2797,"Nilgün Nart"
10000712664,81periyagli941,"Peri Yağli"
9954611003,kopan3970,"Sedef Kopan"
9748001993,oynakersan,"Ersan OYNAK"
10096091244,hayateroglu8,"Hayat Eroğlu"
10007352363,69guldenalan967,"Gülden ALAN"
10010352263,narinlevent61,"Narin Levent"
9951132491,ufukcakir91,"Ufuk ÇAKIR"
9963371683,elmas.soyer,"Elmas SOYER"
10000040764,colak9125,"Ebru ÇOLAK"
9900567647,erdi.kisa,"Erdi KISA"
1365598269,randyawan,"Randy Wang"
811036655,ranggaputrask,"Rangga Putra Sri Kasta"
9651442823,utetea17,ganjar
9999744222,emircan6208,"Emircan Güler"
10103769975,saffet3620,"Saffet BİÇER"
9909854689,merden119,"Çiğdem Merden"
9909014197,cerenkorkmaz184,"Ceren Korkmaz"
9936748980,tufan2545,"Tufan Sargin"
10098665973,fulyakir2394,"Fulya Kir"
9971322004,kutuk4421,"Müzeyyen KÜTÜK"
9763791824,kocasarac.ecem,"Ecem Kocasaraç"
9775759157,paksoy8132,"Su Paksoy"
9774653634,kucukyildiz7178,"Ozgur KÜÇÜKYILDIZ"
10101905781,semayilmaz7390,"Sema  Yilmaz"
9928171680,makbulebozkurt685,"Makbule Bozkurt"
9942860214,necmettin_salturk,"Necmettin Saltürk"
10107929701,ruyakose489,"Rüya Köse"
10116481052,kucukceran3561,"Vildan KÜÇÜKCERAN"
10119104925,31berrakkazanci491,"Berrak Kazanci"
9903334965,semaisik2216,"Sema  Işik"
9762903277,12selcukolgen185,"Selçuk OLGEN"
9925428552,budunoglu3680,"Sonay BUDUNOĞLU"
9963874716,nazkeser5133,"Naz Keser"
10084451156,daglioglu9385,"Toprak DAĞLIOĞLU"
10095362656,damlabayram5611,"Damla Bayram"
9991240859,sarptoprak882,"Sarp Toprak"
10123992105,karakaya8190,"Candan Karakaya"
10093218769,42gokmenbudun975,"Gökmen Büdün"
9953697971,dogukanpolat90,"Doğukan Polat"
9759124008,ozaydin_volkan,"Volkan Özaydin"
9979808891,acelyaari16,"Açelya Ari"
9754695579,tanriverdi2701,"Hava TANRİVERDİ"
9792020681,yukseltan4984,"Yuksel Tan"
9914261515,ulas4526,"Kevser ULAŞ"
9914908861,atci_hilmi,"Hilmi ATCI"
9942604320,atila4804,"Atila Bal"
10099786227,oden3572,"Yağmur Öden"
9889015990,cetinkilic879,"Çetin KILIÇ"
10105169863,anil_aykus,"Anil AYKUŞ"
9973906094,57nergizbahcebasi940,"Nergiz Bahçebaşi"
9974938021,dadli_turgut,"Turgut Dadli"
9977241540,akduman8313,"Ayça Akduman"
10002896019,sayin8235,"Zeliha SAYIN"
9867799027,gazi4208,"Gazi KAYLAN"
9952859522,gunyel444,"Hülya  GÜNYEL"
9901519361,oncel3982,"Yeliz ÖNCEL"
9938908478,halildal1,"Halil Dal"
9952721935,erdi1943,"Erdi GÖKTAŞ"
9760183703,aslanates851,"Aslan Ateş"
9984736895,sag8948,"Asu Sağ"
9778470993,pakizeercan6843,"Pakize Ercan"
10081243652,cicek4942,"Çiçek Azar"
9968962529,gulhansahin74,"Gülhan ŞAHİN"
9989409148,ceydaseven7823,"Ceyda Seven"
9760991887,95nezahatkaraalp124,"Nezahat Karaalp"
10085603318,gurer8016,"Güler Gürer"
9900679400,toprakeser4,"Toprak Eser"
9913102291,dere7512,"Asil DERE"
9986705136,gulozan4381,"Gul OZAN"
9778054150,kosker478,"Kezban Köşker"
10100648927,bahcebasi570,"Mehtap Bahçebaşi"
10126376453,ferhan1659,"Ferhan ATILGAN"
9883999998,birgulhassan1,"Birgül Hassan"
9900502860,teoman4502,"Kader Teoman"
9945410520,kayhan_serin,"Kayhan SERİN"
9791005218,bozarslan2479,"Narin BOZARSLAN"
10083035545,rabiasozen6,"Rabia SÖZEN"
9962074709,kansu6205,"Sakine Kansu"
9983281385,gonultunc9146,"Gönül Tunç"
9770551532,servetyesilkaya6067,"Servet YEŞİLKAYA"
9761231272,neslihanyilmaz867,"Neslihan YILMAZ"
9750479248,arifoglu532,"Pinar ARİFOĞLU"
9767535569,belginmutlu508,"Belgin Mutlu"
9940499073,canselisik86,"Cansel Işik"
9779954666,ordulu8236,"Baris Ordulu"
10106769216,havas4237,"Kaan Havas"
9981473366,masalyilmaz482,"Masal Yilmaz"
9990368881,gelegen849,"Derin GELEGEN"
9760229654,suzanyazici85,"Suzan YAZICI"
10103609976,seherkarasu9,"Seher Karasu"
10115952701,nacar9322,"Nihan Nacar"
9919756973,hayriyeoguz1,"Hayriye OĞUZ"
9995672072,kayhan_hakyol,"Kayhan HAKYOL"
9770006598,dilancetinkaya8676,"Dilan ÇETİNKAYA"
10088810230,okankarasu595,"Okan Karasu"
9979185441,kayihan963,"Helin KAYIHAN"
10094122615,gayeisik916,"Gaye Işik"
9893111386,selman6654,"Selman ÇELİK"
9772983226,kiraslan_hacer,"Hacer Kiraslan"
9929353126,dorukturgut30,"Doruk TURGUT"
9978880636,gultenyesilkaya120,"Gülten YEŞİLKAYA"
10095122293,55kubilaysertkayaoglu227,"Kubilay SERTKAYAOĞLU"
9897069880,esmakaya364,"Esma KAYA"
9929973146,melihaipek4484,"Meliha İPEK"
9961522823,muharremakin3693,"Muharrem Akin"
10095698572,sezensen10,"Sezen ŞEN"
9936282675,ozanlagan.bade,"Bade Özanlağan"
9926692260,26halisvurgan594,"Halis Vurgan"
9961850755,betuldemir6164,"Betül DEMİR"
9999792142,ayranci830,"Hediye Ayranci"
9883719796,banusenturk49,"Banu ŞENTÜRK"
9794541629,minaozdogan8762,"Mina Özdoğan"
9963482466,kazimkaplan9985,"Kazim Kaplan"
9928205548,varol5544,"Yelda VAROL"
9975961484,mertguzel263,"Mert GÜZEL"
10116041123,candaner.mehtap,"Mehtap CANDANER"
9902158966,26alevocak705,"Alev Ocak"
9969098310,tahirkaplan9463,"Tahir KAPLAN"
9968113508,yavuzyalcin6012,"Yavuz YALÇIN"
9767199777,96erkutkaplankiran438,"Erkut KAPLANKIRAN"
10122400743,rukiyekucuk86,"Rukiye KÜÇÜK"
9921317792,ulutas6902,"Arife ULUTAŞ"
9920797142,esrayilmaz8363,"Esra YILMAZ"
9784614358,suveran8184,"Saniye Süveran"
10082219585,suhassan828,"Su Hassan"
10100634134,mukaddes.kutlucan,"Mukaddes KUTLUCAN"
10106744448,yavuzarda1314,"Yavuz Arda"
9947170907,sudebagci46,"Sude Bağci"
9966090009,cigdemkara2861,"Cigdem Kara"
10102545978,ulas8792,"Nihal ULAŞ"
9901295428,kuzeykurt319,"Kuzey Kurt"
9755671962,yakut4191,"Semanur Yakut"
9754239848,gulsenulutas786,"Gülsen Ulutaş"
10082475586,comert2376,"Ertugrul Cömert"
9893967615,tugbakilic5363,"Tuğba  Kiliç"
9939044594,bayramoglu3145,"Melda Bayramoğlu"
9780750283,figen.barcak,"Figen BARÇAK"
9894887813,ozaslancisem,"Çisem Özaslan"
9900719440,acelyabayrak3172,"Açelya BAYRAK"
9944548282,nehir.ozkaynar,"Nehir ÖZKAYNAR"
9960875129,habibedursun9367,"Habibe DURSUN"
9959042981,simgekoyuncu608,"Simge Koyuncu"
9791981638,imali5362,"Nergiz İMALI"
9856839880,medine.mertol,"Medine Mertol"
9858742301,gulnuryildirim587,"Gülnur Yildirim"
9986553254,serenkorkmaz66,"Seren KORKMAZ"
9991248760,nuranakdemir17,"Nuran AKDEMİR"
9763551342,kardelenozer1387,"Kardelen ÖZER"
10094752919,alkac430,"Nesrin Alkaç"
9922405582,tasar5632,"Tuğba  Taşar"
10085483368,asli_buyukkal,"Asli BÜYÜKKAL"
9792293745,sunay4723,"Sunay ÖZGÜNER"
10105049110,garipaydin78,"Garip Aydin"
10120928835,alim_bukulmez,"Alim BÜKÜLMEZ"
9980369444,11zekaisenoz220,"Zekai Şenöz"
10130544023,elmaskeskin7,"Elmas KESKİN"
9926317552,keskek6991,"Özlem KEŞKEK"
9944724215,61dogukankarakose897,"Doğukan KARAKÖSE"
9900871355,nurhan9782,"Nurhan ELÇİ"
9967466051,leylabayram3732,"Leyla Bayram"
10112673362,yesimozer922,"Yesim ÖZER"
9941868309,rencberagit,"Agit RENÇBER"
9975337435,bayramoglu3102,"Jale BAYRAMOĞLU"
9954961994,garip9032,"Garip Uysal"
9985688404,eken2923,"Yener Eken"
9784622213,kozanoglu5417,"Hava Kozanoğlu"
9942452349,sahinbilgin1379,"Sahin BİLGİN"
10126928458,nisakaya8791,"Nisa Kaya"
9926021640,sansarci1908,"Alara Sansarci"
9980457671,soykamer2072,"Neşe SOYKAMER"
9986985013,tugceakkaya24,"Tuğçe Akkaya"
9766159269,belma9937,"Belma İNCE"
10099586319,yenigun.adnan,"Adnan YENİGÜN"
9886653911,sahan1600,"Belma Şahan"
10125152442,susam4640,"Burhan Susam"
9951611287,meliketemel11,"Melike Temel"
9775319146,17ferideyanni246,"Feride YANNİ"
9897759521,mertcan.yesilfidan,"Mertcan YEŞİLFİDAN"
9779446603,server6619,"Songul Server"
10105841798,sinemcankaya289,"Sinem ÇANKAYA"
9929517222,87berensevingil963,"Beren SEVİNGİL"
9779462187,hazarerdem188,"Hazar ERDEM"
10084114560,42tugbagozacan944,"Tugba GÖZAÇAN"
10104785798,kulaksiz3603,"Metin KULAKSIZ"
9977561353,karatoprak6552,"Açelya KARATOPRAK"
9992600797,seraparslan1879,"Serap ARSLAN"
9770751072,53yaseminabat101,"Yasemin Abat"
10106209696,rahmi7835,"Rahmi Yilmaz"
9940292512,halis8900,"Halis BÜLBÜL"
9950195208,cicekatar42,"Çiçek ATAR"
10109265635,suleyilmaz935,"Şule YILMAZ"
10097441418,hicrankilic41,"Hicran KILIÇ"
9983417003,ergoz2340,"Kenan Ergöz"
9777030988,sevuk5206,"Demet SEVÜK"
9793797209,demirkilic74,"Demir KILIÇ"
10084355431,sudeuyar427,"Sude UYAR"
10092410693,figencakmak14,"Figen Çakmak"
9910100974,feyzagurbuz2,"Feyza GÜRBÜZ"
