Userid,Username,Fullname
3505844747,gayatriprameswari,"Gayatri Prameswari"
2985813203,ariadi_bh,"Ariadi Budhi Harianto"
3252259254,pdrh_y,"P Yべディ"
1903433555,naffiahmd,"°Ahmad Nafi'°"
1294055858,babyjean_prischilia,"BabyjeanPrischilia Eunike Mewo"
8106624454,custom_onlineshop,"Custom Onlineshop"
4842330560,mirine._.mirabella2002,"MïRïNe ♥📚"
3416713940,nidiarima,"Nidiarima Wijaya"
7928009760,shitie_mawai_miulanmmbatam,"mawai Miulan MM batam"
1144107267,elpurabpetrik,𝕰𝖑7𝖙𝖗𝖎𝖐𝖕𝖚𝖗𝖆𝖇
8181079875,hypesize_,"Hype Size"
1207212198,arif.nugrha,"LEADER INFINESSE"
5600062891,sandisastradinata,"sandi sastradinata"
1532378862,daddysdistro,"Daddy's distro"
2230044715,santrigusjigang,"Santri Biasa"
337164279,yusnia_endah,yusniaendahwahyuni
1113797812,kang.krisna,"Krisna Al Azzam"
4908866310,khow.andy,"Khow Andy"
665600901,aien2404,"Aien Bng"
2284328847,ragamsansan,ragamsansan
716004647,vanny_chrismaw,"Vanny Chrisma W"
8177976877,indahcargo_jombangraya,"Indah Cargo Jombang Raya"
7221477611,science.updates,"Science Updates"
2031575696,jopian_alhafizh,"Jopian Noperis Al-Hafizh ℹ"
4047212396,luviana.ag,"Jakartans 🐯"
403227980,indrihapsari23,"Indri Hapsari"
4155161364,muhyacubfa,"Muhamad Yakub"
8104430861,shopping_custom_kita,"Shopping Custom kita"
783692295,rennieemonk,"rennie emonk"
2066044839,khusni_yazeed,
3524848030,imamsyarifudd,"Imam Syarifuddin"
1547073379,dewi_risyantika,"ديوي رسينتك"
1413751038,fahrulalpiann,"Fahrul Alpiansyah"
5343717730,sulaiman.spirit,"sᴜʟᴀɪᴍᴀɴ sᴘɪʀɪᴛ"
7944015862,hermawan4748,"Rudi Hermawan"
7809058273,rodhohs,"Rodhoh Tri Wahyuni S"
2107175291,dans3016,"daniel suwardi"
1484269292,gofishbali,"Dream Catcher Shop"
1268416335,kevin.gumelar,"GUMELAR T A (S.H)"
1508187411,andi0571,"Andika Pratama"
829300314,firkhansiregar,firkhan
2414087289,bayurahmadputra,"B A Y U  R.P"
574103764,philipstlamsihar,"Philips T. Lamsihar N"
7374414294,nurulfirdaus225,"nurul firdaus"
2060439619,step_one.cloth,"""STEP ONE"""
7821530596,ciptateknobersama,"Jual Sewa Printer & Toner"
1912962148,iva16880,"iva 168"
7972125506,nurhuda504,nurul
878104586,faizah.muchtar,"Faiza D.R"
7450408564,bak.ground.5,"Damon Brooks"
