Userid,Username,Fullname
11578397130,billionairestoreacademy,"Billionaire Store"
5453700294,its.dheavv_,"Adhelia n.q"
10084420743,dheaaaa_12,"DHEA TRI ADISSA"
11109535818,marhamah_dropnshop,"BONGKAR RAHASIA BISNIS ONLINE"
8480188952,dindhashop2,"SUPPLIER TAS TERMURAH"
1247556999,ratnajuita1807,"Ratna Juwita"
4932291500,ptngalvro_,petong
7614543396,dainachristisila,"Daina Christisila Panggabean"
11588755187,tienssyariah.storepadang,"Ready Stock Semua Produk Tiens"
7660356937,sinarminanusantara,"Sinar Mina"
11362322444,michandraulaen91,"michael chandra"
2518583324,nh_flowersdekor,Nurhasanah
3990248442,nabila_zym,itsmebella's
714032977,zenikzen,"Zenik Zen"
10830164225,deris_beauty.id,"Vacum Komedo Murah Pontianak"
2252297683,nanhu_nap,"낞우 납"
6512069157,indonesia_gemarmembaca,"INDONESIA GEMAR MEMBACA"
2252057499,rzkybudiman,"RIZKY BUDIMAN"
9182523562,antonius_calvary,"Antonius L.T"
7327325409,pejuang_syariahh,pejuang_syari'ah
3112188191,mitta9433,Mitta
7995878546,rianrseven,"Rian eka"
4105066893,kensync_nagata,Kensync
3939027763,nurulhidyah22,"Nurul Hidayah Az-zahra 🌎🇲🇨"
1417343319,ibownugroho,"📖 MM 2018"
11443575071,mudateku,"Teku Muda"
3643951388,arniechan,"Arnie Chan"
3007042978,widiautariii,WIDIA
1696318435,anugrah_ong,"Anugrah ong"
1803047392,afikakhalisya,"Afika Khalisya Z"
8596921675,ibnukohlr,ibnu
7736512954,flowersteam_,"The F Team"
4038803142,mohammadgessa,"Mohammad Geisa Pratama"
4613521355,lapastabisnism,"ahmad nawfal ath."
5851768364,motivashare,Motivashare
8035477855,ajisilvy_,ajisilvy_
2112431175,a_agt68,"Aprilia Agita"
2081523417,rhies7770,"Trisya (Real account)"
6429515754,juarasecondbranded,juarasecondbranded
6301648620,kawalulawak,KAWALU
2129689921,anchovies_medan,"TERI MEDAN SUPER MURAH"
8774775406,spirulina.maskeralami.id,"Toko Masker Spirulina"
7649336939,salsaaurin_,"Salsabila Aurin"
3182812191,bignaylilel,naylaelsa
10993848798,zain_store_id,ZAIN_STORE_ID
2165315786,radev.id,"FASHION BABY & KIDS IMPORT"
5977521387,tetenmuhardiman,"teten muhardiman"
5376606125,kbritashkent,"Embassy of Indonesia Tashkent"
4927204299,muhwildan_10,"Muhammad Wildan"
361912203,adit_nksanur,"Aditya Perdana"
