Userid,Username,Fullname
196513542,novelloe,"Elizabeth Novello"
67958,ajv,"AJ Vaynerchuk"
40009438,notjustawriter,"Giselle | Productivity Coach"
7324578598,xray.doctor,"Amrit Hansra MD"
1539495766,pratyush_has_not,"Pratyush Singh 💯"
358176259,fit.fierce.free,"Meagan Chovanec"
3971196671,anitabrocka,"Anita Brocka Cinema🔤🏳️‍🌈"
4166508618,the5argroup,"Petar Jurcic ▪️ The 5AR Group"
1093032948,noahtondari,"Noah Tondari"
290104432,kushkruze,"KRUZE 🇸🇱"
2112137376,flips4miles,"Miles L."
9677823785,mosheczapnik,"Moshe Czapnik"
19213677,mateopradotv,Botandola!
2367224630,i_b_r_a_h_i_m11196,Ibrahim
11048689261,dobrandessential,DoBrandEssentials
2155516388,alanthemartyr,ATM
2157583124,travelguru.ie,"Travel Guru Ireland"
8355959739,gabrielcodes,gabrielcodes
9211608709,vegan.brandon,"Vegan Brandon"
6787218690,mhiggins,"Matt Higgins"
3414428574,majiccmusic,"MAJICC | Visual Arts and Music"
6806198713,ketosnackz,"Keto Snackz"
245404347,kswiss,K-Swiss
