Userid,Username,Fullname
2178667016,cp_tyas,tyas
12245060807,yukatasuites_alamsutera,yukatasuites_alamsutera
4958665623,mitraazaria,"Sanjaya Mitra Azaria"
8927526357,rev_ella22,"🥀 R E V E L L A 🥀"
373956224,wellynatanael,"Welly Natanael Hartono"
7218312942,ladiesandheels,Ladiesandheels
8072115039,naynazni,"(\>_</)"
10617132936,susri88,susri
5486851263,nadiafziah,nadiafauziah
1158278562,bobsetyo,"Bob Setyo"
4138014828,syahidasyari,"Syahida Syar'i"
1625381958,msaparii,"MUHAMMAD SAFARI"
1228384018,dimasseptianto99,"Dimas Septianto"
2065457074,askaandre,"Andre Alam"
3735473964,thofifi.man,"Ahmad Thofifi"
31738723,killbypiti,olomaninproject
4341143360,gitawatimirah,"Gitawati Mirah Ardyani"
6674465346,moodybooks.id,"CUSTOM NOTEBOOK BUKU SOLO"
8367813407,zhryn_29,"R Y I N"
7834699401,ownbunny.co,"🐰 ownbunny.co Rabbitry 🌾"
5410273740,bobby.aria,"bobby aria"
3556268206,andyalxndr,"Andy Alexander"
5325460748,jaring_modern,"JARING AYAM, BEBEK, BURUNG"
5379671101,putu_arya_rg,Arya
2270099824,gareng_bizco,"Gareng Bizco"
12147395020,iis_mentor_paytren517,"iis payTren"
10591434680,kiki_treny,"Kiki Mariya"
1967829060,wahyusaputra111,#WAHS
339202216,husinnaparin,"Husin Naparin"
452201831,1pputra,"Eka Permana Putra"
1995264135,thisisharisbudimankharin,Haris
4931773070,ajii888,ridhaaji
3084635253,gigihaspermadi,"Gigih Agung Suryo Permadi"
12294208984,jonathanjoe280,"Naisa alifia yurizaa"
2326393142,dk_galeri_and_tailor,"Dk galery and tailor"
2000812587,andy_ushaber08,"Muhammad Rahwandi"
6415337810,kangferhy,"قن فر"
9303602735,dwoto_mangkunegoro,"Dwoto Mangkunegoro"
11134110348,jassdjassd,Jassd
4169932737,efendi_abdi,"Efendi Simanjuntak"
2233581925,tenunmatuh_sukmadewimentari,"Tenun Matuh"
6256014679,christinserti,christinserti
12305688332,amartha.land,"Amartha Land"
11318211099,valian006,valian
10859564461,nevtian_cuy,"Muh Nav'an"
9491266681,myclaire.ribbon,"Pita-BigBow-Jojo Siwa-Ribbon"
8581701004,david_rambe,davidbae
1010415565,hengkism,hengkism
414313301,wantonny,"William Anthony"
1984735681,amanahbeauty.skincare,"Amanah Beauty Skin Care"
