"Nama Item","Url Item",Harga,"Url gambar","Username Toko","Url Toko"
"(GIFTSET) DW Petite Sterling White + Bracelet Silver White",https://www.tokopedia.com/ampmco/giftset-dw-petite-sterling-white-bracelet-silver-white?trkid=f%3DCa0000L000P0W0S0Sh%2CCo0Po0Fr0Cb0_src%3Dshop-product_page%3D1_ob%3D11_q%3D_po%3D1_catid%3D1949,800000,https://ecs7.tokopedia.net/img/cache/300-square/product-1/2019/2/26/27509542/27509542_8298f34a-e678-4e7b-8479-8822b7cd63a2_1200_1200.jpg,ampmco,https://www.tokopedia.com/ampmco
"(GIFTSET) DW Petite Melrose White + Bracelet Rosegold White",https://www.tokopedia.com/ampmco/giftset-dw-petite-melrose-white-bracelet-rosegold-white?trkid=f%3DCa0000L000P0W0S0Sh%2CCo0Po0Fr0Cb0_src%3Dshop-product_page%3D1_ob%3D11_q%3D_po%3D2_catid%3D1949,800000,https://ecs7.tokopedia.net/img/cache/300-square/product-1/2019/2/26/27509542/27509542_f95a0484-acbd-4c9b-b612-443f6490eb89_1200_1200.jpg,ampmco,https://www.tokopedia.com/ampmco
"(GIFTSET) DW Petite Melrose White + Cuff Rosegold",https://www.tokopedia.com/ampmco/giftset-dw-petite-melrose-white-cuff-rosegold-15ce?trkid=f%3DCa0000L000P0W0S0Sh%2CCo0Po0Fr0Cb0_src%3Dshop-product_page%3D1_ob%3D11_q%3D_po%3D3_catid%3D1949,700000,https://ecs7.tokopedia.net/img/cache/300-square/product-1/2019/2/26/27509542/27509542_d0b87f6e-3c20-4dfc-9fe4-19642092ec77_1200_1200.jpg,ampmco,https://www.tokopedia.com/ampmco
"(GIFTSET) DW Petite Sterling Black + Cuff Rosegold",https://www.tokopedia.com/ampmco/giftset-dw-petite-sterling-black-cuff-rosegold?trkid=f%3DCa0000L000P0W0S0Sh%2CCo0Po0Fr0Cb0_src%3Dshop-product_page%3D1_ob%3D11_q%3D_po%3D4_catid%3D1949,700000,https://ecs7.tokopedia.net/img/cache/300-square/product-1/2019/2/26/27509542/27509542_ed4eb162-fc0e-46cd-9991-5b255832afa2_1200_1200.jpg,ampmco,https://www.tokopedia.com/ampmco
"(GIFTSET) DW Petite Bondi White + Cuff Rosegold",https://www.tokopedia.com/ampmco/giftset-dw-petite-bondi-white-cuff-rosegold?trkid=f%3DCa0000L000P0W0S0Sh%2CCo0Po0Fr0Cb0_src%3Dshop-product_page%3D1_ob%3D11_q%3D_po%3D5_catid%3D1949,700000,https://ecs7.tokopedia.net/img/cache/300-square/product-1/2019/2/26/27509542/27509542_42fc6703-fe3c-44d3-ad69-9ba1bfc297ba_1200_1200.jpg,ampmco,https://www.tokopedia.com/ampmco
"(GIFTSET) DW Petite Melrose Black + Cuff Rosegold",https://www.tokopedia.com/ampmco/giftset-dw-petite-melrose-black-cuff-rosegold-8ad9?trkid=f%3DCa0000L000P0W0S0Sh%2CCo0Po0Fr0Cb0_src%3Dshop-product_page%3D1_ob%3D11_q%3D_po%3D6_catid%3D1949,700000,https://ecs7.tokopedia.net/img/cache/300-square/product-1/2019/2/26/27509542/27509542_80928cbb-6e99-4f86-a938-a749ae065d29_1200_1200.jpg,ampmco,https://www.tokopedia.com/ampmco
"DW Petite Melrose",https://www.tokopedia.com/ampmco/dw-petite-melrose?trkid=f%3DCa0000L000P0W0S0Sh%2CCo0Po0Fr0Cb0_src%3Dshop-product_page%3D1_ob%3D11_q%3D_po%3D7_catid%3D1949,500000,https://ecs7.tokopedia.net/img/cache/300-square/product-1/2019/2/26/27509542/27509542_62829f2d-5cfc-4f61-86df-3e0c7e450953_1200_1200.jpg,ampmco,https://www.tokopedia.com/ampmco
"DW Petite Ashfield",https://www.tokopedia.com/ampmco/dw-petite-ashfield?trkid=f%3DCa0000L000P0W0S0Sh%2CCo0Po0Fr0Cb0_src%3Dshop-product_page%3D1_ob%3D11_q%3D_po%3D8_catid%3D1949,500000,https://ecs7.tokopedia.net/img/cache/300-square/product-1/2019/2/26/27509542/27509542_25a3124c-0273-4d4b-ab74-7f517f1e7f18_1200_1200.jpg,ampmco,https://www.tokopedia.com/ampmco
"DW Petite Sterling",https://www.tokopedia.com/ampmco/dw-petite-sterling?trkid=f%3DCa0000L000P0W0S0Sh%2CCo0Po0Fr0Cb0_src%3Dshop-product_page%3D1_ob%3D11_q%3D_po%3D9_catid%3D1949,500000,https://ecs7.tokopedia.net/img/cache/300-square/product-1/2019/2/26/27509542/27509542_fab45a66-84c5-4cca-82f4-3039b5bf3171_1200_1200.jpg,ampmco,https://www.tokopedia.com/ampmco
"DW Petite Bondi Black",https://www.tokopedia.com/ampmco/dw-petite-bondi-black?trkid=f%3DCa0000L000P0W0S0Sh%2CCo0Po0Fr0Cb0_src%3Dshop-product_page%3D1_ob%3D11_q%3D_po%3D10_catid%3D1949,500000,https://ecs7.tokopedia.net/img/cache/300-square/product-1/2019/2/24/27509542/27509542_eae71b62-4a4c-472b-a9b8-78cb0775cc30_1200_1200.jpg,ampmco,https://www.tokopedia.com/ampmco
"DW Petite Bondi White",https://www.tokopedia.com/ampmco/dw-petite-bondi-white?trkid=f%3DCa0000L000P0W0S0Sh%2CCo0Po0Fr0Cb0_src%3Dshop-product_page%3D1_ob%3D11_q%3D_po%3D11_catid%3D1949,500000,https://ecs7.tokopedia.net/img/cache/300-square/product-1/2019/2/24/27509542/27509542_9811cbf9-bc29-495b-ab35-680264770713_1200_1200.jpg,ampmco,https://www.tokopedia.com/ampmco
"DW Petite Cornwall Rosegold",https://www.tokopedia.com/ampmco/dw-petite-cornwall-rosegold?trkid=f%3DCa0000L000P0W0S0Sh%2CCo0Po0Fr0Cb0_src%3Dshop-product_page%3D1_ob%3D11_q%3D_po%3D12_catid%3D1949,500000,https://ecs7.tokopedia.net/img/cache/300-square/product-1/2019/2/24/27509542/27509542_e4bfb3b7-913d-45e7-b5b9-c4a5732d99aa_1200_1200.jpg,ampmco,https://www.tokopedia.com/ampmco
"DW Petite Cornwall Silver",https://www.tokopedia.com/ampmco/dw-petite-cornwall-silver?trkid=f%3DCa0000L000P0W0S0Sh%2CCo0Po0Fr0Cb0_src%3Dshop-product_page%3D1_ob%3D11_q%3D_po%3D13_catid%3D1949,500000,https://ecs7.tokopedia.net/img/cache/300-square/product-1/2019/2/24/27509542/27509542_c69f891f-1913-421f-9607-58a388f1ea8f_1200_1200.jpg,ampmco,https://www.tokopedia.com/ampmco
"DW Dapper Series 38mm",https://www.tokopedia.com/ampmco/dw-dapper-series-38mm?trkid=f%3DCa0000L000P0W0S0Sh%2CCo0Po0Fr0Cb0_src%3Dshop-product_page%3D1_ob%3D11_q%3D_po%3D14_catid%3D1872,500000,https://ecs7.tokopedia.net/img/cache/300-square/product-1/2019/2/24/27509542/27509542_59bace08-e24c-45dc-bd3a-d569afd481ef_1200_1200.jpg,ampmco,https://www.tokopedia.com/ampmco
"DW Dapper Series 34mm",https://www.tokopedia.com/ampmco/dw-dapper-series-34mm?trkid=f%3DCa0000L000P0W0S0Sh%2CCo0Po0Fr0Cb0_src%3Dshop-product_page%3D1_ob%3D11_q%3D_po%3D15_catid%3D1949,500000,https://ecs7.tokopedia.net/img/cache/300-square/product-1/2019/2/24/27509542/27509542_ef021ce1-6f5a-4278-9ee9-a184fd5cd4fd_1200_1200.jpg,ampmco,https://www.tokopedia.com/ampmco
"DW Classic Black Nato Series 40mm",https://www.tokopedia.com/ampmco/dw-classic-black-nato-series-40mm?trkid=f%3DCa0000L000P0W0S0Sh%2CCo0Po0Fr0Cb0_src%3Dshop-product_page%3D1_ob%3D11_q%3D_po%3D16_catid%3D1873,500000,https://ecs7.tokopedia.net/img/cache/300-square/product-1/2019/2/24/27509542/27509542_a6012914-68a1-43e3-bebf-74548cd72aaa_1200_1200.jpg,ampmco,https://www.tokopedia.com/ampmco
"DW Classic Black Nato Series 36mm",https://www.tokopedia.com/ampmco/dw-classic-black-nato-series-36mm?trkid=f%3DCa0000L000P0W0S0Sh%2CCo0Po0Fr0Cb0_src%3Dshop-product_page%3D1_ob%3D11_q%3D_po%3D17_catid%3D1949,500000,https://ecs7.tokopedia.net/img/cache/300-square/product-1/2019/2/24/27509542/27509542_a6012914-68a1-43e3-bebf-74548cd72aaa_1200_1200.jpg,ampmco,https://www.tokopedia.com/ampmco
"DW Classic Black Leather Series 40mm",https://www.tokopedia.com/ampmco/dw-classic-black-leather-series-40mm?trkid=f%3DCa0000L000P0W0S0Sh%2CCo0Po0Fr0Cb0_src%3Dshop-product_page%3D1_ob%3D11_q%3D_po%3D18_catid%3D1873,500000,https://ecs7.tokopedia.net/img/cache/300-square/product-1/2019/2/24/27509542/27509542_69bea30d-3dbb-4425-bbf6-1b8dd16daabe_1200_1200.jpg,ampmco,https://www.tokopedia.com/ampmco
"DW Classic Black Leather Series 36mm",https://www.tokopedia.com/ampmco/dw-classic-black-leather-series-36mm?trkid=f%3DCa0000L000P0W0S0Sh%2CCo0Po0Fr0Cb0_src%3Dshop-product_page%3D1_ob%3D11_q%3D_po%3D19_catid%3D1949,500000,https://ecs7.tokopedia.net/img/cache/300-square/product-1/2019/2/24/27509542/27509542_6977e28a-e366-4d3a-855c-8702e0d3c8f7_1200_1200.jpg,ampmco,https://www.tokopedia.com/ampmco
"DW Classic White Nato Roselyn - Bayswater Series 40mm",https://www.tokopedia.com/ampmco/dw-classic-white-nato-roselyn-bayswater-series-40mm?trkid=f%3DCa0000L000P0W0S0Sh%2CCo0Po0Fr0Cb0_src%3Dshop-product_page%3D1_ob%3D11_q%3D_po%3D20_catid%3D1873,500000,https://ecs7.tokopedia.net/img/cache/300-square/product-1/2019/2/24/27509542/27509542_782a5a84-e004-4d8c-a098-2e7ace9d95bf_1200_1200.jpg,ampmco,https://www.tokopedia.com/ampmco
"DW Classic White Nato Roselyn - Bayswater Series 36mm",https://www.tokopedia.com/ampmco/dw-classic-white-nato-roselyn-bayswater-series-36mm?trkid=f%3DCa0000L000P0W0S0Sh%2CCo0Po0Fr0Cb0_src%3Dshop-product_page%3D1_ob%3D11_q%3D_po%3D21_catid%3D1949,500000,https://ecs7.tokopedia.net/img/cache/300-square/product-1/2019/2/24/27509542/27509542_f2d215bb-28da-4485-97a8-9ddb7043d92d_1200_1200.jpg,ampmco,https://www.tokopedia.com/ampmco
"DW Classic White Nato Series 40mm",https://www.tokopedia.com/ampmco/dw-classic-white-nato-series-40mm?trkid=f%3DCa0000L000P0W0S0Sh%2CCo0Po0Fr0Cb0_src%3Dshop-product_page%3D1_ob%3D11_q%3D_po%3D22_catid%3D1873,500000,https://ecs7.tokopedia.net/img/cache/300-square/product-1/2019/2/24/27509542/27509542_01b3406f-3e1b-4499-a730-5699d3e40c05_1200_1200.jpg,ampmco,https://www.tokopedia.com/ampmco
"DW Classic White Nato Series 36mm",https://www.tokopedia.com/ampmco/dw-classic-white-nato-series-36mm?trkid=f%3DCa0000L000P0W0S0Sh%2CCo0Po0Fr0Cb0_src%3Dshop-product_page%3D1_ob%3D11_q%3D_po%3D23_catid%3D1949,500000,https://ecs7.tokopedia.net/img/cache/300-square/product-1/2019/2/24/27509542/27509542_6e7bd197-5108-4e60-af86-a295a9546a95_1200_1200.jpg,ampmco,https://www.tokopedia.com/ampmco
"DW Classic White Leather Series 40mm",https://www.tokopedia.com/ampmco/dw-classic-white-leather-series-40mm?trkid=f%3DCa0000L000P0W0S0Sh%2CCo0Po0Fr0Cb0_src%3Dshop-product_page%3D1_ob%3D11_q%3D_po%3D24_catid%3D1873,500000,https://ecs7.tokopedia.net/img/cache/300-square/product-1/2019/2/24/27509542/27509542_b64ced09-a1c6-488f-a2c8-3c21f4a7eeaf_1200_1200.jpg,ampmco,https://www.tokopedia.com/ampmco
"DW Classic White Leather Series 36mm",https://www.tokopedia.com/ampmco/dw-classic-white-leather-series-36mm?trkid=f%3DCa0000L000P0W0S0Sh%2CCo0Po0Fr0Cb0_src%3Dshop-product_page%3D1_ob%3D11_q%3D_po%3D25_catid%3D1949,500000,https://ecs7.tokopedia.net/img/cache/300-square/product-1/2019/2/24/27509542/27509542_7e6e1fc5-d0ba-4bf1-b20c-e212a1a064b7_1200_1200.jpg,ampmco,https://www.tokopedia.com/ampmco
"Strap Daniel Wellington Leather & Nato Series for Petite 32mm",https://www.tokopedia.com/ampmco/strap-daniel-wellington-leather-nato-series-for-petite-32mm?trkid=f%3DCa0000L000P0W0S0Sh%2CCo0Po0Fr0Cb0_src%3Dshop-product_page%3D1_ob%3D11_q%3D_po%3D26_catid%3D1949,150000,https://ecs7.tokopedia.net/img/cache/300-square/product-1/2019/1/19/27509542/27509542_5d354a04-e87b-42f8-925a-99e8e5094013_1200_1200.jpg,ampmco,https://www.tokopedia.com/ampmco
"Strap Daniel Wellington Leather & Nato Series for Petite 28mm",https://www.tokopedia.com/ampmco/strap-daniel-wellington-leather-nato-series-for-petite-28mm?trkid=f%3DCa0000L000P0W0S0Sh%2CCo0Po0Fr0Cb0_src%3Dshop-product_page%3D1_ob%3D11_q%3D_po%3D27_catid%3D1949,150000,https://ecs7.tokopedia.net/img/cache/300-square/product-1/2019/1/19/27509542/27509542_298e91f7-596d-450d-8626-c591ae152dfc_1200_1200.jpg,ampmco,https://www.tokopedia.com/ampmco
"Strap Daniel Wellington Mesh Series for Petite 32mm",https://www.tokopedia.com/ampmco/strap-daniel-wellington-mesh-series-for-petite-32mm?trkid=f%3DCa0000L000P0W0S0Sh%2CCo0Po0Fr0Cb0_src%3Dshop-product_page%3D1_ob%3D11_q%3D_po%3D28_catid%3D1949,175000,https://ecs7.tokopedia.net/img/cache/300-square/product-1/2019/1/19/27509542/27509542_097c536d-a3f1-4723-8510-44085a53e3f5_1200_1200.jpg,ampmco,https://www.tokopedia.com/ampmco
"Strap Daniel Wellington Mesh Series for Petite 28mm",https://www.tokopedia.com/ampmco/strap-daniel-wellington-mesh-series-for-petite-28mm?trkid=f%3DCa0000L000P0W0S0Sh%2CCo0Po0Fr0Cb0_src%3Dshop-product_page%3D1_ob%3D11_q%3D_po%3D29_catid%3D1949,175000,https://ecs7.tokopedia.net/img/cache/300-square/product-1/2019/1/19/27509542/27509542_88dd2cb2-266f-4edd-8304-d33156d7a83c_1200_1200.jpg,ampmco,https://www.tokopedia.com/ampmco
"Fossil Nate Chronograph JR1505",https://www.tokopedia.com/ampmco/fossil-nate-chronograph-jr1505?trkid=f%3DCa0000L000P0W0S0Sh%2CCo0Po0Fr0Cb0_src%3Dshop-product_page%3D1_ob%3D11_q%3D_po%3D30_catid%3D1873,1120000,https://ecs7.tokopedia.net/img/cache/300-square/product-1/2019/1/19/27509542/27509542_3b7dbd5b-4079-4127-9fdb-3ca763e8a672_1500_1500.jpg,ampmco,https://www.tokopedia.com/ampmco
"Fossil Perfect Boyfriend ES4093",https://www.tokopedia.com/ampmco/fossil-perfect-boyfriend-es4093?trkid=f%3DCa0000L000P0W0S0Sh%2CCo0Po0Fr0Cb0_src%3Dshop-product_page%3D1_ob%3D11_q%3D_po%3D31_catid%3D1949,1110000,https://ecs7.tokopedia.net/img/cache/300-square/product-1/2019/1/19/27509542/27509542_ca88cc60-86ff-4dc0-bca2-ab6361e1a29e_1500_1500.jpg,ampmco,https://www.tokopedia.com/ampmco
"Fossil Suitor Mechanical BQ3265",https://www.tokopedia.com/ampmco/fossil-suitor-mechanical-bq3265?trkid=f%3DCa0000L000P0W0S0Sh%2CCo0Po0Fr0Cb0_src%3Dshop-product_page%3D1_ob%3D11_q%3D_po%3D32_catid%3D1949,1260000,https://ecs7.tokopedia.net/img/cache/300-square/product-1/2019/1/19/27509542/27509542_b33b64d1-36d0-4d7f-84b6-a09cb7c1fc9a_1500_1500.jpg,ampmco,https://www.tokopedia.com/ampmco
"Strap Daniel Wellington 36mm for Classic Black & White Series",https://www.tokopedia.com/ampmco/strap-daniel-wellington-36mm-for-classic-black-white-series?trkid=f%3DCa0000L000P0W0S0Sh%2CCo0Po0Fr0Cb0_src%3Dshop-product_page%3D1_ob%3D11_q%3D_po%3D33_catid%3D1873,150000,https://ecs7.tokopedia.net/img/cache/300-square/product-1/2018/12/2/27509542/27509542_8df2cdeb-ae6a-4a12-8380-0df6a479b589_1200_1200.jpg,ampmco,https://www.tokopedia.com/ampmco
"Strap Daniel Wellington 40mm for Classic Black & White Series",https://www.tokopedia.com/ampmco/strap-daniel-wellington-40mm-for-classic-black-white-series?trkid=f%3DCa0000L000P0W0S0Sh%2CCo0Po0Fr0Cb0_src%3Dshop-product_page%3D1_ob%3D11_q%3D_po%3D34_catid%3D1873,150000,https://ecs7.tokopedia.net/img/cache/300-square/product-1/2018/12/2/27509542/27509542_547d2243-2bf3-4b96-b5cc-5bb3518e99f7_1200_1200.jpg,ampmco,https://www.tokopedia.com/ampmco
"Daniel Wellington Classic Petite Leather 32mm ORIGINAL BM",https://www.tokopedia.com/ampmco/daniel-wellington-classic-petite-leather-32mm-original-bm?trkid=f%3DCa0000L000P0W0S0Sh%2CCo0Po0Fr0Cb0_src%3Dshop-product_page%3D1_ob%3D11_q%3D_po%3D35_catid%3D1949,550000,https://ecs7.tokopedia.net/img/cache/300-square/product-1/2018/12/2/27509542/27509542_688a3c46-8564-4386-b386-79377f6a456e_1200_1200.jpg,ampmco,https://www.tokopedia.com/ampmco
"Daniel Wellington Petite Mesh (Melrose, Sterling, Ashfield) 28mm",https://www.tokopedia.com/ampmco/daniel-wellington-petite-mesh-melrose-sterling-ashfield-28mm?trkid=f%3DCa0000L000P0W0S0Sh%2CCo0Po0Fr0Cb0_src%3Dshop-product_page%3D1_ob%3D11_q%3D_po%3D36_catid%3D1949,550000,https://ecs7.tokopedia.net/img/cache/300-square/product-1/2018/11/6/3217055/3217055_46601957-8862-4ce0-b914-60fbb3914cc8_1200_1200.jpg,ampmco,https://www.tokopedia.com/ampmco
"Michael Kors MK9009 Gold Ion-Plated",https://www.tokopedia.com/ampmco/michael-kors-mk9009-gold-ion-plated?trkid=f%3DCa0000L000P0W0S0Sh%2CCo0Po0Fr0Cb0_src%3Dshop-product_page%3D1_ob%3D11_q%3D_po%3D37_catid%3D1873,1505000,https://ecs7.tokopedia.net/img/cache/300-square/product-1/2018/11/28/27509542/27509542_9ccfa402-18c7-4f77-8b78-3856b97c89a2_786_767,ampmco,https://www.tokopedia.com/ampmco
"Michael Kors MK8320 Lexington",https://www.tokopedia.com/ampmco/michael-kors-mk8320-lexington?trkid=f%3DCa0000L000P0W0S0Sh%2CCo0Po0Fr0Cb0_src%3Dshop-product_page%3D1_ob%3D11_q%3D_po%3D38_catid%3D1873,1145000,https://ecs7.tokopedia.net/img/cache/300-square/product-1/2018/11/28/27509542/27509542_def3c5fb-3223-44e4-a199-3d8f45229626_2048_2048.jpg,ampmco,https://www.tokopedia.com/ampmco
"Michael Kors MK6520 Slater",https://www.tokopedia.com/ampmco/michael-kors-mk6520-slater?trkid=f%3DCa0000L000P0W0S0Sh%2CCo0Po0Fr0Cb0_src%3Dshop-product_page%3D1_ob%3D11_q%3D_po%3D39_catid%3D1949,1305000,https://ecs7.tokopedia.net/img/cache/300-square/product-1/2018/11/28/27509542/27509542_029cc0f7-c5fd-4ec3-a40e-3d5eade5b994_900_900.jpg,ampmco,https://www.tokopedia.com/ampmco
"Michael Kors MK6488 Bradshaw",https://www.tokopedia.com/ampmco/michael-kors-mk6488-bradshaw?trkid=f%3DCa0000L000P0W0S0Sh%2CCo0Po0Fr0Cb0_src%3Dshop-product_page%3D1_ob%3D11_q%3D_po%3D40_catid%3D1949,1040000,https://ecs7.tokopedia.net/img/cache/300-square/product-1/2018/11/28/27509542/27509542_d6d6aed1-ecee-4ae1-9cbf-706efc299bb1_960_960.jpg,ampmco,https://www.tokopedia.com/ampmco
"Michael Kors MK6398 Bradshaw",https://www.tokopedia.com/ampmco/michael-kors-mk6398-bradshaw?trkid=f%3DCa0000L000P0W0S0Sh%2CCo0Po0Fr0Cb0_src%3Dshop-product_page%3D1_ob%3D11_q%3D_po%3D41_catid%3D1873,1065000,https://ecs7.tokopedia.net/img/cache/300-square/product-1/2018/11/28/27509542/27509542_28d6c797-66bd-4d3a-a185-39e86ddcf7d0_900_900.jpg,ampmco,https://www.tokopedia.com/ampmco
"Michael Kors MK6377 Layton Rose",https://www.tokopedia.com/ampmco/michael-kors-mk6377-layton-rose?trkid=f%3DCa0000L000P0W0S0Sh%2CCo0Po0Fr0Cb0_src%3Dshop-product_page%3D1_ob%3D11_q%3D_po%3D42_catid%3D1873,1255000,https://ecs7.tokopedia.net/img/cache/300-square/product-1/2018/11/28/27509542/27509542_6247ace0-4115-4ed6-a0a0-df3fc98a1372_642_606,ampmco,https://www.tokopedia.com/ampmco
"Michael Kors MK6270 Bradshaw",https://www.tokopedia.com/ampmco/michael-kors-mk6270-bradshaw?trkid=f%3DCa0000L000P0W0S0Sh%2CCo0Po0Fr0Cb0_src%3Dshop-product_page%3D1_ob%3D11_q%3D_po%3D43_catid%3D1873,1115000,https://ecs7.tokopedia.net/img/cache/300-square/product-1/2018/11/28/27509542/27509542_b6fc3142-11fe-480c-a3f0-9d51062daf9d_1202_1211,ampmco,https://www.tokopedia.com/ampmco
"Michael Kors MK6269 Bradshaw",https://www.tokopedia.com/ampmco/michael-kors-mk6269-bradshaw?trkid=f%3DCa0000L000P0W0S0Sh%2CCo0Po0Fr0Cb0_src%3Dshop-product_page%3D1_ob%3D11_q%3D_po%3D44_catid%3D1873,1095000,https://ecs7.tokopedia.net/img/cache/300-square/product-1/2018/11/28/27509542/27509542_eb93ef53-fff9-4a1a-88ba-5b198234dae8_1000_1000.jpg,ampmco,https://www.tokopedia.com/ampmco
"Michael Kors MK6248 Bradshaw",https://www.tokopedia.com/ampmco/michael-kors-mk6248-bradshaw?trkid=f%3DCa0000L000P0W0S0Sh%2CCo0Po0Fr0Cb0_src%3Dshop-product_page%3D1_ob%3D11_q%3D_po%3D45_catid%3D1873,1075000,https://ecs7.tokopedia.net/img/cache/300-square/product-1/2018/11/28/27509542/27509542_885f04e3-b971-4a95-b342-e04d8936de58_2048_2048.jpg,ampmco,https://www.tokopedia.com/ampmco
"Michael Kors MK6174 Bradshaw",https://www.tokopedia.com/ampmco/michael-kors-mk6174-bradshaw?trkid=f%3DCa0000L000P0W0S0Sh%2CCo0Po0Fr0Cb0_src%3Dshop-product_page%3D1_ob%3D11_q%3D_po%3D46_catid%3D1949,1015000,https://ecs7.tokopedia.net/img/cache/300-square/product-1/2018/11/28/27509542/27509542_1676c518-68b5-4c53-95ed-6924996b212f_1000_1000.jpg,ampmco,https://www.tokopedia.com/ampmco
"Michael Kors MK6166 Runway",https://www.tokopedia.com/ampmco/michael-kors-mk6166-runway?trkid=f%3DCa0000L000P0W0S0Sh%2CCo0Po0Fr0Cb0_src%3Dshop-product_page%3D1_ob%3D11_q%3D_po%3D47_catid%3D1949,1095000,https://ecs7.tokopedia.net/img/cache/300-square/product-1/2018/11/28/27509542/27509542_a02314af-b7cb-4b1c-9591-1a565eda60a9_1000_1000.jpg,ampmco,https://www.tokopedia.com/ampmco
"Michael Kors MK6165 Runway",https://www.tokopedia.com/ampmco/michael-kors-mk6165-runway?trkid=f%3DCa0000L000P0W0S0Sh%2CCo0Po0Fr0Cb0_src%3Dshop-product_page%3D1_ob%3D11_q%3D_po%3D48_catid%3D1949,1095000,https://ecs7.tokopedia.net/img/cache/300-square/product-1/2018/11/28/27509542/27509542_329cbb8a-4952-4c3c-be74-5f797bd1c632_1500_1500.jpeg,ampmco,https://www.tokopedia.com/ampmco
"Michael Kors MK6117 Parker",https://www.tokopedia.com/ampmco/michael-kors-mk6117-parker?trkid=f%3DCa0000L000P0W0S0Sh%2CCo0Po0Fr0Cb0_src%3Dshop-product_page%3D1_ob%3D11_q%3D_po%3D49_catid%3D1949,1115000,https://ecs7.tokopedia.net/img/cache/300-square/product-1/2018/11/28/27509542/27509542_c6cfcf60-440b-4185-8f96-04a2f879a8e8_1000_1000.jpg,ampmco,https://www.tokopedia.com/ampmco
"Michael Kors MK5984 Baisley",https://www.tokopedia.com/ampmco/michael-kors-mk5984-baisley?trkid=f%3DCa0000L000P0W0S0Sh%2CCo0Po0Fr0Cb0_src%3Dshop-product_page%3D1_ob%3D11_q%3D_po%3D50_catid%3D1949,1125000,https://ecs7.tokopedia.net/img/cache/300-square/product-1/2018/11/28/27509542/27509542_2a733372-12a3-4a49-a4cc-f88fa40600eb_700_420.jpg,ampmco,https://www.tokopedia.com/ampmco
"Michael Kors MK5912 Bradshaw",https://www.tokopedia.com/ampmco/michael-kors-mk5912-bradshaw?trkid=f%3DCa0000L000P0W0S0Sh%2CCo0Po0Fr0Cb0_src%3Dshop-product_page%3D1_ob%3D11_q%3D_po%3D51_catid%3D1949,1040000,https://ecs7.tokopedia.net/img/cache/300-square/product-1/2018/11/28/27509542/27509542_bbf5b1fa-74e1-4a34-9d85-e6eb10ed6407_2009_2009.jpg,ampmco,https://www.tokopedia.com/ampmco
"Michael Kors MK5774 Parker",https://www.tokopedia.com/ampmco/michael-kors-mk5774-parker?trkid=f%3DCa0000L000P0W0S0Sh%2CCo0Po0Fr0Cb0_src%3Dshop-product_page%3D1_ob%3D11_q%3D_po%3D52_catid%3D1949,1235000,https://ecs7.tokopedia.net/img/cache/300-square/product-1/2018/11/28/27509542/27509542_86ee4d4e-ae9f-4f5f-a792-a53f4d23aa84_1000_1000.jpg,ampmco,https://www.tokopedia.com/ampmco
"Michael Kors MK5735 Lexington",https://www.tokopedia.com/ampmco/michael-kors-mk5735-lexington?trkid=f%3DCa0000L000P0W0S0Sh%2CCo0Po0Fr0Cb0_src%3Dshop-product_page%3D1_ob%3D11_q%3D_po%3D53_catid%3D1873,1165000,https://ecs7.tokopedia.net/img/cache/300-square/product-1/2018/11/28/27509542/27509542_682188c7-f86d-4161-a633-7e70800e5a5d_1000_1000.jpg,ampmco,https://www.tokopedia.com/ampmco
"Michael Kors MK5632 Parker",https://www.tokopedia.com/ampmco/michael-kors-mk5632-parker?trkid=f%3DCa0000L000P0W0S0Sh%2CCo0Po0Fr0Cb0_src%3Dshop-product_page%3D1_ob%3D11_q%3D_po%3D54_catid%3D1949,1235000,https://ecs7.tokopedia.net/img/cache/300-square/product-1/2018/11/28/27509542/27509542_ba8fa833-24bc-4bf4-9c7b-897733611da8_1000_1000.jpg,ampmco,https://www.tokopedia.com/ampmco
"Michael Kors MK5628 Bradshaw",https://www.tokopedia.com/ampmco/michael-kors-mk5628-bradshaw?trkid=f%3DCa0000L000P0W0S0Sh%2CCo0Po0Fr0Cb0_src%3Dshop-product_page%3D1_ob%3D11_q%3D_po%3D55_catid%3D1873,1075000,https://ecs7.tokopedia.net/img/cache/300-square/product-1/2018/11/28/27509542/27509542_54a8eb36-476f-435d-ba4e-17a5a0915dea_800_800.jpg,ampmco,https://www.tokopedia.com/ampmco
"Michael Kors MK5578",https://www.tokopedia.com/ampmco/michael-kors-mk5578?trkid=f%3DCa0000L000P0W0S0Sh%2CCo0Po0Fr0Cb0_src%3Dshop-product_page%3D1_ob%3D11_q%3D_po%3D56_catid%3D1949,1185000,https://ecs7.tokopedia.net/img/cache/300-square/product-1/2018/11/28/27509542/27509542_b4603435-a242-43b6-9b07-db566375990f_1200_1200.jpg,ampmco,https://www.tokopedia.com/ampmco
"Michael Kors Women's MK5569 Lexington",https://www.tokopedia.com/ampmco/michael-kors-women-s-mk5569-lexington?trkid=f%3DCa0000L000P0W0S0Sh%2CCo0Po0Fr0Cb0_src%3Dshop-product_page%3D1_ob%3D11_q%3D_po%3D57_catid%3D1949,1145000,https://ecs7.tokopedia.net/img/cache/300-square/product-1/2018/11/28/27509542/27509542_156ae92a-22e0-4581-9bd9-6fba95d223a9_1024_1024.jpg,ampmco,https://www.tokopedia.com/ampmco
"Michael Kors MK5550 Bradshaw Chronograph",https://www.tokopedia.com/ampmco/michael-kors-mk5550-bradshaw-chronograph?trkid=f%3DCa0000L000P0W0S0Sh%2CCo0Po0Fr0Cb0_src%3Dshop-product_page%3D1_ob%3D11_q%3D_po%3D58_catid%3D1873,1075000,https://ecs7.tokopedia.net/img/cache/300-square/product-1/2018/11/28/27509542/27509542_99f0de7e-6fdf-4807-a2c0-7b7d0f7af8e2_2048_2048.jpg,ampmco,https://www.tokopedia.com/ampmco
"Michael Kors MK5482 Runway",https://www.tokopedia.com/ampmco/michael-kors-mk5482-runway?trkid=f%3DCa0000L000P0W0S0Sh%2CCo0Po0Fr0Cb0_src%3Dshop-product_page%3D1_ob%3D11_q%3D_po%3D59_catid%3D1873,1105000,https://ecs7.tokopedia.net/img/cache/300-square/product-1/2018/11/28/27509542/27509542_01474657-0d3a-4630-ba4c-a29d41c4904f_1492_1500.jpg,ampmco,https://www.tokopedia.com/ampmco
"Michael Kors MK5315 Runway",https://www.tokopedia.com/ampmco/michael-kors-mk5315-runway?trkid=f%3DCa0000L000P0W0S0Sh%2CCo0Po0Fr0Cb0_src%3Dshop-product_page%3D1_ob%3D11_q%3D_po%3D60_catid%3D1949,1075000,https://ecs7.tokopedia.net/img/cache/300-square/product-1/2018/11/28/27509542/27509542_bfb6cb2b-3be3-4f10-9a77-e6a52f516d04_620_888.jpg,ampmco,https://www.tokopedia.com/ampmco
"Michael Kors MK3591 Slim Runaway",https://www.tokopedia.com/ampmco/michael-kors-mk3591-slim-runaway?trkid=f%3DCa0000L000P0W0S0Sh%2CCo0Po0Fr0Cb0_src%3Dshop-product_page%3D1_ob%3D11_q%3D_po%3D61_catid%3D1949,1095000,https://ecs7.tokopedia.net/img/cache/300-square/product-1/2018/11/28/27509542/27509542_695cb0a7-51c0-40aa-9465-7071ea3bf4f2_900_900.jpg,ampmco,https://www.tokopedia.com/ampmco
"Michael Kors MK3589 Slim Runaway",https://www.tokopedia.com/ampmco/michael-kors-mk3589-slim-runaway?trkid=f%3DCa0000L000P0W0S0Sh%2CCo0Po0Fr0Cb0_src%3Dshop-product_page%3D1_ob%3D11_q%3D_po%3D62_catid%3D1949,1095000,https://ecs7.tokopedia.net/img/cache/300-square/product-1/2018/11/28/27509542/27509542_41b47697-e820-4348-96a7-a0e43d64de20_1600_1600.jpg,ampmco,https://www.tokopedia.com/ampmco
"Michael Kors MK3500 Jaryn Gold-Tone",https://www.tokopedia.com/ampmco/michael-kors-mk3500-jaryn-gold-tone?trkid=f%3DCa0000L000P0W0S0Sh%2CCo0Po0Fr0Cb0_src%3Dshop-product_page%3D1_ob%3D11_q%3D_po%3D63_catid%3D1949,1040000,https://ecs7.tokopedia.net/img/cache/300-square/product-1/2018/11/28/27509542/27509542_79e5b51d-9880-49d6-8c9f-4f2efba3b7f8_1000_1000.png,ampmco,https://www.tokopedia.com/ampmco
"Michael Kors MK3446 Mini Darci Watch",https://www.tokopedia.com/ampmco/michael-kors-mk3446-mini-darci-watch?trkid=f%3DCa0000L000P0W0S0Sh%2CCo0Po0Fr0Cb0_src%3Dshop-product_page%3D1_ob%3D11_q%3D_po%3D64_catid%3D1949,1165000,https://ecs7.tokopedia.net/img/cache/300-square/product-1/2018/11/28/27509542/27509542_68ffcca3-916e-4ca3-9be5-b02331ef286f_800_800.jpg,ampmco,https://www.tokopedia.com/ampmco
"Michael Kors MK3149 Women's Runway Chronograph Twist Chain",https://www.tokopedia.com/ampmco/michael-kors-mk3149-women-s-runway-chronograph-twist-chain?trkid=f%3DCa0000L000P0W0S0Sh%2CCo0Po0Fr0Cb0_src%3Dshop-product_page%3D1_ob%3D11_q%3D_po%3D65_catid%3D1949,1115000,https://ecs7.tokopedia.net/img/cache/300-square/product-1/2018/11/28/27509542/27509542_0ea39ed9-5e6e-4a0b-9454-dd955b7c0926_800_800.jpg,ampmco,https://www.tokopedia.com/ampmco
"Fossil Cecile AM4511 Rose-Tone ORIGINAL",https://www.tokopedia.com/ampmco/fossil-cecile-am4511-rose-tone-original?trkid=f%3DCa0000L000P0W0S0Sh%2CCo0Po0Fr0Cb0_src%3Dshop-product_page%3D1_ob%3D11_q%3D_po%3D66_catid%3D1949,1105000,https://ecs7.tokopedia.net/img/cache/300-square/product-1/2018/11/18/27509542/27509542_6d3f4094-4d07-46f4-aadc-b293cbd27f1d_1500_1500.jpg,ampmco,https://www.tokopedia.com/ampmco
"Fossil Cecile AM4638 Dark Brown Leather ORIGINAL",https://www.tokopedia.com/ampmco/fossil-cecile-am4638-dark-brown-leather-original?trkid=f%3DCa0000L000P0W0S0Sh%2CCo0Po0Fr0Cb0_src%3Dshop-product_page%3D1_ob%3D11_q%3D_po%3D67_catid%3D1873,975000,https://ecs7.tokopedia.net/img/cache/300-square/product-1/2018/11/18/27509542/27509542_45c215e0-affe-47f8-a502-e7a4e485b420_620_620.jpg,ampmco,https://www.tokopedia.com/ampmco
"Fossil Coachman CH2564 Black Leather ORIGINAL",https://www.tokopedia.com/ampmco/fossil-coachman-ch2564-black-leather-original?trkid=f%3DCa0000L000P0W0S0Sh%2CCo0Po0Fr0Cb0_src%3Dshop-product_page%3D1_ob%3D11_q%3D_po%3D68_catid%3D1873,1015000,https://ecs7.tokopedia.net/img/cache/300-square/product-1/2018/11/18/27509542/27509542_5f0cf0cb-9141-4e38-b0c7-4da146c8659e_620_620.jpg,ampmco,https://www.tokopedia.com/ampmco
"Fossil Coachman CH2565 Brown Leather ORIGINAL",https://www.tokopedia.com/ampmco/fossil-coachman-ch2565-brown-leather-original?trkid=f%3DCa0000L000P0W0S0Sh%2CCo0Po0Fr0Cb0_src%3Dshop-product_page%3D1_ob%3D11_q%3D_po%3D69_catid%3D1873,1015000,https://ecs7.tokopedia.net/img/cache/300-square/product-1/2018/11/18/27509542/27509542_6bacb3be-9d08-4c46-b401-bc59c06874d0_1500_1500.jpg,ampmco,https://www.tokopedia.com/ampmco
"Fossil Coachman CH2891 Brown Leather ORIGINAL",https://www.tokopedia.com/ampmco/fossil-coachman-ch2891-brown-leather-original?trkid=f%3DCa0000L000P0W0S0Sh%2CCo0Po0Fr0Cb0_src%3Dshop-product_page%3D1_ob%3D11_q%3D_po%3D70_catid%3D1873,1015000,https://ecs7.tokopedia.net/img/cache/300-square/product-1/2018/11/18/27509542/27509542_633f5d45-050f-422e-8a42-1789703fbdd7_1500_1500.jpg,ampmco,https://www.tokopedia.com/ampmco
"Fossil Boyfriend ES2197",https://www.tokopedia.com/ampmco/fossil-boyfriend-es2197?trkid=f%3DCa0000L000P0W0S0Sh%2CCo0Po0Fr0Cb0_src%3Dshop-product_page%3D1_ob%3D11_q%3D_po%3D71_catid%3D1949,1070000,https://ecs7.tokopedia.net/img/cache/300-square/product-1/2018/11/18/27509542/27509542_dbe8d16d-b1c0-49fb-9071-508d0a0b2275_1500_1500.jpg,ampmco,https://www.tokopedia.com/ampmco
"Fossil Boyfriend ES2198",https://www.tokopedia.com/ampmco/fossil-boyfriend-es2198?trkid=f%3DCa0000L000P0W0S0Sh%2CCo0Po0Fr0Cb0_src%3Dshop-product_page%3D1_ob%3D11_q%3D_po%3D72_catid%3D1949,1040000,https://ecs7.tokopedia.net/img/cache/300-square/product-1/2018/11/18/27509542/27509542_d90f0ceb-d152-45c0-9670-193cb6536932_1500_1500.jpg,ampmco,https://www.tokopedia.com/ampmco
"Fossil Georgia Bone ES2830",https://www.tokopedia.com/ampmco/fossil-georgia-bone-es2830?trkid=f%3DCa0000L000P0W0S0Sh%2CCo0Po0Fr0Cb0_src%3Dshop-product_page%3D1_ob%3D11_q%3D_po%3D73_catid%3D1949,920000,https://ecs7.tokopedia.net/img/cache/300-square/product-1/2018/11/18/27509542/27509542_d146fefb-becd-4dc9-800a-ba9dd4d82af5_1500_1500.jpg,ampmco,https://www.tokopedia.com/ampmco
"Fossil Georgia Smoke ES3077",https://www.tokopedia.com/ampmco/fossil-georgia-smoke-es3077?trkid=f%3DCa0000L000P0W0S0Sh%2CCo0Po0Fr0Cb0_src%3Dshop-product_page%3D1_ob%3D11_q%3D_po%3D74_catid%3D1949,920000,https://ecs7.tokopedia.net/img/cache/300-square/product-1/2018/11/18/27509542/27509542_ff4be393-d204-43a9-bed6-8d4fa5d4e350_1500_1500.jpg,ampmco,https://www.tokopedia.com/ampmco
"Fossil Boyfriend ES3380",https://www.tokopedia.com/ampmco/fossil-boyfriend-es3380?trkid=f%3DCa0000L000P0W0S0Sh%2CCo0Po0Fr0Cb0_src%3Dshop-product_page%3D1_ob%3D11_q%3D_po%3D75_catid%3D1949,1070000,https://ecs7.tokopedia.net/img/cache/300-square/product-1/2018/11/18/27509542/27509542_9e99d990-e2b5-4d16-9220-68ebae05d4e6_1500_1500.jpg,ampmco,https://www.tokopedia.com/ampmco
"Fossil Jacqueline ES3435",https://www.tokopedia.com/ampmco/fossil-jacqueline-es3435?trkid=f%3DCa0000L000P0W0S0Sh%2CCo0Po0Fr0Cb0_src%3Dshop-product_page%3D1_ob%3D11_q%3D_po%3D76_catid%3D1949,880000,https://ecs7.tokopedia.net/img/cache/300-square/product-1/2018/11/18/27509542/27509542_171c7801-7416-4328-bbe0-21b38699793c_1500_1500.jpg,ampmco,https://www.tokopedia.com/ampmco
"Fossil Boyfriend ES3494",https://www.tokopedia.com/ampmco/fossil-boyfriend-es3494?trkid=f%3DCa0000L000P0W0S0Sh%2CCo0Po0Fr0Cb0_src%3Dshop-product_page%3D1_ob%3D11_q%3D_po%3D77_catid%3D1949,1070000,https://ecs7.tokopedia.net/img/cache/300-square/product-1/2018/11/18/27509542/27509542_9c26d3f5-3bb2-4aa6-9182-02cf0ee4a871_1500_1500.jpg,ampmco,https://www.tokopedia.com/ampmco
"Fossil Boyfriend ES3840",https://www.tokopedia.com/ampmco/fossil-boyfriend-es3840?trkid=f%3DCa0000L000P0W0S0Sh%2CCo0Po0Fr0Cb0_src%3Dshop-product_page%3D1_ob%3D11_q%3D_po%3D78_catid%3D1949,1040000,https://ecs7.tokopedia.net/img/cache/300-square/product-1/2018/11/18/27509542/27509542_152068d0-cd1c-4829-978d-220c385dd7ab_1500_1500.jpg,ampmco,https://www.tokopedia.com/ampmco
"Fossil Jacqueline ES3844",https://www.tokopedia.com/ampmco/fossil-jacqueline-es3844?trkid=f%3DCa0000L000P0W0S0Sh%2CCo0Po0Fr0Cb0_src%3Dshop-product_page%3D1_ob%3D11_q%3D_po%3D79_catid%3D1949,880000,https://ecs7.tokopedia.net/img/cache/300-square/product-1/2018/11/18/27509542/27509542_12e3ed62-db99-4027-aabe-2482ec7352ff_1500_1500.jpg,ampmco,https://www.tokopedia.com/ampmco
"Fossil Perfect Boyfriend ES3883 Silver ORIGINAL",https://www.tokopedia.com/ampmco/fossil-perfect-boyfriend-es3883-silver-original?trkid=f%3DCa0000L000P0W0S0Sh%2CCo0Po0Fr0Cb0_src%3Dshop-product_page%3D1_ob%3D11_q%3D_po%3D80_catid%3D1949,1075000,https://ecs7.tokopedia.net/img/cache/300-square/product-1/2018/11/18/27509542/27509542_73b63013-b66a-4ea3-84c8-0bd1fafcba15_1500_1500.jpg,ampmco,https://www.tokopedia.com/ampmco
