Userid,Username,Fullname
6876090693,mhat_rachmat,"Rachmat Tihan"
349760635,ogiwiyogo,"Ogi Wiyogo"
5788986376,nailasstick,"Naila's Stick"
5683378979,cantika_nuamoorea,"Rika Cantika"
8067701109,fadilahrifqi97,Rifqi
4298130121,nageeeey,"Nagya Desca Savina"
11048109391,hz_custom_case,Hz_custom
8571888365,nurulazizah1023,"nurul azizah"
4264303664,fiqrian_k,F.K.N.A
7569825375,dull_salampessy,"Doel zhampalle"
964689993,davidparningotan,"David Parningotan Gultom"
2633238548,ajitia_17,"[BEU SLOW!!!] official™"
3219754434,yhand8,yan'snb_flow
3613557910,sabillurrosidin_99,"al-hikam sabillurrosidin"
3642906673,ramadhanrahmat_23,"Rahmat Ramadhan"
7645819016,masmultazam,"Dhoni Irza Multazam"
2284023857,septiayupalupi,"Septi ayu paluvi"
6845655872,endanesiaa,
10345826265,ferry.irawan.121398,"Ferry Irawan"
9633138170,h_muhammad42,Muhammad
11180326203,dyse.case,"GUDANG CETAK CASING HP"
1921606144,yoga_stiawan,"Yoga Styawan"
10385298352,accurate_ltcjkt,"𝐒𝐨𝐟𝐭𝐰𝐚𝐫𝐞 𝐀𝐤𝐮𝐧𝐭𝐚𝐧𝐬𝐢 - 𝗔𝗖𝗖𝗨𝗥𝗔𝗧𝗘"
10098053770,dhivers.ryw_,"HALIMAH GUSRIANI🥀"
9850602568,destra.media,#BukanMotivator
3984884635,_rohmadfh43,"rohmad fajar"
1613710966,prdptmrzky,"Pradipta Miftahul Rizky"
3455550922,robbani.tamberru,robbani
208781280,tan_kenny,"Kenny Tan"
11780194397,okportalindonesia,"OKportal Indonesia"
2868321975,gmakjayaprinting,"G-Mak Jaya printing"
4205853468,isnarathaumi,isnarathaumi
5827883683,hariyono4644,"Edy Hariyono"
6232113641,ri3qi_99_grup,"Ri3qi 99 grup"
2955455242,muhsigitadjis,"Muhamad Sigit Adji Saputra"
657621699,ucalastore,"GIVEAWAY FASHION SELEMBGRAM"
1970530863,kaninaurfi,
9909813400,rzqan__,"new account"
2810891544,technodrav.id,"Technodrav Project"
6021913113,nazrulfuady,"Nazrul Fu'ady"
1995413367,lolyyuda,"Anak Pak Yuda"
11830429534,fiyashop_jepara,skincare
2258409523,frozzycase,"CUSTOM CASE HIGH QUALITY! 💯"
6565894635,kus.mia.olshop,"OPEN Reseller(ada grup WA)👜"
11106207958,citraasrie,"Citra Asrie"
2467966146,vii_0137,vii
8529976196,dunny_boyz,Dani_boyz
8624070628,solusi_hamil_cepat_100,"Konsultasi gratis"
4268072332,tiara_natsya,tiaraa
3313026338,ini.ily,"LIANI ANGGRAENI"
