"Nama Item","Url Item",Harga,"Url gambar","Username Toko","Url Toko"
"Aukey Charger 2 Ports 18W PD 2.0 & QC 3.0 - 500335",https://www.tokopedia.com/aukey/aukey-charger-2-ports-18w-pd-2-0-qc-3-0-500335?trkid=f%3DCa0000L000P0W0S0Sh00Co0Po0Fr0Cb0_src%3Dshop-product_page%3D1_ob%3D11_q%3D_po%3D1_catid%3D70,265000,https://ecs7.tokopedia.net/img/cache/300-square/product-1/2018/12/20/19973494/19973494_8845cf50-4550-41bd-b8c0-f04bd71e7e5f_1001_1001.jpg,aukey,https://www.tokopedia.com/aukey
"Aukey Speaker Mini Bluetooth - 500332",https://www.tokopedia.com/aukey/aukey-speaker-mini-bluetooth-500332?trkid=f%3DCa0000L000P0W0S0Sh00Co0Po0Fr0Cb0_src%3Dshop-product_page%3D1_ob%3D11_q%3D_po%3D2_catid%3D562,450000,https://ecs7.tokopedia.net/img/cache/300-square/product-1/2018/11/30/19973494/19973494_23642966-d232-4a89-8244-5d061ba3894f_1001_1001.jpg,aukey,https://www.tokopedia.com/aukey
"Aukey EP-B67 Magnetic Wireless Earbuds",https://www.tokopedia.com/aukey/aukey-ep-b67-magnetic-wireless-earbuds?trkid=f%3DCa0000L000P0W0S0Sh00Co0Po0Fr0Cb0_src%3Dshop-product_page%3D1_ob%3D11_q%3D_po%3D3_catid%3D72,499000,https://ecs7.tokopedia.net/img/cache/300-square/product-1/2018/11/7/19973494/19973494_2088c803-cc6a-428e-81aa-e9fe634b3162_1001_1001.jpg,aukey,https://www.tokopedia.com/aukey
"[PROMO] Aukey Cable 2M LightningBraided MFI Apple Red - 500213",https://www.tokopedia.com/aukey/promo-aukey-cable-2m-lightningbraided-mfi-apple-red-500213?trkid=f%3DCa0000L000P0W0S0Sh00Co0Po0Fr0Cb0_src%3Dshop-product_page%3D1_ob%3D11_q%3D_po%3D4_catid%3D71,170000,https://ecs7.tokopedia.net/img/cache/300-square/product-1/2018/11/5/19973494/19973494_1beb0723-3651-4196-b0f1-4f33913b1bb8_1001_1001.jpg,aukey,https://www.tokopedia.com/aukey
"Aukey Speaker Mini Bluetooth - 500229",https://www.tokopedia.com/aukey/aukey-speaker-mini-bluetooth-500229?trkid=f%3DCa0000L000P0W0S0Sh00Co0Po0Fr0Cb0_src%3Dshop-product_page%3D1_ob%3D11_q%3D_po%3D5_catid%3D562,450000,https://ecs7.tokopedia.net/img/cache/300-square/product-1/2018/11/3/19973494/19973494_d5dfc122-bd97-4053-95ad-abae918239fb_1251_1251.jpg,aukey,https://www.tokopedia.com/aukey
"Aukey Holder Car Mount Air Vent - 500226",https://www.tokopedia.com/aukey/aukey-holder-car-mount-air-vent-500226?trkid=f%3DCa0000L000P0W0S0Sh00Co0Po0Fr0Cb0_src%3Dshop-product_page%3D1_ob%3D11_q%3D_po%3D6_catid%3D73,145000,https://ecs7.tokopedia.net/img/cache/300-square/product-1/2018/11/3/19973494/19973494_31fe1af3-591b-4b03-8b6b-6250ff478e9d_1001_1001.jpg,aukey,https://www.tokopedia.com/aukey
"Aukey Holder Mini Tripod with Smartphone Mount - 500205",https://www.tokopedia.com/aukey/aukey-holder-mini-tripod-with-smartphone-mount-500205?trkid=f%3DCa0000L000P0W0S0Sh00Co0Po0Fr0Cb0_src%3Dshop-product_page%3D1_ob%3D11_q%3D_po%3D7_catid%3D73,135000,https://ecs7.tokopedia.net/img/cache/300-square/product-1/2018/11/3/19973494/19973494_6108ba8b-5f1f-44ad-a352-808f58ca6074_1001_1001.jpg,aukey,https://www.tokopedia.com/aukey
"Aukey Adapter USB C to HDMI - 500299",https://www.tokopedia.com/aukey/aukey-adapter-usb-c-to-hdmi-500299?trkid=f%3DCa0000L000P0W0S0Sh00Co0Po0Fr0Cb0_src%3Dshop-product_page%3D1_ob%3D11_q%3D_po%3D8_catid%3D70,315000,https://ecs7.tokopedia.net/img/cache/300-square/product-1/2018/11/3/19973494/19973494_b0d84f10-aa92-4d6b-834b-9903d41911f3_1001_1001.jpg,aukey,https://www.tokopedia.com/aukey
"Aukey HUB USB C To 3 Ports USB 3.0 + Ethernet Gigabit - 500174",https://www.tokopedia.com/aukey/aukey-hub-usb-c-to-3-ports-usb-3-0-ethernet-gigabit-500174?trkid=f%3DCa0000L000P0W0S0Sh00Co0Po0Fr0Cb0_src%3Dshop-product_page%3D1_ob%3D11_q%3D_po%3D9_catid%3D343,350000,https://ecs7.tokopedia.net/img/cache/300-square/product-1/2018/11/3/19973494/19973494_7c8f1dc4-6b42-4fe8-96d0-64f4205df238_1001_1001.jpg,aukey,https://www.tokopedia.com/aukey
"Aukey Cable Micro USB 2.0 Gold Plate (3Pcs) - 500090",https://www.tokopedia.com/aukey/aukey-cable-micro-usb-2-0-gold-plate-3pcs-500090?trkid=f%3DCa0000L000P0W0S0Sh00Co0Po0Fr0Cb0_src%3Dshop-product_page%3D1_ob%3D11_q%3D_po%3D10_catid%3D71,117500,https://ecs7.tokopedia.net/img/cache/300-square/product-1/2018/11/3/19973494/19973494_1faee1e7-63ba-4935-a13b-46a46592bae6_1001_1001.jpg,aukey,https://www.tokopedia.com/aukey
"Aukey Cable 2M Braided Type C USB 3.0 - 500254",https://www.tokopedia.com/aukey/aukey-cable-2m-braided-type-c-usb-3-0-500254?trkid=f%3DCa0000L000P0W0S0Sh00Co0Po0Fr0Cb0_src%3Dshop-product_page%3D1_ob%3D11_q%3D_po%3D11_catid%3D71,83000,https://ecs7.tokopedia.net/img/cache/300-square/product-1/2018/11/2/19973494/19973494_17401598-771f-48f7-9bc0-b013e2288ecc_1001_1001.jpg,aukey,https://www.tokopedia.com/aukey
"[PROMO] Aukey Cable 2M Lightning Braided MFI Apple - 500172",https://www.tokopedia.com/aukey/promo-aukey-cable-2m-lightning-braided-mfi-apple-500172?trkid=f%3DCa0000L000P0W0S0Sh00Co0Po0Fr0Cb0_src%3Dshop-product_page%3D1_ob%3D11_q%3D_po%3D12_catid%3D71,350000,https://ecs7.tokopedia.net/img/cache/300-square/product-1/2018/11/2/19973494/19973494_315973a3-bd53-4e95-96aa-058ece3bc59d_1001_1001.jpg,aukey,https://www.tokopedia.com/aukey
"Aukey Cable 2M Lightning Braided MFI Apple - 500172",https://www.tokopedia.com/aukey/aukey-cable-2m-lightning-braided-mfi-apple-500172?trkid=f%3DCa0000L000P0W0S0Sh00Co0Po0Fr0Cb0_src%3Dshop-product_page%3D1_ob%3D11_q%3D_po%3D13_catid%3D71,190000,https://ecs7.tokopedia.net/img/cache/300-square/product-1/2018/11/2/19973494/19973494_315973a3-bd53-4e95-96aa-058ece3bc59d_1001_1001.jpg,aukey,https://www.tokopedia.com/aukey
"[PROMO] Aukey Cable Micro USB 2.0 (6Pcs) - 500092",https://www.tokopedia.com/aukey/promo-aukey-cable-micro-usb-2-0-6pcs-500092?trkid=f%3DCa0000L000P0W0S0Sh00Co0Po0Fr0Cb0_src%3Dshop-product_page%3D1_ob%3D11_q%3D_po%3D14_catid%3D71,230000,https://ecs7.tokopedia.net/img/cache/300-square/product-1/2018/11/2/19973494/19973494_ac26cdb5-011a-488f-b64a-bc78f8e5340e_1001_1001.jpg,aukey,https://www.tokopedia.com/aukey
"Aukey Cable Micro USB 2.0 (6Pcs) - 500092",https://www.tokopedia.com/aukey/aukey-cable-micro-usb-2-0-6pcs-500092?trkid=f%3DCa0000L000P0W0S0Sh00Co0Po0Fr0Cb0_src%3Dshop-product_page%3D1_ob%3D11_q%3D_po%3D15_catid%3D71,130000,https://ecs7.tokopedia.net/img/cache/300-square/product-1/2018/11/2/19973494/19973494_ac26cdb5-011a-488f-b64a-bc78f8e5340e_1001_1001.jpg,aukey,https://www.tokopedia.com/aukey
"Aukey Cable 3.2M Micro USB 2.0 - 500257",https://www.tokopedia.com/aukey/aukey-cable-3-2m-micro-usb-2-0-500257?trkid=f%3DCa0000L000P0W0S0Sh00Co0Po0Fr0Cb0_src%3Dshop-product_page%3D1_ob%3D11_q%3D_po%3D16_catid%3D71,67500,https://ecs7.tokopedia.net/img/cache/300-square/product-1/2018/11/2/19973494/19973494_be307cb3-f0e4-4d4f-ae57-c267a7717347_1001_1001.jpg,aukey,https://www.tokopedia.com/aukey
"[GROSIR] Aukey Cable Micro & USB C 2.0 (5Pcs) - 500260",https://www.tokopedia.com/aukey/grosir-aukey-cable-micro-usb-c-2-0-5pcs-500260?trkid=f%3DCa0000L000P0W0S0Sh00Co0Po0Fr0Cb0_src%3Dshop-product_page%3D1_ob%3D11_q%3D_po%3D17_catid%3D71,199000,https://ecs7.tokopedia.net/img/cache/300-square/product-1/2018/11/2/19973494/19973494_c3f0a46d-1aef-44fe-904e-fe656182cb9d_1001_1001.jpg,aukey,https://www.tokopedia.com/aukey
"Aukey Cable Micro & USB C 2.0 (5Pcs) - 500260",https://www.tokopedia.com/aukey/aukey-cable-micro-usb-c-2-0-5pcs-500260?trkid=f%3DCa0000L000P0W0S0Sh00Co0Po0Fr0Cb0_src%3Dshop-product_page%3D1_ob%3D11_q%3D_po%3D18_catid%3D71,88000,https://ecs7.tokopedia.net/img/cache/300-square/product-1/2018/11/2/19973494/19973494_c3f0a46d-1aef-44fe-904e-fe656182cb9d_1001_1001.jpg,aukey,https://www.tokopedia.com/aukey
"Aukey Cable 2M USB 3.1 gen 1 to USB C Braided Nylon Red - 500280",https://www.tokopedia.com/aukey/aukey-cable-2m-usb-3-1-gen-1-to-usb-c-braided-nylon-red-500280?trkid=f%3DCa0000L000P0W0S0Sh00Co0Po0Fr0Cb0_src%3Dshop-product_page%3D1_ob%3D11_q%3D_po%3D19_catid%3D71,145000,https://ecs7.tokopedia.net/img/cache/300-square/product-1/2018/11/2/19973494/19973494_45506256-1bc4-46b8-aa3b-6cb1e2ccb8c3_1001_1001.jpg,aukey,https://www.tokopedia.com/aukey
"Aukey Adapter USB 3.0 to USB C - 500173",https://www.tokopedia.com/aukey/aukey-adapter-usb-3-0-to-usb-c-500173?trkid=f%3DCa0000L000P0W0S0Sh00Co0Po0Fr0Cb0_src%3Dshop-product_page%3D1_ob%3D11_q%3D_po%3D20_catid%3D335,100000,https://ecs7.tokopedia.net/img/cache/300-square/product-1/2018/11/2/19973494/19973494_39d7ac34-0624-4691-a43f-57052a27e7cb_1001_1001.jpg,aukey,https://www.tokopedia.com/aukey
"Aukey Powerbank 10000 mAh Slim and AiQ - 500228",https://www.tokopedia.com/aukey/aukey-powerbank-10000-mah-slim-and-aiq-500228?trkid=f%3DCa0000L000P0W0S0Sh00Co0Po0Fr0Cb0_src%3Dshop-product_page%3D1_ob%3D11_q%3D_po%3D21_catid%3D615,325000,https://ecs7.tokopedia.net/img/cache/300-square/product-1/2018/11/1/19973494/19973494_ca816b6e-a705-4a6b-bb0e-724c0948d19b_1001_1001.jpg,aukey,https://www.tokopedia.com/aukey
"Aukey Powerbank 2 Ports 20000 mAh AiQ - 500217",https://www.tokopedia.com/aukey/aukey-powerbank-2-ports-20000-mah-aiq-500217?trkid=f%3DCa0000L000P0W0S0Sh00Co0Po0Fr0Cb0_src%3Dshop-product_page%3D1_ob%3D11_q%3D_po%3D22_catid%3D615,450000,https://ecs7.tokopedia.net/img/cache/300-square/product-1/2018/11/1/19973494/19973494_1e80afc5-70a6-4204-9a35-d9c177e1c9da_1001_1001.jpg,aukey,https://www.tokopedia.com/aukey
"Aukey Cable 1M Lightning MFI Apple Red - 500088",https://www.tokopedia.com/aukey/aukey-cable-1m-lightning-mfi-apple-red-500088?trkid=f%3DCa0000L000P0W0S0Sh00Co0Po0Fr0Cb0_src%3Dshop-product_page%3D1_ob%3D11_q%3D_po%3D23_catid%3D71,175000,https://ecs7.tokopedia.net/img/cache/300-square/product-1/2018/10/31/19973494/19973494_cc381300-201a-4c8c-8c32-8f5a00cc9da6_1001_1001.jpg,aukey,https://www.tokopedia.com/aukey
"Aukey Cable 1M Lightning MFI Apple Grey - 500087",https://www.tokopedia.com/aukey/aukey-cable-1m-lightning-mfi-apple-grey-500087?trkid=f%3DCa0000L000P0W0S0Sh00Co0Po0Fr0Cb0_src%3Dshop-product_page%3D1_ob%3D11_q%3D_po%3D24_catid%3D71,175000,https://ecs7.tokopedia.net/img/cache/300-square/product-1/2018/10/31/19973494/19973494_1dccab1a-47d8-4e43-8795-d797bcc9928b_1001_1001.jpg,aukey,https://www.tokopedia.com/aukey
"Aukey Charger 6 Ports 60W QC 3.0 & AiQ - 500292",https://www.tokopedia.com/aukey/aukey-charger-6-ports-60w-qc-3-0-aiq-500292?trkid=f%3DCa0000L000P0W0S0Sh00Co0Po0Fr0Cb0_src%3Dshop-product_page%3D1_ob%3D11_q%3D_po%3D25_catid%3D70,395000,https://ecs7.tokopedia.net/img/cache/300-square/product-1/2018/10/30/19973494/19973494_f109ad13-b5f0-4e33-9caf-65a3e43f4e88_1001_1001.jpg,aukey,https://www.tokopedia.com/aukey
"Aukey Cable 2M LightningBraided MFI Apple black - 500212",https://www.tokopedia.com/aukey/aukey-cable-2m-lightningbraided-mfi-apple-black-500212?trkid=f%3DCa0000L000P0W0S0Sh00Co0Po0Fr0Cb0_src%3Dshop-product_page%3D1_ob%3D11_q%3D_po%3D26_catid%3D71,220000,https://ecs7.tokopedia.net/img/cache/300-square/product-1/2018/11/13/19973494/19973494_ac41a51b-dd03-4639-a900-c53fffdac71e_1001_1001.jpg,aukey,https://www.tokopedia.com/aukey
"Aukey Cable 2M LightningBraided MFI Apple Red - 500213",https://www.tokopedia.com/aukey/aukey-cable-2m-lightningbraided-mfi-apple-red-500213?trkid=f%3DCa0000L000P0W0S0Sh00Co0Po0Fr0Cb0_src%3Dshop-product_page%3D1_ob%3D11_q%3D_po%3D27_catid%3D71,220000,https://ecs7.tokopedia.net/img/cache/300-square/product-1/2018/11/13/19973494/19973494_82e31c09-1fdb-4758-ac41-828611be0c6f_1001_1001.jpg,aukey,https://www.tokopedia.com/aukey
"Aukey Cable 1.2M Lightning Braided MFI Apple Red - 500211",https://www.tokopedia.com/aukey/aukey-cable-1-2m-lightning-braided-mfi-apple-red-500211?trkid=f%3DCa0000L000P0W0S0Sh00Co0Po0Fr0Cb0_src%3Dshop-product_page%3D1_ob%3D11_q%3D_po%3D28_catid%3D71,195000,https://ecs7.tokopedia.net/img/cache/300-square/product-1/2018/11/13/19973494/19973494_04537803-7a99-4e26-88a3-ea1593e7a1d5_1001_1001.jpg,aukey,https://www.tokopedia.com/aukey
"Aukey Powerbank 10000 mAh USB C AiQ - 500330",https://www.tokopedia.com/aukey/aukey-powerbank-10000-mah-usb-c-aiq-500330?trkid=f%3DCa0000L000P0W0S0Sh00Co0Po0Fr0Cb0_src%3Dshop-product_page%3D1_ob%3D11_q%3D_po%3D29_catid%3D615,225000,https://ecs7.tokopedia.net/img/cache/300-square/product-1/2018/11/1/19973494/19973494_386098ab-1577-4e4b-8bcc-656c491fd807_1001_1001.jpg,aukey,https://www.tokopedia.com/aukey
"Aukey PB-XD20 20100mAh Power Delivery USB C Powerbank",https://www.tokopedia.com/aukey/aukey-pb-xd20-20100mah-power-delivery-usb-c-powerbank?trkid=f%3DCa0000L000P0W0S0Sh00Co0Po0Fr0Cb0_src%3Dshop-product_page%3D1_ob%3D11_q%3D_po%3D30_catid%3D615,745000,https://ecs7.tokopedia.net/img/cache/300-square/product-1/2018/8/29/20258443/20258443_f41bb462-4ca5-4c8d-86d7-0bf6fbfeeb2b_1251_1251.jpg,aukey,https://www.tokopedia.com/aukey
"Aukey PB-N42 Pocket Powerbank 10000mAh - Hitam",https://www.tokopedia.com/aukey/aukey-pb-n42-pocket-powerbank-10000mah-hitam?trkid=f%3DCa0000L000P0W0S0Sh00Co0Po0Fr0Cb0_src%3Dshop-product_page%3D1_ob%3D11_q%3D_po%3D31_catid%3D615,199000,https://ecs7.tokopedia.net/img/cache/300-square/product-1/2018/11/27/19973494/19973494_c54d14f6-4eca-436b-b710-2df46868f24e_1001_1001.jpg,aukey,https://www.tokopedia.com/aukey
"Aukey PB-N42 Pocket 10000mAh Power Bank - Hitam",https://www.tokopedia.com/aukey/aukey-pb-n42-pocket-10000mah-power-bank-hitam?trkid=f%3DCa0000L000P0W0S0Sh00Co0Po0Fr0Cb0_src%3Dshop-product_page%3D1_ob%3D11_q%3D_po%3D32_catid%3D615,399000,https://ecs7.tokopedia.net/img/cache/300-square/product-1/2018/11/27/19973494/19973494_5e3c2ca3-f271-43cb-b6c0-34612083acb4_1001_1001.jpg,aukey,https://www.tokopedia.com/aukey
