Id,Url,Caption
1959271282046910401_7989144189,https://www.instagram.com/p/BswutmxB7_B/,
1955854975066633959_7989144189,https://www.instagram.com/p/Bskl7y9Bvbn/,
1945843009501786497_7989144189,https://www.instagram.com/p/BsBBehaB_GB/,☺️💕
1941047672559731759_7989144189,https://www.instagram.com/p/Brv_JL3BYQv/,"Upload foto ulang ga bayar kan? 🙂"
1939962895085626279_7989144189,https://www.instagram.com/p/BrsIfmHBGOn/,
1939863420597994658_7989144189,https://www.instagram.com/p/Brrx4DRhISi/,"have i told you yet.. how much you mean to me. have i told you yet. about all the happiness you bring to me. have i told you yet..that you mean the world to me.. youre the best thing thats ever happened to me.. just in case i havent. i want to you know. i love you"
1924463740858944942_7989144189,https://www.instagram.com/p/Bq1EZN5BE2u/,"please stop sebut mawar & es teh 🤬🤪"
1901312004401246618_7989144189,https://www.instagram.com/p/Bpi0THFhbGa/,
1895746324641739900_7989144189,https://www.instagram.com/p/BpPCzz4hfR8/,"are you kidding me ?"
1892776988507514252_7989144189,https://www.instagram.com/p/BpEfqSHBiWM/,"stop waiting for Friday,
for summer,
for someone to fall in love with you,
for life. Happiness is achieved when you stop waiting for it and make the most of the moment you are in now."
1889197391736063741_7989144189,https://www.instagram.com/p/Bo3xwS1Bcb9/,"happy saturday night✨"
1879974058888847298_7989144189,https://www.instagram.com/p/BoXAnIvBN_C/,"Jangan rusak hidupmu hanya dengan iri atas nikmat yang Allah berikan pada orang lain."
1878781416415125729_7989144189,https://www.instagram.com/p/BoSxb54B2Dh/,"happy weekend🌞"
1862382826067311226_7989144189,https://www.instagram.com/p/BnYg1Afh7p6/,
1862377147306665349_7989144189,https://www.instagram.com/p/BnYfiXvBOWF/,@envoutesphotography
1856771084821821372_7989144189,https://www.instagram.com/p/BnEk3bMBXe8/,
1855180822253233238_7989144189,https://www.instagram.com/p/Bm-7SDwhWRW/,
1844963975155366060_7989144189,https://www.instagram.com/p/BmaoPXahzis/,🍕♥️
1834118266715142629_7989144189,https://www.instagram.com/p/Bl0GNiTnHnl/,
1806499131944782825_7989144189,https://www.instagram.com/p/BkR-WOmnsvp/,
