Userid,Username,Fullname
3416630169,rinaldious,"Rinaldi Maulana"
1721593191,sumarno_aja,Sumarno
9365681211,abu.rskhi,Aburasakhi
8742706822,septianiels,"Sept.. 🌵"
2230928180,fahmi.ox8,ⓕⓐⓗⓜⓘ
9514426446,imsogenic,"EDIT FOTO + CETAK + FRAME"
5358453496,jamaludin33_,Jamaludin
8893893546,_mferraza_,"'Muhammad ferraza'"
4793291125,david_khairuddin,"""""""A.B.G_D, A, V, I, D"""""""
4369576806,dhedamarasri_wok87,
2340656193,zizah_nrl26,"❤zizah naurel❤"
1548462495,amhie_msglowmakssar,msglowbeautymakassar
8564881973,lievrg,"•William lie •"
8236515352,ulysinaga1707,ulysinaga1707
7649089842,gayuhpakde,"Gayuh Pak'de"
11452107933,sabloncustom86,"pemuda berkarya"
5679766437,dichoyogaardhi,"Dicho Yoga A.P"
3186116941,ulfahh19,ulfah
11454581359,muhammadnajir50,"muhammad najir"
7289605169,denature.official.store,"De Nature Official Store"
3273465406,heryantogaol,"heryanto aja"
1816159137,jesh.i,"Jezyka Li§an"
7176079509,rezahardian7voldism6661,Reza
8617420944,aldogustyanda87,aldogustyanda
2132672435,easterino,"Theodore Easterino"
3148299847,agustinatan1981,"Agustina Tan"
4349674710,yummibysis,"cake's shop by siska"
1634800858,aryunitanurdin22,Nitaa
2977548912,sugiarto_dbz,Sugiarto
8534480086,sulaiman_4chien,"Sulaiman Achien"
6140072222,yusiks_11,"yusi kurnia sari"
7847340731,nabillaputris3,NabillaPutriS
9904534242,didikoreeo08,Didik
4665883333,annanurmalia_,"anna nurmalia yulianti"
2022007901,iswatigemini605,iswati
8231226636,02.fashion,"O2 fashion"
3463480466,zmfuz_02,Zulmahfuz
382955002,melvialiauw,"Melvia Claudia🌸"
2503977420,fenipuspita12,"Tshirt Project - Berlian's"
5488619902,ditamelania22,"Dita Melania"
6372377758,admzakia,Zakiab
2192803187,heru_herusman,"Heru Herusman"
8164580810,abmstq,
9718294887,zapataparfumsepatu,"ZAPATA parfum sepatu serbaguna"
11617616239,fikasuhendar03,Fikasuhendar
8929236454,nyingnying_91,Momo
5786578775,alvinapr_,"Alvina Aura Pramudiva"
3215769999,sonny_setyawan1,SonnySetyawan
1691390558,erwin_sardjowardhoyo,"Erwin Pras sardjowardhoyo"
1663087502,wini878_,"Wini Yuliani"
