Userid,Username,Fullname
1824248245,ekayanti2202,ekayanti
1410568261,anjarjuli,anjar
11466671146,kaminah87,Kaminah
6927614618,sobhan27072018,Sobhan
11603118545,rama_0768,rama_07
11565665399,aileen_candra_laksana,"Aileen Candra Laksana.779"
10589955099,farhannurf_,"farhan nur fauzan"
6010564680,leni.jasaweb.paytren,"Jasa Pembuatan Web Paytren"
2131899645,cantiques_,"ARTFRAME PAPERBAG GOODIEBAG"
7239365863,pakaipaytrenaja1,"pendaftaran paytren"
4537050949,ladyrusbiyanti,Ladyrusbiyanti
3258744606,nn.noni,"N O N I"
8193483908,try_me_bixtch,Jovanni
5839372238,sticker.oke,sticker.oke
3309692308,snayzeerr,Snayzee
11341410732,heyy_niss18,heyy_niss18
4616292659,_maldito_gh,"- Maldito GH"
7341355106,khimartanahabang,"KHIMAR BRANDED"
7436634884,gamisterbaru01,"GAMIS TERBARU 081285489354"
9944134888,milagrossurabayaselatan,"JUAL MILAGROS WA 085334208485"
10701925480,vespaaddict_id1,vespaaddict_id
7604484502,gamisdewasa,"PUSAT GAMIS"
10025962713,qn.mukenakaylila,"MUKENA ARTIS KAYLILA"
7282940135,gamisonlinetanahabang,"GAMIS BRANDED"
7396149716,gamisbrandedterbaru,"GAMIS BRANDED"
2312035047,eto_com,ekokomarudin
647834211,aqibthenext,"Aqib Vino Eigarrs Paytren"
8184597813,maharani9794,"Regina Maharani"
7295425031,lancarin.id,"Tips Instagram Marketing"
10690158173,yuliono_sugeng,"Sugeng Yuliono"
9601057490,dlv.id,"PUSAT PHOTOSTORY & INVITATION"
7604056973,pusat_grosir_sepatu05,"GROSIR SEPATU MURAH BANDUNG"
5895592061,nina_olshop99,nina_olshop99
5544604516,nurike_ke,kekee
4172312286,msglowpusatkendari,"Msglow kendari"
4260265018,bandungproperti1,rumahbandung#1
2208165336,ranasrimustika,"Rana Srimustika"
6893695170,tipselling,"Sugi Hanau"
2306796787,mukatanpang,"Jamuta Jagoan Muka Tanpang"
6162577152,andrepercival98,André
8625217301,alva.stuff,"Alva Baby Stuff"
1479589353,ntrie_shop,ntrie_shop
7409638622,herypaytrenyusufmansur,"⏩PUSAT PENDAFTARAN PAYTREN⏪"
1578459089,muhammad_alihsan,"Muhammad Al Ihsan"
8563370514,ayu_indri14,"Ayu Indriani"
4093961375,yuliahrp21,Yuli
9225442722,fikrihermansyaa,"Fikry Hermansya"
6850110116,azkan15,azkan
2115002531,januar_handoko,"januar handoko"
8993958667,hasanahumroh,"HasanahUmroh-Eltura Group"
