Userid,Username,Fullname
4856040984,ipuuungh,ipung
4927204299,muhwildan_10,"Muhammad Wildan"
5785418729,melinda.rhmaaaa,melindarahma
6325866013,frestipuspa12,"Fresti puspa dwi"
11636376245,anaelleb816,elleb816
624565143,mr_ius90,"랃이우스 리엠"
8104087054,nuriafrianii,
37213966,ifoenkk,Ifoenk
518047788,rahmangeps,"Abd Rahman Geps"
5602325615,muhammad_taslim_1728,"Muhammad_Taslim _1728"
471771650,acuan97,"Acuan ( 林 家 全 )"
2058452460,bananakrezz_magelang,adeline_shop
5688888623,abyrf96,"Aby Rifai"
8154135074,wawanirwandaa,"Wawan Irwandaa"
6837707647,dimasdp87,"Dimas Dwi Prayogo"
3251471503,apeh_clan,"Apeh Clan"
1386147114,ruroh_dryice_carmojokerto,masruroh
371895051,laodeinsan,"Laode Insan"
5757005153,aditfx_,"Mhmmd Aditya"
9611918886,alna_shoes,"Alna Shoes"
3662248055,adimetamorfosis,"adi suryadi s"
4131943499,sandro.naibaho,"Sandro Julionard Naibaho"
4250711054,nivoswaruwu,"N I V O S"
10694847511,mhmmdhrsshlh,Muhammadhoirussholeh
1679953603,hamzahstvn,"Hamzah Tajuddin"
5453700294,its.dheavv_,"Adhelia n.q"
6639796533,nurlaela_s23,"Nurlaela Sulistiyanti"
1686961587,pchafifah,"Popy Chafifah"
288385014,monicawalujan,"Monica Walujan"
9376948702,myourcitrus,"Available Stock Directly Sent"
2256029597,qianaleather,"Qiana_Leather Purwokerto"
3021822947,jamal_edi_putra,"Ja M aL"
633745211,boydpetersen,"BP Media Marketing Agency"
6820944790,orson_bkg,/ahmadzignori
8421874314,indhptridiana,"indah putri diana❤"
3123291740,aldovammylu,aldovammylu
497705016,mellisaa.tan,
9015766161,berjualan_branded_jts,"Berjualan Monza preloved"
1973114200,zubay09,ZBY
978641365,myantiquesstore,"SUPPLIER MAINAN ACTION FIGURE"
2208521227,budiyardi97,budiyardi
8513642041,lestari.jaya.abadi,"Furniture Custom Terbaik"
5473591542,goresan_sangfajar_,@goresansangfajar_
4306243615,andreyansyah18,A̶n̶d̶r̶e̶y̶a̶n̶s̶y̶a̶h̶
3159057032,bahasa.inggris_fun,"Mau Mahir B.Inggriss ?"
4512503944,haj_ghlolam,"#چهارشنبه_های_ سیاه🇮🇷👳🕋⚡"
10186958002,minannnnn11,lathoifulminan
1766058688,rossa_sw,"Tiko Nawan Aldi Purnama❤"
11791012692,darkside.stores,Darkside.store
9297112888,simbamwari,
