Userid,Username,Fullname
1181104342,yudhahaps,"Yustinus Yudha Hapsara"
1116354476,stefanie_kiky,
3866012638,umar_habibillah,"umar habibillah"
6686954988,santri.14,Santri.14
3934827120,astutisusie,Calista_Shop58
2143678139,enoa01,mybiaskpop
11388423933,bastianputranto_,"Bastian Putranto"
7677262230,rafael_marquez04,"Rafael Marquez"
4027663998,dinartiinamega,"ina mega dinarti"
1381432218,olinpackaging21,"Cosmetic, Cosmebag & Packaging"
1348841222,lullycandraa,
4126489692,ds90_r,Aku
201422078,mrzhuge,"Steven Rubin"
5322344791,riscamiaudia,"Risca Mia Audia"
4255133166,nnurul205,"Nurul hasanah"
2095863889,diazpulga,"Diaz La Pulga"
5464022016,kioskaligrafi,"Kios Kaligrafi"
4297310275,salimholix,Laaa❤
2237877276,bunda_hafifah,"bunda hafifah"
6638076638,savar.indonesia,savar
3158936654,imronnugraha,"Ali Imron Nasrulloh"
8717094294,leartline,LeArtline
481838159,i.agustina.k,
1500762764,wdyaresi,"Widya Resi"
3638474499,simivi.collection,"JASA TITIP MINISO, HNM, ETC"
11461306731,frida.boutique25,"🆔 STORE MEDAN"
2060585277,21ant11,"🇦 🇳 🇹 🇴 🇰"
5414184401,aripfahrudin,"Arip Fahrudin"
8596675484,good_life_id,kebaikanhidup
4609450732,loadoa,"Kata Motivasi Hidup Sukses"
8541741023,semangkajus17,"JUS SEMANGKA"
4606115222,umar_sumarna_010,SUMARNA
9972869836,ellnmlntha,L
10935286498,inspirasimenanam,"Inspirasi Menanam"
7837617655,dayubentymsibali,DAYUBENTYMSIBALI
2025887410,oppnx,
7119504219,indrawati.iin_,"Iin Indrawati"
4218805511,rellyjulian,"Relly Julian"
4158088026,allysanasution,"Allysa Nasution"
1687728281,shofiyunniam,"Shofiyun Niam Paytren"
2550491248,andanacreative,"Bali Creative Consultant"
9953342989,amanah_logam_art,"Interior dan Eksterior Logam"
5394922400,praktisi.ig,"TOOLS INSTAGRAM VITGRAM"
5725179211,yulia3apsari,"Yulia Tri Apsari"
4198747302,ibnuibnuakil,"Ibnu Ibnu A'kil"
8685828150,_hawas_ki_aag_,"🔥Hawas Ki Aag🔥"
11435124260,theakgroup,"Adakarya Group*"
3036227759,chyoo18,
8528511839,bstore_jakarta,BStore_Jakarta
11473969364,mudamapan.id,mudamapan.id
