Userid,Username,Fullname
7944015862,hermawan4748,"Rudi Hermawan"
7809058273,rodhohs,"Rodhoh Tri Wahyuni S"
2107175291,dans3016,"daniel suwardi"
1484269292,gofishbali,"Dream Catcher Shop"
1268416335,kevin.gumelar,"ONE MONTH WITHOUT INSTAGRAM"
1508187411,andi0571,"Andika Pratama"
829300314,firkhansiregar,firkhan
2414087289,bayurahmadputra,"B A Y U  R.P"
574103764,philipstlamsihar,"Philips T. Lamsihar N"
7374414294,nurulfirdaus225,"nurul firdaus"
2060439619,step_one.cloth,"""STEP ONE"""
7821530596,ciptateknobersama,"Jual Sewa Printer & Toner"
1912962148,iva16880,"iva 168"
7972125506,nurhuda504,nurul
878104586,faizah.muchtar,"Faiza D.R"
7450408564,bak.ground.5,"Damon Brooks"
2238952914,mudayus,m_DauD_y
1990808978,taqimataqimi,"Mustaqim Arip"
3190414694,mbahutikece,"Munarsih Mbah Uti Kece"
2242093103,ariqhaniff,"Ariq Haniff"
6363038647,cindyvenisia,
5376208306,bkurnia89,Boby
7877987957,aprilo_ara,Aprilo_ARA
4792100685,harmonikamakassar,"Pintu Harmonika Makassar"
7438784521,chalifa_khaliqa.shop,Chalifa_Khaliqa.Shop
2281271101,sumadiikhsan,"Spesialis property"
1355697203,im_maswadi,"Mohammad Imam Maswadi"
7770365559,eriyanto_ramadhoni,"Eriyanto Ramadhoni"
730463008,nurtiow,"Nurti Oktavia W"
3487828683,ivan_jix,"mohammad irvan bin mari'e"
3248727362,aziz33abdul,"abdul aziz"
486812327,oktav299,oktav
4838864076,my_amoorea,"mira amoorea"
8140231239,customecase.unik1,"Ari Kuswoyo"
2137950892,rahmanta_ginting,"Rahmanta Ginting"
1685715516,wisnu.praabowo,"Wisnu Prabowo"
8167873203,linkar_production,"Lintang Karya Production"
7428834492,ravita_shop.id,"Toko Ravita"
691139796,benakmal,achmadakmal
7643624264,apalah6617,apalah
591937823,putriseptriani,"Putri Pratiwi Septriani"
559768730,novanfauzan,"Novan Fauzan"
4790135901,fahmafurniture,"Furniture Maker"
6055279308,sepatubataindustrial,"Sepatu Bata Industrial"
5771725796,2019_masih_jokowi,"laskar pendukung jokowi"
7020442936,milaniavienna,Milaniavienna
2946971993,muhammadkiran_,"Muhammad Kiran"
1398317361,mery.lee22,"MERY LEE"
3208787010,pamelasonia26,"Move Up"
3255238847,putra.2211,putra
