Userid,Username,Fullname
1248147244,arum_anggarsiwi,"Arum Anggar Siwi"
3007042978,widiautariii,WIDIA
8803136434,ris.ma___,ريسما
3969950506,changgih__,"Changgih Pamungkas"
7179399807,wicaksono4474,"Rony Wicaksono"
12005376792,nurmuham5,NurMuhamadPadly
9473399497,marina_myrm,marina_myrm
10717740461,maryati3249,maryati
4150463491,muhammad_mariano,"Muhammad Mariano"
10836184759,sindisartikaa,aceng
1504016033,triafaridaf,"Tria Farida Fajariyanti"
11824765523,misorashop,MISORA
8648083632,lupamakann,"Lupa Makan"
8408601304,devipebbyanti_,DEVI🌹.
6130273882,simbolon3746,"David Simbolon"
10158808987,citraatri_,"트라이 이미지."
1575585665,bangbelkhan,rizkifajrin_official
1360959584,syafribinbusahri,Syafri
805959119,ndiaulia_,"Andi Aulia"
7920993561,_wahyunitrie,"Trie wahyuni."
12117878027,mvp_member,"MVP || goodcommunity"
5021066116,harto2567,"Muhammad Harto"
10169814576,superprotein.lengkap,"Superprotein & Hypergrow"
6709664775,riaagustina58,riaofficial58
4468403797,baworyogya,"banana chips"
7537333660,ryanxthreme_201,"🍃Ryan Xthreme🍂"
4877925102,ohanarattan,"Ohana Rattan"
1831295692,azizah_yousuf,AzizahYusuf
3981243502,eva_chrstn,"Eva Christina Harahap💕"
6748881418,jimshoneyku.sda,jimshoneyku.sda
7173059832,_mm_collection,"MUSLATUL MAKIYAH"
1951941393,agehiho_,"age kurniawan"
12240055321,yy.bussinies,"bisnis modal 25k kuy joinnn💛💛"
1760843402,nrin.zaty,"nurin izzati✨"
12121435526,azeema11,azeema
471214875,harrynarayana,"I Putu Harry Narayana, S.Ars."
1745500099,n.03.r,"NY Mu Fc"
10741705251,aachannel25,Umar
182050741,mutiasophiani,"Mutia Sophiani"
4065515809,bukubisnisshop,"Buku Bisnis Shop"
9206255647,tools_pebisnis_online,"tools pebisnis online"
4140453276,syieswanto,Syieswanto
7636723163,nazaya_allshop,naz
4187966687,nurfdlrhma_,Nurfadellarahma
3209380410,dewiestetika,"VENEER GIGI PREMIUM"
11710039733,rtransoffici,RTransofficial
1304783802,ridhomaulana_,
8451927854,pamungkaserma57,
3681344039,lusy_rahmatika_devi,lusyqueenbeauty
5548905204,rizki_pahyudin12,"رجقي فحيدن"
