Userid,Username,Fullname,Comment,Tanggal
10977166690,maze.game,,"DONT CLICK ON THE BLACK DOOR ON MY PAGE @Haqnii @Fiki_hidayat211 @Itscloutgod @Yogi.MP4 @2Krafi @bot.r22 @wiicax @zafaxx @ichbinulas","2019-03-14 19:42:21"
1052467786,misturyoung,"Charles Okoye 🔵",❤️❤️❤️❤️,"2019-03-14 19:42:50"
1667735421,amymarinainsta,"Amy Marina 🌟",#60secclub,"2019-03-14 19:43:28"
8477478521,reverbco,"Reverb Collective","It’s a classic mentality. What doesn’t kill you makes you stronger 🤷🏻‍♂️","2019-03-14 19:43:30"
4184910199,jaredstaylor,Jared,"Great #management tips!","2019-03-14 19:43:31"
1909081072,aadil_mohani,"⠀⠀⠀⠀A A D I L  M O H A N I","This looks amazing 🤯","2019-03-14 19:43:42"
1603540384,_ralphchavez,ɥdlɐᴚ,"browse my story @garyvee","2019-03-14 19:43:46"
10245957380,kybbqspice,"KYBBQ Spice","So many people are “yes” and afraid to say “no”","2019-03-14 19:43:48"
1588951932,its_pavlove,"Martin Pavlove️️️️️️️®️","Engaging with Gary’s post will up your mode with 120%, however, implementing everything and being practical will get that to 500%. You choose. 📌 #60secclub","2019-03-14 19:43:49"
3177011295,bossbabe_by_nature,"𝘼𝙣𝙖 𝘾𝙧𝙪𝙯","Mindset is EVERYTHING 😉👌","2019-03-14 19:43:50"
14804575,christian_exclusivenites,E᙭ᑕᒪᑌᔕIᐯEᑎITEᔕ.ᑕOᗰ,@b0niita,"2019-03-14 19:43:51"
3248337974,garyveewallpapers,"GaryVee Wallpapers",#firstinline,"2019-03-14 19:44:00"
5321875743,patiencematters5,PatienceMatters,"Got it","2019-03-14 19:44:20"
193316824,thetalentedmrtaco,"The Talented Mr Taco","This is super fire","2019-03-14 19:44:21"
722995714,officialchatty,"Chatty Sharma","Communication is the key in building any relationship. So, this advice is not just a business or job advise but a life advice too. 🙌🏻💯","2019-03-14 19:44:31"
1368959280,dyll____,Dylan,"Can you please check your dms?","2019-03-14 19:44:33"
9744854940,obnoxify,Obnoxify,"Love this. So many people everyday empty their bucket in the wrong ways. Thanks Gary.","2019-03-14 19:45:13"
191646700,daneseymour,"Dane Seymour","Empty the fucking bucket or it’s gonna overflow and make a mess 😤","2019-03-14 19:45:22"
2405053978,virtually.zain,"Zain Gaziani","Self awareness is 🔑🔑🔑","2019-03-14 19:45:23"
143947917,carlosfabrowjr,"Carlos Fabrow Jr","@garyvee this is the shit I needed to hear today on my birthday!  Boom!","2019-03-14 19:45:24"
178469581,fatbeezy,Fatty,"Empty it out!! 🔥🔥🔥","2019-03-14 19:45:26"
191646700,daneseymour,"Dane Seymour","@daneseymour @daneseymour","2019-03-14 19:45:28"
3170361714,asknitingupta,"Nitin Gupta","I just want to do what I love to do and not be held accountable by other people, to other people. I’ll hold myself accountable. And also hey, I won’t say fuck you to everyone who said no. I’ll just say Watch. What you see will be a fuck you, don’t worry.","2019-03-14 19:45:28"
10831613372,f.e.a.rfitness,"F. E. A. R FITNESS","Should a 23yr old follow passion or work at 9 to 5 @garyvee","2019-03-14 19:45:40"
252718962,oscrmrtnz_,"Oscar M. | Success Is My Duty","Like if your MOM is the one filling up your bucket. 😂","2019-03-14 19:45:53"
191646700,daneseymour,"Dane Seymour","@daneseymour @alexandrahanif","2019-03-14 19:45:55"
607998846,therealajalorraine,"Aja Lorraine (Hennessy Raine)",@blackboi813,"2019-03-14 19:45:57"
6927605710,tanmaynayyarsn,"TANMAY | Here To Inspire 🙏🏻💙","We all need to vent out. Just make sure you do it in the right place, not on someone who isn't responsible for your piling emotions 🙏🏻💙","2019-03-14 19:46:27"
35110740,lennyvonstrangle,Lenny,"I needed this to start my day","2019-03-14 19:46:29"
7632552902,pssymonstr,"Pussy Monster","But carrying the bucket will make you stronger💪💪💪","2019-03-14 19:46:35"
198969992,yungfrylock,,"follow @regretsshop","2019-03-14 19:46:38"
540666896,beremarkoble,"Marko Mladenovic","I really like your energy 👏🏼👏🏼","2019-03-14 19:46:45"
8772748113,bitchtoobadforyou,"Sneha Sharma","@asknitingupta 🔥🔥🔥","2019-03-14 19:46:47"
8996654133,digitalhustles,"Digital Hustles","Empty the bucket!! 🙌🐉. Love it!! 🙌🔥","2019-03-14 19:47:00"
2105295406,elon_gated_55,"We need a new plague.❄","Deep down we all need to empty something @bot.r22","2019-03-14 19:47:05"
4025126155,b0niita,𝓑𝓸𝓷𝓲𝓽𝓪,"@christian_exclusivenites 🙌🏻","2019-03-14 19:47:06"
2086149231,aleodinero,"Leo Dinero","Follow myself @Yogi.mp4 @haqnii @sgrchll @bot.r22 @wiicax @yogi.mp4 @haqnii @yogqqqq @firdyoga01 @strffyboa","2019-03-14 19:49:03"
236975879,_nezr,"chef Anez Vargas","daymmmm i was on this topic the other day.... 🔥","2019-03-14 19:49:06"
282217479,aubreyworek,"Transformation Specialist💫","@tara_train you’re good at this","2019-03-14 19:49:08"
5647167781,ismail__targui,Ismail,"I really need to empty my bucket 👍","2019-03-14 19:49:10"
7563164628,supporting_sensitive_children,"Jen Harrison 💛","Soooo good ❤️❤️","2019-03-14 19:49:14"
810718249,wigginsartwork,"Stephen Wiggins","Good stuff 🎉","2019-03-14 19:49:23"
208460619,danielzcko,ZACKO,"@romkarulit 2. Post, der dritte hahahahaha","2019-03-14 19:49:26"
5992173831,liam_e_coughlin,"Liam Coughlin","I love this idea #60secclub","2019-03-14 19:49:29"
4266231478,fatima.writes.stuff,"Fatima Shahnaz Ahmad","Communication is key in EVERY relationship! 💯","2019-03-14 19:49:30"
41852968,shatimahoutloud,🙋Shatimah,"@fashionmavrik  @khrissyantoinette 😘","2019-03-14 19:49:50"
3494529183,krisstreve,"Kris Streve","Every second you spend thinking about what somebody else has is taking away from time that you could create something for yourself.","2019-03-14 19:49:59"
8180299266,nolegworknosuccess,NoLegworkNoSuccess,"@only1lmv 😳😳💯","2019-03-14 19:50:12"
1729036881,parker.hammock,Parker,@inkyjohnsonmotivate,"2019-03-14 19:50:13"
491211417,koulis_chris,"Christopher Koulis",@dan_dwyer87,"2019-03-14 19:50:29"
1776993722,ajaytejthalari,"AJAY TEJ THALARI","@oscrmrtnz_ not funny","2019-03-14 19:50:29"
7378899248,wellversedsound,"Well Versed","@elon_gated_55 check out our music 🖤","2019-03-14 19:50:38"
7066791818,birkannkaya,"Birkan Kaya",@jediyeshy,"2019-03-14 19:50:42"
10750834148,joshgregoryrealestate,"Josh Gregory","Keep pushing out this content @garyvee. We need it!","2019-03-14 19:51:03"
7378899248,wellversedsound,"Well Versed","@asknitingupta ‼️‼️‼️","2019-03-14 19:51:13"
7362569206,mianahilliard,"‍𝙼𝚒’𝙰𝚗𝚊 𝙷𝚒𝚕𝚕𝚒𝚊𝚛𝚍","not gonna lie, i love the message and interaction that this post allows.","2019-03-14 19:52:01"
5645261690,jamieprip,"Jamie Prip","Wow! This was perfect for this morning! Thanks brother! 🙏","2019-03-14 19:52:09"
252718962,oscrmrtnz_,"Oscar M. | Success Is My Duty","@ajaytejthalari 😅 so your mom ain’t giving you shit?","2019-03-14 19:53:52"
11139327277,jediyeshy,jediyeshy,"@birkannkaya ne diyo anlamıyom ingiliççe","2019-03-14 19:54:31"
4637299198,jackbattleapp,BattleAppJACK,"@wyattmathisen verification is  the process of establishing the truth, accuracy, or validity of something. 😁No thank you I have done that for myself already💪","2019-03-14 19:54:44"
8629963343,riseabovebeauty,JustJennell,"Love this 🔥","2019-03-14 19:54:50"
1095389235,_.mxcn,🅱️arlos💢,"Gary vee ur such an inspiration your making me feel closer n closer to what I’m aiming for!💯","2019-03-14 19:55:10"
1530577726,tyler1moore,"Tyler Moore","Did you cause the Instagram outage yesterday?","2019-03-14 19:55:17"
3895841011,dustinnotjustin,"Dustin Lee",💦💦💦,"2019-03-14 19:55:58"
1928229181,gobamco,"BAMCO inc.","@ak1382 dump your bucket.","2019-03-14 19:57:00"
417024644,alex_hope__,"Real Women Real Challenges","@katiec257 Is this speaking to you today...I'd say so. Open & Honest (off your chest) You can do it, superstar coach.","2019-03-14 19:57:09"
8400827426,theangelhotspot,"The Angel HotSpot","@ismail__targui maybe you need to meditate. That's what I got when I saw your post..👍","2019-03-14 19:57:12"
3553731219,ant_122o2,Anthony,"Need this👌","2019-03-14 19:57:31"
37287332,ojs_dailysip,OJ,"Gary thank you. I can’t wait to implement this into my managing. I’m a manager of a small business and try to make things easier on everyone by taking on so much myself and it just takes organization and true leadership from me to really put out for, organize myself and my staff so we can be a machine. I’ve just felt the power of being overwhelmed in my job by my responsibilities but instead of whining and giving up I have realized my problem and the reason I got overwhelmed and will from this point on move onward and upward. You’re the man.","2019-03-14 19:57:42"
4169505358,katiec257,Katie,"@alex_hope__ it is thank you. I’m trying hard to do what we said :)","2019-03-14 19:58:09"
7700245321,chelsea.evans888,"Chelsea Evans","Thank you Gary 💖 Yes, I know someone who continuously empties their bucket on me even after I've talked to them about it. Cutting all ties soon, thank god!!!!!!!! 💖","2019-03-14 19:58:15"
32345541,blackboi813,"Black Boi","@therealajalorraine I would not have over 20+ years in this field without having effective communication skills it’s a requirement of all management positions.","2019-03-14 19:58:23"
10129581914,investinformed,"Invest Informed","This is awesome Garyvee! Thanks for sharing 👍🏻","2019-03-14 19:58:43"
7066791818,birkannkaya,"Birkan Kaya","@jediyeshy başkasını etiketleyim o zaman...","2019-03-14 19:58:53"
11139327277,jediyeshy,jediyeshy,"@birkannkaya olur..","2019-03-14 19:59:26"
10488080026,africa.multilocal,"아프리카, 어딜가나 현지인","In 2013. He was like Gary VaynerChubbier 😂 But the messeage was still powerful back then👍🏾","2019-03-14 20:00:38"
3949074430,alotonsoul,"ALot On Soul","Fuckin genius","2019-03-14 20:01:12"
2274391570,_nikolaixi,"Nicolas R.","@f.e.a.rfitness I hope you don't mind if I answer. Everyone's situation is different. If you can afford to chase your passion.and support yourself, DO IT. If your passion isn't necessarily gonna pay you and you have BILLS, use your daytime hours (ie. a 9-5) to make money, and your nighttime hours on your passion and build from there. 9 to 5s aren't as bad as people make them put to be. Just know what you want to achieve and be aware of how that 9-5 will help you achieve it. You have to have awareness on that one. How was that? @garyvee","2019-03-14 20:01:44"
9956462725,bigdealhairextensions,"Big Deal Hair Extensions","I love to hear gary speak!! Always dropping gems","2019-03-14 20:01:49"
37287332,ojs_dailysip,OJ,"@garyvee just your like has driven me more. You’re a true one Gary. Now I know you know I understand you and use your guidance as a positive part of my days. My appreciation is known and I’m happy with that","2019-03-14 20:02:46"
607998846,therealajalorraine,"Aja Lorraine (Hennessy Raine)","@blackboi813 👌🏾","2019-03-14 20:03:52"
417024644,alex_hope__,"Real Women Real Challenges","@katiec257 Call me this evening. We will dive into a reflection and explore insights. Remember; sticky for a reason. Top, middle and bottom...communicate from your heart.","2019-03-14 20:05:19"
338065569,dan_dwyer87,"Dan Dwyer","@koulis_chris  I don't own a bucket tho","2019-03-14 20:06:57"
4801773103,ily_ivano,"ilya ivanou","@_.mxcn same same 🤙","2019-03-14 20:10:08"
4801773103,ily_ivano,"ilya ivanou","@joshgregoryrealestate agree with this dude🤙","2019-03-14 20:10:37"
491211417,koulis_chris,"Christopher Koulis","@dan_dwyer87 then you should be stress free 🙌","2019-03-14 20:11:20"
4801773103,ily_ivano,"ilya ivanou","@carlosfabrowjr You a random person, but happy birthday 😀","2019-03-14 20:11:32"
4801773103,ily_ivano,"ilya ivanou","@kybbqspice just read about that topic. Have to be able to say no in some moments","2019-03-14 20:12:28"
338065569,dan_dwyer87,"Dan Dwyer","@koulis_chris  its more of a bathtub aha","2019-03-14 20:12:38"
5695743389,seneselim,"Senedin Selimovic","that was a good post thank you 👍","2019-03-14 20:15:16"
4801773103,ily_ivano,"ilya ivanou","@krisstreve yea, that's 100 percent right.","2019-03-14 20:17:27"
7966148731,lchiggsl,"Losing Stress","The whole process of letting things go is incredibly interesting. And to do it skilfully is a real mark of intelligence","2019-03-14 20:23:58"
502936468,romkarulit,"Roman Romanov","@danielzcko Sehr kreativ 😂😂😂","2019-03-14 20:25:39"
143947917,carlosfabrowjr,"Carlos Fabrow Jr","@ily_ivano well thank you!! 🙏🏼","2019-03-14 20:27:45"
208460619,danielzcko,ZACKO,"@romkarulit nude co-workers hahaha","2019-03-14 20:28:19"
5657484158,tanishqtomar,TanishqTomar,"I need to @_._tani___  you're fav you're helping me so much and I'm grateful for that","2019-03-14 20:34:35"
10466812387,incomefox,"Hustlers Only ⚡","Oooooooohhhh! This is soooooooo satisfying.....😃","2019-03-14 20:37:32"
2966480,sethfeingersh,"Seth Feingersh","This is so so good.","2019-03-14 20:38:21"
11304909345,dotcomzack,"Zack Saadioui","Been a crazy year. Dropped out of college. Dove head first into my business venture. But finally met my goal of $200k/year through my wholesale real estate biz💰🏡📈 @kikokickz @yogi.mp4 @2krafi @itscloutgod @bot.r22","2019-03-14 20:38:52"
5207843637,lacuusmarketing,"Lacuus - Social Media Ads","@asknitingupta great mindset","2019-03-14 20:39:02"
5207843637,lacuusmarketing,"Lacuus - Social Media Ads","@its_pavlove haha true","2019-03-14 20:40:48"
1555142070,keithpicc,Keith,@mia_3328,"2019-03-14 20:49:35"
3969419300,adamxsnow,"Adam Snow","@stephen.2.7 dat bucket","2019-03-14 20:51:53"
6707005666,_._tani___,,"@tanishqtomar 🙈🙈","2019-03-14 20:55:40"
396155012,jonbonstubbzy,"Anthony Stubbs","@ishconstable empty the bucket with a chat with Stubbzy 😂👌🏼 it’s a good analogy","2019-03-14 20:57:27"
8171369428,self_image_engineering,Impact,"@ddarvas124 @davidgoggins @donny_rivera @dexterdaniel @_arevea @dancingwillowyoga thank you gary that is a great point we carry alot of useless concerns that upper management can and gets paid to handle. #use #the #resources #at #hand","2019-03-14 21:04:20"
306393693,the_real_lucian,"Lucian Jimenez","@garyveewallpapers emptying the bucket thank you very much. 😎😎","2019-03-14 21:09:25"
6961428998,cashstats,"Cash Stats 💰","Empty your bucket and start fresh. Today is a new day to grind and hustle 💪💯","2019-03-14 21:10:04"
11290388682,sneakar,,"@cashstats  @cashattraction @businessmindset76 @brendancox2 @entrepreneur4ever7 @teenassistant","2019-03-14 21:10:38"
6222456880,muhammad_afzal_hussain_khan,"Afzal Hussain","@sujeet_strongman  @hamiyal","2019-03-14 21:10:55"
7686682834,manhertz_jozsef,"Manhertz József | kommunikáció","Creative and interactive insta post! 👋😃","2019-03-14 21:11:53"
2252320325,redrustikz,"Red Rustikz","@garyvee damn Gary, several episode ago (years ago) you talked about entitled kids these days getting into Ivy League because of their parents did something to get them in. The college bribery scandal is all over the news. You’re the shit !!!🤘","2019-03-14 21:12:34"
5853429509,tmanpahlane,"T-Man Pahlane","Most #powerful analogy about being a manager ever.🗿🌈🌍","2019-03-14 21:12:40"
4169505358,katiec257,Katie,"@alex_hope__ will do. I have to say though,headphones a have been a life saver today 😬","2019-03-14 21:13:03"
7400802489,aryan.khullarr,"Aryan Khullar","@pssymonstr either you break or the bucket so watch out","2019-03-14 21:13:50"
10831613372,f.e.a.rfitness,"F. E. A. R FITNESS","@_nikolaixi thanks a lot mate","2019-03-14 21:36:15"
436359330,akashstronaut,Akash,"Lol @ the Audiotag CC 👏😂","2019-03-14 21:59:33"
2535315572,elraystudios,"Raymundo Aquino","Isntagram se cayo ayer, estan probando las palabras de Garys","2019-03-14 22:03:44"
49010696,90sguru_,"Marquise J Payne","A people who discover their inner talents and abilities, cultivate the best version of themselves, and give that value to others, will take us in the direction of Utopia.","2019-03-14 22:05:32"
1974715785,pervivo,"Pervivo AG | Jobvermittlung",word!,"2019-03-14 22:16:22"
8154765884,buttwave,Buttwave,"@mikeliso sums this up","2019-03-14 22:18:33"
609452327,justinzhiyu,"Justin Tan","@heybeckyxd @zhungzhang @sammxavierrrr @yeeqing @cursedpig_guok  dump your buckets :)","2019-03-14 22:22:01"
200368100,jearlpfs,"Justin Earl",@lillyrezaee,"2019-03-14 22:33:41"
39515261,christagibbons,"Christa G","@gerloffcass 1000% for you today woman!","2019-03-14 22:36:51"
465763820,jorgea_dlg,"Jorge DLG",@dlgpj,"2019-03-14 22:38:16"
10648050235,healthwealthandbeauty19,"health wealth & beauty 19","@_.mxcn yes, is has a lot of experience, wisdom, and motivational energy.","2019-03-14 22:44:37"
3050448594,juwairiyah.n,"Juwairiyah Nosheen",@abiii_278,"2019-03-14 22:49:39"
336591258,yadoneknoe,bigshaq,"My boss who had put through so much physical and mental pain, just fired me yesterday for one of my coworkers messed up our schedule, and apparently is my fault, I’m an entrepreneur/I bring all the cash flow for me and my wife, and we just got back from vacation on Monday, I’ve been wanting to quit but I’ve been tied to the money, now I’m letting everything into the hands of that who I am, who I am not, who we are, seeing your posts uplift me everyday, I’m 21 dying of anxiety but thankful for your guidance and hopeful for whatever is next","2019-03-14 22:52:14"
1771679068,thisisrudrapatel,"RUDRA Patel","@wyattmathisen how i want Can You Do it.?","2019-03-14 23:08:18"
4517431479,_drewvegas,"Drew Hall",@haggerdcamaro,"2019-03-14 23:09:08"
22572228,gerloffcass,Casssss,"@christagibbons thank you! Definitely needed this today 🙌🏼","2019-03-14 23:10:19"
40413829,masoncoh,"Mason Cohen","@buttwave my guy @mikeliso got the right mindset","2019-03-14 23:10:34"
39515261,christagibbons,"Christa G","@gerloffcass you got this! 👏🏼","2019-03-14 23:13:52"
6193847835,djangosix,"Sachintha Adikari","@iamvechx empty your bucket","2019-03-14 23:18:37"
1008141329,haggerdcamaro,"Jeffrey Tidball","@_drewvegas hell ya doggie!!","2019-03-14 23:29:32"
9053396545,motivation.for.greatness,"Motivation For Greatness","@pervivo 🙌🙌","2019-03-14 23:36:02"
9053396545,motivation.for.greatness,"Motivation For Greatness","@90sguru_ 💪💪","2019-03-14 23:36:13"
3672693,eugenehoora,"Eugene B Lee",@jlee1980,"2019-03-14 23:44:59"
1939023284,iamvechx,Andrew,"@djangosix hi sir, apologizes 😐","2019-03-14 23:54:53"
1939023284,iamvechx,Andrew,"@djangosix sorry i need somebody","2019-03-14 23:55:05"
6193847835,djangosix,"Sachintha Adikari","@iamvechx who said you had an ego? This video is about taking pressure off of yourself. Ain't nothing about an ego. Wtf","2019-03-14 23:56:36"
1517826276,__itay,"Itay Shechter #Startup Founder","@dotcomzack nice bot action","2019-03-15 00:05:52"
2702028525,startuppodcast,"Podcast For Entrepreneurs","@its_pavlove the truth 👊🏻","2019-03-15 00:19:09"
4919643959,yettibathandbody,"Yetti Bath & Body","@ojs_dailysip let us know if it works! 👏","2019-03-15 01:04:35"
4919643959,yettibathandbody,"Yetti Bath & Body","@bigdealhairextensions and you’re picking them gems up 💙","2019-03-15 01:05:33"
4919643959,yettibathandbody,"Yetti Bath & Body","@jamieprip yes we agree 💙","2019-03-15 01:06:01"
4919643959,yettibathandbody,"Yetti Bath & Body","@mianahilliard same 😍💙","2019-03-15 01:06:13"
4919643959,yettibathandbody,"Yetti Bath & Body","@lchiggsl absolutely, #dumpyourbucket carefully","2019-03-15 01:07:51"
4919643959,yettibathandbody,"Yetti Bath & Body","@obnoxify yes 👏 #dumpyourbucket carefully 💙","2019-03-15 01:08:23"
4919643959,yettibathandbody,"Yetti Bath & Body","@beremarkoble it’s infectious don’t you think 👏💯","2019-03-15 01:08:59"
4919643959,yettibathandbody,"Yetti Bath & Body","@digitalhustles #emptyyourbucket 💙","2019-03-15 01:09:34"
4919643959,yettibathandbody,"Yetti Bath & Body","@aryan.khullarr absolutely! Having that bucket and going through carrying it makes you strong, emptying it makes you stronger 🔥","2019-03-15 01:10:38"
4919643959,yettibathandbody,"Yetti Bath & Body","@lennyvonstrangle and to end the day as well 👏💯","2019-03-15 01:11:34"
4919643959,yettibathandbody,"Yetti Bath & Body","@dyll____ 👏","2019-03-15 01:11:51"
4919643959,yettibathandbody,"Yetti Bath & Body","@ana_yudy2017 we agree 🙌","2019-03-15 01:12:05"
4919643959,yettibathandbody,"Yetti Bath & Body","@sethfeingersh ❤","2019-03-15 01:13:04"
1211451678,business_man_626,"Jonathan Gutierrez","@ana_yudy2017 💯","2019-03-15 01:15:44"
37287332,ojs_dailysip,OJ,"@yettibathandbody what exactly would IT be?","2019-03-15 01:21:49"
7400802489,aryan.khullarr,"Aryan Khullar","@yettibathandbody yupp train and gain👌","2019-03-15 01:27:53"
406324691,em_kaps,"Mehak Kapoor","@kush0602 @kunalkapoor09 @pranesh_kay.","2019-03-15 01:41:57"
406324691,em_kaps,"Mehak Kapoor","@pranesh_kay hahah. Whata guy dude. Baap banda hai yeh 😍","2019-03-15 01:57:05"
406324691,em_kaps,"Mehak Kapoor","@pranesh_kay #garymarryme","2019-03-15 01:57:32"
197312452,ak1382,******,"@yettibathandbody i feel like that's really gary vee's hashtag to start but ya know...who am i to say?","2019-03-15 02:14:00"
197312452,ak1382,******,"@gobamco on you? Yea yea yea i get it...thanks for the tag my guy","2019-03-15 02:14:29"
261118251,jojobaxas,aloejo,"@dotcomzack fantastic what was the turning point for you to take the leap of faith?","2019-03-15 02:19:18"
1928229181,gobamco,"BAMCO inc.","@yettibathandbody I'll do that!!! @ak1382 stop stealing my thunder!","2019-03-15 02:35:57"
200577751,i.am.davee,"David The Professional Tourist",@awitdah00die,"2019-03-15 02:58:14"
1948275795,awitdah00die,"Adriel $ion","@i.am.davee love this bro🙏🏽 facta","2019-03-15 03:04:36"
1948275795,awitdah00die,"Adriel $ion","@awitdah00die facts*","2019-03-15 03:04:56"
8418704,jlee1980,"Jin Kim","@eugenehoora good advice!","2019-03-15 05:07:11"
8418704,jlee1980,"Jin Kim","@gisselgarcia let’s empty our buckets!!! 🤣","2019-03-15 05:07:28"
8781290120,dlgpj,"PJ De La Garza","@jorgea_dlg 👀👏👏👏true! I will.  My bucket is the size of a big piñata though Jajajajajaja","2019-03-15 05:32:29"
12396481,calebralston,"Caleb Ralston 💀🥀🖤","@akashstronaut nope! That was the big homie @dustinnotjustin","2019-03-15 05:46:18"
46037487,mia_3328,Maleigha,"♥️ You babe. Thank you 😘","2019-03-15 05:52:12"
3895841011,dustinnotjustin,"Dustin Lee","@akashstronaut 😂😂🤷‍♂️","2019-03-15 06:00:55"
5477165150,ed_turney,"Ed Turney ✪","@dustinnotjustin shredding the bucket","2019-03-15 07:52:23"
213240852,foufquassiss,"Fouf Quassis","@jamieprip nothing like GV to start off the day","2019-03-15 08:09:34"
3895841011,dustinnotjustin,"Dustin Lee","@ed_turney 🙏🙏🙏","2019-03-15 08:51:57"
10093408542,ishconstable,"Elise Constable","@jonbonstubbzy amen 🙌😂","2019-03-15 09:31:28"
277427194,pranesh_kay,"Pranesh Krishnamurthy","@em_kaps 🤣","2019-03-15 10:12:13"
436359330,akashstronaut,Akash,"@dustinnotjustin my man","2019-03-15 10:46:39"
2060803791,vayner_nation,"Social Media Marketing","@digitalhustles Keep crushing it! 👊 #vaynernation #teamgaryvee","2019-03-15 11:31:13"
2060803791,vayner_nation,"Social Media Marketing","@garyveewallpapers Yeeaahh!! 🔥 Keep crushing it! 👊 #vaynernation #teamgaryvee","2019-03-15 11:31:54"
209657045,gisselgarcia,GG,"@jlee1980 😜😜😜","2019-03-15 11:44:57"
296037497,awyeahjune,June,@vale1otero,"2019-03-15 12:19:22"
30122294,vale1otero,VDay,"@awyeahjune ❤️","2019-03-15 12:20:46"
5859773151,damedialtd,"D&A Media",Amazing,"2019-03-15 17:57:36"
208306401,zballin13,"Zane Dempster",@curtozkillinit,"2019-03-15 18:38:16"
9899775500,abiii_278,Abida,"@juwairiyah.n Yes","2019-03-15 19:51:26"
335818637,curtozkillinit,"coach curto","@zballin13 empty that bucket brother","2019-03-15 19:54:03"
335818637,curtozkillinit,"coach curto",@just_schwarz,"2019-03-15 19:54:15"
3050448594,juwairiyah.n,"Juwairiyah Nosheen","@abiii_278 no","2019-03-15 21:20:58"
6081270336,ranabanana81,"Shana Barber","@brbrray listen to this and empty that bucket! 😘","2019-03-15 21:45:40"
7241456,77warrior,"Marc McNabb",@set78,"2019-03-15 21:58:19"
27138720,set78,"Simone Taylor McNabb","@77warrior 😉","2019-03-15 22:37:32"
9406576899,brbrray,Ray,"@ranabanana81 i do thats how i do it x","2019-03-16 00:47:38"
309773319,schultzeneggar,"Alex Schultz",@jamesbschultz,"2019-03-16 06:31:22"
9194972545,stephen.2.7,Stephen,"@adamxsnow I don’t get it... so what are we supposed to do with the bucket again?","2019-03-16 08:00:55"
9194972545,stephen.2.7,Stephen,"@adamxsnow does he want us to go out and BUY a bucket?!","2019-03-16 08:01:56"
6824202228,jamesbschultz,"Jim Schultz","@schultzeneggar yep!","2019-03-16 09:53:23"
5590555395,interpretingwine,"Lawrence Francis 🎙️😎🍷💕","@sethfeingersh is it on the pod?","2019-03-16 15:12:14"
5401607563,amr_5702,,Nani,"2019-03-14 19:42:42"
231424868,shawuhh,"Micheal Shaw",#60secclub,"2019-03-14 19:43:54"
7149821283,juanmarin0491,"Juan Marin","Gary thank you for all you do, you are like the father figure I never had 😂","2019-03-14 19:44:00"
7378899248,wellversedsound,"Well Versed","Would be much appreciated if you check the link in our bio! Much love any feedback is appreciated 🖤🖤🖤","2019-03-14 19:44:18"
8753653024,thebrookehayden,"฿ⱤØØ₭Ɇ Ⱨ₳ɎĐɆ₦","@hec._.lo damn @garyvee this is exactly what we needed. You are the fucking man dude!!","2019-03-14 19:44:54"
1575458349,sahil.edge,"DJ EDGE",❤️❤️,"2019-03-14 19:45:22"
359207427,suntastic77,Kimberly,"Reminds me of the phrase “Glass half empty”","2019-03-14 19:45:57"
403046373,lauracurley_,"Laura Curley",@ardent_industries,"2019-03-14 19:45:58"
7770286934,faasenheinrich,"Heinrich Faasen","empty your bucket","2019-03-14 19:46:29"
5859773151,damedialtd,"D&A Media","Amazing thread Gary!","2019-03-14 19:49:44"
8613863911,investing_tipsadvices,"Investments_tips&advices 💰💵","Awesome 💪💪👍👍","2019-03-14 19:49:45"
4531418590,az.photography__,"Photography ❤️",Wow🔥,"2019-03-14 19:49:45"
1114171723,osteenaorganics,"Natural Hair Growth Products",@goldygonzalez,"2019-03-14 19:50:00"
4870521259,glen_echo_decorating,"Glen Echo Decorating","🙌🙌🙌 @lizzypumba @la_vida_verde","2019-03-14 19:50:28"
2160651617,velioplay,"Velio Alessandro Moretti","@silvia_ortunji 🙏❤️","2019-03-14 19:50:50"
30973752,greaterhaste,HASTE,"@melissaaa.mels @_jenascia_","2019-03-14 19:51:04"
1377443848,valeriec92_,,@steven321is,"2019-03-14 19:51:26"
5992699247,masonf_15,Mason,@jxusie,"2019-03-14 19:52:20"
4186280716,dantehimself,Dante',@kashapata,"2019-03-14 19:53:52"
7551094434,jetpackjackofficial,"Jetpack Jack","Gary V always comin in with the wisdom, key element of being a leader is to delegate and let your team work together","2019-03-14 19:55:37"
1532785938,billy.argueta,"Billy Argueta","The fact that you’ve been saying “if Instagram disappeared tomorrow, all of you would be done” and that shit happened yesterday 😳💀💀💀","2019-03-14 19:55:51"
5896863259,official.dom365,♓Dom'Nate,"GaryVee the gardener 😂 no seriously great analogy 👍👍","2019-03-14 19:55:54"
8935398540,itsarhan_kh,Arhan,@ahad_ejaz,"2019-03-14 19:56:00"
144922167,ay_beautiful_flower,"🌸 Beauty Is Her Name 🌸","@wombtherapist @anissarenee_","2019-03-14 20:03:25"
48062072,whynotme5,"Lawrence Summers",@lyndasummers,"2019-03-14 20:03:47"
181049460,jayvampiro,James🦇,@annafrancestalley,"2019-03-14 20:03:50"
11380364101,syzygy_nova,"Syzygy SIZ•eh•gee","@windowtintplus 🙌🤙🏽","2019-03-14 20:05:51"
11811040309,vincentsgoals,"Vincent V.","Nice message","2019-03-14 20:07:11"
5691427278,c0lt0n_farley,"Seth Farley",@j_gargano357,"2019-03-14 20:07:27"
43692886,drewml94,"Andrew Leeman","@imhelenzheng 😆","2019-03-14 20:11:19"
180388182,bike.god.dan,DanTheFuckinMan,"@mar.tha.effin.starr empty your bucket","2019-03-14 20:14:58"
1585155910,karyviking,,@dollystarlie,"2019-03-14 20:23:44"
5684467703,noodlesandcrystals,"akshay satish",@amrit3246,"2019-03-14 20:26:31"
204474626,silvia_ortunji,,"@velioplay ✌🏻❤️","2019-03-14 20:31:01"
1562798517,dollystarlie,"Dolly Starlie","@karyviking ❤️❤️❤️❤️","2019-03-14 20:33:39"
1397924680,ractchetstrap85,"Sean Breese","@garyvee what’s the story on the shiner ?","2019-03-14 20:34:19"
344353083,akrastogi,"Arjun Rastogi ✪",@its_samyu,"2019-03-14 20:39:59"
6680589967,texaz.roze,"lil bit$💨","@rube_da_great 👌🏽","2019-03-14 20:44:16"
290240026,a7trix,"Sunny Banerjee","@ashwini_nshekar You Do? 💯","2019-03-14 20:46:11"
2126558602,rube_da_great,"Ruben D. Garcia","@texaz.roze 😍😍😍😍","2019-03-14 20:48:45"
2241349900,billybandsthabarber,"Billy Bands tha Barber",@theycallmebands,"2019-03-14 20:58:00"
6973435241,jb.realty,"Jalen Berning",@dr.patatie,"2019-03-14 21:03:27"
8582477882,run_shane_run,Shane,"Love it!💯","2019-03-14 21:03:44"
1416988710,nathanielbrowningburningham,Flannel,"That second slide is some next level shit Gary","2019-03-14 21:04:22"
1411103932,littlewordstudio,"little word studio","Love these posts from the archives 💖 The fundamentals never change 👌🏽","2019-03-14 21:04:49"
2057043109,frankzepeda_,"Frank Zepeda | Marketer","@garyvee I’m going to be the Latino version of you. Hope you ready.","2019-03-14 21:06:16"
1765123159,joe.klo,"diamond joe","@light_on_life GV is da man","2019-03-14 21:06:18"
1645415367,corne_dijkstra,"Corné Dijkstra","Cool post but I don’t work currently waste my time at school+ (exchange students on visas aren’t even allowed to work)","2019-03-14 21:06:52"
10692388126,crushingmedia,"Social Media Marketing","I am currently emptying my bucket from negative people and filling it up with positivity!","2019-03-14 21:08:23"
366357959,raeesakhan23,"Raeesa Khan",@lizebotha11,"2019-03-14 21:10:07"
10723392685,belforestrecycling,"Belforest Recycling Project","Me and my friend started a business, we’re both in High School. Check us out. @haqnii @bot.r22 @2krafi @wiicax @yogi.mp4","2019-03-14 21:12:33"
1049017349,greenmovement2017,"Green Movement","Love you man. You took my life to the next level. Peace and love from Sweden 👊🖤🌷","2019-03-14 21:13:29"
29629884,michaelpagan,"Michael David Pagan","This is a really good post.  I appreciate this advice.","2019-03-14 21:19:10"
5948019255,react.nation,"REaCT Nation",@coach_john_ryan,"2019-03-14 21:19:25"
677331999,ymvoxo_,Yaya🌞,@xovgarcia,"2019-03-14 21:19:26"
1574245185,jay.jay.702.03,"JoJo/JayJay (Slumpø)","@garyvee was that bucket heavy?","2019-03-14 21:21:31"
1634834283,a.little.fitness,Aletha,"Stepping into a management role at 24 was a challenge for me, not in the sense of the “work” per se, but I didn’t get this key point! 🤔looking back, I didn’t empty my bucket by asking those around me, I took the load and pressure because I didn’t feel others around me we competent. Ruined managing for me, 9 months and I was done. Over worked, under paid and burnt out. Great point🤜🏽and reminder!","2019-03-14 21:21:36"
11678195388,rust_n_peace,"Nate S.","@garyvee thank you Gary. Communication is key.","2019-03-14 21:21:40"
9155097351,themotator,"The Motator","You are dead on, all three major social media sites crashed yesterday and the world was amuck! Find many paths, not just one!","2019-03-14 21:21:48"
2139891742,tristanmgmt,"Digital Marketing | Branding","Nice content","2019-03-14 21:22:45"
1311159907,prince_lapienza_mombo,"Prince LapienZa Mombo",@loicstibling,"2019-03-14 21:37:00"
822825902,jasonnbd,"Jason Mattheou",@maorose_,"2019-03-14 21:37:36"
5741610121,leslie_reliford,"Leslie Reliford","@baddass__nay this is good","2019-03-14 21:42:42"
8552432280,mr.forexprofit,"Joel C Torres",@jessej_chavez,"2019-03-14 21:43:52"
414268905,loicstibling,"Loïc Stibling","@prince_lapienza_mombo 💪🏼💪🏼💪🏼🙏🏻🙏🏻🙏🏻 aka prince lapienza coach","2019-03-14 21:46:29"
11638726724,leomarketingmentor,"Marketing Mentor","This is right, pressure is what killing us everyday. The story about 1kg stone is amazing for this. It tells that 1kg is not that tough when you just take it, but when you hold it for hours the pain in hand starts, that is because of pressure that 1kg stone was making through hours. So we do not want to hold everything for hours, days, weeks, months or years, but to empty everything and fly.","2019-03-14 21:48:04"
25505058,paulfcc,"Paolo Facchinetti","@armandostabile svuota il secchio😂","2019-03-14 21:51:47"
4562217699,housnizaeem,"Housni Zaeem","Thanks @garyvee","2019-03-14 21:55:17"
8692517183,csee7,"Professional Fortnite player","Does this even work lol @bot.r22","2019-03-14 21:57:39"
14954152,djexpress,djexpress305,@acookingvaquita,"2019-03-14 22:02:53"
174557479,keonechristopher,keonechristopher🤓,"Genius post!🙌","2019-03-14 22:04:00"
4157637766,neilhartefitness,"Neil Harte",@hiddxnsecrxt,"2019-03-14 22:04:24"
287317505,maorose_,Maoreen🌹,"@jasonnbd emptying the bucket!!! 🤸🏻‍♀️","2019-03-14 22:09:20"
698814,teresaepps,"Teresa Epps",Truth,"2019-03-14 22:11:37"
1176452123,majidahmad94,Majid,@jacky.calleon,"2019-03-14 22:17:50"
3109950504,mwestnyc,"Mandy West","Very true, thank you 🙏🏻","2019-03-14 22:20:49"
1542490078,davidincredible,David,"Run for president","2019-03-14 22:21:23"
8367112763,est.nineteen94,,@kj_her,"2019-03-14 22:22:24"
257234320,haileymekruit24fit,Hails,@caldermanley24fit,"2019-03-14 22:25:13"
4284205220,dhuggins41010,"Di Bryant","I really like this @garyvee so inspiring","2019-03-14 22:25:28"
8594773626,heytech.in,Heytech.in,"Superb 😄❣️","2019-03-14 22:26:35"
176819599,hiddxnsecrxt,“INTOKU”,"@neilhartefitness that's gold mate","2019-03-14 22:33:21"
4325075896,impartjewish,"LEMME GET A MCPICK2",@juliastilianessis,"2019-03-14 22:33:41"
6333931955,_cahres_,"Chinmay Khawse","Sir, how do U get such cool ideas to get us goin 🙌","2019-03-14 22:35:01"
269800348,simply.princess,"The GoalinGirl ™",@princessnailsatl,"2019-03-14 22:41:33"
8180128374,kj_her,KjHer,"@est.nineteen94 ❤️","2019-03-14 22:41:46"
545614874,imhelenzheng,"Helen Zheng","@drewml94 😂","2019-03-14 22:42:27"
429244101,amrit3246,"Amritpal Singh","@noodlesandcrystals 👏👏🙌","2019-03-14 23:00:21"
2305086947,armandostabile,"Armando Stabile","@paulfcc Hahahahahahahahaha","2019-03-14 23:06:53"
551258507,kshitijsharma99,"Kshitij Sharma","@kanwarbharti 😉","2019-03-14 23:07:03"
1584729496,kanwarbharti,"Bharti Kanwar(Indian)","@kshitijsharma99 😎🙌","2019-03-14 23:09:56"
4608181536,jxusie,"M 💕","@masonf_15 True, takes up too much time to be stressed and worried. Got to execute, and work on things that is fulfilling/beneficial to our lives. Im here for you if you need someone to talk to, and ik you got my back too ❤","2019-03-14 23:10:37"
30784010,c.tree,"Carson Tomsche","Solid pour","2019-03-14 23:32:17"
9053396545,motivation.for.greatness,"Motivation For Greatness","@_cahres_ he is a true legend 🔥","2019-03-14 23:35:40"
9053396545,motivation.for.greatness,"Motivation For Greatness","@davidincredible would be the best thing ever","2019-03-14 23:35:55"
4248179951,kbreezy313,,@ar_alreyashi_j,"2019-03-14 23:48:29"
1661306689,kevin.barks,"Kevin Justin","Jeez! I needed this one!","2019-03-14 23:49:54"
2935903128,ar_alreyashi_j,,"@kbreezy313 lol true asf 😂","2019-03-14 23:50:54"
35148888,jccuevas_11,,"@efrnvldz empty your bucket homie","2019-03-14 23:54:55"
14304433,dthorner,"Daniel Thornér","@ellenemilia @michellexie","2019-03-15 00:24:48"
9201346483,on_the_ting,"Stephen Cook","@stewartmills_ @stacey.clough.1 fuck. This is so relevant for you both right now it's unbelievable. Like. You will not get a more accurate post regarding you both than this right now. It's just the facts. Allowing yourself to carry out this process will not only make you better managers but better fucking people than you already are. Do it, you'll be fucking winning. 🔥","2019-03-15 00:33:30"
6113764484,darrenbrucevia,"Darren Bruce Via","@jaggiesarah @tifflovesyou16","2019-03-15 00:44:41"
7208654126,montelongoalee,"Visual Art","Empty that shit Ma! @dreamonte_","2019-03-15 00:45:03"
2055720509,dreamonte_,"𝓐𝓷𝓭𝓻𝓮𝓪 🥀","@montelongoalee bout to 👏🏼","2019-03-15 00:49:22"
572483307,mark.fz,"Mark Fazakas","@sr.villanuevacampos @shreeja_jha","2019-03-15 00:57:24"
2019576025,shreeja_jha,"Shreeja Jha","@mark.fz 🔥","2019-03-15 00:59:01"
3972778901,iamaimeewilliams,"Aimee L Williams","@lowe4240 @lisahaynes77 I’m buying buckets for work! 🤣","2019-03-15 01:20:34"
8796744940,freshvintageapparel,"Vintage 90s Snapbacks",@mandocastillo3,"2019-03-15 01:20:57"
4342072768,lowe4240,"Rachel Lowe","@iamaimeewilliams 😂🤣🤣","2019-03-15 01:22:34"
253191172,spriggabenz,"Stephen Spriggs",@loouuxx,"2019-03-15 01:23:07"
4717801,ellenemilia,"Ellen Mattsson","@dthorner hahaha","2019-03-15 01:28:12"
295912761,maiyasapp,"Maiya Sapp™",@nadialoweher,"2019-03-15 01:31:04"
4849466850,msa__,M&SΛ,@nerdnewsshow,"2019-03-15 01:31:08"
4925678136,nomadic_ft,"Nomadic Functional Therapy","How the fuck is anyone inspired by the look of this man. He is so unhealthy, look at those bags. I don't care how  much you can talk your head off, your health is your good damn wealth.","2019-03-15 01:31:31"
2216828026,mandocastillo3,"Armando Castillo","@freshvintageapparel thank you brotha I needed this!","2019-03-15 01:32:18"
210035706,steven321is,"Esteban Reinoso","@valeriec92_ my bucket is small","2019-03-15 01:38:34"
195635323,loouuxx,"Louise Deane","@spriggabenz lol","2019-03-15 01:42:11"
307548676,joerobson_,"Joe Robson","@tom_martin93 how true is this","2019-03-15 01:50:12"
174092066,tom_martin93,"Tom Martin 🇬🇧","@joerobson_ 10000% sharing the load is key but with key people","2019-03-15 02:15:11"
1507751022,christian.a.n.y,Christian,@iurimedeiros__,"2019-03-15 02:41:45"
6327713620,rubenstello,"Ruben's Photo&Videos",http://GoForPartTime.com/?userid=64600,"2019-03-15 02:57:27"
1435991678,backovic88,"Nemanja Backovic","Hudini ur hacking  whats up or you are an alien ... looks like an alien throwing a few hours in advance ...
every issue aim in the target in a minute ... how? 
Howwwww??? 👽👽👽👽🎯🎯🎯🧙🏻‍♂🧙🏻‍♂🧙🏻‍♂ @garyvee @teamgaryvee","2019-03-15 03:11:31"
8259509180,black_silv3r,"Ajay Ojha",@dishumlk,"2019-03-15 03:12:06"
8259509180,black_silv3r,"Ajay Ojha",@devendrayadav281,"2019-03-15 03:12:12"
273168192,boogiebossalina,"Shariris Carroll","@dropyola @p_drippinz He my hero He Gives the best ADVICE#garyvee #patience #leadership #mtf @garyvee 💪🏼","2019-03-15 03:31:40"
679809500,davidnatareno,"David Natareno","@jodib527 I love this.","2019-03-15 03:38:04"
183274350,slickslade,"Canyon Slade",@ariss8325,"2019-03-15 04:09:10"
848800658,notoriouzp,Alex,"@annalipdr 🤗🤗😘","2019-03-15 04:17:45"
186573637,efrnvldz,"Efrain Valdez","@jccuevas_11 done","2019-03-15 04:47:58"
3908513576,windowtintplus,"Tint Plus","@syzygy_nova 🙌🙌🙌🙌","2019-03-15 05:09:03"
274140350,nadialoweher,,"@maiyasapp it’s all In the bucket EMPTY IT","2019-03-15 05:17:58"
3787584384,steak5757,"Jake Quinn",@pj_quinn2,"2019-03-15 05:35:21"
6053370284,_kelly_campbell_,"Kelly Campbell","@maerolando ❤️❤️❤️","2019-03-15 05:38:08"
1509620703,unbridely,Unbridely,"@krista_jane_74 empty your fucking bucket, mate 😘 xx","2019-03-15 05:47:18"
20239614,arcade.amie,"AMIE SAVANNAH HEICHEL",@danheichel,"2019-03-15 05:54:26"
17260014,krista_jane_74,"Krista Jane","@unbridely it’s been filling up with c@nts this week!","2019-03-15 06:56:32"
205586757,danheichel,"Dan Heichel","@arcade.amie no doubt baby","2019-03-15 06:57:23"
261479864,robbiebishara,"Robbie Bishara",@em_shasha,"2019-03-15 07:09:35"
31680091,em_shasha,"Gina Bishara Grimes","@robbiebishara Inlike this! Thanks for sharing bro 😘","2019-03-15 07:25:28"
1509620703,unbridely,Unbridely,"Ditch em, mate @krista_jane_74","2019-03-15 07:54:55"
1937356275,jacky.calleon,Jacky,"@majidahmad94 😂🙈💯","2019-03-15 08:11:38"
247999451,pj_quinn2,"PJ Quinn","@steak5757 wow he nailed it","2019-03-15 08:57:49"
2044636163,philiphartguitarsofficial,"Philip Hart","@alanproffit 🙏","2019-03-15 09:55:57"
377211508,chadanthonysellers,"Chad Sellers","@nolanick5150 @derek.willi","2019-03-15 10:16:45"
1902980240,rjutras3,"Reginald Jutras",@jwilkins2015,"2019-03-15 10:18:55"
193719326,lisamarie131,"Lisa Marie Hernandez Zepeda","@our.llove  you see girlfriend empty your bucket 😁","2019-03-15 10:22:35"
3446934990,dishumlk,D.Devraj,"@black_silv3r thanks","2019-03-15 10:39:39"
509862804,markmcminn,"Mark McMinn Real Estate","@micahmcminn @newkirk1990  how good is this?!","2019-03-15 10:39:40"
300178047,jodib527,"Jodi Behrmann","@davidnatareno  so good! Thank u!!","2019-03-15 10:49:20"
5715841339,marketishome,Marcel,@dynasty6ix,"2019-03-15 11:17:23"
2060803791,vayner_nation,"Social Media Marketing","@crushingmedia Awsome! 👏💯","2019-03-15 11:32:17"
25685029,maerolando,"Mae Rolando","@_kelly_campbell_ 🙌🏼🙌🏼🙌🏼","2019-03-15 11:41:36"
2988474659,dynasty6ix,"Derek Wang","@marketishome truth","2019-03-15 11:48:37"
209657045,gisselgarcia,GG,"@melissaperez_9 @milejilo @lics123 @jeannette1228 @nicy2 @vitico73 @rickmercedes @laprieta06","2019-03-15 12:07:19"
1428242888,kimmybholcomb,"Kimberly Bramble Holcomb","@billy.argueta 😂😂😂😂 I thought the same thing when it happened I was like whooaaawhaattt the ffuuuccck","2019-03-15 12:15:59"
1428242888,kimmybholcomb,"Kimberly Bramble Holcomb","@jetpackjackofficial yessssss. I use that word constantly 😂 delegate. Its something I’m not the best at. But I’ve learned to get a lot better at with patience now I’m obsessed with it 😆 now I’m like you get a job, you get a task, let’s work this shit out. Communication is the best","2019-03-15 12:16:59"
1532785938,billy.argueta,"Billy Argueta","@kimmybholcomb 😳🤣","2019-03-15 12:22:07"
3265336264,guthriehunter,"Hunter Guthrie","You can only take on so much yourself but with others you can take on much more.","2019-03-15 12:33:26"
7267899310,chuckennuggett,charles,"Can I use your content and make money from your views? Lol","2019-03-15 12:35:15"
6675016165,dertah321,Dertah,💎💎💎,"2019-03-15 12:53:57"
4211294353,davidofug,"Wampamba David",@nichol.bk24,"2019-03-15 13:19:55"
2265327577,mrs.desi_prasetiyo,"Desi Chrisantini","@uyuniverse Lets do it together beb🙏😘😍","2019-03-15 13:25:10"
1644454176,nichol.bk24,"Nicholas Katushabe","@davidofug Wisdom","2019-03-15 13:25:52"
44925860,antrozetti,"Ant Rossetti™",@the86bartender,"2019-03-15 13:43:27"
9142737094,markdpodcast,"Miami Entrepreneur Podcast","I think after your signature on the last swipe, shoulda played your SonicTag again. 😉👏🏼 :::: I was expecting it , at least . Leave em with that lasting impression 🔊","2019-03-15 13:50:20"
7085173,newkirk1990,"Traci Newkirk","@markmcminn love it!!! We need to do some illustrations like this?!! @micahmcminn !! 💪","2019-03-15 13:56:11"
15558401,andrewlinfoot,andrewlinfoot,"Haha this is a throwback. Good times :)","2019-03-15 14:01:46"
4224773276,rixt.17,rixt,Fire,"2019-03-15 14:36:08"
6029280831,jordaneull,Jordan,@justinb2010,"2019-03-15 14:48:33"
1449545427,lotsofcoffee,Line,"@arebjornebole 🙌👑","2019-03-15 15:21:42"
49154109,didujustdothat,"justin ryan",@isabellalaa_,"2019-03-15 15:50:58"
2286686381,aido.petrie,"Adrian Petrie","@rebeccahstatham  another good post xx","2019-03-15 16:10:51"
1450434479,isabellalaa_,"Isabella Polizzi","@didujustdothat lol i already try to do this 😂","2019-03-15 16:14:47"
4049132211,tristansonnekus,"Tristan Sonnekus",@jaaacckoo,"2019-03-15 16:50:05"
207552694,rebeccahstatham,"Rebeccah Statham","@aido.petrie ooft that’s a good one!!","2019-03-15 17:30:49"
330965416,robertferrante,"ROBERT BARBER",@aliimusa,"2019-03-15 18:10:43"
7069677106,myprescriptioncoach,"My Prescription Coach","Cool analogy👍🏾","2019-03-15 18:40:45"
11057634597,mentorforwomen,"Marama Montgomery",@obowerss,"2019-03-15 18:48:39"
11097302468,seasonalfizz,Seasins,"I mean this was a good point, won’t lie 👍 damn u look sexy back then tho 😍😍","2019-03-15 18:53:36"
3626329260,jessii.bg,"Jessica Nayely B ❦",Smartttt💯💯💯,"2019-03-15 18:53:53"
37133455,melissaperez_9,"Melissa Diaz-Perez 🇨🇴❤️🇩🇴","@gisselgarcia 👏🏽","2019-03-15 19:15:56"
5462933590,peace_love_prayer,Ana,@akshatmaggon,"2019-03-15 19:35:35"
5462933590,peace_love_prayer,Ana,"So true @garyvee","2019-03-15 19:36:54"
11439109873,selfseekingsuccess,"Seek Success!💸🚀","Always coming out with amazing advice 🔥","2019-03-15 19:41:51"
11285993,brheaves,"Benjamin Rheaves Jr.",@lynle.83,"2019-03-15 19:48:36"
7827211909,theadventuredude,"the Adventure Dude","As a team leader, I am pretty agree with this idea, but sometimes it is gonna create vuinerability. It is by using this we create relationship, I think relationship is the key!","2019-03-15 20:28:04"
1985501629,bernard_cunningham13,"Bernard Cunningham","@caolan_campbell wish I saw this 2 years ago😂","2019-03-15 20:49:19"
2111044553,our.llove,"OUR lOVE","@lisamarie131 omg girlfriend you would👍🏻","2019-03-15 20:52:31"
229668365,vicmanda,"Victor Manda","@olimpiamanda relatable to a lot of things you need to start incorporating.","2019-03-15 21:33:50"
7579594880,siahscissorhandz,"✂️ 𝑀𝑜𝑠𝑠𝑖𝑎ℎ 𝐻𝑢𝑛𝑡𝑒𝑟  ✂️",@viciousink,"2019-03-15 21:38:12"
3647810825,nath_rsanchez,"Nathalie Rodríguez Sánchez",@elijahasa,"2019-03-15 22:15:52"
389932598,elijahasa,"Elias Ahmed Serulle","@nath_rsanchez 💛 gracia beibi","2019-03-15 22:17:53"
32031467,tedtedddted,"Edward Tay",@maryyy_t85,"2019-03-15 22:30:11"
224104593,ianmacpherson,"Ian MacPherson","This is amazing content Gary, thanks 🤟","2019-03-15 22:35:42"
5760497310,lord_geoffrey_williams,"Geoffrey Williams","Can you please cover this subject again @garyvee it is so important! Drop the stress and move on, not enough know how to do this!!!!!","2019-03-15 22:39:08"
2341269408,maryyy_t85,"Mary T.","@tedtedddted 😆","2019-03-15 22:39:16"
1827436549,danny_mia23,"Danny Contreras 🇲🇽♋️",@angie_cakess,"2019-03-15 23:57:26"
242846966,jaggiesarah,"Sarah Jaggie","@darrenbrucevia ❤️","2019-03-16 00:55:40"
7604677190,tpainless1000,"TM - BIKELIFE / SLEDLIFE","Black eye ?","2019-03-16 02:07:54"
189799883,kashapata,"Peter Kashapata","@dantehimself good looks 🔥","2019-03-16 04:50:03"
333822227,_jmencalisse,"The Entrée 🍝","@_dy.c_ swipe left my man","2019-03-16 05:31:22"
3938235553,jakobtp91,"Jakob Pedersen",@baremenikkebaretanja,"2019-03-16 05:33:33"
2238803636,h_cass_live,"Wm. Hayden","@garyvee Beautiful post. @instagram was just reborn.","2019-03-16 05:34:53"
4384945724,sharon.foulke,Sharon,"Great concept.  No man is an island.","2019-03-16 06:28:22"
479938266,tomolson007,"Tom Olson",@ddale_33,"2019-03-16 06:45:15"
29673201,luisgardea,,@mashaishere,"2019-03-16 06:55:59"
10870719644,matthewtaormino,"matthew taormino","Great advice delegate don't defend. Find good people to lift you up and raise your game and most importantly help empty that bucket! @garyvee #garyvee","2019-03-16 07:30:57"
248793178,spaitgirl,"Australia Spa Wellness Travel","I love that so much!!","2019-03-16 07:45:11"
179053317,ttpennystix,"Penny Sorensen","Then dumping the bucket on those who are killing you. 😂","2019-03-16 11:59:36"
3124498290,devendrayadav281,"Devendra Yadav","@black_silv3r really awesome","2019-03-16 12:01:36"
38657044,iam4ortune15,Loadinq...,@theawesomekhasem,"2019-03-16 14:44:39"
11764813510,aarnavdesouza,"Aarnav De-sou-za","I'm a 15 year old entrepreneur and am involved in business and brand development stratergies.Just started my very first account on the motivational/business side of Instagram and it would be amazing if you guys could possibly drop a follow 🔥 Thanks for your time 💪","2019-03-14 19:42:41"
8323759312,jodylamak,"THE POSSY☮️","Yo im 19  from Alabama 🐄 and I made a few songs 🎼 CAN YOU CHECK THEM OUT ON MY PAGE (I REALLY JUST WANT SOME FEEDBACK good or bad)‼️😌 THANKS 🙏🏾 if you do","2019-03-14 19:42:46"
4442860620,danieltesfaii,,"If anyone is a broker in NYC and needs an extra hand around the office or in an open house. I’m 16, would work for free even if it means getting you coffee. I just want to get my foot in the door in the real estate business and just want to learn from you. I’m sure I can provide a lot of value.Let’s connect!","2019-03-14 19:42:58"
11444611882,spacecitymoney,SpaceCityMoney,"Isn’t there a book about this called how full is your bucket? I haven’t read it but it was recommended to me. 📚","2019-03-14 19:44:07"
224107626,djbeautyandthebeatz,"DJ Beauty and the Beatz",🙌🏾🙌🏾🙌🏾🙌🏾🙌🏾🙏🏽,"2019-03-14 19:44:09"
5505302849,usman_writes,"Usman Sheikh","Emptied Negativity 💯","2019-03-14 19:44:11"
5472088797,michael.coluccio,"Make Positivity Louder","The learning process from Adversities is a powerful tool 💪❤️","2019-03-14 19:44:16"
1359740296,dobcho0,,@nikolayski1337,"2019-03-14 19:47:16"
2391262,k.ii.ara,K💜,"I want to tag a friend. But I never accepted her follow request on here because of this very reason. I dont want to hear about work stress during my non working hours. Thats it. So I'm sending this to all the Lily's of the world. #EmptyTheBucket","2019-03-14 19:47:53"
4245810844,dr_weberfit,"Dr. Jordan Weber","👊🏻 GV 👊🏻","2019-03-14 19:48:32"
2881116353,wesley_king__,"W  K","@wayneobimbo_ this bra was before the game🤣","2019-03-14 19:52:06"
192339463,lochoszn,"LOCHO SEASON",@nesto.funes,"2019-03-14 19:53:01"
1530577726,tyler1moore,"Tyler Moore","Did you cause the Instagram outage yesterday?","2019-03-14 19:55:17"
8400827426,theangelhotspot,"The Angel HotSpot","👍This can be applied to so many things..including Life.","2019-03-14 19:55:39"
8935398540,itsarhan_kh,Arhan,"@uuqaili73_ @ibad_nad","2019-03-14 19:55:45"
1474909877,suprabodh,"Suprabodh Umare",@punam_vikhe_patil,"2019-03-14 19:55:45"
10816762336,utnpro01,utn,"Guys you should definitely check our website.....just follow @utnpro01 and click the link in bio to get all the latest worldwide news and amazing quotes ❤️","2019-03-14 19:56:05"
10452851971,glassofknowledge,GlassofKnowledge,"Great post 👍 If you are tired of fake news, check out my page for concise, accurate and interesting news to educate you daily 😊","2019-03-14 19:56:48"
7700245321,chelsea.evans888,"Chelsea Evans","Thank you Gary 💖 Yes, I know someone who continuously empties their bucket on me even after I've talked to them about it. Cutting all ties soon, thank god!!!!!!!! 💖","2019-03-14 19:58:15"
10488080026,africa.multilocal,"아프리카, 어딜가나 현지인","In 2013. He was like Gary VaynerChubbier 😂 But the messeage was still powerful back then👍🏾","2019-03-14 20:00:38"
2088130569,s.krygowski,"Stefan Krygowski","@m_santacroce 🙌","2019-03-14 20:01:33"
23994499,chadome,"ChrisHadome Jr, Cayman Islands",@royalty_84,"2019-03-14 20:02:38"
200596257,joeramah,"★Joseph Ramah★",@michael_lebert,"2019-03-14 20:04:18"
7551246409,rajbir_singh_ramgarhia_5,"RAJBIR SINGH RAMGARHIA",Helped⚡,"2019-03-14 20:06:15"
445067414,23_jamiejones,"Jamie Jones","@sullijonesfam xx","2019-03-14 20:06:54"
1150215230,laura_bowden84,Laura,"@deanjbowden86 What would Gary say?!","2019-03-14 20:12:53"
4835971477,craigsmith503,"♕🦍•Craig S•🦍♕","King 🤘🏽","2019-03-14 20:15:36"
7285927760,ester_fruchter,"Ester Fruchter",Lol,"2019-03-14 20:18:16"
1414193311,pa_jeepsclub,"PA Jeeps Club",@inkyjohnsonmotivate,"2019-03-14 20:18:16"
2165143199,tedbandana,"Ted Bandana","@jeannelamothe 🖤","2019-03-14 20:22:16"
25310776,anto_sharp,"Anto Sharp","Same message just thiccer 😆❤️🙏🏼","2019-03-14 20:23:12"
988341896,fnvidz,FNVIDZ,@fnvidz,"2019-03-14 20:26:40"
1521061606,dorisvargas_,"Doris Vargas, MA","@marcuscurren ❤️😘","2019-03-14 20:26:46"
1338011616,mitchie428,"Mica Ong",@milinaction,"2019-03-14 20:28:15"
51503233,pietervdz,"Pieter van de Zande",@niek_vdz,"2019-03-14 20:31:19"
4923261658,idkvon216,"idk von","Gary using props is just funny to me 😂😂","2019-03-14 20:32:13"
8691182907,nohoes.johnny,Spam‼️,"5 words of motivation?","2019-03-14 20:32:56"
4924900530,higherstate96,"Music Producer",@_dettz_,"2019-03-14 20:34:41"
37387155,bossnaishn,"BossNaishn | PlantBased","This is also a great analogy for us single parents, or parents in general. Confide on one another or your the people in your circle. . . @garyvee always droppin gold💯💯💯","2019-03-14 20:36:11"
4460195981,oqp_sexyy013,"d'Jalalov Ibrohim",Me,"2019-03-14 20:37:16"
8204900674,verse2creative,"Verse 2 Creative","Mindset is everything, so you have to safeguard it. 🔥✌🏼","2019-03-14 20:38:03"
11548668700,vishwas_bajaj,"Vishwas Bajaj","@Garyvee Has Known The BEST ADVICES EVER 🔥 For over 2 Decades🤔...much love❤ #garyvee #60secclub","2019-03-14 20:39:00"
567443715,shiva.sobti,"shva ceniza sob","@quarteronacandymachine  daw 😉","2019-03-14 20:40:17"
7398817638,_aryastudios_,"Arya Studios","Love how he empties the bucket ☺️❤️","2019-03-14 20:41:55"
22913102,nicomedellin619,Nico,"Loving it. To me pressure builds up the most when you ""feel"" like your not meeting the responsibilities to the people around you. But by having those conversations you start to realize that the ""pressure"" you've been feeling is 10x worst than it actually is @garyvee","2019-03-14 20:42:28"
1390749340,the_herow_,"THE HEROW.","I need to fucking empty my bucket🙏🙏🙏","2019-03-14 20:42:34"
752926504,undergroundlongboards,"Underground Longboards","New YouTube video is live! Check it out","2019-03-14 20:43:10"
1436136012,trube.m,"Maxim Trube",@kate.kharchenko,"2019-03-14 20:43:42"
5717861724,sapphireplayground,"Sapphire Playground","Hi Gary Would you take a look at my artwork please it would mean the world 💜","2019-03-14 20:43:53"
2831400,mbockler,"Marlene Bockler","@carnevaleestes @marissasolis10","2019-03-14 20:44:53"
11326394449,realtorsodel,"Lauren - realtor",@a.clements17,"2019-03-14 20:46:01"
191633600,10xtommy10,"Tommy I","Link in bio‼️‼️‼️ love it","2019-03-14 20:46:44"
191633600,10xtommy10,"Tommy I","@_sw1shh empty your bucket big fella","2019-03-14 20:47:01"
4908285331,snailcafefamily,"SnailCafé Restaurant","😂. This is ingenious. But helpful. Thank you.","2019-03-14 20:47:26"
4820732861,rithwik_wayne,"Rithwik Wayne",😂😂😂😂,"2019-03-14 20:49:24"
5743883933,david_lupastean,"David Lupastean",@britishshorthair_moji,"2019-03-14 20:50:01"
10255536511,aj_steele0523,"Andrew Steele","@jamesbacon51 maybe this how you can make some money","2019-03-14 20:51:14"
32943084,fatwesslim,"Wes Walter","@garyvee, need you to blast off on this admissions scandal 🤦‍♂️","2019-03-14 20:53:46"
1660801024,indomitable_lion_,Jacques,@mensa31,"2019-03-14 20:53:58"
10734729743,alphathinkers,"Envision | Create | Manifest","😂Don’t you just Love how Authentic Gary is ?, 10 years and he’s been keeping it real!","2019-03-14 20:54:34"
10657653891,mechanismofaction,"Mechanism Of Action","I am determined and committed to achieving my goal to professionally dwell in the arts community, first milestone: getting established as a recognised music artist - I aim to meet it this year through my project @mechanismofaction 🤟🏼","2019-03-14 20:57:20"
363334816,futureboss_choch,jorge,@lindogarcia54,"2019-03-14 21:00:56"
33617371,jacobwierzbicki,"Jacob  Wierzbicki","Dig the message and the positivity you're putting out with this 👏🙌💯","2019-03-14 21:01:52"
2962212067,bharat_chaudhari__,"Bharat Chaudhari","That's right.... Love you sir for this great example🤘","2019-03-14 21:01:54"
4271321723,_hercrazylife_,"Stuti Jain","@j.rajesh409 ❤️","2019-03-14 21:02:29"
5746654357,anjitsuhag,"ANJIT SUHAG","I emptied my bucket around four months ago when I found you on YouTube. You are real @garyvee","2019-03-14 21:02:59"
1455538126,chefdavidstample,"David Stample",Yes!!!🔥,"2019-03-14 21:04:22"
3149910021,brianpaldin,BP,"Dead on.","2019-03-14 21:07:06"
9714106034,rickeythecareercoach,"RICKEY | Career Coach & Mentor","If YOU are currently JOB HUNTING or INTERVIEWING and need all the help you can get. WATCH MY IG STORY and DM me with any questions and I will answer your questions tailored to YOUR SITUATION or point you in the right direction. After recruiting and hiring for multi billion dollar organizations and infant start ups in San Francisco - I KNOW WHAT MANAGERS ARE LOOKING TO HIRE. I’m trying to build my Career Mentorship page by giving back to this community.","2019-03-14 21:16:04"
472414987,laurensreimus,"Laurens Reimus","@dantran56 this is maybe something for you😉","2019-03-14 21:28:10"
8533133238,_kidgoku98_,"Darrius Robinson",@jasmineramoss,"2019-03-14 21:32:25"
185364227,wesselgr,"Wessel Groenendijk",@g4g_business,"2019-03-14 21:34:37"
11623541476,eandepodcast,"E & E Lets Talk - Podcast",👏👏👏🔥🔥🔥,"2019-03-14 21:36:51"
1096137414,winda_taqwa,,@winaandriyanti,"2019-03-14 21:37:49"
5711712,ebrents,"Brent Shelton","Good sir, you have some pretty dark circles under those eyes. Are you getting enough rest to sustain?","2019-03-14 21:44:05"
1930615993,_mindful_michael_,"Anishinaabe Michael™","Absolutely love this post ❤️","2019-03-14 21:50:06"
5524612526,se7en_athletics,"Coach Tim","@kat_molina10 😉💯","2019-03-14 21:51:07"
11980181,boris_says,Boris,"Massive timeliness. Thank you.","2019-03-14 21:51:40"
6823424872,thedailywealthyaffiliate,"The Daily Wealthy Affiliate","Cool, funny and true. 😎👌🍀🌷🐻💖🍫🐞🌞","2019-03-14 21:56:29"
9717705751,___usman___k,"USMAN KHAN",@malikfaisal.ahmad,"2019-03-14 22:00:38"
2629822718,muutstumple,Tumple,"are u lonuly","2019-03-14 22:01:05"
245395235,qwerkyscience,Gaej,"I’m just a hustling Uber driver right now but life is crazy. My grandma who I live with is starting to prepare for death even though she seems to be ok. I’m helping to pay for things for my S.O., I’m trying to manage a website where I post science research I do, I’m trying to solve a neuroscience puzzle that’s worth 100,000$ if I succeed. I’m trying to transfer to a university with Low Gpa. My gpa was low because I came from foster care, a single mom who was on heroin and other issues, and eventually she killed herself. 
I’m awaiting results for my transfer to university, hoping my website is evidence of my passion towards my major rather than my gpa. Trying not to go crazy as always.","2019-03-14 22:02:18"
174400774,b.obbby,"Bobby Joysinov",@opamalmros,"2019-03-14 22:16:24"
2253821332,coreycasso,Mr.CA$$O,"🔊💯 @garyvee","2019-03-14 22:22:29"
1188739281,pjswingerrs,"PJ Davies",@whitedawg5,"2019-03-14 22:23:01"
34295249,jessesamawi,Mawi,"Wow needed that 🔥💯👏🏽","2019-03-14 22:29:17"
1544123426,antchillll,"Anthony Ryan Dicken",@ambermelissa,"2019-03-14 22:32:53"
176179269,the_violent_hippy,"The Violent Hippy",🙏🏽,"2019-03-14 22:36:57"
303564373,srokar,Sonali,@aks_insta26,"2019-03-14 22:37:48"
4535574995,888makai,,❤️❤️❤️,"2019-03-14 22:40:57"
1049721791,iammarleymotive,"Marley Motive 🇱🇷","@jerry_philippe @2b_ambrose","2019-03-14 22:41:24"
1533691690,runnacles_89,"Sam Runnacles",@lizziet38,"2019-03-14 22:41:51"
7468948079,nishfillet,,"Gare bear, looking forward to your take on what happened yesterday with FB, Insta and Whatsapp all being down! Feel like it ties in with your ""put yourself out of business before someone else does"" sentiment","2019-03-14 22:42:09"
349970540,tonycalipso,"tony calipso","You have the best team.. You are probably a wise boss","2019-03-14 22:44:11"
211513264,jdiaz_559,"Juan Diaz",👏🏽💯,"2019-03-14 22:44:59"
4363160844,carrythebull,"My friends call me Al","@malleylk Gary knows!!","2019-03-14 22:45:52"
6327713620,rubenstello,"Ruben's Photo&Videos",http://GoForPartTime.com/?userid=64600,"2019-03-14 22:48:13"
344458106,churchitaly,ChurchItaly,"@garyvee hey Gary snap up 10 % the prediction is 50% in 12 months, what you think !? Go All in ?","2019-03-14 22:52:06"
1970082970,ziyad_worldwide,"ZIYAD (The Boy U Heard about👑)","Gray love ❤️❤️","2019-03-14 22:58:11"
3182089359,aaronccalafato,"Aaron Calafato","For me it's 80 percent no , 10 not sure and 10 yes. I live for the 10 percent yes learn from the 90 percent adversity.","2019-03-14 23:00:22"
361075459,thegongshow88,Ginger,"💥💥💥 Having been a manager in my 40s this is so true and resonates with me. Empty that bucket!","2019-03-14 23:05:51"
997375361,robertbjay,"Rob Jay",@miss_myers,"2019-03-14 23:13:10"
6158439151,mindsetsbuilder,"Build Your Mindset","You also empty the bucket by more work and hustle 😉💪","2019-03-14 23:17:19"
398430297,romedog_millionaire,"Roman Morales",@packemoutapparel,"2019-03-14 23:17:50"
17539939,skrittuh,"Josh Cruz","Gary you’re a living legend 💪🏼... I’ve met you once shook your hand 👊🏻 and took some flix 📸 which I posted on my page ⚠️ thanks for looking out for us you’ve done and are doing such an amazing job 🙏🏻 you’re def redefining what “alpha” is and I respect your vision ✔️✔️✔️ My head is quiet 🤫 and my hustle is unlimited 💯💯💯","2019-03-14 23:26:38"
9151617337,bgolonka12,"Brandon Golonka","That’s for the advice Gary! Always appreciated","2019-03-14 23:27:35"
9053396545,motivation.for.greatness,"Motivation For Greatness","@thegongshow88 💯","2019-03-14 23:35:06"
206769539,davidfrank_atx,"David Sterling Frank","@jonathanyrose @thumper_lbc 
Good Advice","2019-03-14 23:38:54"
6484186152,talalsalimofficial,"Talal Salim Al Sabiri","always great Gary 🔥","2019-03-14 23:48:48"
336126511,zhgracie,Grace,"Had a super bad day at work, and definitely super overwhelmed.. and then saw this 😅  this must be a sign 🤣🤣","2019-03-14 23:51:14"
35784207,drivesleeprepeat,"Bailey Edmunds","@_shayze yeet","2019-03-14 23:58:36"
4508741120,nicksimsss,"Nicholas Todd Rose Sims","Gary is my spirit animal","2019-03-15 00:16:58"
2135481203,rahul.bhatt18,"Rahul Bhatt",💜,"2019-03-15 00:18:29"
10659003709,thebullishmillennial,Millennial👨🏻‍💻Invest📈Business👔,"Commutation 🏆🏆🏆","2019-03-15 00:20:19"
205167891,brown_zack,Zack,"This is so important! Whether it's small everyday or a big reward","2019-03-15 00:20:38"
1429496976,noah24garcia,"Noah Garcia","@prophit_ anotha one!","2019-03-15 00:23:24"
54725344,the_artist_javier,Javier,"ok, empty my bucket!!! got it !!!","2019-03-15 00:27:00"
768133146,mcbeefsqueeze,"Jeremiah Scott",@belleloux,"2019-03-15 00:34:39"
1430137606,game_developer,"The Nerd Dev! °-°","Hey @garyvee Finally I am starting up my E-Sports channel  @radical__tv initiative Broadcasting 24x7 On Twitch and YT. You rightly said, Internet is the Key❤","2019-03-15 00:43:58"
1583313448,jcs_vicky,"Supesh Victoria",@shenon_chrishenta,"2019-03-15 01:10:19"
12718786,shannie.sci,"Shannon H","@cody.higginz this is me! I finally started to empty my bucket today! 💪🏼","2019-03-15 01:10:29"
3438277425,mattdempssince82,"Matthew Dempsey",@marco_cioffi,"2019-03-15 01:11:56"
5513202106,shilohholifield,"Shiloh Holifield",@danikahoistion,"2019-03-15 01:33:27"
8092343549,tobi_sobamiwa,"Tobi Sobamiwa",@lotte_brockman,"2019-03-15 01:40:20"
536995575,coach_arnief,"Arnie Fonseca Jr","How timely @garyvee 🙏 I was just talking with a client about grief and how there are two types of people. Bouncers and Splatters. We get to choose how we Respond to what life throws at us. That’s all we ever can control! Thanks 🙏","2019-03-15 01:44:08"
43548657,ktclague,"Katie Clague",@markcubbon,"2019-03-15 01:51:04"
1589943097,timeswgabs,timeswgabs,"What if you're a manager and the dumpee for others??","2019-03-15 02:20:16"
4333850356,_eltoro23,"Fahad Patel","@_eltoro23 I'm tagging myself 🤗","2019-03-15 02:22:16"
194005889,brianturnerlive,"Brian Turner","@encourage_fit @jaclyneturner","2019-03-15 02:44:15"
4680958233,theinnovatehustle,TheInnovateHustle,"@conorturnage I LOVE YOUR PROFILE ❤️❤️❤️❤️","2019-03-15 02:52:20"
1033978,jk7,"Jai K.","@garyvee let’s connect with my enterprise tech Company and bridge tech with the music industry","2019-03-15 03:10:33"
373462771,billyvegeta,"PROPHET 7:11","Come check my Page out 🔥🔥🔥 music and Deep Dope poetry 📝","2019-03-15 03:40:23"
40109575,kingprince757,"KingPrince757 #DoItForMazi","Aye this aa major key how long uu been det nigga for big homie ?? 😎😂100d needed to see this today appreciate it big time","2019-03-15 03:41:26"
3608792142,foxellic,,"So true!!! Don't let the pressure build up in your head, let it ooooout🤣","2019-03-15 03:44:47"
421078736,garrettnovak03,"Garrett Novak","Didn't realize how much I needed this. Yet another fantastic nugget of information","2019-03-15 03:45:49"
228682149,tattoo_miggs,TheMiggser,"Let me tatt you up gary vee 🙏","2019-03-15 03:48:58"
1730520408,luxuslifepurnatur.beauty,👑,"Thankyou ❤️❤️❤️❤️❤️","2019-03-15 03:54:52"
3026775605,cindiribeachbelize,"Cindiri Beach Belize",Cool,"2019-03-15 04:01:42"
4469421499,officialnatpalms,"Nat Palms","I want to create art for loads of people but gaining attention is hard. Is it that my product isn’t up to par?","2019-03-15 04:05:52"
297225258,tightsqueezedhugsandkisses,TooneyGirl,"Communication is everything, transparency defines your integrity, so live true and love life! Thank you @garyvee for showcasing the bucket!! 😘👍🏽","2019-03-15 04:07:58"
11532029522,boostedmillennial,"Boosted Millennial ©","Truth that drops your jaw every damn time 👏","2019-03-15 04:10:42"
1286650937,indicody,Cody,"@edburkhalter @brandonnrode @a.rodes we gotta communicate and make our buckets bigger","2019-03-15 04:14:45"
4078956397,vaynertalent,VaynerTalent,🗑🗑🗑,"2019-03-15 04:36:53"
11206299355,salute.13,Salute13,"@africa.multilocal 😂","2019-03-15 04:43:48"
637543562,josuaalvian,"JOVIAN LOGIC",@dimasadityasuhendar,"2019-03-15 05:00:14"
1563221058,u.azam97,"Usama 💎",💯💯,"2019-03-15 05:20:29"
9431057966,stingrayconcretedesign,"Stingray Concrete Design","@garyvee 2cents 4 total cents","2019-03-15 05:25:48"
1150589179,luhh.lara,Lara😈💸,@xamberleigh,"2019-03-15 05:34:28"
3787584384,steak5757,"Jake Quinn","Love it G","2019-03-15 05:35:19"
365583806,matthieulibeert,Matthieu,"You're awesome!","2019-03-15 05:40:58"
5370409977,nathanbrandow_bodybuilding,"Nathan Brandow",@andrea.brandow,"2019-03-15 05:46:22"
1534973997,marcdelwijnen,Marc,@daniel.dejongh,"2019-03-15 05:52:26"
1534973997,marcdelwijnen,Marc,"@marcdelwijnen empty your big as fucking bucket","2019-03-15 05:52:44"
9426740198,retroretro1000,"Braylon Miles","@garyvee forever🙏💪💯","2019-03-15 06:04:50"
4345629119,therealteishahickman1,"Teisha Hickman","@eq2012 tagging you to introduce you to Gary V.  He has some gems here and also on  YouTube.","2019-03-15 06:05:18"
6108693410,jenniferwatsonleadership,"Jennifer Watson Leadership","Gary, you probably hear this all the time. But I LOVE your work. 
You are truly insightful AND intuitive with your work. And most importantly authentic. You are the man. 
Keep doing what you are doing. 
And one day I’ll afford you to speak at my SUMMIT. 💥💜💫⭐️","2019-03-15 06:07:11"
2035142046,mathieudelisle,"Mathieu Delisle","so true","2019-03-15 06:08:32"
55412176,mvags6,mvags6,@willey16,"2019-03-15 06:34:31"
822001822,hakim2307,"Amirul Hakim",@kamiliakmrdin,"2019-03-15 06:40:09"
2325137952,dylan.saltzman,"Dylan Saltzman","@garyvee ready to buy the Jets?","2019-03-15 08:06:11"
15805388,dmitriystrunin,"Dmitriy Strunin","There is no bucket, just let that shit flow baby","2019-03-15 08:08:54"
282026072,quarteronacandymachine,"M O R I S S E Y","@shiva.sobti awww haha","2019-03-15 08:25:01"
284779694,paulydlt,"〰️ Paul De La Torre 〰️","@itz_pookie21 @chopstamusic @therealjord4n","2019-03-15 09:02:47"
29384300,mrdevink,"Devin Kunysz",@jordan_leopold,"2019-03-15 09:45:17"
331651173,themattbeadling,"Matt Beadling","@mindofshawn @jonbrodston","2019-03-15 09:46:25"
54083927,jacxbmoore,"Jacob Moore","I’m gonna be in NY in April bro my goal on my white board is to meet your team 👊🏻👊🏻👊🏻","2019-03-15 11:18:04"
54083927,jacxbmoore,"Jacob Moore","@jacxbmoore and ima make it happen !","2019-03-15 11:18:27"
8600034868,btw_pearr,William,"I follow Everyone that follows me💎","2019-03-15 17:50:48"
2111044553,our.llove,"OUR lOVE",@_.xotrue,"2019-03-15 23:49:15"
726243494,soydrej,"Andrej Brnada ™",Ayeee👌👌👌,"2019-03-15 23:59:04"
2248892194,kikosmitar,mi✝️ar,"I let my bucket be bottomless. Rude people just fall right through, not taking a second of my time with them.  Go Gary!","2019-03-16 00:04:08"
27999705,jinglis83,"Jason Inglis",@jinglis83,"2019-03-16 00:09:51"
11530696888,stephanierosedesigner,Stephanie,"Super cute engaging post! Loved it!","2019-03-16 00:20:37"
225289958,octaviadscott,"Octavia Scott",@letia4ever,"2019-03-16 00:23:25"
946868335,julianmartinez1310,"Julian Martinez",👌,"2019-03-16 00:34:00"
7354164978,giovanart11,"Giovanny Castillo",@vmsie,"2019-03-16 01:18:00"
1295877953,jaguarjbizz,J-Bizz,💪🏾,"2019-03-16 01:19:56"
21074136,dustinebaugh,Dustin,"@ttpennystix @megsterling21 go team! Empty the bucket!","2019-03-16 01:23:27"
9264410652,training_buddy.de,Training-Buddy,😍😍,"2019-03-16 02:02:57"
247884997,swimthreezy1,"Martin Millien","Two tears in a bucket......","2019-03-16 02:05:38"
4538500040,litontheisland,"Marcus Joel Parga Jr",@baby_locc_,"2019-03-16 02:13:45"
3553738425,haseselina,selina,🙌,"2019-03-16 02:20:48"
250654578,5ftelise,"elise claire 🌱","This was Gary Vaynerchunk..... he’s Gary Vaynerchuk now","2019-03-16 03:03:53"
2182360060,kimiyajavadian,"Kiddo 🔥",♥️,"2019-03-16 03:08:09"
268050526,jubes78,"Andrew Joubert","@summerfieldian @riaanbeast","2019-03-16 03:17:22"
377584683,bryce_rich_photography,"Bryce Rich","I’ve been building for 11 years pioneer in the cell phone world 👁","2019-03-16 04:18:04"
9783433841,physioacutemedicine,Physio_ese,👌🏽👌🏽,"2019-03-16 04:39:08"
3269757933,andersruffworkshop,"Anders Ruff Workshop","Baller.
Shot caller ❤️💕💕","2019-03-16 08:26:46"
31666566,zoeeeeedollaz,Zoe',@cmerrelli,"2019-03-16 08:42:57"
404536026,parkerheck,"Parker Heck",@samanthabanquan,"2019-03-16 09:02:04"
3493178404,calvinmiller1234,calvinmiller1234,"It looks like he got punched in the face. The dark circles around his eyes are so dark! Fuck. He should take care of them!","2019-03-16 10:01:52"
1591725682,nlou_,"⠀ ⠀ ⠀ ⠀ ⠀ ⠀ ⠀ ⠀ ⠀ ⠀ ⠀  ⠀ ⠀ nic","Most people don’t get determination and perseverance. I do. Check your DMs.","2019-03-16 10:46:52"
17095186,lovewhoyouare_19,"Daniela Bernal",@aydreey,"2019-03-16 12:42:43"
971468757,lyonecards,Lyone,🔥,"2019-03-16 12:52:52"
8500076328,financialkids,"financial kids","@jnexus.555 empty that bucket when needed.","2019-03-16 13:14:34"
379387770,williamjclopez,William,"Above me, below me ? Eehhhh in my humble opinion, no one one is above  anyone. We all stick together to help one another out. Without you, there would not be a me and without me, there would not be a you.","2019-03-16 15:22:37"
10012176679,marketing_universal,"UniversalMarketing 🌌","Tell me what motivates you the most? Check my story, lets network! 👊🏻","2019-03-16 15:24:15"
379387770,williamjclopez,William,"So when you can simply change your way of thinking, there is no pressure. It's all your head. When everybody bonds and works together, everyone is happy.  Sometimes you have to lead and show good example and create that type of  environment.","2019-03-16 15:26:41"
3402890112,monicavos74,🇳🇱Dutch,"So true! Especially when you’re sensitive for what happens in your environment daily","2019-03-16 15:29:36"
8426517974,freedommediauk,"Freedom Media Group","@cassandrafairclough  Empty your wheelbarrow 😊","2019-03-16 16:30:44"
471639693,jd_maner,"JONATHAN DAVID MANER",🙌🙌,"2019-03-16 16:38:05"
1113719031,dantasticsa,Dan,"@hashtagbe4 @luisherrera12334 @athomp2008 @domtheisz","2019-03-16 17:01:45"
1222943638,azfarazie,Azfarazie,"@garyvee that’s the way to go! Out with the bullshit and in with the real shit! I love your genuine vibes man! 👍🏽 You are amazing!","2019-03-14 23:53:19"
517648615,jennifer.turner1988,"Jennifer Turner","Absolutely love this😍😍","2019-03-14 23:55:09"
42269507,betofloca,"Beto Flores",@rosenava17,"2019-03-14 23:58:03"
46074790,malikhaase,"DO WHAT THOU WILT #23","yo this is a major 🗝 right now for me!💯🙏🏾 Thanks Gary!","2019-03-14 23:58:26"
25925440,feliperamirezz91,"Father Of Two 👨‍👩‍👧‍👦",@jondelate,"2019-03-14 23:59:44"
5583433439,tomasvircik,"Tomas Vircik","Many manager are misunderstanding the point of your message and are emptying their bucket too much with their own issues and overreacting to their feelings of being in power. Great message here Gary. As per usual 😉","2019-03-15 00:02:02"
6948260396,nickangarita,Nick,"Communication communication communication 💯","2019-03-15 00:03:57"
431681312,chasejefferys,"Chase Jefferys","Check out my page for great workout videos, tips, nutrition info, and comedy on my stories. Be sure to follow me I'm doing a giveaway soon!!!","2019-03-15 00:07:22"
8557081477,getzendesign,"Get Zen Design✌️GRAPHIC DESIGN","This is game changing information, time to empty some of my buckets 🙂","2019-03-15 00:08:04"
1293680699,dannyfitzruns,"Daniel Fitzgerald",Yes👍👍👍,"2019-03-15 00:10:46"
2280414167,cuzimsharox,CuzImSharox,"angst is a english word too?","2019-03-15 00:14:33"
5772176504,lydianagaiphoto,"Lydia Nagai Photography","That’s just awesome 👏🏽","2019-03-15 00:16:46"
243609393,teddybennn,AL,"Need this!!","2019-03-15 00:19:46"
177200899,trinity.aka.2,"Toni Joseph","Love it. That's the realest. I did that and Forgave myself.  Found a piece a mind. There's a story of how that happened to me before. 💪","2019-03-15 00:25:39"
31179816,ericreyes_,Eric,"True 🙏🏽","2019-03-15 00:26:41"
8650127962,budhana_tech,"Mahesh Mishra","Empty the bucket keep it balanced, keep going","2019-03-15 00:30:50"
1621725229,eron_pira,,"Angst means fear in german","2019-03-15 00:32:14"
3539637876,billionaireboy029,"Roshan chand  💪","I live your every post @garyvee","2019-03-15 00:38:26"
11559126977,stock_trader_rags_to_riches,"Rags To Riches","Like my comment so garyvee can see my challenge!","2019-03-15 00:39:53"
4610243289,daniel_liigus,"Daniel Liigus",@sjones.inc,"2019-03-15 00:43:18"
2189062156,_1soufsoul,,@kiilashay,"2019-03-15 00:45:30"
4515922903,graphics__illustrators,GRAPHICS_DESIGNER,"DM ME IF YOU NEED 🎊••••> ANIMATED MUSIC VIDEO 🎉🎊•••> LOGO 🎉🎊🎨•••> CARTOON GRAPHICS 🎨🎉🎊💥•••> COVER ART AND LOTS MORE AT GOOD RATE 💯💯","2019-03-15 00:48:41"
5607892687,thomasdoneit,"Thomas Lekhanya","Love the illustration style","2019-03-15 00:50:32"
640242360,rob_rowan,,@rem3_mcilwain,"2019-03-15 00:56:54"
5580887027,catherinemooreland,"Catherine Mooreland","@markindigomusic I think he’s talking about me 😉","2019-03-15 00:57:47"
10648382919,troubled_goods,Troubled.Goods,"@garyvee is you the one that made Instagram down?","2019-03-15 00:59:05"
3616911851,haroon.jpg,Haroon,@chante_courtney,"2019-03-15 00:59:08"
10110459906,brandism.de,Brandism,"Nice 🔥","2019-03-15 01:00:57"
331318759,ldn_herbalist,🌬🍁🙇🏻💸,@marlz189,"2019-03-15 01:02:17"
277236721,herfoo,"Henrique Pires","Hard work 👌","2019-03-15 01:06:59"
1539639635,civilled_j,"GITARTHA KALITA","I have seen Guys who motivate people. But you are one of a kind","2019-03-15 01:07:00"
1816085815,picturethenorth,Alex,"Well said! @garyvee 
LET’S GO TORONTO! 
@torontofc @bluejays @raptors @mapleleafs
CHECK IT OUT, SHARE, LIKE & FOLLOW!!!
#beachnews •Facebook: @Beachnewsmedia
•Instagram: @beachnews
•YouTube: @Beach News
Follow: @picturethenorth","2019-03-15 01:07:22"
2292493311,orphanedhanyou,Carrie,"Unless your toxic work environment doesn't allow for this. The culture here from the top down is to over fill your bucket. Lower in the chain employees run from or in some cases intentionally f up responsibilities delegated to them so they won't be asked again because very know they won't get the right support. Hopefully in a year or so I'll be financially able to take a voluntary demotion and leave this company.","2019-03-15 01:11:30"
10635004206,staywell_careers,,"Simple but powerful advice 🙌","2019-03-15 01:13:32"
1577403401,hasan.wahery,"Hasan 🧙🏽‍♂️","they usually empty it in mine bro so try not to be nice","2019-03-15 01:14:36"
5352337828,yuriykraevoy,"Юрий ПОЛЕЗНЫЕ ПРИВЫЧКИ",👍👍👍,"2019-03-15 01:15:32"
10398615838,ganesh_mindset,"ganesh mindset","#garyvee ❤️","2019-03-15 01:16:57"
8429004902,playerslv,"PLAYERS LV","Just emptied mine thanks!","2019-03-15 01:17:09"
7609585906,thelacitychick,"LA Speakeasy 🍸 Bar Curator","As someone trying to grow my business on my own...I definitely feel my bucket rise. Unfortunately I am still a solo operation so I find that I have to empty my bucket in solo ways...I talk to my entrepreneur coach.. my therapist... my hairstylist and my closest supportive friends... and then I get a massage. Usually #selfcare helps manage that bucket too! PS Gary when are you coming on a Speakeasy Night with your team when you're in LA? 😉🍸","2019-03-15 01:17:42"
428049679,nutritionist_charlotte,Charlotte_Umney,"Thank you, needed today 😂","2019-03-15 01:17:42"
475333048,jbedolla2430,"Jose Bedolla",@kaciasnyder,"2019-03-15 01:20:43"
217242960,pocketfullofyes,ظبيانية,@summerlightning25,"2019-03-15 01:24:05"
2260358828,safat_official,"Safat Alwasi","Guys!!!! I post LIFE ALTERING CONTENT ALL THE TIME . on my page and you may never see this message again in your LIFE !!! So instead of regretting later, CHECK IT OUT  NOW!!!!","2019-03-15 01:26:15"
46020713,mdisalvo_79,"Michael DiSalvo","🔥 🔥","2019-03-15 01:28:07"
2259905259,divasees_,"Divasees singh ✪","I love that you threw the water on the plants🙌🏼","2019-03-15 01:30:16"
295912761,maiyasapp,"Maiya Sapp™",@_skye18_,"2019-03-15 01:31:01"
181198432,conorturnage,"Conor Turnage","I needed this today","2019-03-15 01:39:58"
219108536,jefferyheller,Jh.,"Fuck yes.","2019-03-15 01:40:58"
4482637058,ktno88,"Kt No",💖💖💖💖💖💖💖,"2019-03-15 01:43:23"
1955348604,creativeworldchangers,"Katherine Martin","Gary on 🔥🔥🔥 then. On 🔥🔥🔥 now. ❤️","2019-03-15 01:46:18"
3957175322,craftycoffeecup,"Amber Mulvey",@therealbeefsupreme,"2019-03-15 01:46:25"
2031513341,craft_show_coach,"Craft Show Coach","I heard a wise executive once say that the most successful managers figure out what NOT to do and avoid the corporate minutiae.","2019-03-15 01:46:45"
277427194,pranesh_kay,"Pranesh Krishnamurthy",@rohit.nrn,"2019-03-15 01:50:21"
1523546224,adreezysanchez,"Adrian Sanchez",💯,"2019-03-15 02:01:23"
10958690560,karmaisdead458,"timeless soul",@angieinthedarkk,"2019-03-15 02:04:15"
875962951,dtodoroff,"Dam ©","Great advice 🙏🏻👏🏻","2019-03-15 02:07:37"
4392777549,_miss_siny_,"🔥Sonali Rathor🔥","Wow well said❤️❤️","2019-03-15 02:12:09"
31351866,cka757,"Keith ",Me!!!,"2019-03-15 02:15:42"
7040432588,biznesmonstr,"КОУЧИНГ И ЛИЧНАЯ ЭФФЕКТИВНОСТЬ",🏆🏆🏆👍👍👍👍🔥🔥🔥,"2019-03-15 02:19:53"
1342150203,gammaren,Gama,"I needed to see this dam 🔥🔥🔥","2019-03-15 02:26:25"
215530286,sinisterjayrad12,"Jaryd d'Entremont","This guyyyyyyy🔥🙌 LISTEN","2019-03-15 02:26:55"
345988702,burlsweatshirt,Lee,"I work with a lot of different artists and musicians in artistic situations and it’s hard to get everyone to match my enthusiasm for the craft. This frustrates me to no end. I’m losing sleep over this, how do I change my perspective?","2019-03-15 02:43:14"
238580201,mike_kelley97,"Mike Kelley",@nate_moore1,"2019-03-15 02:51:12"
279449405,cgouucherrr,"Cody Goucher","At least you watered the plants with the bucket!","2019-03-15 02:58:25"
218941170,tropam,"Manuel Monroy","How did you come up with your audio tag Gary?","2019-03-15 02:59:40"
10937003772,aj_does_business,"A.J DOES BUSINESS","Empty that shit 👍","2019-03-15 03:02:09"
11111550556,the_life_of_tiago,Tiago,"Empty that shit lol","2019-03-15 03:13:33"
3308186768,ekam__s,Ekam,"Just got spotify in India, dude i can't stop listening to you 🇮🇳","2019-03-15 03:21:16"
4263041898,beeklefilms,"Tyler Beekley","@khylie_kight empty that bucket lol","2019-03-15 03:24:19"
1641290076,r1iff,CHERIF,@gamal_967,"2019-03-15 03:27:53"
8594331681,randyphish,Randy,❤️,"2019-03-15 03:31:05"
6077410073,canine_bliss,Canine-Bliss,"One day without instagram scared the fuck out of me. I’m doubling down on your diversified platform thesis!","2019-03-15 03:36:17"
9615960683,ebereanyanwu22,"Ebere anyanwu",🙌😊💕😊,"2019-03-15 03:38:03"
104830664,the.letters.of.love,Dcm,"Yo who tf popped my boy gary in the eye","2019-03-15 03:39:49"
175121186,itsrellg,"RELL G","What’s going on  I'm an upcoming rapper with flow and delivery . I would love if you could check out my page and give me some feedback. I'm a work in progress & want to improve all I can. All support would be appreciated! Please like this comment so more people can see it! Preciate ya , have a blessed day!","2019-03-15 04:12:21"
181197141,pdalexander22,Preston,"Digging the actual bucket full of water prop. Letting the acidic of pressure build can be so injurious. Unload!","2019-03-15 04:24:16"
25840971,angelblaiz,"Rebecca Mongan",@chris_mongan,"2019-03-15 04:25:17"
2119289112,manestrain,"NY 📍","I make Instagram highlights for your profile! Send me a message 🔑","2019-03-15 04:27:10"
750475,ryanpernofski,"Ryan Pernofski",@ryanpernofski,"2019-03-15 04:33:58"
483245868,charlesfanshaw,"Charles Fanshaw",@lynn.mendonca,"2019-03-15 04:34:35"
8917070733,thumbst0pper,ThumbStopper,Gold,"2019-03-15 04:35:35"
1419274418,kiahami,"Lum Chun Hoong","@kiahami Tagging myself, because I NEED this!!!!! 😛","2019-03-15 04:38:11"
13192273,damiencasey23,"Damien Casey","Legendary content bro👌🏼🙌🏼🙌🏼","2019-03-15 04:51:28"
2094913888,michalpetras75,"MICHAL PETRAS","Simple and spot on.","2019-03-15 04:54:47"
351694590,heatheramberann,"Heather MacDougall",💕💕💕,"2019-03-15 04:58:37"
11226426775,desifoodfollowers,desifoodfollowers,Hahaha,"2019-03-15 04:59:15"
389590546,amanbhatiaa,"Aman Bhatia",💯✔️,"2019-03-15 04:59:45"
11776702490,morem0ney,A.Z,"Bigggg Facts !!!","2019-03-15 05:00:33"
22045195,lianamaria,LML,@ej.23,"2019-03-15 05:02:14"
1931320209,mark_mccammon,"Mark McCammon","I seriously thought you were going to pour the water on yourself...😅","2019-03-15 05:15:52"
8890509247,official_isreal93,IsReal,"Advice for life #realshit","2019-03-15 05:28:55"
2091360444,themindof_edit,📧dℹ➕,"This is so true! Extremely powerful message. Thank you @garyvee now hire me!!! #strangefriction 🙏","2019-03-15 05:29:36"
7069698619,nakii_t,nAkI,"Why do you look older from back then compare to now? Lol Great message. 💯🌱 empty your bucket of shyt your pants. Lol","2019-03-15 05:32:40"
370715503,kreuzart,Kreuzart,"Great message, I showed it to my boss in hopes things will change 👍 love the content Gary","2019-03-15 05:33:17"
246504429,yajaira213,"Yajaira C","@garyvee , I do 😫😫","2019-03-15 05:36:33"
11414267372,pastwavess,🌊🌊,"Check our page out we’re putting up some really good content ‼️🗣💯","2019-03-15 05:37:53"
6509137951,alex.skillen,"Alex Skillen","rate this","2019-03-15 05:39:12"
7227484942,organizationsline,Organizationsline,🔥🔥🔥,"2019-03-15 05:40:48"
4478424,_imerlina_,𝑨𝒖𝒏𝒊_𝑹𝒂𝒚𝒚𝒂𝒏,@_ikatikah_,"2019-03-15 05:56:41"
5896594961,bodi4.0,"Best One Doing It","@inkyjohnsonmotivate empty the bucket","2019-03-15 06:00:50"
1104364199,hisvetdoctor,"Aron Hisole","RIGHT ON!!!!","2019-03-15 06:01:32"
2218133759,onsitemobilefleetwash,#webringtheclean,"@its_mr_wash_your_truck. @garyvee this is something I struggle with , probably the most in my business and personal life !","2019-03-15 06:05:17"
241351052,keth_j,"Keth John",@s.hackett87,"2019-03-15 06:08:39"
2042247585,inzolent1,Rai,"I don’t know about you, but no one cares or wants to hear your complaints. Not people above you ever, not people to parallel to you if they want better, and especially not people you are doing better than. Get a fucking grip. The truth is the key... there is no fucking pressure! You are making that shit up! Life will go on tomorrow even if you don’t accomplish your task. So nothing to worry about in the first place. It will get done, when it gets done. Period!👏🏾💯","2019-03-15 06:13:27"
11807339181,greatest.entrepreneur,"GREATEST ENTREPRENEUR","Follow me to become the greatest entrepreneur you can be!","2019-03-15 06:15:13"
183981356,steflipnisky,"Stef Lipnisky | Austin Realtor","Yes! I’ve also noticed that #Instagram and #social commenting really helps get out your thoughts if your having trouble speaking them. It’s a powerful thing to let it out (especially in a safe place). You do a great job on making sure you have a space for everyone to empty “buckets” 😂","2019-03-15 06:25:47"
1315712072,haszzs,"Hasain Sheikh","Yes your right but here’s the thing, sometime when you try to empty your bucket and talk to higher up seniors they don’t want to here you and will take it as complaining rather then input or suggestions, so this is not something for the young ones to understand it’s for the older and higher ups to understand this and open the communication with there staff and that’s when things will really get real and start to change. @garyvee","2019-03-15 06:25:48"
3957069039,nik.aus,"Nikolai Dyshliuk","Emptied bucket last night while running 10km on a beach 😂😂😂 best tool, esp when u struggle after first 5k","2019-03-15 06:26:13"
220438386,stefanh__photography,"Stefan | from Austria","Didn't know that Angst is also an English word 🤔😀","2019-03-15 06:33:43"
37883485,therealdilonjukic,"Dilon Jukic",@jukicjosh,"2019-03-15 06:34:14"
341586081,dalton_mcmath,"Dalton McMath",🙌🏽🔥,"2019-03-15 06:53:33"
8359952604,the.mike.g,"Michael Gutowski",🔥🔥🔥,"2019-03-15 06:54:11"
283843603,kidmuscle96,"Eric Martinez","This is it right here!","2019-03-15 06:57:30"
1382286488,peter.bolliger,"PETER BOLLIGER",@guillaume.taieb,"2019-03-15 06:59:45"
1490274263,jungle_jahn,"Jahn Picado","Niceeeeee! Greetings 👋 from the other side of the world 👋😃","2019-03-15 07:00:19"
1778132745,call_me_cait,"Caitlin Raymond",@t.fraser94,"2019-03-15 07:02:23"
5946780953,daveehrentreu,"Dave Ehrentreu",d,"2019-03-15 07:13:23"
5946780953,daveehrentreu,"Dave Ehrentreu","@aaronjcastilla @mattluster23","2019-03-15 07:13:52"
22771258,jevaux,"Daniel Duarte Jevaux","Fat Gary knows his shit 💪","2019-03-15 07:16:41"
1432955856,sd_nica,"Shauna Douglas",@kaythesilennt,"2019-03-15 07:19:06"
9125674134,leesteeze,"ANTHONY LEE ⚡️","Got ya shirt wet huh? 😂🤷🏽‍♂️","2019-03-15 07:27:09"
9125674134,leesteeze,"ANTHONY LEE ⚡️","Got ya shirt wet huh? 😂🤷🏽‍♂️","2019-03-15 07:27:19"
1753453643,trainfuelmotivate,"TFM 🇨🇦","This is awesome.","2019-03-15 07:30:21"
6157185664,pixel_trend,"Pixel Trend","Love the post creativity. Keep em coming !","2019-03-15 07:44:25"
4063238833,thechristiehensler,"Christie Hensler",@matt_hensler,"2019-03-15 07:47:50"
1302501345,boaz792,"Boaz Gelber",@leodobkin2007,"2019-03-15 07:55:39"
2522428539,i.use.tools,"Jon Heltzel","Best information yet and it was six years old","2019-03-15 07:58:10"
213240852,foufquassiss,"Fouf Quassis","Love it love it and keep all this great content rolling keeps me going. Through out the day","2019-03-15 08:09:05"
7765557105,pinkpineapplepics,"Amy Misakonis",@alivecoachingllc,"2019-03-15 08:12:24"
205939203,thedanielstrange,"Daniel Strange Asia","@nicoletennant_ 😂","2019-03-15 08:27:01"
6494804281,st.r_the_one,"Dion Ranger","You don’t know how much I needed to hear this ✊🏽✊🏽","2019-03-15 08:47:38"
1360189519,etceteracarter,"Mel Carter",@callmebadone,"2019-03-15 08:48:09"
553685467,admirethetruth,,"How do I balance giving a fuck and not giving a fuck. Sometimes it feels like I’m the only person who cares to at my job.","2019-03-15 08:54:03"
623010646,paulzellman,"Paul Zellman","@myja10 such a good metaphor","2019-03-15 08:55:47"
1453075263,sarahefitzgibbon,"SARAH FITZGIBBON",🔥,"2019-03-15 09:06:16"
1550609406,phs.kam_17,"Kam S. Paetow Panthers🏀","Still have a horribly long way to go, but I’m trying to better myself at not procrastinating and putting things off and you are a big inspiration on that @garyvee","2019-03-15 09:10:03"
10929983054,item9clothingco,"Item 9 Clothing Co.","Hope no one was below that bucket just kidding it is the truth though cant hold to too much","2019-03-15 09:10:42"
9879432107,baytechdigital,"BayTechDigital (SoFLA Techies)","💯❤️ sound audio/visual quality has definitely gotten better.
Keep Grinding! ⛽️For All!!","2019-03-15 09:34:52"
4345349633,laajerm,🇭🇹➖🇩🇴➖🇱🇷,"You the man ! 🤯💯","2019-03-15 09:39:29"
3231555874,yelhamcoffee,"Yellowhammer Coffee","@moniqueroberts_ good advice","2019-03-15 09:54:29"
7193111219,ceasethedayhappy,"Claire Chua 蔡林玲",🔥,"2019-03-15 09:56:06"
11195512875,lawyerade,Lawyerade,🙌,"2019-03-15 10:00:29"
5767452543,ashlee_dignon,"Ashlee Dignon ✌️🏳️‍🌈","@emmadignon 🧨","2019-03-15 10:00:58"
2260873378,azostak,Aaron,@randysulei,"2019-03-15 10:09:32"
11351536451,yourwealthguide,"Your Wealth Guide","That is just amazing way to relax","2019-03-15 10:15:27"
1548248646,frank_mosca_bx,,"I ain’t got nobody to dump my bucket on, keep piling, and piling. Tired from holding it.","2019-03-15 10:15:39"
7838590805,gully.steph,"stephanie 🛸","gary, the way you emptied that bucket made me die","2019-03-15 10:15:39"
2883664842,kjocalliste,"Kimani Calliste","I was in Austin for the first weekend of SXSW and each night I went up onto the rooftop of my airbnb, looked out at the city, and just ranted and decompressed my thoughts onto an audio recording app on my phone. Most of what came out was negativity, which made me realize how much my silence and brooding really dampens the positive experiences i could potentially have. Recording my thoughts has been a good outlet the past few days.","2019-03-15 10:31:19"
6030123153,thethinkschool,Inspire.Greatness,"This is so important to understand right now, why is that we take so much pressure. If it's not in our hands we shouldn't even bother.","2019-03-15 10:47:13"
4214966280,nag.kolli,"Nagarjuna Kolli 📸🇮🇳","I have to tag myself for this post 😕","2019-03-15 10:55:48"
1583313448,jcs_vicky,"Supesh Victoria",@shenon_chrishenta,"2019-03-15 11:08:44"
1346396518,jayre__,"Jarvis sanders",@djingram10,"2019-03-15 11:16:29"
8727302789,asbelllerena,"Asbel  LLe-Re-N/\","@garyvee The value of what I have learned the last 9 months from your content has allowed me to endure the most difficult day of my life. 🔥
-
I truly admire you my brother! Much love 💚","2019-03-15 11:28:24"
1604597815,aryesh21,"Aryesh Arya","On point as always!","2019-03-15 11:36:19"
10970144,brian__kim,"BRIAN KIM | Real Estate Broker","Good job!","2019-03-15 11:50:48"
143685444,healthbykara,Nutrition|Connection|Movement,"love this 😍","2019-03-15 12:01:44"
1428242888,kimmybholcomb,"Kimberly Bramble Holcomb","I’ve been realizing this more and more. I’ve been realizing I like doing this a lot. “Putting out fires” as you’ve said before. Just finding ways to creatively work through problems with help of the tools and people around me. Its really cool to see how different things work or dont work. I love it. Its a cool game, and I definitely am realizing I’m not half bad at it because of patience im blessed with via DNA 🧬","2019-03-15 12:13:28"
23013976,aqimowon,aqimowon,"Hella Ya!! 🤙🏽","2019-03-15 12:18:20"
11425153142,timmybeyourself,"Tim Brazeal","I need to change this in my own mindset, I need to start thinking about communication more and not as much about myself","2019-03-15 12:18:39"
2144053474,el_paritosh,"Paritosh Joshi","@garyvee You look better now, a healthy lifestyle can really change someone. Love your stuff though, keep inspiring.","2019-03-15 12:34:48"
11664032,joeurena,"Joe Urena","Amazing message. So true","2019-03-15 12:38:10"
6968324714,dereksuarez2128,"Derek CodyWorld Suarez","@zhuey2424 follow His Page. He speaks the truth my dawg!!!","2019-03-15 12:40:48"
10004883211,dalia_zandi,"Dalia's Msgs💎رسائل داليا","Love it🙏🏼💚chk DM pls","2019-03-15 12:48:20"
7453566142,lars_land1,"Lara Steinbacher","@time_to_suit_up, here's to helping you empty your bucket, PDlife","2019-03-15 12:59:05"
3612392950,emily_nossaman,"Emily Nossaman",@lucynatasha_s,"2019-03-15 13:08:28"
8210513150,sensationalwellness,"Patti Andre",@andreinkproductions,"2019-03-15 13:09:25"
10096824711,motivation_and_business_ideas,"Motivation And Business Ideas","Follow us for daily motivation and business ideas","2019-03-15 13:29:31"
24273122,cdab_,"Cole Dabney",@danastynat,"2019-03-15 15:04:59"
1091091563,trustedgarden,"⭐⭐⭐⭐⭐ Lawn Mowing/Gardening 🌱","Awesome post as always 👌","2019-03-15 15:17:40"
9533135885,licranotes,Licranotes,"Can also be used to improve your personal relationships. Communication. 👏🔥","2019-03-15 15:25:39"
284997123,oseraphaels,"Ose Raphaels","Thank you Sir","2019-03-15 16:01:10"
276101589,innchong,"Innchong | 蔡引崇","The key is to communicate😊","2019-03-15 16:01:52"
8568463943,realmartinzane,"Martin Zane","That's probably me to be honest 😁","2019-03-15 16:12:02"
32293789,a_king_and_the_rbcrew718,"Eddie Green",@ryders_block_llc_,"2019-03-15 16:21:52"
182348402,gunnerbrock,"Gunner Nelson","@me right now","2019-03-15 16:32:18"
7496262401,narath.un,"Narath Un",❤️😍👍,"2019-03-15 16:36:42"
10094343814,runnerd_idn,"Glaive_idn 🇮🇩","This helps me a lot.. thanks","2019-03-15 16:41:33"
7410197757,rancho_761,"ℝ𝕠𝕙𝕒𝕟 𝕄𝕒𝕟𝕘𝕒𝕣","@kathakalibanerjee_kt @ajay_pr_","2019-03-15 16:44:20"
10994463,giannimelwani,"Gianni Melwani",@shaun.melwani,"2019-03-15 17:58:56"
10994463,giannimelwani,"Gianni Melwani",@leahfitzgerald4,"2019-03-15 17:59:02"
10398615838,ganesh_mindset,"ganesh mindset","Yes #garyvee 🔥","2019-03-15 18:00:34"
220449204,jeremyrecklein,"Jeremy Recklein",@i15packshawty,"2019-03-15 18:02:21"
270381548,i15packshawty,"Lord Fauntleroy","@jeremyrecklein thanks for sharing. A hole at the bottom of my bucket would help!😂","2019-03-15 18:12:02"
11097302468,seasonalfizz,Seasins,"Is that outside vaynermedia because I looked at it on google maps because I live in New Zealand and on my bio I asked if I could sleep outside your business or house I don’t expect you to ever reply I just find it funny and hope 🤪 and like how do you not judge someone through texts and maybe that’s why people judge so fucking much because we are getting used to texts and having to assume all the time so you don’t make a mistake how do you get around that - by not judging comments ??? - well now we are back to square one","2019-03-15 18:16:38"
184545383,meghanguzel,"Meg G","Can I tag myself 😂","2019-03-15 18:16:39"
1951273242,josua_nel,"Josua  Nel","Empty the bucket. Communicate with people dont take it till the bucket overflows","2019-03-15 18:19:52"
38999992,martingauto,"Martín Gauto",@joaquinnroa,"2019-03-15 18:22:15"
11217071080,edward_snortin,"Edward Snortin - Frenchie","Loved the interactive feature of this post. Of course the message is on point as usual! Thanks for sharing!","2019-03-15 18:29:50"
11286180824,myfxstory_,"My Forex Story","This is exactly what I'm all about!!🔥🔥❤️❤️🙌","2019-03-15 18:41:25"
8127086461,pauljgloudie,"Paul Gloudie","Such amazing contents I want to know how I can give more out from my video. Paul J gloudie @garyvee","2019-03-15 19:03:24"
10738717026,real_tomson,Real_Tom,#garyvee,"2019-03-15 19:09:06"
1453003446,ydasquiat,Dasquiat™,"Go check out the last VIDEO&SONG on my page 🔥🔥🔥🔥 support the movement","2019-03-15 19:11:26"
220704366,niesdegroot,"Harry Taylor",@mark.fiona,"2019-03-15 19:24:11"
9169678,sarah.j.carnell,"Sarah Carnell","Love it! Thanks for the flashback. It’s good to see how putting in the work to build effective practices can continue to assist through time and across context. 🙌 I’ve been practicing how to communicate with candour and honesty which is helping me to build a foundation of integrity with my peers, people I lead and even those whom I report to. At first I was scared to speak up and sometimes it doesn’t always come out as smooth as I’d like but I’m finding my voice and it generally results in respect ✨✊✨","2019-03-15 19:25:43"
10014807225,dariusz_lukasik_osz,"Dariusz Łukasik","That kind of video helps a lot in understanding your content. I like this 'bucket' video. ❤️","2019-03-15 19:57:16"
7589948792,sethkaz,Seth,"Rocking your podcast right now! Love your work, I live by myself because of you, I create my own world!","2019-03-15 20:13:07"
1521029581,zaid_nawzat,Zaid,"Beautiful 🌺🌺","2019-03-15 21:41:58"
3075706663,oliverlopez,"Oliver Lopez","haha so old, yet still valid!","2019-03-15 22:02:57"
502545168,_kevin.fleming_,"Kevin Fleming","😂 Why do I love this Gary so much???","2019-03-15 22:08:26"
1210968912,shawnmengot,"CELEBRITY SHAWN",@zingrosa,"2019-03-15 22:36:40"
3888785828,glidewithlife,"{ M I K E • B R O }",@m.jbro,"2019-03-15 23:03:11"
308693788,levancerucker,"LeVance The Great","Gary that was mad smooth 👌🏿","2019-03-15 23:07:45"
258876593,jfarvexclusives,Jfarve,"Yet again I sit here and get crushed by the way you think 💪🏻","2019-03-15 23:26:40"
