Userid,Username,Fullname
9512040135,piapebrianii,"P I A P E B R I A N I"
8489426238,yola.agr,"Yola anggraini"
4581383399,yati_0816,jumiati📝
11472973292,dindintx,"tiara dinta"
11879248255,muhrzl01,"Muh. Rizal"
4104247455,nur_amaliah_r,Nur
12039614223,jetzskil.official,"Sepatu Akupuntur Yogyakarta"
10985027010,rye_kosmetik,"Kosmetik Skincare 🌷"
5524318220,nindyakib,"Nindy Hafifa Putri Akib"
1773418748,taufik_h90,"Taufik Hidayah"
5718902927,putririsqiahali,putrissqh
12137928514,ayakeun_case,keun
310729210,niasetyab,"Nia Setya Budiningtyas"
3057142337,maul_shelter,"asmaul khusna"
1794678034,slfqh_ibrhm,"Sul afiqah"
3484848089,radhiadodol,"i am flat -"
8700775497,helofuddin,"Ahmad Syarifuddin Latif"
3296770642,bernard.ferdinand,"Bernard Ferdinand"
9405640557,rherbalstore,"Herbal Store !"
559790261,handbouq.id,"Handbouqet Paper Flower 🌹🍃"
6222094295,smonday_,"Sunday Monday🌞"
7641744098,r.dw._,"카리스마 듀얼"
3057934000,donimaskan,"Doni Maskan, APT."
11640429669,ayu05625,"ayoks bee03😍"
2266662315,teguhstar01,"Teguh Supriyanto"
5472170093,bajumurah_blitar26,"Pakaian murah"
2087816813,septa_arianda,"Septa Arianda"
8492413603,athaa.yo,Atha
4017704303,yunery4756,"Yuyun Eri Indriani"
4365835426,teuku_rafa27,"🇷 🇦 🇫 🇦"
6608605858,rickyaicha,chacha🌹
1577436152,ana.piu,"Nurhasanah (Ana) 💖"
1473295081,ramarhupi,"Ragil Marhupi"
3056405709,devina_oktaviana44,Deviii
10473024708,dandi_faisal_22,"DANDI FAISAL#"
7963688041,nanda_fn2,Nanda_Fnproduction
11220227625,rizkifaudzi,"Rizki Fauzi"
203158975,goandexplore__,"Go & Explore !"
11831852398,_breastmaskshop,"👄 PERPECT BREAST MASK 👄"
7870801222,mangocase.id,"𝙈𝙖𝙣𝙜𝙤© 𝙋𝙧𝙚𝙢𝙞𝙪𝙢 𝘾𝙖𝙨𝙚 | ₑₛₜ ₂₀₁₈"
3283169701,ahued_r,"ahud roelyana"
2218710198,zulfikri2122,"Zul Fikri"
8295776193,diana_nurela,ela_nurdiana
3321174030,silviariski4204,"silvia riski"
2013605729,dicky_noras,"Dicky noras habibi"
1467686512,ayunifauziyah,"Ayuni Fauziyah"
5324777081,cacamariccaheyhey,
11928238017,officialmixshop,mixshop
8587575484,tiyamilicollection,mytacone
11539587032,phutryrahmadani,Rahmadani
