Userid,Username,Fullname
1960308424,dheamarta99,dheamartarizkianaputri
3040481173,danikaakhf,
1158176284,k_miiko,
9664626991,rizk899,kusuka
7177328712,sriandini497,Andini_
2316805105,sellysaa,"Selly Anggraini"
488074680,djulaikha_s_ikha,djulaikha
12166737307,rachelhanum39,"Rachel Hanum"
3863421726,agen_properti_syariah,"Agen Properti Syariah"
268889312,wulanseptiandari,"Wulan Septiandari"
10432302170,muhammadfatdli1209,"Muhammad Fatdli"
1530081606,el.hadiid,"ghifary el hadiid ibadurrahman"
11918333802,lennimarlina724,"lenni marlina hasibuan"
5961862939,vinz_apr,v1nz
11093904216,rumahnyonyabekasi,"Rumah Nyonya"
9221345238,lailatulmaulida320,lailamaulidatul_hasanah
9172678582,alfarisimhmmd__,"F A R I S"
4049659405,rakita.id,"Diffuser Essential oil"
11943247865,nurrahmadprabowo,"Nur Rahmad Prabowo"
3873434574,sholihin2609,"ZHOLIHIN  Zholedarr...."
8502991585,puttrii__123,
12110852434,bagusabdulmajid015,bagus_Am015
608224551,haidarshafi,"Mohammad Haidar Shafi"
2119821533,rizachoirur21,"Mochamad Choirur Riza"
1935464571,rezkyanto.s,rezky
1554946519,achmad__rudi,"achmad rudi"
968485186,kangaryaeka,"Moch Arya Eka P"
3523474507,salsadwf,"salsa dwi fortuna"
300929233,videlcastro,"Videl Castro Gucci Annara"
204408303,kelvinsuhadi,kelvinsuhadi
7868838826,yusrnhgr_,muhammad
1789910815,aa_fauzy10,"Fauzy Ahmad"
6839907521,abdumalikardiansyah,"Abdu Malik Ardiansyah"
2349100999,gentarizky.a,"Genta rizky Alfaridzi"
8173362923,yaniwulandari13,"Yani Wulandari"
8713002353,sitayess,"SEHAT LANGSING CERIAAAA"
2092144164,faldisalim,"Faldi salim"
7290286261,itz_yanti_angeline,"yanti official gacha"
3897824490,cahya_ins,Cahya
1447318537,imannllh,Iman
2533148139,sussy.sweet,"Sussy Sweet"
1372945929,_nirsaannas,Ans
8579710024,pradanaaa21,Dans
6102909517,abdullukman17,"Abdul Lukmanul Hakim"
9743794579,rakhmat_agoeng,"Street Photography"
973489360,siskapadang,"LUSIA (siska lusiana)"
7012548976,defipermatasari27,"Defi Permata sari"
23979652,aditrizki,"Raditya R. Muhammad"
10095202271,meldasyahaprillia__,Meldasyah
1768842396,arvianisugiarto_,V🐝
