Userid,Username,Fullname
10622834214,ayulinda38,linda.ayu
9733318987,dew.creamhn_medan,💕BISMILLAH💕
1576325280,safira.princess.elmo,"Safira Benjuber"
1755063401,ishaq_drr,"ishaq darmawan"
8166814778,azaramayta.p,"Meita P"
6706801895,ariq6117,"Ariq Naufal"
3185822612,nuhansutanto08,"Nuhan sutanto"
7451758516,isee_ue,Isee_uu
4673216665,arifkhoir01,"M.Arif Miftakhul Khoir🔵"
2229233943,sultanteuuku16,Sultan
1535283246,ririndevianerachmawati,"Ririn Deviane Rachmawati"
9933443859,vhaysharmaa,Veck
5457119281,kharis_thungthungblues,"KHaris Thungthungblues"
2808501005,rw_sugara,"Rangga Wirya Sugara"
541879035,rizkyrmdhnty,okik
27547696,vorilya,"Vorilya Christina Taroreh"
4776700594,bang_jecx1508,"Joko Prasetyo Putro"
1620303492,novrianto08,Novrianto
296743756,kae.cp,isi
5789677140,lizaborsin,"siti nurhaliza."
8445234991,dnut_7b,"KIA A.R.M.Y"
1451509349,unieaceh,"Unie Aceh"
1910044974,zuraida_aisyah,"zuraida banun siregar"
7892861994,raudhotusyafni,Raudhotusyafni
7278129090,uus290589,uus
5703088216,vandika_otta,Ika
8726196002,l_nazaretha,lemuellanazaretha
1570142551,_jwita,Juwita
8518196555,filtakistiantii27,Filtakistianti
3265894262,sari_syahuri,"Sari Syahuri"
3998246660,nisaetus_bartelsi,"Surya A"
2129474542,nandamiranda17,"Mrs.Nanda Miranda"
1491100379,atikasiregar23,"💕 بسما الله الرحمنا الرحيم 💕"
4186639041,arfah_ariss,arfah
3003492203,kendy_prayogo83,"kendy prayogo"
3297304807,apriliaenimas,apriliaeni
6109505314,munifahashfii,Munifah
2013707584,fanuel1907_,💀ⓕⓐⓝⓤⓔⓛ💀
1616776531,indah_herlinda,"Indah Herlinda"
2431754899,lindawatyharum,lindawatyharum
2112514172,widhyatumangkeng,"Joyce Widhya T .Tumangkeng✨"
2213227332,ainun_parlaungannasution,"Nur Ainun"
1474873004,iqbalozi,"M Iqbal"
1424081452,natashamoshee,Natasha
697802902,adindarizkaa,deen
2113226477,chacipta,"Ca Satria"
3646614898,rizautari59,Rizautari
1818399851,prima_pim2,"Prima Okta Melina"
1502749112,rismaaruan,"Risma aruan"
1478670500,muthiaellyana,Muthia
5461519426,cindy_ajah02,Ndy
5995268981,adefitria1314,Adefitria1404
1642075161,yulandidarwistrg,YDTarigan
1392022811,awwizii,"Anisa Wijayanti"
1421759073,eli.cristina.52,"ElLy Christina"
1764967229,sri_damayanti_napitupulu,Ryandrew.Mommy
6838859067,neng.melia.33,"Neng Melia"
4717918779,shintya_rizky.w,piiii👻
5396063178,obbie_gumay,"Obbie Q Gumay"
1614283524,heruzulkadri,Heru
1462747451,sushe.midwife30,SusiHartuti30.amd.keb
951244670,dheameliay,"Dhea Amelia"
4064393239,erni_yunita93,"Erni Yunitasary"
1540398022,millatihanifahmarta,
802450812,aya_leea,arianitalia
2082549791,tinacmumutzha,Tina
1636767236,muliavidasari,"Mulia Vidasari 🍃"
9620882345,zhafzhaf1,zhafira_farahiya
6738164184,riyanti_1292,Riyanti
3249573390,17annisa_,Caa
1762788529,olshop_flora_,floragallerie43
6758907862,__del1,"Adelia Rahmadani"
6821779114,_kurangnutrisi_,
1275652601,ayusyarif,Uted
8572217725,ukhwinsalim,"ukhwin salim"
1712126638,amalia_khazana,
1662350931,mrizkihabibullah,"Rizki Habibullah"
8494935373,maruf13170,Ma'rufsyarif13170
232389129,medyilhami,"Ilhami Medy"
7664735023,trisuci39,"Tri Suci"
1953830477,tikaaa_09,"Yuliana Sartika"
348234986,fandy.alv,"Fandy Alviyanto"
4065849141,ulumzmiya,"Ulumz Miya"
1921506326,citra_adliani_ciiciit,Citra_Adliani_Cicit
2105127438,rizkirahayulubis,"Rizki Rahayu Lubis"
214548003,utaridwimargisuci,"Utari Dwi Margisuci"
3616356021,situngkirlianty,"lianty situngkir"
3407138916,atini_henny,hen_ny12
1812441513,litleghost,fw
2135918314,syahputrahadikesuma,"Syahputra Hadi Kesuma"
2065737716,ayyu_anda,gadisayu
6437963697,monaa.lisa.1293,"Monaa Lisa"
4574631519,ratrinoviyanti,"Ratri Noviyanti"
1100924716,lince_rr_richael,"rrr richael"
4001319794,dee_arest,"M. Dian Deariesty"
6191969875,syukurraccerkids82,syukurRaccerkids#96
4043813676,jocelyn_chen_28,"jocelyn chen"
1453262536,ririnahmadini,"🌹Ririn Ahmadini Lubis"
2219922088,francis_bians,"Fransisca Bibian"
1719898178,yusni_barus,"yusni barus"
8594658017,maharanizainal123,Maharani
3982770709,ayuandira69,"ayu andira"
1826917777,fina_frisdianantaa,nafina
6108759408,srinoviati09,Novia
4274506712,lisazheant,"Lisa zheant_301"
8313922144,echahashebuone,"Echa Hashebuone"
3837050287,herena_tania,"Helen Tania"
1651157513,fahrul_zulfi,boy
918040670,dillaariesta28,dilla
5588763109,fawasmuammar_26,
4910823941,rikayulia_rr,"Rika Yulia"
2127644827,rimta_nangien,"nila rimta nangin"
1822119251,maria11christina,"Maria Christina Sitepu👸"
4223739567,darayunita07,"Dara Yunita"
3934262113,yusritayanti,"Yusrita Yanti"
8929581452,ririskiaririskia,Ririskia
4775131955,helenriskapurnama,"Helen Riska Purnama Helena"
2112658821,faisal_osro,"oka faisal osro"
1325901750,yulidaaaaa,Yulida
2052312139,choi_min_rin,"Dina Faradisa"
2318814428,chacha_chairunissah,chairunissah
1763376557,sairo.siagian,"Sairo Siagian"
8295664057,khairani_najliya,"khairani 😋"
2327561138,saridiana11,"puspita sari"
1341029948,fhaa.22,"Fadia Rahma"
3948765765,henisumanti93,"Heni Sumanti"
2363764936,erlina_wt25,
10343326591,fitrimegawati02,Fit02
3708867952,adek_irin,rininta(irin)
8510313965,meonmine.id_,"MeOnMine Indonesia"
628615397,sintabelina,BELIN
8644814768,syarifahsukmaelyta,"syarifah sukma elyta"
4319214439,dewireginalubis,"Dewi Regina Lubis"
4622884727,irsyadrmdhan,"الملك ارشد"
1242166788,elshayulianti,Echa🍫
341851733,vickyss25,"Vicky Salma Sa'idah"
7528632495,sutriana1543,sutriana
1942167291,sriastuti201594,"Uty Chaniago (SriAstuti)"
1743775573,mentaririzkira,
5572832449,juandasaputra5967,"juanda saputra"
5384190745,rahmayusptni_,"Rahma Ayu Septiani"
2158936376,fadlanisaima,"Fadlanisa Ima"
5758149521,septiaa_97,septiaa
2160560502,miajesicha_sebayang,miajesicha25
2073888554,_dellanvtsr,"D E D E L 🐵"
9219198611,arjay1909,Dera
6317587242,yaathi_chiepy,
5522557735,nikenaisyahhh,"Niken Aisyah"
334963675,adenafredella_rosse,
1310131245,sarahdmiyoeng,"Siti Sarah D'miyoeng"
1466434204,bambangsetia_wan,"Bambang Setiawan"
4287167569,rgt.mla,M.L.A
6730169487,srianggriani17,"Grosir kecantikan & kesehatan"
2013015508,panda_pbc,Dj_panda
1581049240,rolingsaimon,Roling's_💕
8905020805,shimizuiissulaiman,iiswekhasulaiman清水
1200948848,syaaririqky_,
5557619875,serirahmah,SeriRahmah
2281525380,queencollection21,"Queen Collection"
1693244394,dwiearima,"Dwi Putri arima"
9286377554,sohanturi8399,hasbi
8256622400,nawa_kurniawan17,"Y. Nawa Agneswari"
7276032887,pana11056,"ana patricia ohoiwutun"
4359851798,niarimut20,rezaputra
7442690359,bundasyifasyakir,"Bunda syifa syakir"
2430753611,dya_dr,"Helina Yusfardiyah"
1980952886,p.anandasalsabilla,"PUTRI ANANDA SALSABILLA"
7593585222,intanagencyy,intan
1975006613,dinatine07,"Dina Agustine"
1570761771,sucilutfiyani,"suci lutfiyani"
1652034465,muhammad_muhathier,"Muhammad Muhathier"
854297522,mariagoreti007,"Cupcuap Goretti"
227680587,khairunnisa_jafar,"Khairunnisa Jafar"
2207457851,sesiliawina,
1628687985,melfaa21_,"Melfa Sarief🐼"
1490958892,emyu_mz05,KAIZEN
289484425,made_tresnayana,"𝐌𝐚𝐝𝐞 𝐓𝐫𝐞𝐬𝐧𝐚𝐲𝐚𝐧𝐚"
7649769187,nendyaput,Nendy
3146638852,trinovitarita,"Rita Tri Novita"
1039333274,ninie6994,Rinimahli
5784155118,echa7777,echa
1712509356,donasalwa_,"دُونَاسَلْوَ اَحمَد شَكرَنِي"
1493478534,syahdi_azhari_mcweddingmedan,"#Syahdi Azhari_Mcweddingmedan"
1249217185,wulanfilansa,"Wulan Sari"
9388233140,maharanisafitri095,"maharani safitri pulungan"
8296493532,htrevisia,"Hany Trevisia"
5738422273,dindhacapah_13,"Dindha Capah"
2075869142,rivando_sembiring,"rivando sembiring"
1551008442,nda_azqha,"Nda_azqha ( Real account )"
1680340258,chairunnisa8,"I C H A"
3260388281,tariboediman28,"Tari Boediman"
4360984836,jamin_ludin,周添男💪
3606689910,sillviadian,MUIN
2213729805,febby8009,peppy
3428053908,welaferyanto,
1903367369,arf_fathurrahman,"Arif Fathurrahman"
10236611285,ronisaputrahidayatullah,Ronisaputrahidayatullah
4240674319,petraompu,Bangpet
2213839661,muhammad_indra00,"muhammad indra kurniawan⭐"
1321696612,csahla14,"chairani sahla"
3288129455,dianharahap90,"Dian Hrp Amkeb 💉💊"
8043620126,nabillanaabila14,NabillaNaabila14905
10347553510,novitasariramadhana0,"N O V I T A"
8549874290,vieeecha,Vieeecha816
7395150562,sakinahrahmahh2,"إبدأ بنفسك"
3006996637,renhad_tampubolon,"renhad tampubolon"
4230410289,real_putri98,강아지
1821693824,hafifah.hf,
6741431226,pratama_harvey,叶汉龙
3439007933,raja_rifa24,"알리 우트 무르 타다."
3273566654,kikyrosifaagies712,Ky
3148337849,aapril_jiluw,Aap
1596629199,meviiia,"Mevia Sekar Ayuningdiah"
3447451924,conyeckristye,"Cony Cristy Sihombing"
1985567451,mahardhikaa24__,"patria kallis mahardhika"
3998032781,putriindahwijaya_20,"putri indah wijaya"
3699445144,fitriyah_dw,
2632678117,nurul_khairani08,nurul
209354204,kikikipok,"kiki wahyudi"
8988070939,pundak_lutut_kaki,
4167367481,arya_schatzi,"Arya al-hafizz"
5756682628,deaanandasafira,Deaanandasafira
4431496163,zriey_azcihh,"Zriey aZcih"
1100589868,yolandawulandarii,"Wulandari Yolanda"
7148887868,egyfahmi,"Egi Fahmi"
1923857993,ummu_10,💞💌💕
1386683883,novirisalnrdy,Opi
1719980948,afifaaau,"Afifa Ananda Utami"
6535934964,fauziah.adinda,"Adinda Ramadhanti Fauziah"
5740962872,kikianggriani96,"kiki anggriani Amd.keb"
1323740687,maiia_bhawell,"Siti Umayyah Kafi"
6822900567,tiarakaris13,"Karisma Tiara"
1620668612,ardimtd,"ardiansyah putra matondang"
1069716551,sampurna_hsb,"Hsb Sampurna"
6776537545,afrianaafny,"Afny afriana"
4042332454,rikafitrihs,Rikafhs_
5332890056,madyarezaalzikri,"Rezaalzikri Madya"
4455615698,andy_suker,"Andy Andy"
410594104,fitriawindhari,"Fitria Windari Barus"
5480299946,rinide9572,"Rini Delsiani"
2219740115,yuliacitra29,"yulia citra"
1442810709,arianantamahesa,arianantamahesa
1363676989,lilisindrayani18,lilis
8914158517,rahmalubis_skincare_and_beaty,RahmaLubis_skincare_and_beauty
6928014943,wulandariviaa,Viaa
1916254733,sevywining,"Sevy Widianingsih"
2894390202,tyasmohi22,"TYAS INDARTI MOHI"
1912677203,mardhatillahlubis,Adhoillahlubis
4030690579,fera1079,"fera damayanti"
1230738900,a_dipoyono,"Ajie Dipoyono"
3500745282,nuraqilla_92,nurakilla
9310848801,mitaanggraini8,Mitaanggraini
8065960325,kiranty_habibih23,
2300141136,rellafirma__12,"Rella Jangkar"
2107222315,efriansyah23,frii
3896537674,fitripujiani25,"Fithree Al-Fegundani"
6652132371,patrick_hotstar,
1721898312,shara_lee_bako,
537929338,citracitra29,
5636000006,casemurah_lampung,"CUSTOM CASE IPHONE"
2160708575,putrip.23,Putri
51137859,pessydebora,Pessy
4210862982,pujighea11,GEGE
6333329308,putrii_dolarr,"Desiiy Ulbiezz"
2366905382,triaulfaafrina,"tria ulfa afrina"
423837195,rani.purba,"Maha Rani Purba"
1695364797,zaini_pane,"Zaini Pane"
3046453570,alika300915,"The@lika Online Shop💕"
2985924850,lydyaaaf,Virgo👑
2089843406,jiapasaribu09,"Fauziah Nur Br.G"
6727385670,fonianggraini01,"F O N I"
6904662234,uciiasrulia,"Ucii Asrulia"
4090017475,collection_weedo,"memeber of golversatile"
3280312629,_sindiimrtl,"Martalina S."
1651791662,ddhiean,"Dian Novita Sari"
4203535673,rokhmatunnisa96,Nisa
3901358807,windarizky_shptry,Puput
4467295081,_gusdepa17_,"NAMA:IB.DEPA TRESNAYANA"
1563040745,windahan17,handayaniwins
1461781565,ariful27,"Ariful Hakim"
4912489604,elisa_yusmani28,"Elisa Yusmani"
7002818993,fiyan_bhodenks,FiYan_BhoDenk'S
1507832223,hadigamers,"HADI WIBOWO"
406063467,waashilah_,"وفاء وشيله"
5601206022,indonesi_me___,Shilvie_vk
2229180972,azhyazwy,"azhy azwy"
7389503252,hahaha_ntah,"siapa ya"
3995123568,jihanadilla09,"jihan adilla"
1500410368,rantikadwiutami,"Rantika Utami"
9284214903,lalatiara48,tiaralala
4351978623,dita_anggraini25,"Dita Anggraini"
3324157728,geovannieliadi,
2305041647,bundaseri98,MAWARYANGTERLUKA
1309823873,yantispr,"Yanti Sianipar"
2330532794,isti1912,"Isti Anathul H"
5692615494,intanpratiwi09_,Intanpratiwi
3423019833,rani.lbs,"rosa rani👑"
1293956182,riani_ernu24,"Ria Mardiani"
4181815814,ika_hwibeautycentre.id,
2871492780,ibnu_khaidirsyah,"Bayo Regar"
1468751940,silviarahmayani,silviarahmayani
6318632997,jummiana27_manurung_,Jummiana
5683056943,astrietarry,astrietarry
3242440456,jenny_ajjah,jenny
8411303928,kikoshop.id1,kikoshop.id
4488841045,aiiteaa26,"Ella Nurcahayatii"
3272990432,kikyrizky1008,Kiky
2295716060,wisnu_borok23,"Wisnu Syahputra"
1904463608,richard_p_simbolon,richardsimbolon
1372160174,mnando22,"M. Nando Harahap"
2223469535,nazmirohmalianasution,"Nr. Nasution"
1446109070,musyarofah_kubro,"Musyarofah Kubro"
1387801359,muzakkirkhalidin,zakirrrrrrr
1360633047,paulabasella,"Catharina Paula Basella"
1440018913,arienha03,"Aryan DyLan ALghaisan Martino"
8503120341,nurul_syifa_27,"Nurul syifa fadillah27"
6513862483,f.hanumridwan,f.hanumridwan1499
5588277849,simbolonerni,"erni simbolon"
1195158200,ablenkprecious,"ablenk to see"
9182963477,irwansyahkifli,@irwansyahkifli
8071324671,jannah04083,jannah0408
6865334663,dwiagustinpp,
3485278061,nurhasanahginting11,hasanah.ginting
1076168045,tinatrh26,"NurkarTina A Tarihoran👯"
1707545980,leodinathaalfarezy,"Kak Ezy 😘"
2134540881,ayumitawidyaa,"Ayu Mita"
7402131099,zndy_57,"ferdian zendy"
3555035622,dee_naura,"Dee Naura"
5899321496,roy_ridho88,royridho
1910541581,rahmaniah4576,Rahmaniah
4282377128,ksyifa_nadya,"Syifa Nadya🌸"
2100327510,lisaapriliana_,lisa
1913353592,oktariyanti_kiky,Oktariyanti_kiky
2833943645,fritzcoalex,"Fritzco Alexander"
1448227620,fudotaka_indrii,_Apothecary_
3470017975,aleta_lethisia,"Aleta Lethisia"
2027041411,rami_novia,
7627460831,ramadia_1,Ramadia
3720653670,bachdimmarwa,Dona
3533082900,rahma_gmfa,Rahma
3621948428,maunyku,"Ukhti Fafa"
267795030,sanjungnansi,"Sanjung Nansi Nainggolan"
3076544201,hidayahfandy,"هدايه أفندي"
417944122,ehfaradina,"Faradina Ervia Hardianti"
1646596838,wit.anggraeni,Wit
2538870647,edhusiagian,"Edhu Cristhian Siagian"
1661295507,chabrginting05,"Annisa sherlly Brginting"
1284575568,fazsalandayani,"Fazsa C Landayani"
4606216260,ell_ardiyanti,Ell’s
10404599998,kaki.kursi,kakikursi
5570611911,rara_0211,stazzyhraayrsz
4464284549,ryanrudiyansyah_,RyanRudiyanSy
4438180411,abiyyualfian,"Muhammad alfian"
2914464807,mirnamaylani,M=M
1822207205,erykadeswitha,"Eryka Deswitha Sinurat"
1919954633,putri_fiyansyah,"Ananda Rodiyana Putri"
8194732245,rohmattcomott13,Rohmat
4262870568,aqilla_rezky,kila👸
1508819590,hiraniinehiraaa_,"Ine Hirani Nurul Hikmah"
1705939180,rinarebia,"Rina Rebia"
6772342602,sindyy.14,Sindy
6219273124,davinlius,Davinlius
5409810266,mrs_romaito,Roma
3801225813,estellachrispina21,"Estella Chrispina Situmorang"
7979072494,lizanrvt,"Liza Nurvatimay"
240428562,saragihfrisk,"J.P Friska Saragih"
770767626,kusuma_rajasa,"Gede Kusuma Rajasa (Dekus)"
2960544962,azizahrahmaputri23,""" V I R G O """
2094295489,rizkisafitra_sulistio,"Rizki Safitra Sulistio"
1826845119,heyshaferonikasiregar,"Heysha Feronika Siregar"
4265423378,patiung_06,"Fita Palmen Phatiung"
2324574904,liria_tarigan,"❤ JC"
3647440930,sitiayunindira021,yuu21
3259340424,triwahyuningsih_26,triwahyuni.
10383005473,aurelia_lubis_aurscadya___,"aurelia_aurscadya 56"
2160048778,mohdichsanda,isan
3411068608,delvid_indrawan,"Delvid Indrawan ⚓"
3236249419,0hanny,"O'hanny Wulandari"
1406907763,ulysw_,"uly santika wulan"
1352719018,dewifatiha,"dewi fatiha rizkynta S"
8328876754,adisypratiwi,adisypratiwi
6737501913,nadhira_z.r,"Give me a memory i can use"
3552913579,hadiprasojo05,jojo
5564003758,nabilarayhann,
2305617997,tiaraarifanny,"Tiara Arifanny"
10083352955,nurielhaniah772,nurielhaniah772
7791379343,pllagia_,"Paulla Gia Erra Dhitya"
3137542028,evasolinasiregar,evasolinasiregar
8889111273,katon_bk,Sucinrhdianti
6115669834,yohannestogu,Anes
5358834008,yuanitaalya,Alya_Yuanita
1829161876,umasinta,Umasinta
2188420333,novymartharia,nouphy
428707171,andirofiahh14,"Andi Rofi'ah Iffayana"
5064078843,erycilladilla,erycilladilla
9907482536,mymamaparfume.shop,mymamaparfume.shop
2346914575,achild29,ACHILD
9180442058,fem_eka.andayani,"Eka Andayani"
2377142193,mgeovannyr,"V  A  N  N  Y"
3589672260,maroonbit,heartbeat
7814963470,sri_ayuf,"sri ayu fitriyani🌸"
6980809252,nayla_zahra_fitria04,"Nayla zahra fitria"
2045700275,aafripratama,𝔸𝕗𝕣𝕚𝕡𝕣𝕒𝕥𝕒𝕞𝕒
1286256788,yuyun_1995,yuyun
1530032148,fitri_kekeyy,"Kalianda Lampung"
5492939781,novita_arifinarifin,"ENDANG NOVITA SARI"
2243815807,peni_juniarsi,"Peni Juniarsi"
2296842936,hanny_pratista,Hanny03
1712401119,ekha_safitry,"Eka Safitri"
2033537029,dianoktaviany10,"Dian Oktaviany"
3060645807,rikaamel_lia,"Rika Amelia"
2251241718,agung0831,"Agung Prasetyo"
1918731382,rizalmunjab,"rizal munjab"
8275831406,salma.catherine,"Salwa Maharani ( SALMA )"
1653165402,triaadinda93,"Tria Adinda"
8986583254,fahry_iyenk,dwi_anggara
7574163650,mrs_melly9,"👻M E L L Y N D R A👻"
1486534516,lialatipah,Ly
2329009175,cici_mama_syahira,
4336163359,dyahayu_dwi,"Dyahayu Dwie Haryanti"
3266342294,penggilarindu,"Penggila Rindu"
3640310456,isni05,"Isni Apriliyanti Sutrisno"
2227563782,ciatedjasukmana,cia
1547210424,eka_sri_suliyanti,EkaSriSuliyanti🛩
3628028801,angeellcaa,
2197223927,riskaarisandi_,"Riska Arisandi"
3461920714,nadia_fsb,"Nadia Florenza Sembiring"
3200404016,arenghaidhayhani,"Arengha Idhayhani"
1540553160,ichakhanisa111,"icha khanisa"
4921247304,avenger8899,avenger
5878159567,fckustdog,
5826789505,anjar_kiky,"Kiky Anjar"
2810208379,putririzkyananda_nasution,"putri nasution"
1688540278,anna_damanik,"Ana HFM"
1416602038,muhammad_adilta_sinulingga,madilta's
5457607263,nila6887,"Rahma Nila"
3300356499,adjipribadisukma_,"AJI PRIBADI SUKMA"
2053893081,xc_anwaree,"Saeful Anwar"
8091843960,a.p.m_dewisartika,"Ayam Penyet Mertua"
1514531927,fajarguntur,"Tuy Muhammad"
8262051265,nurrul_vakker,nurrul
1665602087,ahmad_fa07i,"Ahmad Fauzi"
2357879849,iwi_tanjung,"ComeL Shop Iwi Tanjung"
4306858659,ditadaaa_,23&azril
3559907754,gsale.07,"Masyita Nuraini"
4085467369,diansatari19,
815702177,ajeng_tanti,"ajeng tanti"
4397886738,ramadhanie_12,"ramadhanie 💍"
3930425694,brayensanglise23,"De Van de Brayen"
476126958,rickyalfian,"Ricky Alfian"
4836702712,wenidep,lira
1475857533,ekahardiah,ekahardiah
4112577923,amalianesya21,
2927074035,nacific_plg,Nacific
7406435636,allian_10,"Allian Rahmawati"
4152547256,inadwiputri,Ina
1471965290,rhy.fitriani,"Fitriani Rahayu"
7423893391,dilla_store_medan,dil'store
5572120198,syifasyahrh_,
344451320,rafiarahma,"Rafia Rahma P"
2052082069,syahban_chakti,syahban_cHakti
10085293839,cianylq,"BTS jimin❤"
374690854,cindythamira,"Cindy Thamira"
3895289590,ranyhenna,"HENNA RANI GULTOM"
246918959,irvanrapra,"Irvan Rahmadani Prayogo"
2549500270,ayuz.leo,aywi
2071787320,mayafilsia,"Maya Filsia"
7121091321,zhfirangt,
6196521325,gmichael32,Gabriel
5124402790,tampubolon.alex,"Alex Fernando Tampubolon"
1758859969,nyonyaima,"Hikmah Fouzliana"
5107819394,sandradewikartikaa,Sandra
3244937672,marriagarciaa,Grace
648648859,dianaafri,"Diana Afri Purnama II"
3474505208,restumutiara96,"Restu Mutiara Handayani"
6009775106,desiipuspitaa97,desipuspita20
3582648109,rizkia.nitaaa,RA
1536309301,rikafitriyanti22,"Rika Fitriyanti"
2116080283,rizkifadillah11,"Rizki Fadillah"
7859450550,nrhyti.aa,
7126384389,rpmvincci_oribrand,"VincciStoreKisaran 👡👠👜👛🎒👓⌚"
1252452328,rafael_devin,"Rafael Devin"
1825034562,siskaelfitria96,"سِيْسكأَ اِلْفِيْتْرِيْاَ"
2272952952,nurulalamnsy,"Nurul Alam Naqiyadtuddin Syah"
8540583369,raniiiiii2,khairanii_2
1638385269,cindrasyd_,"C I N D R A  F I T R A  P"
1752420567,ruthputrifortunanadapdap,iyut
7091459473,mayasuryanadalimunthe04,مايا
1531186143,isaac_alessandro,"Ap carik kk?"
5648069712,feryfadlysamosir,"Fery Fadly Samosir"
2494204847,van_vannia,"Deasy putri cahya vania"
1089831391,vrithaharahap,"Vritha Harahap"
3480046828,cgk131199,ardiansyah
1960127337,febri_yohanes,"febri yohanes"
1338251363,novitarhyu,"Ismed Fauzan💍"
5464928255,fahri_rizki22,"fahri rizki"
1460416402,muhammadmaulana27,"Muhammad Maulana"
2463484752,litta_falery,Tata
366346558,nidya_andriani,"Nidya Adi Putri K.A"
4341857307,fitrizhang_,張曉彬
578801633,frans_stak,frans
7340714371,tiara_ahmad97,Ummu_Fadhil
1677029275,hilda.rabbitshop,hilda
1720222075,aza.annisa,"¯\_(ツ)_/¯"
646839259,wulanrenggali,"Wulan Novitasari"
5933479868,silvianggraini9360,ridho
1979895853,fakhranapelupessy,
1707165217,megaulandare,Meguld
3490611081,randihrt,Mr.AnD
3502162931,dimasadetia__,maseee
1783992295,pakle_mos,"Ramos ASW"
5493024923,dhessi_dhessi,DhessiDhesong
1631327147,lundyekanurlianti,"Lundy Eka Nurlianti"
1267192856,putri_handayaniz,putri
1613743924,noor_jannah95,noorhariis_J
8572037840,rzkyynsyh_,"K I"
3287930010,hrp_indah,"Indah  Safitri"
2098751579,masdalifah_andini,"Masdalifah H. Andini"
6565460657,laudzariadi,"Laudza Riadi"
4101583744,elkrnt,pipiwbkpw
6064489892,wahyuniumi31,"umi wahyuni"
1367735754,misdadevi,"misda devi"
8374788242,karin_al_ainaa,"Karin Al Ainaa"
2994460404,cathy.dimara,Jesszy
1459059394,jijinarga,"G-noet Argha"
7858729453,jihux__,"메 | mee"
2072801116,kumahasiaa_,"Jefri Naizer"
1463182768,irmakumala_s,"Irma Kumala Sari"
4148627453,doramilotus,"Dorami Lotus"
6036315354,oriflame_indonesia2917,ORIFLAME_MEDAN
3813309391,jonson_frans_sitorus,"Jonson Frans Sitorus"
3590762636,sofakamila_1698,"sofa kamila urba"
49614089,sheanggra,
4157565162,astrimusmelani050598,Astrimusmelani050598
3531868630,ratihminarti19,"Ratih Minarti_19"
6804928595,nonimhrr,"N O N I"
3664941337,veyak29,"vera puspitasari"
3180416622,izhardiansyah,"Izhar diansyah"
2101629512,efrirosdiana,"Efri Rosdiana"
4952042348,zetarto5,"Tarto Zryo Al-Hanafi"
2908512055,dewipinkyy,"Dewi Huang"
2261926926,ikasamsuriyani,Ika
4456221574,poetri_nietha85,"💖 Poetri Nietha 💖"
1225082264,tantija_,Tanti
1320097386,anggiamrdy,🌻AnggiMH
3219138465,anggunbella_,
2243161640,dindaraee,"Dinda, SE"
4703162762,dh_evoy_,Dh_evi
383273702,ikhsan_rahmadi,"Ikhsan Rahmadi"
8716129128,sabilamf,smf🐼
1101046652,bayicutee,"lidya acecia"
196356162,araa_novianti,"Martiara Novianti 🌱"
8448407943,prisyanasitorus,"Prisyana Sitorus"
1688823284,khie.alvira,khie.alvira
891080810,yuliani_linda,"LINDA YULIANI"
8184552576,wulandari_daris97,wulandari_daris
5413370354,meyllo,miss.xxxxx
1575616396,idapoetribahri,idapoetribahri
1568973481,fahiraclarissa,fahira
621888442,oliveviavia,"Margaretha Olivia Bhuana"
2282866071,m.reihanalkasri,"m. reihan alkasri"
1061190532,rifa.dws,rifa.dws
1932966680,yhuni_dwilistyani17,yhuni_listyani17
6838930232,rheaanggi,"Nurul amaliah"
5937024460,raynaann08_,ray
9428099828,ditanspaaaaammmzz,DitanspaaaaammmZZ
1750122924,trianuralifiani,"SOUTH SUMATRA, INDONESIA"
432081827,wlalsl_,-alettans
4567392765,mimihgiegwen,"junita aldino"
2987710485,jaylung91,JayLung
1456141401,tiesiregar,"putri siregar"
6097362685,monorabakara,"Monora Panca Bakara"
2244636170,annisatjg0401,"AnnisaTjg (AAT)"
8407490767,fnrshdt,FebyNurshdt
538883122,laryssaht,"Laryssa Helma"
3951746960,rinarizky713,"Rina Rizky"
2011448604,rvineria19,rezcha
5402560884,knisanggi,Khairunnisa
4090553406,ulfhasdnnurr_,UlfhaSdiannur👼
9363751014,dindptri_07,~DE~
2863085241,salwasyafirasmnjtk22,"سلوى سفيرا سيمانجونتاك   🦄"
319324434,saraasty,
6707347627,daffajidan01,daffajidan01
3240879493,thiny_hidi,"thiny aprillia#21"
1909833283,ari_hms421,"ari hms421"
10622849391,alshefarin123,"a l s h e f a r i n 💙"
2891291213,naylabila01,"Nayla Salsabila"
2336561687,mimi90_siregar,"Asmidar Siregar"
1722718267,tsyafy,"Anastasya Febi Younita."
3484420683,josephinepoach,Jeehan💐
8923748426,providensia48,Providensia
1761336785,mayasari1407,"S. Mayasari Saleh"
1614929336,weniguo,"恩恩 🖤"
4572490301,_anisaica_,"Annisa Yunia Wardani"
3151280332,julputt_,"Julia Putri Z.A"
1966876329,lineshop_intan,intan_Lineshop
5362070944,mlkapryla_,`Mulki´
3460809324,22_sitihajijah,"Siti Hajijah"
2843005840,orlds04,"Iranto Orlando Silitonga"
2109664900,alfianggriyani,"Alfi Anggriyani, Amd.  Keb"
551236019,littledragon_nury,"Nury Kazumi"
6298574825,dona_yuninta_120699,"Dona Yuninta Boang Manalu"
1729754315,devi.ephie,"Devi Octaviana"
1751700728,amalia.lutfiani,"Amalia Lutfiani"
2986693590,mjharahap1203,"M Julia Harahap"
2608142534,dwirajagukguk,"Dwi Oktarina Rosiannauli"
8451488405,agnesmaya,"Maya agnes"
1444715266,nisafitr,"Nisa Fitri Isnaini"
1431719359,ulfaislamiyah,"Ulfa Islamiyah"
3255682574,shadow_moon2626,Shadow_moon
5555868009,wanidongsisung,"fitria Aulia Ramadhani"
4007509740,vairusfadillah,"nur jannah"
3148274369,marthatesaloni,"Martha™️ (Tata♍'97)"
1473409893,yunitaandrian,"erza yunita"
2326597076,dvyuli_14,devi'yulianti
1512871428,yunitarevi,
702154867,mina_yinz,mina_yin
8594935239,mrcjstine,"Mrc Justin"
4258056659,nstputraalamsyah,"putra alamsyah nst"
8774129889,liawijiningrum,"Lia wijiningrum"
3215855673,kilashha,"ساشا شاكيلا"
1542334500,sulistiani00,sulistiani
3997995617,nuggysatriaa,Nuggysatria
1941402831,riorinaldobutarbutar,"Rio Rinaldo Butar Butar"
4578328487,rinahelmida,"Rina Helmida"
2075445387,araasmi25,"D.A Asmi"
2207195883,indahlaurenza,indahlauren
5565090747,putriayuamelia15,"Putri Ayu Amelia"
1980992883,artikameisinaga,"Artika Meilinda W Sinaga"
6286038359,shisi_aulia,"shisi aulia"
1605098711,rinaistiana04,"rina istiana"
6922464372,nuralinazwa,"Nazwa Nur Ali"
3093290678,dita.fadilla,"Dita Fadilla"
1986093510,lisberias,sibungsu😊😊
1961769937,daffahendrii,"Dassa Hendri Gudaffa 🗽"
9517533673,excelrajendra0418,excelrajendra0418
8978446078,nana_nada03,nana
1909882791,siti_rohmah07,"Siti Rohmah"
5402787895,aas_bakoy,"Aas bakoy"
1473584369,kheiycha,Cha.cahaya
4775790409,alvina.huu,"Alvina Damayanti"
4626149030,lanelois10,"Lois Lane"
3488079673,aulia_ramadhani93,"Aulia Ramadhani"
2960357622,nabilaraisha,
2213639543,zelfinaherman,"zelfina herman"
7015626990,mamapanjisr17,"ummi salamah s lubis"
2236393782,rahma_nia21,Rahmania
8951677509,indrianitari,"tari indriani"
8757822897,ayo_dietmayo,"Diet Mayo"
9925539432,lancario_putri,putrilan
7917666513,vhie_syakilla,Vhie
10501096113,realshr19,sahara
2003763236,amaliakiki214,KeRenDool
1811158461,chairulsubhan407,"shuban uwo 312"
4613781893,ramadani6465,"Dani Ramadani"
4119266478,hanifprasetio24,"حانىف اسحمة فراستىو"
3683204350,wulandanariawan,"Wulan dan Ariawan"
2180892975,entinkartini1,CINDIL
7552544482,diva_elsaty,diva_elsaty
1635417853,marisonpj,Marison_pj
5375066090,ninety_nine_hijabs,"Muslimah Brand Original 👍"
3519705197,simaa_azzahraa,"simah azahrah"
3140207447,baby_toel,butet
1560887965,restutitisari,"Restu Titisari Nugroho"
4538355010,achmadalfaturozyn,"achmad alfaturozyn"
2533106936,silviaputri.astama,"silvia putri astama"
2071011814,agita_defary,"Agita Marisa Br. Defary"
7741023994,elyaca92,elyaca92
4309982983,triimamhutabarat,"Tri Gusti Imam Hutabarat"
4780139949,olshop_medanku,"Etudehouse medan"
1924482309,july_hartaty_zebua,"july hartaty zebua"
1490106663,hitz_follower,"Hitz follower"
8529404979,nayla079,nayla07
3151513470,ela_sabrina17,"angela sabrina simanjuntak:)"
8221846018,its.me.quinshaaa,"Ditunggu akun baru ya!"
7964300663,humor_pilihan,"Humor Pilihan Mimin"
7103578384,egyscaa.rndt,Egysca
337328514,fashionbag_batam,"Suplier Tas Batam"
4838655572,thoriqnugrha,"طاريق نوغره"
6366390500,yodaa_haryanto_putra,"Yodaa Haryanto Putra 🐕"
1725839525,dianwulandari52,"Dian Wulandari Euy"
543809292,meegaii,Mega
466331795,marianeriyana,"Maria Neriyana"
4510391763,obattinggi001,obattinggi01
3628341872,rendi.sofyana,RendiOkto
2278537755,ajrinamunadi,ajlin
1239892385,nurulamaliah22,"Nurul Amaliah"
6916349084,dheaa_dr,"Dea Ananda"
3484726252,arifah_dinda,
1744241803,adindasyahputrisamosir,AdindaRezeki
1672989569,putra.rahmi28,Mimi
5344547733,novitazel,Novitazel
4277474844,lina_nst88,"Lina NoviYanti NstBreGinting.."
2351255422,juliarahmi24,"Julia Rahmi, A.Md"
8923460688,ameliaamelia105,AmeLia
2183342253,muhammad_alzik,"al zikri"
1441567686,angelinwiningsih,
6882002308,adryanmuhamadf,Adryan
2747836243,rachmad_raz,"Rachmad Na Suranta"
2133651505,tutut546,
6239360287,putriiii31___,🔥🔥💥
4668748629,putririzki3435,putririzkiananda
2266889014,syafaniaprilia1,
8125358127,arijs_mantap,"Ari Ja"
8679676047,khim_6556,Khim
1651824103,pitrafirmansyah,"Pitra Firmansyah"
7598383458,eruseftian,Eru
2377118157,fitriandriyantiharyoko,"Fitri Andriyanti"
4354882511,juliyanti_96,yanti
2059682542,iinvarlina,"iin varlina"
2032517038,rizki_ayunda,"Rizki Ayunda"
3038517084,veranika_yusuf,"Vera Nika Yusuf"
1356468209,ryna_bataher,Rynabataher
1035105698,nurulsadriahnst,
1524028781,melfisahanafiah,"Melvisa Hanafiah"
10194176215,zulaikha4483,"Siti Zulaikha"
9408042467,semuaadabatam,"Yuk Borong Yuk"
7138938560,nia.reza14,"nia novita sari"
6258910666,tuty_sumarna,
1924229335,ameliawulankrisandani,"amelia w.k"
4247230061,uni.usagi,U'un
2374023612,aldilizarazu,Aldy
2829736186,yanitriya17,Inay
1820501305,agnes_florentina_siburian,"agnes florentina"
2870029885,teguhamanda77,teguh
7790310093,putraritonga5,"Putra Ritonga"
1497395001,relvinaw,ria
1561169138,debbyzahni,"🌵 Debby 🌵"
5929537031,nurulaulia1104,
5437619012,jilvasimarmata,"Jilva Simarmata"
8126648451,nabil_wallad,"Nabil Achmad Wallad Jr"
7180754710,vinomh,"Vino Marcellino Hutauruk"
2066106674,athalarani,"Athala Rania Insyra"
2231677128,ievhovho,"ivo maulana sutan"
2118634693,dianwahyunigultom,"Dian Wahyuni"
9161275804,shallma.spam,shallma_spam
1402595491,triutharie,triutharie
9147974771,sellyclaras,sellyclara
7659498316,tiffany_soviana_tan,"Tiffany Soviana Tan"
9145912630,vera_yunia_,"vera yunia"
2518288688,maya_safitri269,"Umayah Safitri"
2239884800,rahmanhakim958,"Rahman Hakim"
1835723768,shindi.t,"shindi triandini"
318155413,l33_m4n,Eko
7400729716,hannystyless,𝙷𝚊𝚗𝚗𝚢𝙴𝚍𝚠𝚊𝚛𝚍𝚂𝚝𝚢𝚕𝚎𝚜
3405746606,laili_la,"L A I L A"
3217307285,hardi0910,Hardi
2345981970,yeny.joy,"Yeni Maryani"
4218496343,supiyanti.supiyanti,Supiyanti
4070664371,rayahanyeni,"Rayahany Eni"
2353663649,firstya_widiastri,"firstya widiastri"
1392972034,rhima_chit_cambolle,imma_chit_cambolle
9263139637,arman.3007,arman
3687481192,mutia_rasari,"Mutiara Sari"
268664899,propertymedaan,"info Hunian Medan"
1080246116,tambuncun,Tambuncun🤘🏼🍭
580213057,mulkan_fauzie,Mulkan👊
9139526897,enoas__,EnoAS_
4762035350,unanamira,"Una Namira"
3646306130,jelianaanggraini,"Jeliana Anggraini 💎"
2028507601,nanipfajriani,"Nani Purnama Fajriani"
288232163,rahmrrr.r,"rahma ramadhani"
1932369348,mahdalena.2110,Mahdalena
2337702362,sriherawati670,hera
545191858,anandafeby,"Feby Rezki Ananda"
3242098305,kannza.dewi,👑dewipuspita
2014279863,astari_harahap,"Astari Samora"
1916125209,indrie_zelvy,"Indrie Láska Želvy"
6755446561,helganaibaho97,Egaa
3093579873,putrinilamcahya41,"putri nilam cahya"
2217644597,trikusumawatil,"Apriliani Tri Kusumawati L"
1925428531,putraindrapratama213,
8530718210,verirahmat073,"Nadira NW"
3021838534,ayuwulandari33,Wedek
1734315259,diah_asr,Dyah_asr
1820517351,maghfirarahayu21,"Allah beloved🕌"
7702422084,koplak.id_cc,koplak.id
6722277599,mila_laila,La
3872003143,lhmlamtiurhutapea07,"Lhm Lamtiur Hutapea"
9793961633,vevidwiapriliana,"vevi dwi apriliana"
3871419696,ekadewiputri30,"Eka Dewi Putri"
2641088232,dini.ameliagabyani,"Dini amelia gabyani"
1481849209,ikesepthia,"Ike_nya Heru"
3974495120,halimahamd015,halimah
1566308017,tami_siddiq,"Tami As Siddiq"
1793507371,vaniandraini,"vany andraini"
6896743157,noviarahmawati9_,"N O V I A"
8105311420,queen.nisya1,
3276869736,zii_ilyas,zulaihazee
1513582238,eirenearitonang30,"Eirene aritonang"
1592872726,adesiagian90,
2096722035,suci.khairun,"Suci Khairun Nisaa"
6849073482,sherly_ftriaa,"Sherly Fitria Andini"
2138626261,indahayuni83,5fd0bbff
7380538378,miranda.cika,"Cika Miranda"
1541077623,jordan_eklesia,"Jordan Ecclesia Purba"
358800197,nosonde,"Nola Soendang Dewi"
668568008,d_k_l15,"Dwi Kurnia Lestari"
6753117411,aslam_sym56,"aslam syamlan"
2133152347,mey18_rumiatii,Mey
1212706439,yessigasela26,"Yessi Gasela Sitanggang"
4246879214,elviinaroza,elviinaroza
2903854431,evaanggraini775,"ايف انغريني |VaaShd"
1401252148,intan_putrhieradisty,"Mr.budi Prabowo ❣️❣️"
3428462167,trianaerlin,"Erlin Triana"
3045938148,rahma_rahadi,"Rahmalia Rahadi"
1701347583,ghy_ayu,"Mugi Rahayu Ningsih"
6586746960,edysyahputra02,Edysyahputra02
5998936505,sarahsarah5981,Sarah
4005150372,kartikaanggrain48,kartika
2339331113,lusitasiagian,"Lulu Atisul Siagian"
1747125521,vennythepooh,"Venny ThePooh"
4631148281,fitriani493,Fitriani
4629961730,dewiahmad0206,dewiahmad0206
3404323720,wildanafika,wildanafika
1913657822,dimasandikaaa95,andika
3066886257,rey_sitompul93,"Rey Adolf Sitompul"
1539485853,darmansaidihrp,"Darman Saidi Harahap"
2135418310,megawindutami,"Mega Windu Utami"
958319238,milasrikesuma_,"Mila Sri Kesuma"
1268919207,defina_sudirman,definakina
1463380157,_qotrunnadaaa,"Qotrun Nada"
5392111864,hnspirulinaorimedan,"HN,Tabita,Spirulina READY"
2012642861,salma.yusuf91,Salma
1245248419,ghinazahidar,"Ghina Zahida.R"
7352009875,khairulhakim2443,"Khairul Hakim"
2190084188,lilaassyiva,"Lila As Syiva"
4970803288,m.luthfii_,"Luthfi Al-Ghifari"
1088975900,sucinovikasari,"Suci Novika Sari"
6850891298,eriyantisyahfitri,"Tisya pohan"
1520542020,linda.restuvara,"linda restu"
1449540986,niatia15,niatia
6059077996,dwitaniyah,dwitaniya
2949559643,wanda_farah,"Wanda Faradiba"
6843479081,deliamaulana.1,"Ude Ulijanna"
1332928881,siregarrosa_,
6064034115,meimei8031,"Melani ms"
2309252655,muthmainnah_putri,"muthmainnah putri"
5630405130,urllycansera,"Ully Cansera"
4343789710,elvira_zevanya06,"jefri 💍💏👮"
2042113152,prihastuti_elyamani,"Prihastuti Elyamani"
1409047646,ade_topan,"Ade Topan"
5951368275,andhira.ra,
1130713447,riinnaa92,"Rina Lestari"
1550924374,lili.lianasari,Limot
6299211189,_yeyennnnnnn,HF_
4134998904,ekafasah,"Eka fs Harahap"
4138629330,naufalarzam,"Naufal Shodiq Arzam"
9518230125,hjab.ajeera,"H'jaB AjeeRa"
2036079386,wulanalbabud,"Syarifah Nurul Wulandari A.md"
1826348133,raudhatun_atun,raudhatun
4129703919,ryana_anha,"Yusliana Trans Hp"
3944850787,elismanullang,"Elis Manullang"
1943850850,fitrii.nasution,"Fitri Handayani Nasution"
2217770276,suryani_manalu,"Cuyaaa ManaLu"
1214868204,nofacanafridani,"ummu zabir cf"
1484928714,adeliyanasss,"A D E L"
4327735000,galeri.manis,"Gamis, Khimar, Misk, Jupon"
966225777,astutiihiidayah,Astuti
3885592822,adityahafidz_07,Mr.Eyeglasso-o
348675110,sgabriell04,"S G P S"
4338284978,aisyamerdan,"aisya merda"
1129239982,wulanrahayu19,"Andri julian ❣️"
9270390700,lisaanggreani_,Anggreani__lisa
4046338533,anaoktvni,RdnAr❤️
1346630500,julio_warel,"jwd's (iyo)"
2901837412,lina_imman,Lina
1810855071,arumdoang,Miaarum24
1158326169,indahp.18,"Indah Permata Sary"
1161877446,arimardanii,
7044498201,azi.fikri,"azi fikri"
1798910112,indah_widyanr,"Ika Indah WidyaNr"
9459924239,asnitanirmalasarisrg,"Asnita Nirmalasari Siregar"
6759782992,ranikirana_aurelia,"Rani Kirana96"
3539221839,lincesitepu,"Linche Sitepu  💖"
1631603614,daviap25,"Davi Adrian Putraaji"
1377478260,fatma.sofia,Ma
6075457755,intan_amazone,"intan amazone"
5261063814,m_yusuf0908,"M yusuf"
3183562639,khoiriyatun_nsa,"Khoiriyatun Nisa'"
2025863946,agustintryw11,"Agustin try widyarti"
1535950045,riandri_skmbg12,"Riandri Skmbg"
3560089435,chumala_dyah,"D YA H"
2086614197,damayantii_ringo,"Damayantii Ringo"
1933862503,zhakywahyuputra99,"Nurlizawati Syahvinas 💕"
736491803,farchanvansyah,"Farchan Elrivansyah"
6948967975,adilla_aulia98,"Adilla Aulia"
747065256,intanarumi,Intanarumi
8743709321,dedesuteja736,Suteja_JR69
6816693861,icaa_097,"Raisa Ananda Purba"
7247554932,mnthn_25_06,nathan2506
2118028653,auliafemmy,"femmy aulia marpaung"
4808382348,andre_batmen,andre
4120296893,najwa5998,Najwa
1708794593,intan_purnawirahayu,
236377524,elmavardhani,"Elma asvira vardhani"
1534469851,bagustrf,"1+1=3 / Selamanya"
9545610414,jenniferserlins,"jennifer serlins tambunan"
4262026718,nurhaliza7309,"Nurhaliza Putri"
1962864161,asrimeiga_w,"Asri Megawati"
2274434323,ekaoktaviani403,"Eka oktaviani"
2285671978,wptrsiska,"Siska Willyani Putri"
1509640488,tanti.s_s,tantituteto
9217914515,fitriamandal,"fitri amanda lestari"
3578341013,shasa_auliya12,"shasa auliya"
631106576,christineoctm,"Christine Octavia Manalu"
1000820897,orindeesmeri,orin_desmeeri🍬
9515129153,yuliayuwandira1990,yuliayuwandira1990
1985155356,mutiahafizah99,"Mutia Hafizah"
1209460646,n.s.c.i,
8588459473,11.wahyuni,"Ayu Sri Wahyuni"
9873928428,alisya.hadi,Hadi.
6810274524,subagjafrisk,"subagja frisky"
3965686174,rdecaprio_,R.R.DECAPRIO🔛🎧
2019847453,adeirma.ai399,"adhe irma"
1463248698,risaamutia,"R I S A  M U T I A"
5101663437,putri_ws_,🍃putri🍃
7464152463,raniabamagain2042,raniabamagain
1614457233,muhamad_nandha,"Muhamad Nanda Rishilah"
1490625642,zy__888,
7853346367,ayuzahara_12,"Ayu Zahara"
1105388828,megimurni,"egii-d murni"
348842625,lorena_asean_2f,"Lorena Aseany"
4309643390,wahyusetiya_,"Wahyu Setiya Ningsih"
7407295425,dvd_database,"RECOMENDED ARTIS DAN SELEB"
3546502640,dinna_dj,Deevandra
2330232981,augustptr12,"Agus Syahputra"
5626488866,sakhilaagustina12,Sakhila31
1691309380,dian_simarmata,"Dian shimarmata"
9006372444,ng.veny14,
2280386455,reksa8591,Reksa
1959655824,fusvitasari_harahap,"Fusvita Sari Harahap"
5833819693,indripermata.s302,Iin
1959939549,rani_elisyah,"Rani elisyah"
7509676835,erniafrilya0.1,ErniAF
8079718610,fahrizadahruliya7,fahrizadahruliyafizaryani
2082858582,mely_mahang,"Mely Amoy"
3574352722,miss_mongg,"Apika Mery"
504529265,gitaafddinis,"gita afddinis"
1417999731,hidayattobuhu,"Hidayat Tobuhu"
1637894529,wulansuciisekarsarii,"Wulan Sucii Sekar Sarii"
4847500245,ila.ariesty,NabilahAriestyGunantin
1951784480,nancyhermi,"Nancy HZ"
2310786455,nandakristia645,"Ananda Kris"
8911687425,komala_1212,"komala mala"
2324916048,rabiahsitilubis,rabiah28
1773149499,dyahsusantini,"Dyah Susantini"
9842521700,adrianandrew356,adrianandrew
270744108,rizkazulhaini,"Rizka Zulhaini"
6064869083,dini_ayunii_lestari,"Dini ayuni lestari"
1925025692,dessyoktapiani28,"❤  Dessy1922 👀"
1456398104,raihana_za,"Raihana Za"
5789690132,haida_ginsu,"haida agustiani"
2123734498,olasavila,"Lola Savila Lubis"
1970462317,doraemon1401,Doraemon
1371227691,khelda_khoirani,"khelda khoirani"
7293630802,stelaviv.stp,Avivstel
4099006454,anggitaasolinn_,"ANGGITA PURNAMA SOLIN"
3304397104,_sausan98,"sausan afifah salsabila"
3461655360,yulia_siregar98,boreg98
2112700112,destiara.putri,"Destiara putri"
6646597788,tya_maulizasitopu_,dk_yaa
1574226046,edmunnugraha,"Edmun Cahya Nugraha"
9231842066,maisarahsarfa53526,_@maysarah
5526027711,wannadisa244,wannadisa
2045685092,monicaasr_,PrengkiBY
7698471654,shakilaalmeerashumaila,"shakila almeera shumaila"
8581177344,ilhamhidayat968,"Ilham Hidayat"
5470895374,fani_andriani1998,"fani andriani"
2149790184,nurulmardiah33,"Nurul Mardiah"
5019639060,naurah_03_,
1361184484,dyanbastyan,DyanBastyan
9140555022,svfine_,
1727329017,si_jaack,"Achmad Zaki Akbar"
8962908757,liska5649,liska
8656241259,riasafitri61,"Ria Safitri"
749265462,aydv050218,"ايومي ابنة حامد♀"
6622061413,indah_alfasha,"Indah Alfasha"
1648238382,ebryna_f2,vivi
822901238,muflimuh,"M U F L I  M U H A M M A D ⏺️"
2093624883,idaftrnr,"I D A"
8351553681,syahriall336,aldial
4276407537,nellysetya_1221,"N E L L S O N _"
4028351574,_salmah_nasution,"Salmah nasution"
2542210220,iininayah72,"Iin Inayah"
2194476901,fitrylestarilubis,"Fitry LeStari Lubis"
4235526426,nuraisa91,"Nur Aisa"
3953212297,suci_ramadhni19,"Suci Ramadhani"
2263876201,velaalfn_,"vela alfiani"
8596613091,wisamuel_,wiesamuel
6237286399,jessica_2409,JJ
7082598685,putriameliaritonga,Putri.ameliaR
4928443862,maulita.agustina,"maulita agustina"
2258650162,uni_sum,"uni sum"
7336403961,rinaldihasibuan_44,rinaldihasibuan44
4618243857,warda_sulistiono,WARDA
3611379100,ireene_santha,"Ireene Santha Suryani"
2310419093,kiky_handayanipurba,"Kiky Purba"
406575850,fadliwi,"fadli wijaya"
1628138290,novakewell,"Nova Kewell Pratama"
3884995809,selviana_wardanithan,"Selviana wardani than"
1761417519,ayu_susanto_s,"Ayu Susanto"
54337376,feliciavania,"Felicia Vania"
8586401126,desipermata_69,"DESI PERMATA"
2068633741,yuniesagiselagtg,NesyaGinting
9649075019,eca2411,Eca
4453432689,nur_sya_fina,Nursyafina
2669199184,fitrisertiana,FS
1567838180,fadilatullaili_frp,"Fadilatullaili Prabawati Rizqo"
1420115282,ikaasmara,"ika asmara"
8587208976,ecaps20,"Rebecca Febrianty Simanjuntak"
4154865936,hennycatrina,"Henny Catrina Gracetia"
3189557954,nisauling12,SZPAY
3957512558,zaitunnizar22,"Zaitun Nizar"
2031773185,tuttyaleeandy,"Tutty ALeeandy"
4625025531,andresafindra,"andre wildan"
1384813187,istiii13_,
1663332559,putwika.rahma,
1413504077,evipermana_rievie,"evi permana"
5420553724,cicinurfadilahcinufa,"CICI NURFADILAH"
4119010080,syahputri_dewi05,"dewi syahputri"
3419573822,ayu_rara0305,👯
8414687975,maharanidenok,"Denpasar, 23~3~2005"
4092264996,leman.com997869,T.leman
2243034179,chairapily,"Chairani Koto"
7627671013,yolafitria28,"Yola Fitria N"
2053607815,safry_sitorus,safrysitorus🔵
1607474707,faidhil_e,"Faidhil ELlambarrucaffie"
4809967792,noviiannti,"N O P I (노나)"
1076361440,ayuumutriaa,"ayu mutria"
3561416921,wikaaundary_,"Uni Ka 🐳"
3515792558,ikha_isnainie,"Ikha Isnainie Kusas"
3145759395,luvinaginting04,"Luvina Ginting"
1591386203,ridhoktav_,"muhammad ridho oktavian"
8963062183,asmaulzahrah13,❤❤asmaul❤❤
8071498555,renitarai,"renita anggraini"
787298239,firdauszu,"F D S"
3105110408,muliagustiani_s07,muliagustiani_so7
2079287067,azkiyahzilfi,"Azkitah Zilfi ⭕"
6040309332,zaydan_ariz,"Zaydan Ariz"
2178887506,cutannisawaashilla,Acut
1604323579,bulancomel24,"bulan comel"
3685958880,qodriyalt,
1643427720,siskaynth,Ica
512649556,utarymaharany,"Dr. Utary"
2358926225,anggun_kd17,"Anggun Dika Sari"
439021186,iknila,"Iknila Fahmadia"
1409360377,akbar_akbar77,Akbar
6876325625,revamey94,Revamey
4065527122,italeeya04,"Mummy aleeya🐯"
3060668900,endapinulung,"Enda Pinulung"
1743538258,mayanti.mayanti,Mayanti
408617243,yaniiyaa,"Tri Handayani"
3467944859,fiqriahmad_27,"Fiqri Ahmad Qurais"
7843059323,shafa_nuralita,shafanuralita
3855762334,muhammadbasit2324,
2167762019,nandha3906,nandha
4309915436,mariahulfalina,"Ulfa_Azwan Al-Qolbi Nst"
2532995843,wellyridho_23,well
3649746139,desiekasari9871,desiekasari
2084758831,dewantiveronica,"Dewanti Veronica Napitupulu"
4795655859,fadillaarthaa.v,"vivi artha fadilla"
4506196374,yanto_133,Yanto_Leeee
2361556641,izha_can,"Iza Liza Caniago"
2315522803,trinovriandi16,"Muhammad Tri Novriandi"
1614631308,mala_hidayat,"Mala Hayati ( kue bawang)"
5973150024,meitakurniaferawati,"Meita Kurnia Ferawati"
1580463288,riefwan_,"Arief Kurniawan"
6720408230,riskhihendrianingsih,"kynda hadi ningsih"
4531054464,nurhasanahabdulb,"nurhasanah abdulbasyir"
3481982098,muktifajrul,"Fajrul Falah"
7705504530,mfaridzhambali,"M Faridz Hambali"
6220123685,ndah.15_,Ndah
5950250689,nova_sinaga_amd_keb,"Susan Nova"
2267927988,may_syaroh_hasibuan,may
6632004678,aulia_utami15,"Aulia Utami"
3510656894,juventinibayu,"Bayu Juventini"
7058185143,aditiasellyimn20,Mrs.aditiasellyimn
1774379033,anggrasinta94,"Sinta Anggraeny Munazad"
2801943072,midwifenurhayati,"MidwiFe NurhayaTi Silalahi"
1402015755,ndut_2401,"Yanti RahmaYanti"
4262818545,rurryarifah,"Rurry arifah"
2043762581,aya_tanjung,Rokayah
6039206582,annissa_wibowo,"Annisa Tustiyani Wibowo"
1091511658,putra_sholih,"Abdul M Sholih"
6639345252,indahkecil088,"Indah puji lestari"
6207158259,lilis_kartikakew,"Lilis Kartika"
6227909526,shop_monella_tanjungpinang,"💉INJEKSI WAITENING"
8049947473,yapsinguan,"yap singuan@gmail.com"
3090591281,cherrie_2007_apple_,"cherrie apple"
1412792669,tiffanyputrimaharani,"Mama Cle ❤️"
8618442415,oneartha6,OneArtha
6423213128,eriskanovayunita,"Eriska Nova Yunita"
1831872583,hhwa_queensley,hwa후아🍒🐝
7943480037,jenlwnc,"ζεииι∫εя ℓαωяεиςε."
5762948502,anitapuspa.d,anitaPuspa.d
4477701309,midanacitiion,"Mida sari"
3500047976,yunidimas003,yunidimas
1577852274,susie_suezie,"Susi Susi"
339768068,stephynyo,"R Stephany Olivianta"
9944364110,mutiaraamanah23,"Mutiara Amanah"
6097581451,evalia99,evalia99
3627583942,ramadanii20,"Suci Ramadanii20"
1511825558,fandy1919,fy
3170787064,richekadeek,Ricci
1394611379,viarin,Viarin
5006349104,imradella,
4190728850,tamaliar4731,"tamaliya rachmadhani"
3008252286,rani_harianto,maharani
3054520699,icasucipto,"Siti Aisyah Dwi Sucipto"
2240575591,jlijil,"Julianti Dewi"
1658436186,nadra.israyani,n@dr@
2092804003,ibu_nya_callzes_calleus,thiek
1538175490,rezha_hardani,"Rezha Hardani"
1545804990,feriibrahim_,:)
9710968282,anita_fitrianiiii,"anita fitriani"
3466361134,nh_yuyun,"nurul husna"
1367453752,irawidiya,irawidiya
2005004957,tnthrnsaaa,TitanTohiransa
1565619890,sarmaktistumorang,"Sarmakti DW Situmorang"
294752916,stanscool,SYC
1478648530,piyyoz,Piiyyoo
8021150301,nopacompet022,Compet022👑
5654145272,rratnaasary,"Ratnasari Nasution"
2285857030,irawan_syahputra_ginting,"Irawan Syahputra ginting"
1552878604,yunipratiwiyuzi,"Yuni Pratiwi"
7672729693,rosiyana_1702,Rosiyana
5874495985,cahya_eufoni97,Eufoni97
2535306401,astipacek,"Asti Pa'cek"
2322936688,meliana_adetiya21,"Meliana Adetiya Warman"
4921940874,windidita_ayu,"Windi Dita Ayu"
1355658741,maswarnipadang,"Maswarni Theresia Padang"
4244133059,lestari6560,"Putri Lestari"
1370778758,indafatimah,QorQor
4656258321,amir.pakpahan,"Àmier Èfeendy_egc™️ l IDN 🇮🇩"
2321445787,ira_aruan,"Ira scinkare herbal🍓"
1626280737,nrfadillaaa21,NUR
8490163890,yuliherbal_peninggibadan,!PENINGGIBADAN.5-20CM
7751554091,yl_mitaa,"Yulia Paramita 🐼"
7452275260,saura_06,"just for fun"
2287890644,anniza_damai,"Aida Nur Annisa"
1366647434,melizafriyanti,"Melliza Afriyanti"
2462169113,ade_md10,Ade.MD
4671971200,riana_munthee,"Riana RM"
3506763986,marinistj,"Marini Sataji²"
2961715600,jernitaveronika,"Jernita Veronika"
8184544130,suciramadhani882,"Suci ramadhani"
5914441113,cattylovers0309,ctlvrs
1667363417,manalojaniew,"Janiew Manalo"
279137950,eriraa11,"Evi Tri Rahayu🌈"
5598039831,derawan12342,derawan
4730766677,vebni_lim,"Vebni Zebua"
3023183230,ptrrmdhn217,ama
1400493958,niera.k,Nira_komang
4549442955,joelitahardani06,Joelitahardani
2193964304,tantina_mariana,TiNa
1959471693,abel.lia_mare,"AMABEL ODELIA SIMAREMARE"
385060554,nanipriagna,"Nani Kurniasih"
7774437275,dede.fahmi8,"❤ Andien ❤"
188109374,pric.pricillia,"Pricillia Triyuanita 🇮🇩"
9420034641,nadya.1502,NADYA
2096259522,rahmi_santi_yudha122,"Mimi Amd.keb 94"
2098040642,bebi_izzy,"Lisnawati Siregar"
6129063628,mic.oli.sug,"Michelle Olivia.S"
4471367910,silviasesi,"sesi silvia"
7604039649,vera_vallenchia,"Novita Anggelia"
3057163101,srideviani96,srideviani
1757197910,wrsita,وَرسِتَ
9254589203,teamm_spammmm,"team _spamm"
3574069339,dynkey232_,"Dyn keyla ray"
8199787085,egy_azmi,Olellcake&cookies
7026243819,mega_tl,"Mega Tri Lestari"
6481996416,wulansari166,"Wulan Sari"
3543087386,tfk_wr,"Taufik Wira Romadhon"
2025744524,dellaayulestari,B.R.D
670691729,reafy_kurniawan,reafy
3562286990,fatmitha_,MIT_
3408497824,endang_kusnadi18,"Chusnhadiy Endhang"
2319760326,armetha567,Armethaaa
1553964270,yulida_pertiwi,"yulida pertiwi"
7487714023,bilqistina2,
5544546307,reyhandiningrat,"Re !"
4186130827,muunahhaitami,"Maymunah Haitami"
5327588034,pratiwi_sinaga0204,"pratiwi sinaga"
1138206135,elfifauziahpasaribu__,"Elfi Fauziah Pasaribu"
1837271945,munandar_harisharahap,"Munandar Haris Harahap"
4152325684,m_roni_ramahdan,"m roni_ramahdan"
4282089410,rriskafauziah,"R Riska Fauziah"
1479658022,indadevkhan,"Inda Wienda Devkhan"
5893268224,pengenhedon,
6798128893,nadhiva_ananda,"my name is dipaaaaa🌻❤"
260363111,nsafitriw,"Nurul Safitri"
5649506298,norahomhom,"nora homhom"
4552634440,novia.anggreyni,Novia
1600938387,yantiesihotang,"Prihariyanti Sihotang"
7027469819,weneedatank,
5814477043,rennyrahman93,Reyraa
4651012864,salsha.anggraini,salsha.anggraini
1228662700,gita_widiastuti84,"gita widiastuti"
1563588720,nanakiken,"Nana Kiken Vexia"
1926230500,ciety_mbem,"Siti Rukmana"
547584502,adek_2010,"Rita Andra Yani"
5345060658,sherlynafisa_,sherly
5424063773,miss_alexa.bawel,miss_alexa.bawel
4456224172,nsupiah,"Supiah Ningsih"
4110358949,evrinevia,putri
2329031228,ardianrhmts,Matt
2065456221,isyahh16,"Clarissa Putri Baharuddin"
1469864870,sri_gani,"Sri Rahmadani Gani"
2374267746,karimhrp,"abdul karim hrp"
9278718616,yhacancer,"Yulia II"
5456026345,kiky_hardi_lestary,Kikayy
9302185616,syahriati09,Syahriatii
5821885843,oktavarianz.harry014,"Oktavarianz Harry"
1224761125,echachloe,"Ananda Elsa Gustari"
5829882317,sabdaalam02,"Sabda Alam"
4234302714,shella.novia,"Shella Novia"
311011027,baiqrisa,"Baiq Risa Ratna Ningrum"
1622007186,nonik_juntak,"Nonik Simanjuntak"
3899333180,rianautarina,"Riana Utarina"
2019600958,agra_21,"Agra Hsyahputra"
5526415794,indahmutikaa,indahmutika
3244735985,zia.cutee,"dedek fauziah"
5594591288,septii.i,"Septi Risnawati"
2127847317,ny.irpan,"Ny. Irpan"
5466413082,zhulianidoli,"Zhu-liani Doli"
1337910257,fietrirafani,"Fietrie Anie"
1424768102,liachairani,L-I-A
6624128152,bebzdhyan,"Bebz Dhyan Melendoyska Arc"
5621075531,auliaoktavianti98,ine👑
774896153,ayu_matondang,"ayu matondang💦"
251683998,naidatalitha,"Naida Talitha/ n.t"
3187713374,muhairi08,"Muhammad Muhairi"
3116312826,putri_kansil22,"Putri Pratiwi Kansil"
2233150031,rennyesra,"Renny esra Manurung"
53681648,aji_pramulia,"aji pramulya"
3256957302,ibnuabdilh,"لاعبي كرة القدم"
8991916482,its.keisya__,"Keisya Permata Azzura🔥"
5684013327,rakgondolamurah,RakMandiri
3248873806,juwita3837,"Rita Juwita"
1466110849,novitashapari15,novita
2345300732,dina_warista,"Dina Warista Situmeang"
8908972366,cahayafirdan,cahayafidania04
7469903711,ukhti_rr12,"Ukhti RR"
4520918507,nonal7046,NONA💄💋
7103446829,putriyulitaaa,
5512520972,saskiasinaga_,saskiasinaga
2205564736,mufidahnz,"Mufidah Nz, SE"
2020616357,rafinafebriyani,Afina💎👑
1446014386,priskilajoseph,"Priskila Joseph"
5897446791,mutiarahmi94,mutiarahmi94
5460259073,amell_7878,amell_7878
4204651532,wantika.harnum,"Wantika harnum"
2330290792,rikaabunn,"rika chairani"
4517553595,ekasatya06,"Ekka Wahyuni Ramlan"
4321436887,widianas7,"Widiana Ardiyanti Suyitno"
2299636623,melindagustiana,"Melinda Gustiana Sari, S.STP"
2056127229,mikedefrimonikaa,"Mike Defri Monika"
1648080515,nur_fitriana94,"Nur Fitriana,S.Hut"
6899846454,sanchiaazarine0204,"Sanchia Heysa"
5602072712,ayu_astari98,"ayu astari"
2105397562,susanti_selly,"Selly Susanti"
1732651903,taufiqhidayat06,Täufiq_Hÿdäÿât
5883218869,_arsuhada,Arianti
4630060621,rirarambe2809,
3307812895,m.ferdyansyah24,Ferdyansyah
1742683782,27_robert,Robert
6078756068,aldawidiana22,"Alda Widiana Tambunan"
4317511413,dellaarrilia,"della arrilia"
1095448023,mitardhyaa,"Mita Ardhyana"
8199471902,wirantialisca_2875,"Wiranti Tria Alisca"
3051016069,vettycomel,"vetty permata sari"
1269852330,dillajulisdayannn,dila
2873790065,eva_purba_dasuha,"eva purba"
2095025709,naturapundamen24,"Natura Pundamen"
1553823202,miemiezoet_89,"Miemie Zoet"
8393482349,rahmadanif2311,"Rahmadani Fitri"
6233577849,xiaochink21,"Yulinda Sari, S.Sos"
1451754505,ikaputrisabrina,"Mput 💃"
1406940370,fy_fieqhasrina,Fifi
2526301218,raffabalqis,"hijab _store"
201364430,indriharianty,Indri
3481754140,siska_ramahdani,"Siska Ramadani Haloho"
5555821602,najma_thalib,ifachelaraby
2212332241,riskisarimeganingrum,"Kiki 🌸"
1431211712,putri_miirosa,putrimirosa
4145905132,lisa.muharni92,lisa
1674355622,febisetiawani,"Febi Setiawani"
1792961381,rara_natasya_,"rara natasya"
5316283642,suheri_prianda,"Suheri Prianda"
2983899322,inimeii,meitafalah🌼
5613415449,pricilia_tania,pricilia
2008180542,wahyuprastha_suseno411,"AK Prasetya"
1537141895,zidhanealazhar,"Pekanbaru,Riau"
620097115,rinaramadani91,"Rina Ramadani"
2376603702,noviaindriiani,"Novia Indriani"
1507702845,atun_alfadani,"🌸🌸Robiatul Adawiyah🌸🌸"
1636378837,nuruleffendii,"nurul fatimah effendi"
3183761359,vrrr03,verra
1284226519,intan91zn,"Intan Purnama Sari"
2464429735,diaur_rifqi,DIAUR_29
3986845158,alpiaaa_,Alpiaa
2980144056,zie_emel,zietha
2140355672,widiafidha,cintawidia.😊
1495936905,ririnkhaira2026,"Mrs. SPL"
1421301399,lia_cute92,Lia_cute
484631435,vieyapiepy,"Novia Herlina Rusli"
3260355562,mangoocyda,"Cyda Mangoo"
2210918243,putrismb,"putri sembiring"
1583969033,ratihpb,iamratihpb
1694997430,dewiiumayy,"D E W I  U M A Y A"
1697718318,phuu65,Putri
6820660356,aribah_muthiah04,aribah
6286124624,hamidah.dalimunthe18,"Hamidha Comel Dalimunthey"
2305683444,dwirahy,"Dwi Rahayu"
1901937233,cha_meiza,cha_annisa
1999696438,mozasusmono,موزة
2189704381,dwipratiwii26,"Dwi Pratiwii"
9003684860,fikarinantilubis,fikarinantilubis_017
459627312,anita_puspita,"anita puspita"
1244519808,dedek_syahputri,Yupi.moeslimshop
624534216,wiwielou,"Wiwie Tan"
5783319319,dista_nst92,Dista
2997075643,asmasitoruspane,asmawati
1648242181,maulida.molly,"Maulida Sari"
6912151061,noviya_anriyani_05_,"novita anriyani"
4174964019,pesek7786,Pesek
3710020901,eviayu.ms,evi
1141846373,atiekdwi,"Atiek Dwi Friantini"
1039877898,melyzlkhu,
4953407074,siskawandari_,
2415486552,azda.putra,"Muhammad Annadhar hasda putra"
6920888487,indahnya_hijrah20,
348594629,pancaryea_heryanisa,"Ryea Aicah"
5929870316,storyofsinsan,"Hello Stalker!"
4679680847,iam_lisa.wuhuuuu,"Arlisa Ferliyana"
619102063,rittajumadiah,"R I T T A"
4098520398,ziiarfani,"Zii Arfani"
8478060049,_.dillaaa,dill
6269594301,nettyhotmaita,"Nety Purba"
2132693113,verniantiazza,"Mama Muda Kece Badai😍"
3233426371,diky_kidoel,"Diky pratama"
1304500907,sukma_jaya_soemantri,"sukma jaya soemantri"
1293856767,seriyani95,SeriYani
7038749477,wiiwikshop29,Wiiwikchaniago
2377996384,inayah3108,"Ade Innayah"
3231669367,rezaardhana8608,Reza
8234846181,rizki.sptraa_,tetriaay
4028416893,mega_urfia,"Urfia mega"
5754444050,ezashandy,"Eza Shandy"
3262782220,lisbeth_napitz,"Lisbeth Lorena Napitupulu"
8550962303,popy.pamela,"popy pamela"
5594281074,ahlamhuzaemi22_,"Ahlam Huzaemi Nursalim"
3079209797,devi_wahyun,"devi wahyuni"
2815521704,vickoapnur,"Vicko Septian Apnur"
5608335899,risyadnst,"Risyad Nst"
2200358231,angga.juli,"Juli Angga"
1696840742,reni_herdieta,"Reni Herdieta Manalu"
2376469944,sri.rejeki08,"Sri Rejeki"
9433289424,mmariyati411,"Siti Maryati"
711834327,sarahdevi21,"Sarah Sundari Devi"
1630353872,koleksishopp,Diantari
5752830347,meymeynasution13,"Meymey Nasution"
2150755119,nitakhalisah,Nita
480557900,yennimanik,D.YO.YA
4827658615,she_mirna.tumorang98,"Mirna She Tumorang"
4001518238,ppramita1,"putri pramita"
841888489,salsabilacann,"Salsabila Candra K"
2909242807,int4nsaragih,"intan gayatri saragih"
1307035489,ummisalmabhrddn,"Ummi Salma Baharuddin"
2032981449,noviasiregar_16,via
1637495653,hanikfufah12,"hanik masfufah"
3661812565,rahmiagustina5,"rahmi agustina"
1645944156,devia_amelia,"Devia Amelia"
1465104780,yunikhoiriyatus,"Yuni Khoiriatus"
8515266958,syafitri3519,"Syafitri Bella"
7618655041,rinajulfita,ina
4489012452,blla_ftia,Bella
4434662003,faizatunnisah,"Anah Faizatunnisah"
9854852531,yosaluvb,yosaluvb
8129095243,jessiecarolinekristian,
1645243605,natalliaet_,"Natallia Emanuella T"
604714491,okhafiz6,
4168351365,pipin_winaa,"Pipin winaa"
1434953321,anggita.purnama,"Anggita Purnama A. Matondang"
7031119368,jihan_pahira_2706,"Jihan fahira"
8612606158,cordeliaaiko,"Lusi Twd"
4833294908,myidah__,myidah__
1673809513,cindy_hildayani,Cindy_hildayani
5607821211,firdachasanah,"Firda Nur Chasanah"
2074348423,susiana_saah,SusiAna
1492685718,bunda_zio,sartika
4726814837,ruthsiburian18,"Ruth Siburian ⭕"
7454781140,amrida22,amrida_kurniati
4421899035,bungasrg,"bunga putri"
8919221915,amara_juliayani,Amara_18
5900940392,susiyani2400,"Susi Yani"
1472167671,lovapicable,"ST. Ives 90k"
1912518400,risa_gustiana,"Assyaffa'ana Malayeka P."
2115733367,amii_sami,Ami
541163675,nurululva,"Nurul Ulva"
6555880943,yantiwija37,"yanti wijaya"
3156204916,tiecadewi19,"tieca dewi permana"
2232582113,anastasyamaritha_,
7058078327,aryandinata001,Aryandiinataa
6915885699,fitri_ramadhani1213,Fitri_R
1254886893,ayumi_ebol,"Ayumi 'eboL'"
1819905812,sisil2128,"S I S I L"
1927416441,destiani_irene,
428339276,d8768,cumcin
9120106460,monikadjibran,Monika
5994622537,____.sesiladn.____,"Agatha Sesilia Dwi Novianti"
5264111968,david_marchel13,"Krisman David Marchel"
4341993146,rachmawatinuzulul,"Nuzulul Rachmawati"
3407580284,ca.caaay,AisyahPutriS.
3318869066,anggraini01082015,anggraini_shop
1962582745,dinnaaurell09,"dinna 🎀"
1604975233,asyfa_ima,"Asyfaun Ni'ma"
7705219906,food_ist09,
3987226126,ayumi__cintia,cintia
333559440,mariatheresiat,"Maria Theresia Tambunan"
8248246023,wira_kampung_bali,"WIRA COMPUTER KAMPUNG BALI"
1290335618,cece_yossi,"Yossi Roesman"
1200858955,alelhajli,Al-El
625688745,chaesty28,"chacha khazanah  جست"
7429297524,ronaviolet,Khoirona
515592351,afifah.fbrynty,afifah💎
1905551675,intanshafiz25,intanshafinaz
6081638898,mikkyamalia,"mikky amalia"
4357522578,silviamegaamrii,"E G A"
802039072,anissasaraswatii,"Anissa Saraswati Gunardi"
4352389571,riski_ramadhan122,riski1
1937605801,ririenarumonasrg,"Ririe Narumona Siregar"
5517344805,endahidayati93,nda_4593
3535786984,reyhan15707,Reyhan
2096504775,nurulhidayani789,"Nurul Hidayani"
4782877142,samnariani27,Sem's
4459176239,nurhajjahantikaa,nurhajjahantika
653595328,ekamarzawati,"Eka Marzawati"
8071380023,baimjr_123,BaimJr
6535504146,sepnilia_wulandari,Sepniliasepni@yahoo.com
2463042227,echaolshop2,"Echa Online Shop2"
5639127395,irmaaniwindiaa,aNiwiNdiA
1642428506,melliaselian,"Mellia sari"
3456711764,silvia_rhmi,"Silvia Rahmi"
1551119203,eka.elkhairrus,"Eka Julianda El-khair'rus"
2364085426,s_shafira14,Fira
4313393172,tryrhiana,"Try Rhiana🐝"
1687324893,clara.saragih,"Clara Hartati"
6792783771,fiaalkhairani,fia
5591374494,novitriyunitumanggor,"Novitri Yuni Tumanggor"
3082776283,vocationshare,
5545140610,bian_rah1239,Bandung_bali
1661256168,rfaulin_,"V e l l y"
4062215175,dian_ekha_novitha_ningrum,"dian ekha novitha ningrum"
339397544,ernadesiputri,Ernadesiputri
2212233558,widiyawatiwiwin,"💕 Widhy 💕"
6535112153,adekhairu,"ade khairu hafiza"
1295872387,shilfiaulfa,"Shilfia Ulfa Islami"
4000106226,intanutary,"Tri Intan"
3284293483,maghfirahaulia05,"maghfirah aulia"
4668428073,widya5385,"Widya chartika dewi"
4779995885,litayusufiah,"Lita Yusufiah"
1233157920,sherenkhymel,"sheren kaur"
5570163440,aairpan1608,"Kang Irpan"
7999929744,vegasw05,atta_ruby
6770890691,icaaaak.idm,"Nisa Annisa"
4140512576,julianibr,"juliani br sembiring"
4223910510,mrssna_,Meriisusana
1561121562,vhanny_21,Vhanny_vhenno
1234201317,andylingunawan,"Andy Lin"
2616633438,nxx245,nxxx
2100043051,umiarafahnast_11,umiarafah11
5692462347,deasy1737,deasy
5524501463,sri_wyuni90,AninditaKeishaZahra👧
2186299246,linakarlina_rh,karlina
2204496255,afifaharasy_,NAA
923878689,ra_maharani,srimaharani
8666797345,tristani16,tristani
2352244662,novita.ss,"نؤفيـة ثري"
1440517858,melaniputriws,Melani
1649600723,sr_ryu,"Sri Rahayu"
5447905528,klaragand,klaragandi
4097966378,ptrirt,
3570190049,novanwijaksono,"Muhammad Novan wijaksono"
1105739526,nurisppay,"NurisPranitaPutriAyu, Amd.Keb"
4641845353,deyahld,"Deya Hld"
1426125554,tia010696,"Tia Putri yuni"
427011063,vinnylaura,vinny
3241177057,indahrachmann,"Indah Rachman"
2261103391,jevriirwandi,"Jevri Irwandi"
5405934595,syarulramadan_,Syarulramadan_
2201105625,maulaaanaa_,"M A U L A N A"
423877220,emmacarsitirgg,"Emma Carsiti"
10569676172,khayladwi_syaban,khaylasyaban
8426995418,luh_150297,"devi manyun"
5841177933,tambunan_square,arif733
325544515,fitrydewii,"fitry dwi ainiah"
4470257597,nhiaborneo,nhia
3955091664,julie_gomelz,juLiee..
8516196257,august.tita,Tita
7003954219,aryorzky14,AryoRzkyWiratama
7307948521,yunialfionita_,Yunialfionita
553717962,kakdes_,"Desi Rahmayani Siregar"
1599251986,pegyekaprtw,"Pegy Eka Pertiwi"
6005737509,jurimayanti_amoorea,"uwiie amoorea"
4111876863,amecalova_06,amecalova_06
8444725922,netta_rh,Netta_Rhys
3946432943,sa.deby,sa.deby
2276426393,muhammad.irfan_daifullah,"muhammad irfan"
4295426949,pramudita_23,"prmdta angrni"
7840144003,hwananyun,"AnyuN dễ thương"
325878113,ulfamahliza,"ulfa mahliza"
1821891021,enisrisiskabrkembaren,"eni sri siska br kembaren"
2341566828,iqirinandaa,"RISKI RINANDA"
1272106207,fujirahayoe,"Fuji Rahayoe"
5377105768,guciriyanhidayat72,"Riyan Hidayat Guci"
3909783416,ikhfan_a.p,ikhfan22
3254149877,shintawidiw,shintawidiw.
2503062481,aisyah7776,Andysyaputra🙈🖤
5470626943,arifdarmansyah_21,
1363851394,d.s.h25,🎀🎀
4028227101,sri_wahyuni293,"Sri Wahyuni"
4835864856,anandadea886,"Dea Ananda"
3666155703,dellarestya,"Della Restya"
2118364521,irfanmazid27,"irfan Mazid"
1538614801,rianianii92,"رياني استوي"
5983648750,adreard12,
593946091,yunitaliiu,"Y U N I"
1910292898,rina.irawan,"rina irawan"
1197756007,dnafitaaa,"D . N A F I T A S A R I"
4204791975,saddamhusin0101,no
1434754485,soniapertiwii,"Sonia Pertiwi"
2019913059,wulandari_oktafiani.17,"Oktafiani Wulandari"
1275519479,aypertiwi,
4140324519,jihanwijayati0630,"Jihan wijayati"
3925129356,sertigultom,"Serti Marlina Gultom"
1518580004,evitrisnaaa,"Evi Trisnawati"
8602653055,iema_bangkalan,Ima_hs💕
8649336217,afrilisac,afrilshop
3991795511,dora_22_emon,rifky_Alfarisy.22
2391052705,wulanbbutar,"Wulan Zulkarnain Butar Butar"
9040655082,claudia.vinny,"vinny claudia"
2020229322,renisulpiantii,ReniSulpianti👸
1521693233,juniatiputrii,"juniati putri ruth elisabeth"
5491961045,asarikhairiah01,"Asari Khairiah 🔱"
1363875546,adhe_mirna_putri,"Adhe Mirna Putry 👑"
7146835840,taufan25arifin,taufan25arifin
2025263071,v_w_d,"Vitria Wulandari"
7296200936,viviiihsb,
1686747381,azkiyaiberahim,"رزقا ازكية ابرهمي"
8377843521,distributorskincare_msi,"Cici Cipret DISTRIBUTOR MSI"
10155366416,rizalsaputra57,rizalsaputra
2218629612,dewi_yulianii,Dewiyuliani
2052147028,fazriakbarr,"Fazri Kurniawan Akbar"
707847581,depeindri,Ndi
6183336847,sarahlubis7,SarahLubis
2290681257,desvhye,mpie
9543020917,shopcovermobil,adamcovermobil
5689076750,esti8786,"Esti susanti"
6039356716,pebriansah_barasa,"Pebri Ansah Barasa"
2314119742,nuy_saifudin,"Nuy Saifudin"
2123538365,siska_vidiela,"Siska vidiela ginting"
3701856809,lilkkf18,
1693101317,fandyagustinus,"Fandy Agustinus"
1597213016,yuliatanjuonng08,Yulia_Hastuti
587120733,chrussita96,"Chrussita Laurensius😊"
8067188354,tyaniaulia,"Tyani Aulia Syifarani"
1692777658,emilia_meisisri,"Emilia Meisisri"
1903107958,korry_susandri,"Kori Susandry"
4188374057,silviawntk08,سيلفيا
6483219292,agnes18marbun,"Agnes Marbun"
4141167126,ernajasir14,jasir14
2128327635,chaidirali31,
1628756353,ayu_debi,"ayu deby putri handayani sgl"
6886169438,alsya1234,alsya1234
2927597605,adel_2506,Adelia_2506
2744283673,a.wuland97,WulanDiah
1113936790,putimustikadahni91,"👨 Dedek Afrizal"
7236625040,minar.sitiaisyah.saragih,minar.queenzii
5558552289,sherly_kurnia21,sherlykurnia
2290247711,ruriadinovi,"Ruri Adi Novi"
4163383883,iyus_016,"denok denok"
4119909209,endangayii87,"Ayu Kristia Asmara"
2950391708,mustaqimsari,"Sari Mustaqim"
1736345299,meganissihotang13,Meg❤
6245751212,fadhilatul_huda_el_yusubi,"Fadhila Syahbana"
4214785780,silvaalclara,"Nandiny Silva Al Clara"
3280681641,latiefah_khoerul,latiefah2809
5995497852,sc_formen,"Skincare For Men"
2030211355,agussebayangg,Agusceldonmsbyng
1415983874,hasrimunthe,Hasrimunthe04
1340317351,opirahmadani,"Novi Rahmadani"
7127502481,byadiyy,
5579229460,kheykee,"Yoke Ananda Fitri"
6955924900,lisda_simbolon07,"Lisdafebrinasimbolon 👀"
1908815758,maulidahusna3,"Maulida Husna"
4515283754,novyatihanum17,"Novy Ati Hanum Amd.keb 😇"
2562261053,amandacestysyafnira,ndacestynst
1768719874,tiyafatia,"Fathya tya"
222457643,wildariady,"Wilda Septi"
5340151422,nurmalalalla28,"Nurmala Fatmawati"
4190364028,syahrianihsb,"Syahriani Hasibuan"
578615607,cella_93,"Ignasia Princella"
2921485184,jayapalguna05,"Ranting Kayu"
9056831371,ainnasihombing,Ainnamardhiah
7989168906,sindusaraswati400,"self 🙄😐"
4515996883,ramadhanniindi,"indiana ramadhanni"
4490176184,mawarni2324,Mawarni
2292872004,joda_ferozah,"조다 페로자"
2065833574,ummu_auzan_rasyid,"Ummu Auzan"
1518426873,iinsoraya11,"Iin EncUtuye Soraya"
2218665947,sibueadesy,"DDRS, A.Md.Gz"
6281333660,yulisinaga537,"Yuli Sinaga"
2254664444,puput_afri,"puput melati sitepu"
1765929491,yuniastin,Yu2n
3074936972,__tegar__,"Tezhi maura"
1951124275,ilykkkk__,"W I N L Y Y A N T I"
5889976011,kerinnovita,"Kerin Novita"
7277953566,bellaabggraaini,Bellaa
6842831054,amoikaramoy,"amoi karamoy"
3158743476,dinisartikapane,DiniSartikaPane
3219100592,norahazurah,AzurahNorah
7233938435,gaugianagiaa,"Gaugiana Trikandiasih Psb"
3954178050,verrrhwanh,HELLO
1991919325,nfl.nst,"Naufal Nasution"
2004717286,graceceroline_16,"Ester Grace Ceroline"
3926850671,alzena_alexandra,"Alzena Alexandra"
6456378220,minahevie,evieminah
1578721928,tanchienchien,"Okky Kurnia Hartanti"
1495810210,queenlina56,lina
7754746061,lisaandini610,"Lisa Andini"
7285171111,jupe__nobita,"jupe  Nobita"
3535788761,_nunu27,Nurhayati
1316529630,silvia_efandi,"Silvia Efandi, S. Si"
1504922917,ichabreti,"ICha RiBu BreTi"
6043710664,fannia25,"Fannia Andi Mattoreank"
4158218331,dianoryezaasitepu,DianOryezaASitepu
10567336452,its.alvin7,its.alvin
1130993240,susanrizkasari,
3897358159,bang_edhoe,"Bang EdHoE"
4166170143,aish.sya_,🅰isyah
1991477373,nandaa6697,DimasPurnomo
2139528600,ciitra.ciitra,"Ciitra Ciitra"
1258819747,laila.trb04,
6281372354,della.feranicha.sweet,"Della Feranica F"
3627354859,marianiputri23,PutriPasaribu
1775869272,hastiwulansari85,HastiSaputro
5939149698,mhmmdazkaprbd_,"Muhammad Azka Pribadi"
6680860369,selahulu876,SelaHŰLŰ_0828💕
4034412243,widipiliang,Wik
1957225639,marulijuntak1122,"MARULI 04 - 01 - 95 Ke 21"
7229716456,huisiang_31,Huisiang
6841662242,an.dri_10,andri
1330130220,sridewiarumsari,Dewi
3405709808,nitalestari2703,"anita lestari"
2967004972,nursupriyani24,"Bachelor of Management (SE )🎓"
1772010732,putricarolinee,
6009323106,zulfahani_,زولفحني
3435358689,yandmohammad,"Yand Mohammad"
5659122481,albys625,san.san
5316516878,bloodglucose_,
3968409808,danisa9358,"Danisa Danisa"
6160192310,yusri_nuraeni28,yusrinuraeni
9475750439,yol9482,yolanda
4255250817,ayuwandira399,"Ayu Wandira"
2315542842,hafidghulams,Ghulam
3650809525,pebi_anggara,peb_iang
2896322139,lusiana1106,"Azka Nazaha Nadhifah"
1631614069,bimapasaribu,Bimbim
9048015597,nida.nidnid.351,"Nida Nidnid"
7714597726,indi_kurnia_22,"indih kurnia"
4063287598,susiherawati06,"Susi Herawati"
2079128439,meilinda_rahmawati,@meilinda_ar
4955920319,neti_fnd,"Netiyana Susanti"
4538567438,farrach_reachelna25,farrach_reacehelna2505
1525981651,dalimunthesiti,"Siti Khadijah Dalimunthe"
1541272206,trisaragih,"Tri Ayudewi Saragih"
8289757946,anggiwahyupertiwii,
2118411851,fatya_zein,fathiyahtya5@gmail.com
2374129269,jumarni20_,manii
5504323383,zuha_adiyatmabariq,"Zuha Adiyatma Bariq"
4273114044,fashion_muslimah_mgl_,Widya_
2341824209,bellachintya02,Bellee🦄
1982602399,rudyantimendrofa,"rudyanti mendrofa"
606034954,tiaranovita15,"Tiara novita"
3490296258,trikurniasaris,"Tri Kurnia Sari"
8890277257,nanik_ardianty_siregar,"Nanik ardianty siregar"
3258044683,hesty_rdani,"Hesty Rahmadani"
2237820543,noviayoulanda,"Puspa Novia"
7422737578,aminah250799,"Siti Aminah"
4582499995,chechealsya_,
2281546573,windytrivonny_211426,"windy trivonny (WTV&RW)"
1910263941,widyairtifani,"widya irtifani sara"
8193818244,henaapriliani,HenaApriliani
9532338278,vadiahijriyahwardhani,"Vadia Hijriyah Wardhani"
6784303753,1st.dsh_46,Dikkosony😎
3549270308,yoan_lie,"💍Yoan Lie"
3151553680,fannyadilla16,"Fanny adilla"
832190441,delinaaprilia,delinaaprilia
8037689350,dhienacwitt,"Dhiana Ahmad"
5678618880,gilang_mowuru,
3607055329,manullang.margaret94,"Margarth Manullang"
9170437779,dedary_ry,Dedary_beach
7068202074,fie5913,fia
3140329215,sandywaey31,wae-y
3180549281,suryapradana80,"Surya Pradana"
2316385143,real_nanda13,ananda_ade
2904035044,midaromi,Romida
8764465941,mi.anda.140,Mianda
7030456938,febrianaebi7,febriana
6646616351,maea_ulmayaniee,"maea ulmayanie"
1596880853,devieyusrini_famshoop,FamSHoop
3937431758,elvianariri,riri
7801906220,yayuklistiyah,"yayuk listiyah"
7388535147,lusian_1690,Lusian_1690
4092897331,ban04_,
1563023006,joseprismantos,JosepRismantoSimanullang
2072263767,windiprihanda_,"Windi !!!!!"
8968646358,aprizasyaroni,aprizasyaroni
6374648856,annisa.purwanti.5667,"Annisa Purwanti"
3114619451,nvare_becca,"NOVERINDA REBECCA"
670286736,riaandriyani30,"Ria Andriyani"
6931605228,desy.afifah.39,"Desy Afifah"
3403060234,ikhsnakbari,Ican🐼
9021679284,ahliyani26,adek
8972932189,apriantijudika4,apriantijudika
6873228643,kiky.morgan,kiky.morgan
1510720822,atikaamandita,atika
4562018497,fierdhanasution,"daa Nasty"
5687187282,yunitapratiwi2200,yunitapratiwi
1942620290,erlisa_rahma,lisa
9396907464,elvinaanjani19,elvinaanjani_19
4338362253,wahyu_teuku,"Teuku Wahyu Al Dhahir"
2091091968,ahfi1704,"Aulia Hilya Fadhilah"
5639657643,adellafebriani2103,Dellche
3099642087,alfinafebrianti05,alfinafebrianti05
8574916783,ema_luasi,"Ema Luasi"
6262306037,nis_rahmanisa,Nisa
2000158462,zen.adi,"Zen Adi"
1241467467,oktaquets,"Ika Putri Wulandari"
212990391,momjfrngarolshop,GibsID
253455628,edelweissbathshebap,"✨Belles Fleurs✨02’• JW"
8743638892,rezky_trg,"Rezky Trg"
4178993996,renwical12,"Calvin Winerdy"
3180390739,kebabmyluv,
1455097808,sharonwnas,"Sharon  Cybill  Ivo  Wenas"
8072525348,meiralestari_,
2413462409,abdilahhasrimy,"Abdilah Wijaya Hasrimy"
5598875202,joecollec,Joe
1141919532,lilinnurwahida,"Lilin Nurwahida"
10574171005,rizal_mahata,Aldo
10601114014,fatimah.686,fatimah.68
10483456771,lyndaanova,Lyndaa.nr
10379663056,arfitney,arfitney
10466138081,aarief.jamica,Citra
10323160124,assamihsan,assamihsan
8274304696,shaeshannon_,Shæ
1771644992,aldimukhbit,Mukhbit
10381471505,bilalilyas046,"muhammad_bilal ilyas"
10389023925,manskuyyy,manskuyyy
5550017476,ariffadillah861,Ariff
9739915949,andy.octora,"Riandy Octora"
2198902627,kenzieraaif,"kenz RA"
1966055403,keto_warrior.ptk,"Keto Bread Cake 'N Cookies"
1966584389,mirna_rahil,"Mirna Rahil"
10596793931,troublesolver7,troublesolver
3686725872,maz_hermansyah,Hermansyah
3049653387,banknusantaraparahyangan,"Bank BNP"
2323207879,caseimpor_murah,"Start From 20k"
10370495213,beby_reseller.makassar,reseller_makassar
8486394381,itsmai.mai,"Mai 🌼"
4807262435,dindpspt03,"Baby Belanda"
1828306718,surya.mulya,
7625269664,putranusa11,putranusa11
3666986846,hardiaansyah,Hardiansyah
1633758086,alf.firza,"ALIF FIRZA"
8947757822,supplierestetika,"CREAM KILOAN FILLER LASH SPA"
495120020,_sweetcandies2,"PO JEPANG & PO SINGAPORE"
6915691761,s.angelin,"sarah angelin"
1615086046,buldantoyota,"Buldan Abdul Latif"
4632883914,caitlyntjung,caitlyn.
2154484434,andhika_ryanto,AndhikaR
9988091,wiwindr,
7560938072,_kurniawanryan,
10372375432,yudi_maoelana,"Yudi Maoelana"
6114333215,salsabilaaa.vs,SEAN
382940417,gladyssjong,"Gladys 💄"
2112958338,gizellaregina,"Gizella Sangeroki"
1371014686,pcy.realpcy61,
6015655470,cicinonik,cicinonik
2109619054,nonadee23,"Dhea Ayu K"
1194121016,ivan_beba,"Ivan Kurniawan"
2492543974,annisaucii,"Annisa Suci"
1509674400,gebylinggarjo,"geby linggarjo"
6042550414,shopieseleb,Shopieseleb
5346239024,talithazhra,Talitha
10379062752,fikriherzam,"Fikri Herzamzam"
9424460951,rins_hijab598,"Rin's hijab"
1432642173,imn_taufik,"Iman taufik"
5806979965,cicacacicaca,chaca
445151749,claudiacndyyy,"Claudia Cindy"
3273445198,nadiafaradilar,
3043308337,erik_wijaya27,Erik
617391187,pranotodylan,
3053600856,larisssa_id,"BRUSH MAKE UP & STYLE"
504546919,adeliairna,"Adelia Irna Santika"
8486871848,trivailituuk,"TRIVAILI TUUK"
5948720523,alyayeay,alyay
9896852251,zjdkflfl,
8071629253,balicovertv,"Repost Cover lagu Bali"
3810063053,habibie_arab78,
9878496381,nita_berkahshop,"nita ambar sari"
3212597220,george.tunya,gtunya
435549868,alfionitabella,"Alfionita Bella Pertiwi"
5878426287,matakebak,"aka martabak"
6328065131,kitacintaa,
4128989104,mek.gaa,"JANGAN LUPA FOLLOW⬇⬇⬇"
5575567579,_rendykusuma,Endi
9370223449,enocarini1,"eno carini"
240511424,windierlintia,"Windi Erlintia"
1562153140,fathimahamanip,"F a t h i m"
2260119406,andihalimhyyu,
1055473745,amijan_,"Aulia Miftahul Jannah"
6778245405,mirah_maharani09,"mirah maharani"
5625465994,restuapril17,restuαpriliα
1686670908,derama_wo,"Ade Ramadhani"
7078368142,naylaa7923,Naylaa
7521306752,noxaichaa,"Nox Aichaa"
3059946944,hendrikjune,"hendrik june"
3146914309,cilla_zhu25,cilla_zhu
7636697984,dewzw,ペアレンタルアドバイザリー
10225646194,kamaliakamalia_,
7989144189,nithamahesya,NMR
1598572120,reamli95_,"Rega Amrillah/22yo"
3976118093,dian_adhiya,"Dian Mardiyanti"
8465488922,tobatlaa,
10017011449,tasyaaq_,
8219908138,_batgrrrl,
4598366047,nadya2242,
9606494441,henrydhiafikhri,"henry dhiafikhri ramadhan"
5523243583,lily.taaa,lolyta
10366482529,monalisa990_,Monalisa
5651350747,kingdomofbeauty.id,"PO KOREA • FILA • OLENS"
5670958450,gwen_dolin14,"Gwen Dolin💫"
4558573718,nesha_part11,
4794997372,crolineeee_s,"anya🦄 °•••••🌃🤘📸•••••°🦄anya"
1117866128,luhdeeima,"Luh Gede Krismayanti"
10330934326,thizisariana,📍id
7556632519,kiki.dila,Kiki.van
9653830179,vidaqurrotul_0,vidaqurrotul_03
8342153236,yudhageusri,
1634871853,meidinaindry,"Meidina Indriyani"
10343540972,aurel_auroraa,
2994219932,gilangsl_,
4778515966,ndrhna,"𝔰𝔩𝔶𝔱𝔥𝔢𝔯𝔦𝔫 🐍"
2314088175,man_utd_lovers_ball,
7037539478,drunkin.bieber,
4493966611,angeliajessi08,"Angelia Jessica"
646730476,dinaaika,"D I N A ✘✘✘"
1424031427,sully_211,sully
9979792566,_awan15,Ndut
9610655151,loodstnest,"loodst nest coffee"
6254061082,moonlight.mla,"MoonLight Management Agency"
2617282538,prstyptr20,plee
4148882926,rharalan,"Elisabeth N Awp."
9402234815,marchsong_lv,marchsong_lv
8301218234,jastip.iz,"Jasa Titip Thailand🇹🇭"
4357746507,syifanasution04,"Syifa Irma"
2129134325,indah1778,indah
3270515600,sobarifajar,"Fajar Sobari"
4284959779,chicahandayani15,Chica.
9649160656,clara_agustina213,clara_agustina213
7405203342,adie_howie,adie_di
3893422194,mooie.idn,"Mooie Collection"
3531054320,aghniasyafa_,"Aghnia Syafa Shafiena🌹"
7395740377,enysulistiyorini7147,Enysulistiyorini
575885072,annisaanjarr,"Annisa Anjar"
6660959359,muh.rozi1880,Muh.Rozi
2111787122,cikamam1,sasa
6937840425,mahardika1099,mahardika
7661474568,putry546,"Putry Dyah"
611071025,ideyavigail,"ShintaNoy Mailoa💢💋"
2260337960,sumelvinwau,"Sumelvin Ana'a Nitulo Wa'u"
9945282363,afi_fathur,"afi Oriflame"
3100903809,raudatulj79,"Raudatul Jannah"
1798232773,mambrasar_marcos,"Marcos Mambrasar"
4783655453,inasak_,
2198905501,astienugrahanti,"Astie Nugrahanti"
1778299660,ebsap,"Feby Sapthu/Johanes"
1425979489,ulyashabrina,ulyaaa
7429360914,kaniaarrt,
3526056221,intnep,
1623810564,nikednr,
7715455591,ratna_bontot94,"Ratna Setia Ningsih"
8691588100,merytaprabandari97,Merytaprabandari
2964013973,batik_az_zakaria,"batik az-zakaria"
10185499938,irenagek,"Gek Irena"
8595909503,aikilyu_,
608882982,septiriskiana,"Septi Dwi Riskiana"
6866612109,saltsugars,
2945497653,jayasshop,"SHOES MURAH DAGELAN"
7929553337,pavline.corner,"ETUDE SEPHORA COSRX INNISFREE"
7464734200,goodstuff_hunter,
543963900,dhiyaasalsa,"Dhiya Salsabila"
3173747342,melisardla,ilovekermitmorethananything
636111257,cacawang_91,"CacaWang 王瑞璇"
1473418228,travelcam.id,
4530500403,mindaya,"Mindaya Sari"
4747325097,dzattaya_,"DZAKIRA ATTAYA HALIM"
3954222454,nyamiie_snack,
5523554555,_tae.yaa,_tae.yaa
3690885333,semvakudaa,
505095929,putridwiiy,Putridwiy
6391101488,satrioprayudho,"Satrio Prayudho"
4869609542,nasi.padank,
1319321388,azkalitaa,AKA
7080031656,risma_ratrie,"GROSIR SEPATU Solo TERPERCAYA"
6738959918,ritamld_,"Rita Maulida"
6571017677,aly.zhraa,
492546919,nitafebrianie,Nitafebriani
6094241911,omaiyun,"AYAM GEPREK OMA IYUN 💕"
551096715,jeanny.nathasia,"Jeanny Liau 👑"
5636554484,lolaaputs,
1920553910,monoprojects99,
440145455,rifaanggraeni,
2005239764,noonslyfe,
3554847563,njas.531,"Anjas Kurniawan"
2055030818,faradilla_husnan,faradilla
1996891463,nabilaasyifaalifia,☾
293675378,elisabethananta,"Elisabeth Ananta Putri Sayoga"
1492423044,tiarr12,Bachtiar
370163332,verrenoraclle,Verrenoraclle
1401940487,lilismulyanii,Lilismul🌼
1541391486,fbjbjkbbdssaa,T
1816201007,raanii.april,"Rani April"
9051084086,gitaaptryni,"L o g i t a Putri Ayuni🔐"
8515512215,adeliaprsja,"Adelia Prasaja"
1902621204,linda_9902,linda
4835564605,shat_ap,"Mentali Inut😚"
7376055379,wilibeauty.id,beautycosmetik
6192899715,meluthfi,Luthfi
439844835,winazhari,"위나 아즈하리"
1905737829,marcusyudhi,"Marcus Yudhi"
5410253060,alfianinidadwi,"Nida Dwi Alfiani"
3939861238,lesyaprill,"u can call me eci 🖤"
18454113,minceee,"Jasmine A"
214617125,shinta.alhabsyi,"Shinta Alhabsyi"
25299767,ratna_dewi,"Ratna Dewi"
5653737643,jose_otniel_setiawan,"Jose Otniel Setiawan"
10146082539,nuurrizka14,rizkanuur
9641179049,rico.dima,"RICO DIMA // REAL ACCOUNT"
316536458,shanliina,
313921674,cicicicicicicicicicic,
10094518061,distyirawati,"disty irawati"
8185474455,naturerepublickorea9,"naturerepublic @70 RIBU/PCS"
6187745248,pusatgrosirmodis.id,"PROMO BELI 3 DAPET 4"
2200806782,watzs.watzz,"Naomi Watzs"
1783899671,indahgalingging,"Indah Sigalingging"
4625013930,nicholastama_,
9022374139,pahipun,Pahipun
1979162575,marselaoktav,
4487368047,savanahlaudia,"Savanah Laudia"
1178364759,fredy.co.id,fredy.com
341073311,shopara1,
4518725924,sandinish,
2147437463,babysyam20,"Rayyanka Khaizuran and Mommi"
425361427,inachairani,INA
4497622819,novellanov,Novella93
3608019167,anthoniusalih,"Anthonius Salih"
366748824,widyauliaa,"Widya Aulia P"
218172200,adeliaindah,"adelia indah"
1417680184,iisiish,
5610321012,halfofafifah,Afifah
2140873484,sonniavlmrk,"Sonnia Valeria Markus"
1307716530,josevine_heidy,jose_josevinee
12564215,dendenisa,"DANISA MELINDA"
9283555144,kaylashaput,"🎀 Kayla Natasha Putri 🎀"
10243566,titalinavianti,"MeirHijab•Ageman bybrandedkids"
2190462586,pitry.s,pitry.s
1026772628,rezza16,"Rezza - Bonvoyage-id"
5971200981,sitikhdjh31__,"SITI KHODIJAH"
9919590535,igoart08,igoart
4855266724,ochajbeng,"Ocha Cindy Aulia Maharani"
2258766029,nandayulianda_,"nanda yulianda"
6813055302,elsa_saputry,"Elsa Saputri"
1999029965,winna.as,"Winna Adellia🌹"
423571433,wiriamaeazzahra,"Baiq Wiriamae Azzahra"
7464321647,_saskiiiii,"Without a name"
6645415671,j.leneauveau,"j a [y] n e"
2990588350,watch_id20,
2167776078,elvirarosdiana89,el🍌
9703407387,mysecondlyfe,gg
6342380377,fiterhadi_420,"Sevai Ompruest"
1816541734,rinafsh_,
338439555,bachtiar0702,"Andri Bachtiar 🔵"
10012146180,akun3698,Akun
7591150873,araanigalleryandmakeup,araanigalleryandmakeup
6051974137,piyama111,"Blizt Tara"
3639702475,zahiraviona,Viona
