Userid,Username,Fullname
8599494429,fahmieyamie,Syahril
12117330924,pendakimataangin_sumbar,pendamanginsumbar
6172380010,fatonidody,"Dody Fatoni"
6932436947,dirajamustakim,"Diraja Mustakim"
8515287363,lingkar_kei,"This Is Kei"
4311706114,shineraka,"RD | Tour and Travel"
4110692907,egikpejalan27,EgiAldiansyah
1171118309,tan_lalana99,"Tan Lalana"
4782996292,landscape.light,"Landscape Light"
9611629543,ambarnissaa,"Ambar Khairunissa"
12904525,theresiajesslyn,"Theresia Jesslyn"
16240409,aerin_nizar,"DR. AERIN NIZAR SP. MHRM."
198705620,tanggalibur,"weirdo stuff"
7314171432,sorivellacousins,sorivellacousins
12006023582,sahila.ro,sahila.ro
12084573091,chtransportation,"CH Transportation"
10239538867,abonsapi_cinta,"ABON CINTA"
5652847738,renildaesa,"Renilda Esayanti"
6329213038,amyt4s4ri,"Jeng Ami"
1516209361,gvtep,"Ghiva Tri Eká Putra"
3626617204,ruhikamaliyaa,Rhkmly
7040618548,dickyariesr,
9725610827,alfiansyh26,"Aa Alfiansyah"
2137059388,pergiyuk,pergiyuk!
2461718902,harrymastered,"Harry Re' Mastered"
8154849015,dinasilvia_23,Dinasilvia07112017
7835447048,krepsi_official,"KREASI PEMUDA SINGKAWANG"
5899144861,del.cadrrel,2nd
8378842784,zanitamara07,"Zani Tamara ❤"
11951084731,cb100_aceh,CB100_Aceh
328575017,qaysarrazi,𝓐𝔂𝓪𝓼
7560636094,pendaki_landak,"Pendaki Landak"
6797174894,maqdhavikia,"D H A V I"
11917701520,pixelcameras,"P I X E L C A M E R A"
8650961160,pecinta.3gp,"Wahyu B.A."
1527756580,trip_store,"Trip Store"
11549566627,fotografer_sayang,
3888081397,ptrblqs_hrp,"putri balqis harahap🌸"
8583744280,dadan9600,dadan🇮🇩
5322000549,millo.co,"BANTAL • SARUNG BANTAL • Etc"
8141802297,onetimeinvitation,"galery undangan pernikahan"
3311766853,millo.hp,"HIDROPONIK SAYUR"
11335722165,akhwat_muslimah10,abidah
11819783023,wisatabalinusa,"Wisata Bali Nusa"
585533949,rachmanmarangga,"Rachman Marangga"
2142669587,berstrata,em.
2611197861,fahmiyuddin12,Fahmiyuddin
11392884115,kesehatan_essenzo12,"Kesehatan Essenzo"
1652612114,ridhasufiani1896,رد
11926154091,istri_sahnya_bbh,"Teman Hidup BBH"
3546648468,runnatirta,"Tri Sarwono Wibowo"
3170009476,bagasdc_07,"Bagas Dwi Cahyo"
3975523824,millo.ae,"Photo & Videographer Drone"
3063082829,promotionmyjobbaby,
11870540509,holidaytourtravel11,"Open trip private or group"
12065748906,rizkyrandy33,"Rizky Randy"
2285094217,can_hidayat,
7127731855,komodo_wisata,"LABUAN BAJO TRIP | KOMODO TRIP"
2111001294,manarulhiidayat,𝕄𝕒𝕟𝕒𝕣𝕦𝕝 ℍ𝕚𝕕𝕒𝕪𝕒𝕥
27084298,cecepbanget,cecepbanget
1677127725,rahmanadikusuma,
5323812495,rnaldiansyahh,AldiansyahNr
11901284632,naladhipapanepa,"Yesi Maulida"
5503553770,toopinkid,toopink
4423591604,mega_travel_budget,"MURAH, SERVICE, TRUSTED 100%"
1907136639,andhikaaaskari,"Dhika Askari"
8031156686,hasta.nata,Hastanata™️
11544985539,kiflitatali,Zulkiflitatali
10336474064,propertibantendotcom,propertibantendotcom
5905190984,deynafloog,Deynfloog
29589874,camilladellion,"DRONE GIRL"
8231173916,kecamatancluringoke,KecamatanCluring
247106902,shdbhr_,"Shahida Bahari"
10473926962,taufiqh90,Taufiqhdyt
2114552408,muhammadtaufiqhdyt,"Muhammad Taufiq Hidayat"
2203606789,ferryakbar17,fenyok
1495183524,kiki.somantri,Ksmart29
248666591,anissrosyida,"Rosyidatuzzahro Anisy K."
11853997700,kabardaily,"KORAN MEDIA SOSIAL 📰 🌐 🌏"
3056967275,gunung_id,Gunung
1469328981,miguelchica23,"Miguel Chica Vergara"
8676649941,ahmad_nasroh97,ahmad_nasroh97
5457805050,dumazulfiano,"Radja Zulfiano"
5652129314,kopiloka_sumsel,Kopiloka_Sumsel_Pakjo_Bukit
1782294655,ms.unicornie,"Caly Philo"
11115787843,indonesiastrategic,"Indonesia Strategic Consulting"
2294627774,helmyhelda,Helda
11915838122,travelock.id,travelock.id
6845996717,akhnandito,ANANDITO
2091963058,muhamadaliasadulloh,"Muh Ali Asadulloh"
3943274755,didie.5458,Didie
6767424292,papermint_icetea,
4184139000,yhana.yanoll,"Siti Mudayana"
2319224728,rahmad249,"Rahmad Akbar"
8478127273,seputardunia.sd,"SEPUTAR DUNIA🌍🌎🌏"
2273907101,jk.imagine_,"JK imagine™"
9458327812,indahasmara2709,"Indah Asmara"
1365275883,windikurniaputri,"Windi Kurnia Putri"
1986410923,reizkyfebrian,"Faculty of Law⚖️"
2275367949,gitta_agustina,"Shakina's Mommy"
1783812456,kardi_syaputra_rahman,"Kardi Syaputra Rahman"
1778634919,flowniara_nia,Flo
4978829607,agungbonggolan,"Agung Wahyu"
6632805393,albertjamessamuel01,
7857666064,to2x_ar,"Thothox AR"
190646442,suzuki.mobil.jogja,"Dealer Suzuki Mobil Jogja"
11852255032,dodibhendarsyah,DodibHendarsyah
11935243879,deathforlife97,
9226577842,bayy_has,BayuPujiHastowo
6739729566,liyadwiftrn,Liyaa
9382798374,travelpassport2000,travelpassport2000
7029395042,_anggara21,Gro
9379323171,dadanpurnama_12,"Dadan Purnama Jr"
11568568564,restoayamobong,"Ayam Obong Kuliner Temanggung"
927725097,setamulianda,"Setia Mulianda"
2208777776,prealthida,"Preal Thida"
11946834406,sunshine.2002_,Hani.moekti642
7216081172,tumbler_sby,"Tumbler Souvenir Indonesia"
1675748353,riaa.fou,"RIA. W"
7567763312,mhmmdsaputraa__,putra🐼
3622946490,najwafaradisy,dise🇮🇩
2304114342,syaifuladha_,Syaifuladha
995873581,ndoce_id,ndoce
259352571,hayariputri,"Hayari Putri"
8574546814,brc_rentcar,BRC
12021133067,rosinirosadni,rosini
7084758165,_desysetia,setia.desy_
9032876080,arifahsriprabawati,"Arifah Sri Prabawati"
3143893060,jendelakedaikopi,"KULINER PEKANBARU 😘"
7138953005,exploredarajat,"EXPLORE DARAJAT GARUT"
7011932538,safroon.cake,safroon.cake
2322882146,diegianabbasy,ohmybest
11099851699,pradina_anugraheny,"Dyna Anugraheny"
11346851661,vinsent_1919,vinsent⚡
6589582134,lombokplus,"Lombok Plus"
7280151966,iamjoybizer,"Joybizer58Team (JoybizerJogja)"
11867531661,kazani_via05,viavia_05
1420064422,yssrllndptr,"Yossi R. Putri"
8522182565,mrarizkyy,"Muhammad Rizky Ardiansyah"
8978279105,_cemo_officall,"🍁Delinin Biri🍁"
12081016512,pekanbarutiket,"Pekanbaru Tiket"
3483337398,tommy_erwinsyah,"Tommy Erwinsyah"
5511076948,uki_ismail12,"lukwinsyah ismail"
3939671681,ochimwr,"عبد الرحيم"
1779359536,steve.michael.castles,"Stefano Power Castelli"
4026880533,araoutdoor_purwokerto,"ARA Outdoor Purwokerto"
1182462127,theo_wiranata,"Theo Wiranata Wijaya"
1106998987,intanm.w,Tan.M
3193487653,arsya_jr24,"Arsya Ilmi"
5538599926,hafidfir,HahaHihi
4464750905,_mansap,"Enjoy my Life"
3207120657,horissaia_,.
5831168418,dongkrak.co,"#DONGKRAK 🇮🇩"
7604125800,sriisnaenii,"Sri Isnaeni"
9627611889,garacollection_tas,"Segala macam tas kekinian"
2209104701,rianmuhtazam,
6808921436,owner_goapindul,owner_goapindul
8291445356,cv.tatagallery,"Cv.Tata Gallery"
12068384595,luhitbormudoi,"luhit bormudoi"
8501025591,pendaki_terpelajar,"pelajar pendaki 👣"
2966894523,kingz_boyshop,"kemeja pria"
11088540878,wisata_danau_ranau,"Wisata_danau _ranau"
11538791497,matrashnusantara,"Matrash Nusantara"
8103669948,naviisbat11_,Navi_Isbat
11875988659,nature_andyou,"NATURE AND YOU"
11868309816,babaljowo,babaljowo
10322024741,_followingfollowing_,
11700757009,lintas_nanggroe,Nanggroe.net.id
11712106581,bagasaditya980,adit
12053528513,pendaki_ripuh,"PARA PENDAKI RIPUH"
1944593527,situa_saispedati,"puji prasetyo"
8661215834,twinpan_store,"Twinpan Catalog"
6117123509,rentalmobilcimahi_bandungmurah,"Rental Mobil Cimahi Bandung"
6135845757,wisatabandungmurah,"Wisata Bandung Murah"
3012761536,kariemtravel,"Tiket.Tour.Rental Mobil Cimahi"
3553949204,alvinaaa232,"Alvina Dwi Arini"
669938632,binanahjal,"Bina Nahjal Hidayah"
7560593300,bmtt_official,BMTT_official
6979293028,fiyan_aryantto,"fiyan aryanto"
6265623024,mochamad_taufik23,"mochamad taufik"
5434079800,kaos_jogja999,"Kaos Jogja999 (D&LProduction)"
11821807763,budgetrip.id,budgetrip.id
8056697047,the_balinese,"The Balinese"
3087315102,dedy2129,"Dedy Setyawan"
10428550370,psht_1922_rajatega,PSHT_1922
9503545652,akademii_bisnis_digital,"Akademi Bisnis Digital"
12042505412,motodihape,motodihape
7316428102,jass_sumut,"JEJAK ALAM SOLID SOSIAL"
8948534873,jawafilm,"FALSAFAH JOWO + GUYONAN"
11293606045,reskiyekki,"Y e k k i  (レスキ)"
5879751262,jaket2nd_tangsel,"Jaket Second Outdoor"
2289795339,munirahmasid,"Munirah Mas'id"
4246048908,ms_sintia,Sintia
4113681990,sefaozmaviler,"Sefa Özmaviler"
8098847231,wawanjawa912,Wawan_Jawa
227274158,andre_shinthink,
11401267526,gwaliezf4_,"G W A L I E Z"
2093640642,kamiadvra,
3451165991,wardatul98,pesekkkkk🎮
12017978550,gewina13,"Erwin Setiawan Mendrofa"
11689532868,sardha_fatonah,"Siti Fatonah"
10231217445,mountainshirt_,
2266377828,beonlai,"Beon Lai Basumatary"
5278681509,finafn04,FINA💕
3110548388,robbinurhafiz,"Robbi Nurhafiz"
7652309443,athar_01jan2017,"Berwyn Athary Brani Banyuaji"
8568446568,ddaniel949,CDKfashion
12040592531,the_freshfruits,"The Fresh Fruits"
227738289,dianmyandas,"Dian Myanda Herlina"
3166919771,tiaraapw_,"𝓣𝓲𝓪𝓻𝓪 𝓐𝓳𝓮𝓷𝓰 𝓟𝓻𝓪𝓶𝓮𝓼𝓽𝓲 𝓦𝓲𝓫𝓸𝔀𝓸"
12015354915,trambulancubles.id,"Trambulan Cubles Mini"
1679776420,putrii_nov,"Putri Novita"
10728736072,gandurtour_0,"GANDUR TOUR KOMODO"
4017071784,xndrxwxdx,"Lalu Indrawadi"
10817189488,dannyrachmats,"deni rachmat sabani"
7387799733,vita_yulet07,"Vy ""REAL ACCOUNT"""
3716895732,schandrian,"Andrian permana"
5116334,elektra_o0,Audrey
1915382190,mimil_26,"Raharja Mirza"
12041536530,king_brianimanuel,"rich brian indo"
12025825936,hamim.ariqin,"Muhammad Hamim Ariqin"
12018730164,mutluanlar_,"K A H V E  T U T K U N U 🍀☕️"
4483901438,septianhkmtllh,septianHkmtllh_018
519400197,unmuha,"Universitas Muhammadiyah Aceh"
6659478967,dediamondstones,"Dé Diamond Stonés"
980282710,hello_ty.vella,"Jessica Vella"
11782839014,jalanbarenghubert,"hubert faaduhu harefa"
6723475191,jabrimuhammad098,jabrimuhammad098
3500879504,__wawanriswan__,wawan
632532913,restiseptiani9,"Resty Septiani (Echi)"
6101198153,romadhonalivia,Liv
2960515625,1_muharram,😴😴😴
8612396948,indonesiaexcellent,"INDONESIA EXCELLENT"
5456341432,tikaaprillia12,"Tika Aprillia N."
11351487432,cheaphotels.indo,"HOTEL MURAH"
2288429045,mh_tama04,TAMA
4162565013,outdoorbdg12,bandungoutdoor_second
11894282837,aj_alamkita,"Alam kita"
6121078671,purwakharisma0909,"purwa kharisma 🎀"
10481211693,papaalphadelta,"Patrick Agustiano Darmansyah"
8912407568,rizkysaputraworld,"Rizky Saputra"
9301894611,tarigandianaa,"Diana Tarigan"
11763709320,untariasmara25,"Untari Asmara Putri"
5786573637,rinosptr23,"Rino Saputra"
8550477298,ayuono,ayu
3005469324,hengky_pratama020,hengkyPratama
2236663521,yudhaawira,"Tri Hermawan Wirayudha"
1186216671,nugrohokhatab,"Nugroho Al Khatab"
1152044757,topansusetyo,"taufan susetyo"
11131876410,omer__dnc,"Ömer dinçer"
5630768440,zaxclothes,"EX EKSPOR HnM P&B BERSHKA, etc"
300935208,kaysatzr,"Novi Resi Harimurti"
5511436909,gestunjakartabekasi,gestun-jakarta.com
8623716111,renseliza,"Irene Elizabeth"
11136829177,amretatisna15,"Ambon Manise"
7401583362,about.indonesia.id,"INDONESIA UPDATE"
6179453537,frdhicha_,"Fardah Icha"
5716011367,albertfirdauss,
2093700541,rantiyuh,
3210859810,vinanurf_,"Vina Nur Fajriyah"
10980737033,stampinpages,"OWEN x NEZA 🇲🇨 |"
4173382962,jhon_arizal,"Jhon Arizal"
11834573792,ila.kimaya,ila
8296542522,daffaonyes,"DAFFA RAMADHAN"
11823134643,belitungtravelnet,belitungtravel.net
7232402266,rahmadati1996,Rahmadati
570395917,gieartika,Anggie
1524971446,ferdinamariaginting,"dr.Ferdina maria ginting"
12010034087,husaini.pane,"husaini pane"
11854618749,sumateramountain,"Sumatera Mountain"
1084263173,travel_id15,"indo travel"
1995260659,booareza,"boo areza"
10568389816,kitsjuorney,"Kits Journey"
7759739661,devimaharani1190,"Devi Maharani., SE 🎓"
4159143337,thejannah.ins,"The Jannah Institute"
2355121568,dhedyn.dandis,dheedy
11447424133,trilogirasa,"Tempat Kopi di Jakarta"
4847618856,satria_shooting_club,"SATRIA SHOOTING CLUB"
1571144137,awang_tricahyono,"Awang Tri Cahyono"
11457616443,herlifestyle31,wanna
11701341161,qta_agenbisnis,qta_agenbisnis
6825463276,ukmfomma,"UKM FOTOGRAFI UNIV 45 SURABAYA"
8629453384,punkrockig,"Punk rock"
951010040,richardnurlaila,"Richard N"
8473575562,erico_fanda_kosmetik_solo,"dave shop"
8703136455,piknik365,Piknik365
211555112,kurniawanfirman,"F Kurniawan"
445329413,antonyng_,"Antony Ng"
11548945468,iamdonfernando,"Don Fernando"
561849983,najmulala,"NAJ 🎀"
10223301262,nrjnh_5,"Hanajrun Hiqafrun"
11799535347,sholikhatun_nurjannah,"Sholikhatun Nurjannah"
8436698299,mac.dos,Desainer-Freelancer
3946612192,noeljonathan09,SkyTrx
12021048903,ms.aidila,Ms.aidila
12011193522,fotohitsviral,fotohitsviral
11857731590,claudiogarciao,"claudio garcia O"
1635968041,kartika_krtk,"kartika nirmala"
11862947549,clowsinaga,maryanadevi
3937165069,dewaputu1708,"Dewa Putu"
11778661491,ruang_outdor,RuangOutdor
3815074179,kuwais.id,kesyil_veils
6059262860,epicuread_travel,epicurEad
2981124165,anintour_n_rentcar,"Anin Tour & Rent Car Jogja"
11890449212,damalawa.official,"#VisitDamalawa || #Damalawa"
4268316292,ianleste15,"Deogo Andrian Leste"
12007105269,hilmiar11,"hilmi ardiansyah"
11699605921,vitavitare,Vitare
3562569834,farid_ahmad26,"Ahmad W. Farid"
9715761376,nataaajs,N
11822133617,porterlatimojong,"Porter Latimojong"
2303028862,my_name_is_tole,"edy tole"
11852051322,kut_kut2002,"kut 🇧🇪🇲🇦"
11404943980,roamwestjava,"West Java Outdoor Collective"
4631243250,akashkasare123,akash
4310558578,msplamin_,@sty
11705413225,mlsfr_,_____
11796117516,banyu_ayap,Banyu_ayap
8988165274,ddewiputriih,"Dewi Putri Handayani"
7318011525,pulau_id,"Pulau Indonesia"
304069049,prdsindh,"نور إنداه عزيزة"
11378306054,jaluradventure1,jaluradventure
3581055506,goapindul.official,"Gua Pindul"
11692541322,tigapo_lumer,"Tigapo_lumer Yellow"
8373738202,kalamoment,"KalaMoment by Arif"
3527951002,alfaqir_hari_subarnozm,"هاري سوبارنو"
6066064595,jhn_prsty,"👤J O H A N"
3496014,arifxph,arif
11839131198,ciakia127,Cia
9379145827,popophotograph,amateur
11710881528,wandek21,siswandi
6921775917,fathian_faf_,"FATHIAN AFAREZI FADIL"
1631947186,audi.gentiana,"audi gentiana"
6031393042,singlestraveler,L
11843091721,desawisata_sapit,"Pesona Desa Sapit"
5653116335,asepsofyan17,Asep
9776207129,flmuriati,Fal
1419044439,sotartama,Tama
6974045021,tripzilla.id,"TripZilla Indonesia"
9852282998,tidoretourism,"Tidore Tourism"
3407080016,fauzi_afc,"F A U Z I"
8641569876,a_zulfan_,"zul fun"
548483376,alwanwijaya_,"𝒜𝓁𝓌𝒶𝓃 𝓌𝒾𝒿𝒶𝓎𝒶
♠️"
3003049812,matarambasketballschool,"Mataram Basketball School"
3835088758,warunk_kece,"Warunk Kece"
4231108660,pollo_tropical00,"The Real Asian Persuasion"
11591973501,rekamjejak.ind,"REKAM JEJAK INDONESIA"
5620514230,basmahsafira,
10973806980,reddoorz_lpg,"RedDoorz lampung"
11177916080,travroid_,TravelPolaroid
5781031347,dee.ip12,"D E E. I I P"
10476024208,everplus.id,EverPlus
7534161535,bandangsurvival,"BELI SENTER E17 GRATIS PISAU"
11847705017,vscox_2019,Vsco_
575937058,surya26com,"Surya Dua Enam"
11532296301,penginapanmurahmalioboro,"kost amaryllis"
11548458065,samosirhebat,🐝
4487046018,sareira78,sareira
7935454468,hairunuciha05,"Hairun Uciha 05"
8679555054,cilongokhitz,"Cilongok Hitz"
2333756077,dayat_mustofa,Hidayat
2977945226,gustami_yui,gustami
1705687721,mrbachtiar,"ᴍᴜʜᴀᴍᴍᴀᴅ. ʀɪᴢᴡᴀɴ ʙᴀᴄʜᴛɪᴀʀ"
11699116353,vianka.tourtravel,"Tour ROMBONGAN and Travel"
1506037913,wrstyy_,"Wresty Nurhidayanty"
1391580155,ayahemasopaldekanind,ayahemasopaldekanind
11706619717,romiluhbrahmana,"Romi Luh Brahmana"
2011485254,merryindrawatii,"مري اندراواتي"
11681813430,charlloyd_p,"Charlotte Jr. Lloyd"
11680957125,alfanhirzan3,alfanhirzan
4106304243,yektii.k,"يكت كرناسر"
5505552882,alyarahmaar,"Alya Rahma"
11657886034,eastlomboktrip,"Trip Planner Lombok🌴"
3674252995,anidamala,"Anida Nur Malasari"
2277211772,milytiakamu,ch_mily
7800550239,liburan_di_malang,LIBURAN_DI_MALANG
1603666201,mhmd.siddiq,"Muhammad Siddiq Tarigan"
3541482880,pergipedia,PERGIPEDIA
5696325414,jejakkarawang,"Jejak Karawang"
1413676402,ilhumble,"Ilham Abdurahman"
9362321595,istanbulairportviptransfer,"İSTANBUL AİRPORT TRANSFER"
9257948436,romipratama01,"Romi Dilja Pratama"
10989800401,x_ampo90,x_ampo
11775118396,dikasani99,dikasani
3268221540,rohman_ntiiit,"Rohman Aghfa"
8482362950,pesona.pulau_nias,"Pesona Pulau Nias"
10986842146,titclondon,"TITC London"
7003495843,srihernowowiworo,"Sri Hernowo Wiworo"
8560706463,az1z_md,"Muhammad Darul Aziz"
6955458871,hansen_tok,Hansen
1836603623,warkop_gondrong,"warkop Gondrong"
2184635217,josh_pierre_,
8067126727,mulyanaadi_,"ADI M."
2122407998,arief_leonard,"Arief leonard Montaro モンタロ"
11195680555,adifdnn,"adi.adi ▶"
8150758767,silentstyle_cataloge,"#SILENTSTYLE 🇮🇩"
11693737808,yuli_kurniawan1,"yuli kurniawan"
1111311275,fikriyahasad,"Fikriyah Asmawati As'ad"
8512050689,salimahdwi86,salima
3880264507,alwan.surya,"Alwan Suryamanggala"
9895999640,makassar.hits_,"Makassar Hits"
4179924902,mans.putra_,sulaiⓂan
5046624905,kadek_kuning,kadekkuning
6899258053,joy_nusa,"Kala Bintang Nusa☹"
7167565576,sigab_solopeduli,"Sigab Solopeduli"
6768415066,caeciliaperanginangin,caeciliaciptha
1419162016,windaismi,"Winda Ismi"
1642731096,riyantoo11_,Riyanto
3144105556,salma_aeni,"salma julia nur 'aeni"
11448664457,iz_afra,"izzah afra"
11709746117,inkkd_dasire,Dasire
5652465496,khoa5621,"Khoa Phạm"
8414011544,jossin9,jossin
8520136808,officialbonayyyy_,"Akun Serba Ada"
217084375,erikmal1907,erik
7167076170,yuliza__afy,"Yuliza Anisa"
11168003291,archanagavit98,archana
360317163,saifurrizaltamim,ijal
8501183857,ntransmalang,"N Trans Malang"
9265490680,stb24jam,"SITUBONDO 24 JAM"
1994403893,davidtftt,david
1505262543,lembayungtour_,"Lembayung Tour"
1285232247,ghazaliyanti,"Ghazali Yanti"
8488243576,sukamacak,bla
3263274655,likhaikha_24,Sholikhah
9276192876,diitt__,
5334240941,pajar.dngrt,"Pajar Diningrat"
9003879983,hijabaddictofficial,
7068178181,villas2stay,Villas2Stay
11644389960,aceh_reposted,"Aneuk Aceh Repost"
1957837281,yheki_andra,"yheki andra"
6118163912,griya_advntr,"GRIYA ADVENTURE SOLO 🏡"
1274199722,jezzvonn,"J e s s i c a🌸R a m i r e z"
2295435328,ardiansah_faturohman,Catatan_pejalan1
6232823436,_muhammaddivaldi25,"Muhammad Divaldi"
4245319206,jie_susan0905,"Aliyah Shakilla Putri"
6288677302,viv_vienn,Vivien_Alexandree
8468022301,menjajoox,menja
11651596938,ganeshajw,"Ganesha J. Wardhana"
6840782321,ds.lukman,"Lukman Dwi"
11690160563,mujahidshirothrr,Mujahid
3599215423,idabgssarasuta,𝓢𝓾𝓽𝓮
11462468286,jevedicsya,jevedicsya
5486110713,jennarmaesawa,"Jennar Maesawa Muti"
2296643394,fondaaahp12,"Fonda Hidayah Prabaningrat"
1795391356,andrenov_,"A n d r e A r d i a n t o"
419219157,aputrar,"Agung Putra R."
6454234417,msatetaichan,"SateTaichan MerahPutih"
2008735358,eljuned,"M H Junaedi"
6258778563,eka_ngonyor645,"Eka ngonyor"
4739525003,eurekacafestore,"🄴🅄🅁🄴🄺🄰 🄲🄰🄵🄴🅂🅃🄾🅁🄴"
8327901867,novairawan7,"nova irawan"
11632037926,komodo_boat_trip__,"wonderful komodo trip"
3322525005,_lensanesia,"Lensa Indonesia"
3513888435,official.dickypotret,"Photo - Video - Photobooth"
5615167580,rezad_p,"Reza Dwi Pramudya"
8296692858,shut_up_store,"SHUT UP STORE"
9618421157,__haq109,"akhmad syaifuddin haqi"
11639305547,bang_faisal12,"bang faisal"
4088328828,nur_yaning_ayuana,Nuryaning_18
11399509791,widizayini9033,widizayini9033
1710484539,fifikncna_,"F I F I K E N C A N A"
4807816938,muhammadtaufik010,"Muhammad Taufik"
8895293180,bmy.stuff,"OUTDOOR ( RAINCOAT NOTROUBLE )"
7441292979,yuli_kurn,
8653085989,nurtriwijaya__,
1135597779,fathurochim,"fathur rochim"
10876507745,hajidhidayat,"Hajid Arif Hidayat"
1630346413,ekobasio,"Eko BAsio"
11629941288,exploreciater_,"Explore Ciater"
11779496940,bos_brewokk,minoxidil
2551009859,jakartacitizen,JakartaCitizen
11689920994,iraaaaascha,sfhrscha
11812056948,akkawazowski667,sepatu.id
7863072524,bekossiddiq,"Rahmat syah siddiq"
5669968490,nur_arif_135,"MUHAMAD NUR ARIF"
6091861095,nanalee.dy,anindiyasalismaulidina
11803664677,nay_zah23,"나 야"
1455376815,adfialdho,"Adfialdho Rehanda"
6840589598,rie.dreambig,Rie
4151431198,ella_olshop_kudus,ellshi
11634716297,kedaitds,"Kedai TDS"
3483621824,fajarvandra_ii,"FDV Jalan Jalan"
11764499949,bronamki,bronamki
1640605056,elbazarlombok,"El Bazar Cafe & Restaurant"
9219139323,padiwara_photography,"PADIWARA PHOTOGRAPHY"
3552206060,meecorry,"Corry Hermawan"
5769916950,pringgabaya_gelamang,"pringgabaya gelamang"
1497408178,wijichichi_,"Wiji Chichi"
8996999487,animal.alam,Panda
8443711626,ptrciaaa___,Cecuciq
1749822478,alfauzi.f,Alfauzi
10027682192,yusril7479,Yusril7231
5624499204,gbt.mmmm,
11564939560,penginapanjogja.co,penginapanjogja.co
10848951795,jojokjijik_,🎑
1591272140,arifdjldn,"Arif Djalaludin"
11234777913,siantaratas,"WISATA CAMPING SIANTARATAS"
1582455284,lidyaandreas,"Lidya Andreas 玲"
11646827035,hpatmomentpejalan,HPATmomentpejalan
8121472899,pelurusemesta_,"PELURU SEMESTA ADVENTURE"
8554824717,badakterbang_,BadakTerbang
1527801081,dinnianggra,"دي نني"
367750847,iifyusuf,"Iif Yusuf Wibisono"
1520582497,nananatrisna,Trisna
9698808480,jekardahvibes,"Jakarta Vibes"
4632209716,aryaaaaaa25,Est04
9641668245,travelhens4m,MASSUANTO
11607093376,rentalmotordijogja_,"AUO Rental Motor Jogja 🇲🇨"
3043033161,antonn.w,"🤣🤣🤣🤣🤣🤣 🤣🤣"
4496180256,yasya10_,"강 다니엘"
11614387033,syakira_billa12,Syakira_billa
11179608648,orangbejo.photography,"orangbejo photography"
5274569069,tokorak,TOKORAK.CO.ID
7389022889,secangkirfikiran,"Igan Ahmad Evaldo"
8625138049,_tour_tripsumba.wa081237530816,"tour tripsumba Gerson djara"
8909868776,kosakatahati,KOSAKATAHATI
5421113191,khadijahphotography9,Khadijah
1541035483,febridapratiwi,"Febrida Pratiwi H (TIWI)"
6482538794,fahm.automotive,"Fahm Automotive | Official"
1242088186,meyga_mee,Meyga
9916875680,aslannashar25,Aslannashar25
1499567310,finosfi,
935963683,stadionforums,"Stadion Sepakbola"
9667455400,hardizon1,hardizon
11779016337,ntbkitaa,"Ntb Kita"
3636009339,stamamtamam,tata087
11433839661,bulgimbal,bulbul
267929807,ol.shopfd,VdShop
1971028314,rajawalifoundation,"Rajawali Foundation"
11283466829,fachrel.cupang,bwok's.cupang
5639045787,nesyahomemadeorganik,nesyahomemadeorganik
8935110906,ovinnnnnnn_,"sec acc🐒"
3418988023,mr.gus_man,"Mhd. Raffi Gusman"
10675697125,rz_pictgram,"RZ PICTGRAM📷"
8608056068,teefkastore,"Te'efka Store"
1393071995,widia_2208,-WidiaWira-
7412300572,canhidayat046,Acil
8502340882,nndoch_,.
11764409073,luvis90,"muhammad lupis"
11405679283,ceritajalan2seru,"cerita jalan jalan"
1955516744,solla_sidodo,Solla_SiDo
531043382,je_chan_mariez,"jeje marieZ chan"
1974216711,okysetyowibowo,okysetyowibowo
3219987763,faridpriast,faridpriastana
9962318326,maccntw_,🐼🐨🐻
7771403,idtatc,"Charles Tatengkeng"
3968204133,tropiswisata,"wisata jogja & Sewa mobil"
7337427955,michelleanan_,
7017754741,ethnicpremium.id,"Ethnic Premium 💯"
4638951734,rieanmaulana09,R
10490743639,athifaa_ra,"athifa 💫"
482261156,didiet_andhika,"Didiet Andhika Putra"
11584650425,gbrllnetta,
9006173283,halo.ayra,ayra
9048503944,jenny_flowersweeties,
4816153157,ichsan_frmntr,"A iksan firmantoro"
11453349124,luxryworldlife,"Luxury Life"
5576745446,selafitriana_,
5820109378,pan.rozy,"Panji Ardiansyah"
8623712429,onofotografi,onofotografi
11635425407,lalalalala_happy,hahaha
532674082,odz_xx,"Wa Ode Maya Maisarah"
5901343081,sitanggang.meri,"Meri Sitanggang"
443812331,myrnda.amalia,
9430105199,mb_transportervlog,"TRANSPORTERVLOG INDONESIA"
8551613225,fiana_harku,"Fiana Harku"
1113566026,m.anwar.ar,"M. Anwar. AR"
11605603448,andrey_kravec80,"Андрей Кравиц"
543617586,kugii__,YunitaWhyuni🚀
4575944701,lmo_zadc,
1366531862,desmonsaja,Desmon
242683772,ardi_dombundell,"Diantrisna Ardi Yanto"
11397494035,bornmakers.co,bornmakers.co
1422415305,aslamfauzan22,"M. Aslam Fauzan"
8559841309,erlangga.prayogo.10,"Erlangga Prayogo"
1620816703,andildasril,"Robot Bernafas"
8603784756,dausalamsyah21,Firdaus
11447996699,icakhan_,"النساء ملي خان"
4268311509,ananta2008,Nick-ard
10117739235,hazra_anindya,"Anindya Hazra"
11435606101,surya30306,surya3030
3978036422,nurisnainidewi5010,"nur isnaini dewi"
1995266002,agamfrdausj,"Agam Firdaus J"
1281008967,elikafelicia,"Elika Felicia Tunliu"
11432731420,akucintagunung,"ACG #AkuCintaGunung"
5383046677,mizuaa03_,"Miftakhuz Zuhriatul Ulya A.A"
9214451000,baligardenmakeovers,"Bali Garden Makeovers"
3208508614,dimaswiky,Dimaswiky
2301052235,burhan.holix,"Burhan holix"
4870401334,pagaralamcity,PAGARALAMCITY
8551636732,indoproject_consulting,INDOPROJECT
11180500950,st.photo.graphy,Saturday.photos
11545765888,pangandaran_adventure,"pangandaran adventure"
8000808167,arndw_10,"ARANI DWI JAYANTI"
11610377982,kucingmemeng.id,"Know Your Cat"
6184083983,sriyulianingsi_,"Angkit wijaya🖤"
8533739521,barapajokka,barapajokka
11411607324,madnessnoobcrazy,"Noob Photograph"
7577358882,mochamadshadiq,"Mochamad Shadiq"
11563116670,subbhiinddraofficial91,"SUBBHI INDDRA"
10498652647,visit.sumsel,"VISIT SOUTHSUMATERA 🇮🇩"
9250421548,jati_od,"Omah Dolanan Jati"
1512970032,eltiwi,"Nur Ela Pratiwi"
1258448321,lea_w_,"⋆｡  🎀  𝐿𝒾𝒶 𝒲𝒾𝒿𝒶𝒴𝒶  🎀  ｡⋆"
4098660121,therahhaltravelling,"The Rahhal"
3646654503,ucokregar16,"Anaknya Pak Regar"
6083191384,aldavirama,AlDavi
223802190,herwinakbar03,"HERWIN AKBAR"
6961964630,do_fieldt,°°°🚀°°°
2629874434,adit_agustin,
4325411088,simeonetse,Simeone
5657764339,denilanua,"Denil Anua"
4540072664,si.irwan,Irwan
1905909368,fadly.nur,Fadly.nur
4246282480,_rafirdty,Rap's
7270623878,jaju_na,Ajj
5838727021,kalifornia186,"K A L I F O R N I A"
11452548055,cendani_w,Athup
2152668237,time_to_vacation,"vacation time 👏"
5944627016,frendian_dickie,"Dickie Frendian"
7068905679,chivajosephira,"Chiva Josephira"
7204150025,hento4759,Hento
11554525165,srantalsruntulll,SrantalSruntul
3044045188,barbaramassaggiatrice,"Barbara Massaggiatrice"
11556372505,eros10002019,marcio
522237263,penyukakeindahan,
11411574688,riikaaa91,Rika
5500779446,imphotograhy,"IM Photography"
5800856015,dedipapoy_16,DediPapoy_16
9919378572,pejalanjuniortulungagung,Pejalanjuniortulungagung
1207170135,marifatuzzakiah,marifatuzzakiah
1716815400,hefeihong22,"Eddyson Roga | 何飞鸿"
2242166989,bellqiscams,"Bellqisca Maulyda Shalsabilla"
11531990626,flashbackpacker.id,flashbackpackerID
8477786911,_dentoy,"Deny saputra"
11390238180,sininyantai,sininyantai
7069839288,gusdepoto,"ᴵ ᴳᵉᵈᵉ ᴬʳᶦᵃʷᵃⁿ"
11450275585,estrella.romero.73157203,"Estrella Romero"
4053385118,ilham_dwisastra,ids👣
7829524330,mrsrightfeel,"mrs right feel"
8948100502,sumba46trip,"Sumba 46 Trip"
11346304180,tutut.delbar,"Seblak Tutut Yogyakarta"
1431918611,herannycp31,"heranny claudia putri"
8491567967,amongkarman77,amongkarman
10461826125,wrc_travelbandung,"WRC_Travel Bandung"
5973576711,suresh_kumar4684,"Suresh Kumar"
11421389268,scakrs,
538571333,bintangaurel,bintangaurel
4150402129,ilham_maulana_sidiq,"Ilham Maulana Sidiq"
11548499815,mr.holiday_id,"Mister Holiday Indonesia"
772703713,wahyuendartoo,"wahyu endarto"
7052860478,kideechildcare.bintaro,"KiDee Child Care Bintaro"
1818617773,muhrezasubhan,MuhRezaSubhan
8965700063,aafeeef,sekon
5851368531,u300k.sneaker,"SNEAKERS 300RB"
11440274889,adittio_nanda,"Adit Tio Nanda"
7068100032,irpink8,"pipin kurniawan"
7165500238,azhanter24,"Azhary Anther"
3116536799,andikayudha34,pengemudi_muda
10150938841,the_w_restaurant_and_bar,"the w restaurant and bar"
9142508888,zava.belitungtour,"belitung world travel"
10348739974,nheemock,nheemock
2330656429,medan_ui,"IM PARFUM MEDAN"
6341742559,irvan_wardiansyah,"Irvan wardiansyah"
7724551439,kasut.aasid,"KAOS KAKI MURAH PASURUAN"
6585213231,titiklesarianjani,tary
9652688458,mrness95,nesnouss
3503449610,yoris_musling,ym
2244673931,kaktusekulenku_,"jual kaktus murah jogja"
8417021718,anarawata_,
4905334806,devipurnama01,"Devi Purnama"
7277643134,arnawama32,Arnawama
7609835391,blh_tour_travel,"blhtour&travel 🔵"
11442482792,mapay_indonesia,"100% jalan-jalan"
6056541795,arthefake,"Dari Masa Lalu"
10948147222,banjir.followers09,banjir.followers09
1261019428,sant.potret,Noor's
3826438852,kiqpermana,"Kiki Permana 🍃"
1569589825,ghiaafahri,Ghia🍭
1977255272,rk_bordirandfashion,"Rumah Kayu Bordir & Fashion"
5657692519,sipetek.aceh,"AGEN SIPETEK ACEH"
722675008,sandyavolano,"Sandika Maulana Yusuf"
11455321843,cintacintaindonesia,"Jacinta 🇲🇨🇦🇺"
6348551011,ghefira_zaen,Ghefira_zaen
9240163331,njlais,najlairviasyarif
4133215218,cikneng26,"Cik Neng"
3970385624,husnamtz,"Husna Mumtaz"
4811191832,theblitz_distro,"fashion cowok"
4028793569,zona_action_pictrs,"ZONA ACTION picture's™"
5531401388,iis_w_suhati,"Iis W Suhati👞👠👡"
9511109496,rendiasardika,"NEW AKUN"
2218640304,shelliyahra,SHELLIYAAA
11347098840,muhamadsopandi69,"Muhamad sopandi"
8286386700,arsenio_arkhan_cendikia,"Arsenio Arkhan Cendikia"
4277549407,akmalpradipta,"pradipta akmal"
52919968,ronanmcmeel,"Ronan McMeel"
280363526,stevancom,"Stevan Hany Khrisnanda"
8443242349,sayaharuskaya,EdyBusiness
7388761310,____jypick,
5662081125,pesawat_darat,agbelalviano
6124091974,ivansphere0,"Aa ipan"
8710400728,msodik897,"Sodik Sodik"
211783727,liem_wen_yuan,"林稳源 ~ Liem Wen Yuan ~"
4204324553,sanjayng9,"Sanjay Negi"
3246391098,endah.jati,"endah jati"
8245779822,monkican_inframe,Monkican_iNframe
7870060729,real__nnl,EXOL_NL
11448257484,langitemas_,"Ara Langit Emas"
1575630335,rian_dwif,"Dwi Febrian"
1686461173,veichily,Veichily
10408578283,_cemoo_66,"🍁Ýě§ïł Ģőžłűm🍁"
11370005351,suriyaniani70,suriyani
2316816971,tambahkopi,"Tambah Kopi 🇮🇩"
11361919116,amir_12604,Amir_12
10979285477,brilliant.abraham.djaja,"🇮🇩brilliant abraham djaja🇮🇩"
5521219326,natasya6116,"Natasya Aurora"
11296075448,neniluv,"Blog pribadi"
11234318924,medo_adventure,MedoAdventure
4765986284,aipabidin18,"aip abidin"
2342848788,radikuswa49,kuswa
2358964720,fitrahkakmen,"muhammad fitrah"
7503775895,utrshzyx,
4714017248,overseas_civilization,"The Niel"
6892116033,kidnapfabian,"robbie fabbian"
10719637920,dedeqien,"dede qien"
1084008576,malfiry,"ملف رزك يلد"
11377541367,sindi141095,Sindi141095
7837049546,gigi_hanafi,"Lili Tjanagung Hanafi"
11133293571,kata_kata_bermanfaat_,"kata kata bermanfaat"
1832744835,nuhaamasyhur,"AUFANI NUHAA DZAKIRAH"
8709873938,shilaa_zahra,Shilaa
5776495130,waroengchinta,"Homemade Kuliner Medan"
9205015664,nurrudin_gaos,"gaos sanjaya"
6717722567,vicvicachu,
1429699464,hadadalfi,"Hadad Alfi"
10601206259,ridhoapr_05,welder
1489874302,apsunandar,"Asep Sunandar'"
1627267344,cah_kentist2306,"Gathot Kocho Pecah Pyar"
987904977,lindamende,"W ⠀⠀e ⠀⠀w ⠀⠀e ⠀⠀n ⠀⠀e"
3606465790,nobelsayank,"Pay Joe"
11228308359,veselka_photography,"V E S E L K A"
11453056046,andreazeiger501,"andre pakusadewo"
6374586185,ichwan.gyz9,"Ichwan (詹 德 昌)"
6594995725,eki_dzun_nurain,el_fauzy
11425112325,sewamobilpalingmurahjogja,"Sewa Mobil & Tour (HD TRANS)"
10119795702,enkaart_,"NK ART"
5763361642,alhabfar,Alhabfar
3317969844,barieers,"🌹sogaswatye barieers🌹"
6131080028,agus.tariganz,"Agus Perdana Tarigan"
4094353793,alfinsyaah,wolfsky204
5342413172,devi_ayunda14,"Devi Vitria Wahyu Mela Ayunda"
1500254891,alpiyan_ap,"Alfian Ashari Putra"
5415254299,lunaarviaw,Lunar
5665155861,renitadnda_,Renn🌷
1615559834,devi_anugrahpratama,"Devi Anugrah Pratama"
10173979310,xian_6,xiann_
5592453858,belitungarthaatravel,"𝘉𝘦𝘭𝘪𝘵𝘶𝘯𝘨 𝘈𝘳𝘵𝘩𝘢𝘢 𝘛𝘰𝘶𝘳 & 𝘛𝘳𝘢𝘷𝘦𝘭"
1449149467,dnispucha,ooL
7751198731,chicstyle_id,"Chic Style"
4682589571,rianmaneno,Rian
11234854138,nttkitaaa,"NTT Kita"
11393707512,jogjakitaaa,"Jogja Kita"
11229742194,jatengkitaa,"Jateng Kita"
11422393446,jabarkitaa,"Jabar Kita"
11345190856,sumutkitaa,"Sumut Kita"
459104807,anggitwijaya,"anggit wijaya"
8922663279,abdellahmastour,"Abdellah Mastour"
4457056533,zali_rezley,"A. RIZALI"
7563320764,dinoseptiano,"Dino Septiano"
187382493,rezasmntha,"Reza Samantha"
3416138954,krisma_re27,"krisma regita"
1342001292,_bundadari_,"Wahyu Setiorini Purwanto ❤"
3193740948,tukang.fotoamatir,@luqman_firdaus14
3209305635,ka_lemboade,KALEMBOADE
8464693550,gusti.tammam,"Gusti Tammam"
4160707176,nila_mudrikah_,Nila_Mudrikah
11527426245,floresindotravel,"Flores Indo Travel 🌴"
6289275663,btime2id,"Iwan Setiawan"
2228551135,aldii_zoldyck,aldi
1164484587,risevaeva,"Fatmawati Eva"
11526400037,donanur2032019,dona
4636497726,variz25,"Variz25 Tour"
1354100901,alief_yk,/ted.
1540562550,agungputusurya,"Ag. Pt surya Purna Kristyawan"
3567811463,rasyaaaaaaa_01,RahilRS
1411684386,vadriany_vita,"Vita Adriany"
378471962,eva14055,Eva
1379455444,aminkhumedi,"Amin khumedi"
6685683820,jemmi_bagus,"JEMMI BAGUS AJIWO"
11548752775,bernadethcottagekei,"Bernadeth Cottage Kei Island"
10175622444,abdul_basit_25,"Abdul Basit"
3038043162,id_koncodolanan,"Sedulur Tunggal Deso"
9402385048,_nastasia_ice,Anastasia
4439551512,marketandaindonesia,"Marketanda Indonesia"
11399714134,tiketgarudaindonesia,"Find Travel"
11202359048,jamika51_,"Ngetrip | Sosial | Silaturahmi"
6967682833,boyan._,Boyan
11520305955,abbati_06,"zaa,zii,zuu"
11376033820,itsmedre1708,"ANDREW ANGKASA🇮🇩"
7949483870,cv.salam_wisata_sejahtera,"Cv.Salam Wisata Sejahtera"
9052382467,izaz_michael,"Izaz Michael"
8615706499,rinukeko,Rinuk
10942003370,revi_shop31,Revi_shop31
4265733719,jatimbagus,"Jawa Timur Bagus"
270353590,widhaayu,"Widha Ayu"
8936486033,originalphone_,Handphone.original
11312933875,ekasari_053,ekasari🌸
4195262604,aldomaulana7,꧋ꦄꦭ꧀ꦢꦺꦴ꧉
3954991744,vwcenterjakarta,"About VW jakarta"
8695078103,pupudeco,"Keranjang Anyaman Multifungsi"
5549882573,arnamotret_,"PORTRAIT ||CINEMATICA|| VISUAL"
5453134890,astrimegas26,"Astri Megaselpia"
10881457073,yopimcs,"Yopi mcs"
11207094571,mei_xn,MX
2054592853,vtrans_malang,"Vtrans Malang"
1340981071,______syllasb,💐Syahirleil
1715801230,aji_fn,
6904320714,warnailalang,雑草の色
8216432485,ayam_jago_banda_aceh,"DEDI FARM"
8930101064,yogy1996,barberman✂💈
9847946902,robi_kurniawan12,robikurnia-
11131011193,_sasakrusak,.1928
5825158772,mr_yunan13,yoe_nan
1396127782,eva_dew23,ev
8995004939,kamaludinkamaludin583,"k_m@ll/ BDG WEST.JAVA"
11524185488,habibibobby07,habibi
5312658176,lailaantik,"antik  🇲🇨"
11374939105,archipelago_indonesian,Archipelago
3866044749,arya_r.k,"arya ridwan kurniawan"
11229524427,akbar_muzakky,"Akbar muzakky"
2080435049,carlasadattt,"Carla Sadat"
3999895608,rendysilaen_,"Gomgom Rendy Alexsander"
3433633826,aatishmodanwal,"Apana Dullahpur Ghazipur"
3094607937,alvin_muthoharoh,"Alvin Muthoharoh"
9737584255,metu_diluk,"CungCung_Prut Official Account"
2231393521,ambon_extravaganza,"Ambon Extravaganza"
11100284342,ajisajah8888,Jamal
184574347,xt03x,"Tabz N"
6559499852,dalicita_algaranaz,"Dalicita Algarañaz Justiniano"
2116718523,wendi_jambak,
4248972518,santoso_arsy,santoso
6676345168,i_love_the__live,"sergio _bordoni"
9208454105,ad_vanh,Ad_v_H
7778817938,adilfauzan94,"muhammad adil fauzan"
1790059377,rama_ariyant,"Rama Agus Ariyanto"
9138125124,taffypropnex,"Taffy Adlyanto"
11312373771,aceh_barsela.2019,"aceh barat-selatan"
4711380899,laelinuruljanatiam,"Laeli Nurul J.M., S.Pd."
1826360614,hery_hardiansyah90,"hery hardiansyah"
10747724196,anggapradipta401,angga
1950993943,herooe9,"heru chakil"
4216245607,marldienz,sumardinsyah
4064520745,alviidmynti,"Alvi Damayanti"
9704582291,nzsatrio,SatrioN
5351306399,imam.priyo_celanagunung_outdor,celana.gunung.outdoor.pdl
11232650600,tasgonisumut,"Tas Goni Sumut Store"
5693308591,stevenbrahma_story,"Photos..along my way home"
291699513,yoserzlghzl,"Yose Rizal Ghozali"
2160066925,atirotul_wardah,"atirotul wardah"
2633713222,farhanprnm02,"Muhammad Farhan Purnama"
11177157430,wonderful_indonesia1_id,INDONESIA
11294331461,kapanjalanjalan,"kapan jalan - jalan"
5495405887,m.aris.h,"Muhamad Aris Hafid"
6961485495,myclassiceyes,"Tyson Ma"
2952567460,jacktri920,"Tri Widiyanto"
1727747975,aldyputraprataama,"Aldy Putra Pratama"
4185702384,bhiskigian,"Bhiski Gian Pranowo"
8774693520,he.ndri4049,Hendri
9632698698,finding_bima,eka123
9295201368,nikotinalam,"Nikotin Alam"
6197371987,wwaxnnr,
11208355647,zalepik6,zalepik_Photography
11167276747,proses_diri,proses_diri
3566770289,gudegrahayu,"Gudeg & Bakpia Rahayu"
5810337709,acehlagoina,"(ACEH REPUBLIK INDONESIA)🌎"
15833442,kenn_oy,kenn_oy
7861388522,fahrurfarizi4,"Fahrur Farizi"
9781847250,bimo_aji1234,DM
11178254480,indonesia_traveler.id,Indonesia.traveler
5332913322,penginapan_kota_wisata_batu,"villa kota wisata batu"
5761868261,sifalikin,"Likin Sifa"
283232176,ferrypray,"FERRY PRAY"
1460164248,ryan.bungsu9,RAMADHAN
4131913110,fandu_firmansopian,"Firman Sopian"
241547850,harlandbm,harlandbm
2340231026,jefrydarito,"Jefry Darito"
705933882,guntaraerdi14,"ERAWAN YUDI GUNTARA"
5903556961,soma_setiaji,"Soma Setiaji"
288835197,jamestanod,James
1060716668,nasrll27,
9399889710,iphone_x_2019,Hamza_Elmbarki20
11360890621,ynlm___,
241755615,norhashidawaty,"Norhashidawaty H"
11198949452,jalan2cuy,JalanJalanCuy
7526117873,franchytenna,Franchytena
6088101668,septionocahyo,septionocahyo
4151166694,aprilavv,"Aprilian Dwi"
2533180921,karismawanyudha,"Karismawan Yudha"
1532059818,enggalinmut,"Enggalin Novantini"
4489502215,muhamadrezasyauqi_,"Muhamad Reza Syauqi"
1504710977,diasari08,"Novika Diasari"
904319996,denbays,Denny
11355802729,tanahairkita.id,"Indonesia Tanah air kita"
2245960842,octaviaaul,"aul 🍁"
2217231753,wahyu_el_mahdani,"wahyu mahdani"
8507196299,andikapurnomo92,andikapurnomo
1171840889,trish_lopez_bacelonia,Tata
11218411361,okapi_outdoor,Okapioutdoor
10702043736,dr.pakar_herbal2,"PEMUTIH,PELANGSING,MASKER"
3731548852,erik_estrada2004,"Erik Estrada"
8253625977,lestaris_00,"sinta lestari imasyanti"
8497347150,rzka_ocha,Ocha_Alexa
6178489917,anjas_u,"1 st @malikaangel_"
8440166271,ameliairmaaa,"Amelia Irma Safitri"
1465563943,fjrmstqm,"Fjr Mstqm"
8088758331,farah_herbal_tienss,PENINGGI.PELANSING.PEMUTIH
5729271581,safira.fitri.5099,"Ananda Safira"
11101945052,eyecammobile,EyeCam
11155431809,liubimova8843,"Людмила Любимова"
9225916047,irfan.f.anto,"Irfan Febrianto"
8370828757,alaffasyi,"idoy melehoy"
287058021,sumiched,Sumi
10838902395,fakhrilal2605,"Fakhril Dzikri Alghifari"
8345458027,anjasr12_,"Andjasmoro Pangestu"
10825264105,sarangunik,"Sarang Unik"
10651521624,papatrip_com,Papatrip
7017728267,genpisabang,"GenPI Sabang"
7751270810,kumpul_a.r,kumpul_a.r
7289843527,ikanahuway,"ikana ikano"
8081849208,ivelalfath_1132,~FDA~
472060425,banguncardo,"bangun cardo"
7730332347,morethandiscover,
11310052674,nonaktifkan1199555,nonaktifkan119995
1174833955,fegintia,Fe
1278391456,hamzari27,"Mas Agung Hamzari"
1449182160,siskastwt,Icaaa
3119968123,irvanvarial,"Muhammad Irfan Yunarto"
10687671907,ikhtiar.tour,"Paket Wisata Muslim Jogja"
8590772221,sawisendok,"Pak Choy He"
2130812837,xolovelylina,"save photos only"
10708612632,jo.sef5439,josef
2310310365,ririsret,"riris retno"
8780958984,eastjava.supertrip,"East Java Tour (Indonesia)"
3157565086,piqqofasya,PencuBirru_19
7155220877,naminauno,
7193375759,teteh_jalan,#nekadtraveller
3925688689,tomy_pratama_,"Tomy Pratama"
2936286286,wafreett,"Wafi Rohandi"
1648521854,heridaplun.purnomo,"Heri Daplun Purnomo"
1395609998,putsavkus,"putri savira kusuma"
2085312187,desyori_wima,desyori
11335107251,aniamedvedeva000,"Аня Медведева"
11312092710,refpic_09,RefPic
1367652299,ummi_rasyid,"ummu rasyid alfatih"
2126864240,ttari03,"Sri Lestari"
5782572302,pedal_kopi,"PEDAL KOPI"
11294461648,live.your.life.2.the.full,Liveyourlifetothefull❤️
11334283277,masakankhasmelayuriau,masakankhasmelayuriau
8024845211,aprilia_sudrajat,🌼
7070684713,agiska_art,Farieda
6868449461,winspomade__,winspomade
2946668244,rozak28,Rozak
7715513562,sucipto.ramdhan,"ramdhan sucipto"
6031838405,bibss.jasatulis,"JASA TULIS by BIBSS"
6437901994,daniah_manik2208,"kelinci hutan🗻"
7025332903,bandinginaja,Bandingin
1989296574,rosarinovaa,"Rosari nova"
5693777065,shellaa.kp,llak.p▪
443042941,elnard_,"Elnard Alde Berlian"
6255871821,faniafebri,nia
10185201355,wirasage,"wira sage"
2883388521,zaenalmutaqin_97,"zaenall mutaqinn"
1354397184,saythreeas,"Trias Katerina"
1291853434,melly_kho,"melly kho"
5756815952,blackangel.191919,"Elvin  Mamedov"
5427941601,a.m.fathullah,A.M.Fathullah
610013002,marlinaaja,"Marlina aja"
3484119246,lia_qtingpili,"lia febriani"
7399776253,_danynur,
356804738,shendisshufian,"s h e n d i s s h u f i a n"
735945301,novaristiadi,Novaristiadi
2064679835,ervina_ramli,"Ervina Nurhayati"
4165586210,qynara_nlv,Qey
11211560838,copyandgo,"Copy and Go"
6297481481,ahminati,Ahminati
1593622529,muhmmadsafwan,"Muhammad Safwan"
11127422545,diyan_pisces92,"iyan traveler"
10739256424,nice_rio5,nice_rio
4157319756,wawanepic,"WAWAN PHOTOGRAPHY"
10326091953,mfamiliajonesfc,familiajonesfc
9423501148,thenorthface.second,"TNF-The North Face Second ⏺️"
9955066165,grosir_tas_klatenn,"Grosir Tas"
8329207096,haba_bacut,"Haba Bacut"
9183086163,ronysony69,"sony rony hermawan"
2266725087,jolon1985,Jolon
5323372180,semasa.ketjil,"Bunda Icha"
6101836338,_20_dollars,
7200063640,healthytravelguide,"Healthy Travel Guide"
8149402541,dekill18_,"Decky DekilL"
6728603499,phan.dang.aof,sshy
4340262860,silentstyle.co,"#SILENTSTYLE 🇲🇨"
11300220416,anitsmj,T
9276715657,picture.squeness,Traveller
645987025,keanumoor,"Keanu Moor"
3424351879,marintur.id,#travelingwithMARINTUR
863848096,jonijulkifli,jonijulkifli
5687551563,alfanrifqi87,Sam_Boxsi87
1365478022,faroukmauricearzby,farouk
1813464183,ariniwinda,"Arini Winda Hapsari"
11177996522,salahsangkah,salahkira
10468987162,nama7879,nama
2132831565,prass.99,Prass
504748622,ranualgha,"Ranu Alghanii"
1553912437,r_noviana93,"A N N A"
1719956710,benny_shaforstov2,
8727141349,originalspirulina_id,"READY MASKER SPIRULINA"
346363476,trivelliofficial,"Trivelli Official Account"
238770176,rizalrizo,Rizal
11226177274,penikmat_eksotis_alam,Explorer
2116776732,___elmer__,"Elmer Rosario"
7047676352,rinasusmiati,"R i n a"
1352482141,ojoojii,OjoOji
10897473536,_rohmasadara,"ROHMA SADARA"
8105135913,pia_nangka,bakpia
11088630082,gudanghidroponikbdg,"GUDANG HIDROPONIK BANDUNG"
2298506831,siskaaaisyah,Aisyah
5824427692,wisatoid,WISATO
5453128584,sandy_utsman,"Mbah Egon"
992927215,asa_prima,APTA
3000220277,merbabu_merapi,merbabu_merapi
185272939,rmli,"Romly mandiri keramik"
10662394549,saiful_sahrul16,saiful16
1367549827,richie0709,Richie
10109763225,hellaphiia_8,"🌻 H͎e͎l͎l͎a͎p͎h͎i͎i͎a͎ 🌻"
654749939,ellyaoktaviany,"Ellya Oktaviany"
2114229987,ilhmfrmnsyh26,iam
8042593639,sheraa07,sheraa18
6874595829,adymustadi,"Ady Mustadi 年轻的卡斯杜尔家庭"
2767524059,ra.sara,Saraaaaa
637233911,alethearoyann,ALETH
10722085658,emirlanahmetov55,a_u_d_23
1433804105,angela_simanullang,"Angelina Simanullang"
6699916997,nanaanggara16,"Nana Sutarna"
3920428357,adennovalhermawan113,Adennovalhermawan113
6039416188,vidakhnn,"Vida khairun nisa"
10896898020,babycrab_rn_malang,"PUSAT ECER & GROSIR BABY CRAB"
11308754707,aceh.berita,"Berita Aceh, Indonesia & Dunia"
2896264261,ryan_hermawannn,"R Y A N ®π₹"
1901077452,dita_hadit,"H A D I T ....💕"
3042761184,erich_prasetyo_bali,"Erich Prasetyo"
10596002,happydama,"Happy Damayanti"
7971297210,bembalyfe,BEMBALYFE
10896418435,yoy94,Yoyo
10622638686,rusdi_alhadziq165,"Rusdi Alipudin"
8254753382,balinusapenida.travellove,Balinusapenida.Travellove
3686039428,barbershopjogja,barbershopjogja
7237616048,duacahaya.tour,"Dua Cahaya Tour & Travel"
4172011791,wonderful.indonesia.1st,"Wonderful Indonesia"
1390467941,hardi_deliora,"Hardi Deliora"
7737779485,finnwolfhardooo,FINN
2338188668,mimi_pitoyo87,"Mimi Pitoyo"
6233015802,chendri28,Chendri
10324420349,ita_marshal,"Rita Mariana"
8032818090,rustendi.diki,"Diki Rustendi"
7333801112,sahaborneo,"Saha Borneo"
5945197376,agung_imade,"imade agung"
1661486237,octo_immanuel,"Octo Immanuel"
1958137137,rdnmsbndl,"Febri Alamsyah"
3537130503,rivan29_traveler,rivan29_traveler
9403098576,santikaglobaltravelindo_,santikatravelindo
5938433591,hanifahdaa,"هنيفه دووي استوتي"
5380353966,uninay20,Kurniawati
3638284211,elsa_oshin96,"Elsa, S.Pd"
4828778168,pesona.acehh,"Pesona Aceh Indonesia"
1934529573,titinchandra__,"titin chame"
1786777607,ridwanonelis,"Ridwan Nur Kholis"
459312658,echyberlianna,"★ Desi Berlianna Sembiring  ★"
10618479557,yassier_nugraha,"yassier nugraha"
3268400309,batiktrisnacirebon,Batiktrisnacirebon
11307771227,utina_87,utina_87
10963338702,acikosmetik,"Toko Aci Kosmetik"
11112751569,nonaktifkan1115221,nonaktifkan
2055058825,mapogalmegi,"BABY GIE👼🏻"
11189128807,callme.mustafa,"Mustafa Ammar Santoso"
3621848749,nilahkm_,"Nila Hikmatul Ulfa 🐾"
6499394158,mea_unis,"UKM M.E.A UNIS TANGERANG"
10695259312,rerecarwashrentcars,"Rerecarwash & rentcars"
7381708430,angela_alfianti,"Angela Alfianti"
2293543308,ahmadsobari27,"Ahmad sobari"
11198425163,mbatik.jogja,M'BATIK
3197808022,faisal_nadin17,faisalnadin
3976531564,irawan5752,"yadi irawan"
7036120505,amjd6848,"آمجد آحمد"
10867189649,kembangboled1,"kembang boled"
4243628106,pluto814,Pluto
4272917222,jakly_videma,Jakly
4349035644,andini_vidia_putri,ارباندي
8137477377,nsatiana_,nisaa
3452045543,tntrndo,N.D.O
1502493232,digital_gonad,"DG Life"
8177549559,_thking_28,EIDERSCompany
4171163489,dhanyabaysoeteky,"dhany bangun w"
5916719724,torikulfahmi,"TORIKUL FAHMI"
10341738257,dio_7.2,"Rivandio N. N"
4004501309,ren_pasaribu,"Renta ayu friska Pasaribu"
8009020860,pedi94596,Darmawati
11104959385,arcalaneofficial,"Daydreaming Enthusiast"
1653860479,lisaintan_,"Lisa 🐣"
6227392924,nikenize1_,ize
1442063947,_itsteti,
3515672256,yani6361,yani
314719506,dhuhaaprilianto,"Dhuha Aprilianto"
10962215697,1001pesonaindonesia,"TRAVELING INDONESIA"
6113652451,iwan_hardy59,Wan
9425802780,e.rahmalia_elly,"rahmalia elly"
11120863073,peninggi_badan_murahpol,
561420534,kinjengoutdoor,"Zainal Emonth Rizal"
8412885583,anggchyfebrnt,"Anggga cahya febrianto"
5496219165,widipru,WIDIANTONO
2211102238,berasbasahisland,"pulau beras basah"
6060460181,traveler.doctor,"traveler doctor"
10845310274,d_moris90,D_moris
5812471754,cutsilviar,"silvia auralia 🍁"
7977441369,dsunshineshine,sunshine
10357423368,evialviahsantika1994,evialviahsantika
1611656318,s.komariyah,Skomariyah
2914686566,lilovejc.anto8,"li anto"
5813828427,argyacaesarawati,"👩Argya Caesarawati🗼📷"
1360377902,mardaniyusuf,"Yusuf Mardani"
602397659,romy_nathanova,"Nathan Fam"
5380249660,island_addict1,island_addict
4177701292,juanmonsavelez,"Esteban Monsalve"
1379149432,bhrl__,"محمد بحر العلوم"
2884296306,wahyu_taufik,"wahyu taufik"
10707089961,suherman_allex,suherman81
2313345781,putridh12_,"Putri Dwi Hartati"
11339712212,soyan_gunawan,"Sofyan Gunawan"
1983145677,thisisnotzaraaa,Disa🌸
11172483435,traveler_mania7,traveler_mania
5482530396,agamadisetiyo,"Agam Adi Setiyo"
3294435352,sitinikmah27,sitinikmah
2845894482,frengkimeisandy,"Frengki Meisandy"
8235714091,syrine.samy,"Syrine Samy"
11320801419,nsks232019,jose
2231836871,rayhan.arazi,"Rayhan Arazi"
10816315069,famali_fm,tvoya_lybimaya
1585586725,sarep_arthur,@sarep
11126742027,totongsot,"Blawah Bleweh"
7325424292,pasarngingrong,"Pasar Ngingrong"
2230735203,cutiezdoll,"Cutiez Doll"
4621272440,akkawp16,RapperTengil16
10890526361,ela_tiketpesawat,"Tiket promo.tour.discon"
5552152444,07_hijrah,😊
4492843399,rhino.__c.__m.__,"Rioversan wate"
5634429008,rani_mewengkangg,neng
9670673035,fauzisumah,"trip tour around of Indonesia."
2026714702,indinvti,"Indri Noviantini"
6280495765,ferdian_suminar,ferdiansuminar
1696313460,ladys.slipper,"A Susana"
1723724190,farhan_crz,ＦＡＲＨＡＮ🔵
7416419336,_aryada05_,~MuhammadArya~
5803997002,padangindonesiaofficial,"Padang Indonesia"
10470754336,abdulhapisnasution_new,"Akun ke 1 ditumbangkan rezim"
8175745678,sekenan_wanjae,"Semarang second outdoor"
5765225785,edigoekilmadridista1902,"edi setyawan"
7826864170,jimmym0t0,jimmymoto.com
183651272,oetjok_harahap,oetjok
8568077135,yuni_rahmafitri,"Yuni Rahma Fitri"
6021440315,d.o_pinguin_,"Do kyungsoo"
5376597574,anissaayrn,níssα🍑
11136148826,de.li520,DeLi
2071895622,aguybatita,"Aguy Batita"
11099517298,ulenz_kumiss,Ulenz_kumiss01
11288723100,chinguol.shop,"Chingu Olshop"
6657653779,bayu.istiawan.52,"joshua bay86"
371006284,fahryrahman,"Fahry Rahman"
8500554895,bekasi_outdoor,Bekasi_outdoor
8448373524,lingkardompu,"D O M P U 💛"
4916591225,rouwsimpson,"simpson_rouw (dai)"
10976872886,awandra88,"awandra gunawan koto"
6065569469,rangga_anjaari.m,"Rangga Anjaari Mahbub"
1664408543,lukmanhakimsofyan,Lukman
7167784840,asiska17,"❤ Asiska"
10930040893,godlybrandincfanpage,"“Are Culture Is Contagious”"
1608285338,akhmadbenny,"Akhmad Benny A."
11161139484,nusantaraku.idn,"INILAH NUSANTARAKU"
10088116556,liburanhiburan,"Tempat Wisata Alam Rekreasi"
7944278144,supermaskspirulinaorganic,"PRODUK HERBAL"
4342468592,adewoktavia,
604764703,kefaschandra,chandra
5740445113,mustofa_broo,"Mustofa Adi S"
1413949203,kibe169,"Navri Kibe"
10008789791,wanitahikers,"Wanita Hikers"
8506607611,sketsa_hunianidaman,"Sketsa Hunian"
6247544139,rentalmobilpadang.id,"YUDIA RENT CAR"
5541271450,kuningkemerahan,
4099944524,adit.sumarna,"Adit Sumarna"
2247908296,nagatho_fandhi,nagatho_fandhi
7676987396,niindajourney,Aninda
4253215639,robertusbramanto73,"robertus bramanto"
2202139371,seni.letter,SeniLetter
10835403003,ridwanabdullah012,Ridwan
9293137817,yhozhi0609,yhozhi0609
2532321105,wakim_chi,Wanny
11306777345,moh_zamzami93,"Mohammad Zamzami 'Urif"
3607678217,azrul_garisdepan,Asrullah
10809159072,multazamahmad26,Azam_Multazam
464438664,wahyudwiswarna,"Wahyu Dwi Swarna"
6009674688,haavih,monicarevi(little)💛
2228072923,catur_z13,Catur'z_13
9296874757,suplyaff,"Afif H. S"
275178384,lita_heatubun,"Lita Heatubun"
10563926415,bigbosss378,Bigboss
1536199480,aplusiaa,루시아나
10479742542,bagiinfoto,Falisha
1070238146,yakobusarief,
4358708543,m.aulana_,"Arman maulana"
6805181693,annisa__rachma_,annisa__rachma_2805
434367184,cmyk8888,cmyk
1504082910,fauziakbar.ozi,"Fauzi Akbar"
4395074793,syifaalyar,"Syifa Alya R."
8393033287,hannyw2018,test
6049157563,khanza_tsabitha_arsyila,"Heny Rahma"
8220872833,tarawij,"Tamara Wijsman"
4054005407,collectalins,ectalin
380788015,budsanta,"I Gst Bagus Putu Budi Setiawan"
10891299155,yama.luk,"Łukasz Łowkiel"
415577705,agiellz,"Muhammad Arief"
6834139893,sujitrans_rentcar,"RENTAL MOBIL SBY. 081336538641"
9287128439,yourrealbuddy,Stranger
10912816786,qwalysehati,"Q Waly Sehati"
1974887088,firafjrn,
1252008688,faridahanumlest,"Farida Hanum Lestari"
3998727662,doto_susilo,"Doto Susilo"
9309135816,banghokilg21,"Sutrisno OK"
9029949293,greenmakmur,"Villa The Green Makmur"
743366252,nonnyntank,"Lintang Swasti"
10844849861,hatripva,"HATRIPVA Official!"
2275458522,bayuadrian7,"Bayu Adrian"
10575292402,chaaalin3,"alina putri rahayu"
6868474938,dwianton77,dwi
8653429265,mogultours,"Mogul Tours and Travel"
10499384491,_gtfstoreapps.id_,#testigtfstoreappsid
9918492216,dreikoee,Dreikoee
1691367409,alfanhirzan,Alfan_hirzan
9016646235,sji_tour,"SJI GROUP"
4047936963,anna_febria,"Ana Febria"
9870885568,photret.idn,"Potret Indonesia"
4151377847,maxmilllianus_,"Max Tanudjaja"
2264747785,perantauplatg88,"muchammad lutfi"
8374551027,kosmetikswedia_1,yusdhinar
7753932734,arekaslimalang,"AREK ASLI MALANG"
11147930268,edlen92,Edlen
2299890435,bee_shegara,Shegara
7054701614,ghitgitha26,"tha. 26"
11052998916,arch_projections,ARCH_Project
11074559528,live_photographyofficial,"@Arieff_  ( Photography )"
1647798041,official_garutadventure,"Garut Adventure"
2072218167,irwantendean,"irwan tendean"
4583146696,munifacturene,"N I B"
2278599823,yuanitaptr,yuanitaputri
9066309550,karmillabailusi,Karmila
10977784807,agunggalery18,"AGUNG GALERY 18"
3437725611,rahmansyahalvins,"Alvin Rahmansyah"
309138186,garinfarras,Garin
6210471164,budisme_,Budi
3179771369,odi_rl,"O D I  L I M"
4172572304,rizalwattimena,"Rizal Wattimena"
11068575589,primaglobalturofficial,"Prima Global  Tur Official"
7209943004,noliz_fashion,"PD. NOLIZ"
3545784046,odingnasarudin,"Oding Nasarudin"
9684808276,jywgsa,jayawangsa
12008709,ritasuntpiet,ritasuntpiet
5662948079,faisaladitya_1,"𝕱𝖆𝖎𝖘𝖆𝖑 𝕬𝖉𝖎𝖙𝖞𝖆"
1659305892,refenagung,"Refen Agung"
3885212722,nandafathya_,
8264710495,sutoni9318,sutoni
303309571,unielalala,"Junie 🦄"
11160440407,nonaktifkan119995,nonaktifkan
11140129771,indonesia2949,"Alam Indonesia"
2781834764,zulkarnaenizoel,"Zulkarnaen izul (zung)"
7734982050,kurnia.wedding,"Kurnia Wedding Organizer"
4143106891,ran_phonegraph,sangpetualangjava
1554736785,aipp17,"Arip Rahman Hakim"
1691307186,ricky.brugall,ricky_JR
426661844,putri_ziora,"Putri Handayani"
2927762922,ahoknyiaga,"ahok nyiaga"
1938298451,wahab_abdi_savana_scheva,"WAHAB ABDI"
6952358052,sudunggurning,"Hasudungan Gurning"
2074440248,littletitof,"dr. Tito Fresly, Sp.PD"
7931143701,zullu11,MILO
9122817508,susilawatsiti,"siti susilawati"
2981274337,makhrus24,"Mohamad Makhrus"
9030917464,m_adityasaldi,"Aditya Saldi"
11110660068,arianto8380,arianto83
5514598398,aanjanwary,@Aan_Jr
10915047970,abdulasis014,abdulasis
5813606840,iiwangg,
5785249495,kangbokir_,vian
1268640729,eghaa14,eghaa
3955046951,douth_99,Douth
1231088002,ajengsantiara,"Ajeng Santiara"
1729504049,choirulmarom92,"Muhammad Choirul Marom"
6989047923,mndacollections,"MNDA Collection's"
4352114006,andyhermawan144,"andy hermawan"
11121163011,ocis_itp,
992063034,joniiskandar30,"HOMELAND TEAM"
8724230561,dewi61215,eLTa..
3593542307,afifrm_,"Afif Rahman Mauludin"
3566454461,_huzaima,ima
11105913433,honda_samarinda.id,Honda_samarinda
11064552960,cocociep,
1926302444,cendrawasih69,Silent
10017686206,mahendera_96,Mahenn
10186737551,ubrochika,"Chika Fransisca Ubro"
8497102855,syahdu.___,"🍁Ope ainung"
10943006903,siti_marqonah,"siti marqonah"
10722941901,dony5101,govinda
4141948122,saprinpardede,"Saprin Sapdan Pardede"
7053221872,arief.priyanto.503,"Arief Priyanto"
6671552470,etta__homan3483,"love Tigor and Rafael"
10853189446,ud1ty44lf1n111,UDITYA
2140544960,iin_rahmiati,"Iin Rahmiati"
6595844085,sampahaquaharus_dibuang,aqua
6154535128,alif_julfikar,"ANOMALI JIWA"
1532034649,perutnyatotoro,Anggie
1811938691,eka_widyawan,"eka widyawan cahya putranto"
7168885499,doelup2date,doelup2date
10942350762,hey_gus_dur,"agus salim"
10929567727,castronnicoo,"Nicolas Castro"
9896734378,xx.bnc.xx,thinkerbell.eri
2143682878,caveman.guy,
573064562,elisavulp,"Elisa Volpini de Maestri"
10811065246,sanlatf,"PESANTREN KILAT"
3250585518,madyaharun,رحماديان
2068655023,freegaters,"denny wijaya"
9897097034,darmawandindin_28,"De Leboy"
2438249664,andhiarkdz,"andhiar kinda"
2056687612,anoy99.aa,Aifah
6203578603,trisunantonanto,"Trisunanto Nanto"
6046690567,travel_spots_luxury,"Luxury Destinations"
1332029592,aaronssop,Cantikpreloved
11119225655,m.chaerul_mtq,"M Chaerul Muttaqin 🌱"
8521002619,mulyat_i,mulyati_-suriyani
1831190738,irham_mattaraga,"Irham mattaraga"
10821053954,neo.customdesign,"Custom Case, PB, E-Money, Kaos"
4512119763,izmancasual,"IZMAN CASUAL"
7015751018,postcards_to_home_,"EMMA | ASHLEY"
11096388099,clowygavrilatopayung,Clowygavrilatopayung
7722457724,viscom_r,
5595717798,botoltumbler,"Tumbler Botol Minum"
6260991219,yarizkia,yarizkia
6427349195,anezka_silviana,Si
11150552531,jackslaluoptimis,"jack slalu optimis"
1272954504,lynn_dani_12,"Makhluk Malam Bangun Siang"
3555897062,a.n_hidayat78,
2137422756,lelly_see,lelly
43562679,dokong96,"Dody Dokong"
10587621909,jelajahnusa_official,"Majalah Jelajah Nusa"
1984287121,ldy_marliani,"Lidya Marliani"
362742166,reiny.rei,"Reiny.rei 💮"
2272330564,mirip.anton,"anton widianto"
8334752416,victoriacase.id,"JUAL CUSTOM CASE HANDPHONE"
3166395889,imung.99,imung.singgih
456496475,ajengbudihayu,"drg.T. Ajeng Budihayu, Sp.KGA"
1383263502,erlinsandrian,Erlin
9147468756,the.rors,ROR
8197691143,sindysandora23,"Sindy Tarigan"
6323580892,moch.ridwan17,"Muhamad Ridwan"
345737931,irenetatyana,"Irene TS"
984864963,nuri.nz26,💖💚💛❣💚💛💖
2017253907,alhakimmangundarmanto,"Muhammad Alhakimmangundarmanto"
4180518805,sunny.happy.dianochka_,Diana
6427555556,laiaabil,Łaia
766683191,meisripurnama,"Mei Sri Purnama Manullang"
5740018098,arief_b_prasetya,"Arief B. Prasetya"
7824875502,ayamgeprekgarasi7,"Ayam Geprek Garasi7"
5711151793,jawadwipa.mlg,"Anaphalish Javanica"
3546298233,fitrimanafe,"Fitri Manafe"
2059944872,herlina026,Herlina
3189144338,_gunturprasetyo,"G u n t u r"
3883755903,daihatsu_sahabtku,"DAIHATSU ACEH CAPELLA"
9673683015,everyday.traveling,"Everyday im Traveling 🌏"
5389208176,zurniatiyanti,"Yanti Zurniati"
3282051800,apriliakstnti__,애프릴
287303021,yudz33,Yudi
264012897,amran_munawar_lutphi,"Amran Munawar Lutphi, Amd"
10465365088,bang_rahman45,"🅰🅱🅳🆄🅻 🆁🅰🅷🅼🅰🅽"
8574923971,anesfeoh,yohan.alvander🖤
11144544510,agathamitrawisata,"Agatha Mitra Wisata"
6916433557,taufikfaqot87,"Taufik Faqot"
2269616107,faning_27,"Fajar Suryaningsih"
4945785585,nugraharizal93,رجل
3532206324,agungprawibowo04,P_Agung
11043726460,bangsataibgwdibuka11212,"BANGSAT AIB GW DI BUKA"
512838846,saftapamungkasarianda,"𝙲𝚊𝚕𝚕 𝙼𝚎 𝙰𝚛𝚒𝚊"
6963304564,mxb.st,mxb.st
1391872489,darsonay,Darsonay
260036451,iuliatravellife,"Iulia Cruceriu 🌙"
9755904235,pari_gutili,"Pari Gutili"
10700359037,briookta,#Brio_Okta#
1587770770,ones77shoes,Bismillah...
370301013,now.imah,"penulis buku now or never"
6902788778,maisaroh8105,"siti maisaroh"
4630219861,sabilanp26__,"사비라 ON🐹"
10402233064,reonaldo_gaudenzio14,"Reonaldo G. Renwarin"
6829452866,horas.munthe,"Saut Horas Munthe"
1517643047,rayaqueen21,"Rhaya Queen"
5502589834,farhanjulifio177,YOO..
4323453774,icanmerajut,"I can merajut"
11104986594,naufalafandi.18,muftikhalim
10937317892,felishafbry_,"F E L I S A-F E B R Y"
424110089,titinur97,"Titi Nur Aeni"
2194753894,hasanalbar27,hasanfajrialbar
4076373060,awengsoekamti,!
1121567971,bullet_wala_nishant,"Nishant sawant"
10724967059,romansa2019,Frans
8753579218,setyawida,WidaSetya
10963778919,andi_ka85,andika
8796117805,praqualquerlugarblog,"Pra Qualquer Lugar"
10637462645,is_mail6369,"isma,il"
2241200563,sulunggg88,Sulunggg88
10721132578,photographyrori,"🇧🇪 I am Rori 🇮🇩"
8342468031,__mr__local,"R.ALBIN  B.sc vis com"
7005915894,wayanwidhicebol,"wayan widhi cebol94"
10948804787,travelindoinfo,travelinfo
7122674351,dista9510,dista💋
4791237605,ingsgarden,"Ings Garden Gili Air"
11119089380,pendaki_milleniall,"penikmat alam"
11066412054,brodin.inst,Brodin
3774451900,dewii_dilen,"DD Ende"
1584432164,magangjepang_medan,"Josia S Silaban 🏃"
7791611382,pt.bankdbsindonesia,Debtcollector
6667124249,ecan7036,"e candra"
5805282855,irahlaltravel,"IRAHLAL - TRAVEL"
1820561439,dimasdprm,
1689702362,al_mudd,AL
6661217529,intan.ren,"Renita Intan Safitri"
8799754942,three_kingdoms_of_soe,3_suapRaja
645805599,febryanjar,
2013547815,rendyariwibowo,"Rendy Ariwibowo"
8587575571,atiknurullia,"atik nurul lia"
1518014646,stevano1987,
2346073126,andidehanif,Andi
8061567925,fauzana_hjdin,fauzana_hjdin
2064733043,ve_vd0419,Venny46
9216496134,ddyerin.unch,"charisa anggraina°°°"
8236897270,kiki_pebriansyah,"Kiki Luki Pebriansyah"
11056781435,topirajut.id,katalog_topi.id
1754013717,bonita_putri_dhvd,PUTRI_DHAVID
2248146770,adamsurya5,"M. Adam Surya"
1943440104,lailazulfa15,Zulfa
3774216595,gregoriusdwiprasetianto,anhen213
5343366624,saphiraadya,"Saphira Adyarini"
2069689347,wait_garden_cottage,"I Ketut Tunggu"
5008368155,hubaib28,"حباءب ثوري"
4368887661,denipras11,"deni ananta"
1274712545,suhayatinisa,"Suhayatinisa Nisa"
5688370915,tari104,tari104
4032223306,_yoenalarcon_,"Khairunnas Abdurrahman"
8371249253,patrice.nogues,"patrice nogues"
9130112338,adamz_pic,"Adamz Pic"
7591821443,adamcosep,"Adam Cosep Khundokar"
8709065391,hasibuanputrirahmadani,"Putri Rahmadani Hasibuan"
11131408192,dlfrmnd_,"DILA FERMANANDA"
2362062378,a.ghazy_,GAJI
5790875946,unlivic,"𝕌𝕟𝕝𝕚𝕞𝕚𝕥𝕖𝕕 𝕍𝕚𝕔𝕥𝕠𝕣𝕪 (Etom Kano)"
2964529682,afrijal_rizky,"Afrijal Rizky"
4864869051,diahkurniayussela,"diah kurnia yussela"
1597838361,rm_lancar,"Rumah Makan Lancar"
4097032516,wahyuwening,"Wahyu Wening"
6707206935,setyawati1998,setyawaty19
2036269304,wazar_88,"Wazar Achmad"
3722747693,vlans_airbrushing,"vlan's airbrushing"
10955433973,fauziakbar612,"fauzi akbar"
602143075,dasmiral11,"Dasmiral Syarif"
11072018799,saung.piknik,"Saung Piknik"
2016426691,maryy.guev,m.a.r.y
2281451822,framlief1290,framlief
3667747380,rudi_suhen,"rudi suhendra"
3760322678,rhaa_ierhaa,Ra'
380508069,tseptiani,"Tri Septiani"
5526203446,atiikaa_23,
353181031,the_quickers,the_quickers
3040692867,malem_diwa_aceh,"Malem Diwa Aceh✂💈"
1747147897,frisca_mandagi,FRISCA.MANDAGI
3254074992,waknangpoto,"محمد ناناغ هاشيم اشعري"
9212859733,furniture.kursicafe,kursicafe.mejacafe.retro
9404152579,triyyawahyuniii,Tri♥
2291936038,wuijaya,wuijaya
1423841541,veny.f,"Veny Fitria"
9772078196,dindanabil29,......
3578950872,watubale_wisatapanduruan,"Watu Bale Kebumen"
10448648036,ozif27,ozif
1464441749,lee.x.c,"LEE XC"
2243735192,travel_malang_batubromo,"RADJA WISATA TRAVELINDO MALANG"
240613796,angie.im,
7982445540,gpras22,
5919636348,ayudzik_,"أيو دزيكرييا"
6649750393,bagvsfeb,"💈Bagus Ibrahim"
603109600,cahyonowidodo,"Cahyono Widodo"
2040645778,al_vicky17,AlfredouVicky
1647209378,kahtacard,"Box Kemasan Retail"
2130220418,oaheey,_|_
7150533385,ahdatmarley,"ahdat marley"
3116808750,nadiamaulida_,"N  A  D  I  A"
9230787,august88,Andika
11066955903,kopa_asahan,KOPA_ASAHAN
10624297936,travellembangpro,travellembangpro
8165464078,hadisofyan40,"Hadi Sofyan"
8058116419,phoenix999_msa,"Muhamad Syaiful anwar"
10939404241,_dusfox,int_fox
11098993287,penaalamadvntr,"Pena Alam"
11107864838,si_nicooo,Nico
1322518528,rackamahendra,"Leo ♌"
1771620494,udy_1304,"Tarmudzy (udy)"
10192666154,marbunjiko,"Jiko Marbun"
4556535771,the_great_aminah,"Siti Aminah(calon-jenazah)"
6362965707,ichsansabil_,"Ichsan Sabil"
8899013886,pitria_pc,Pitria
4297783798,kalderaoutgears,"UD KALDERA"
1297763527,emilaubrey,"Emil Aubrey"
1691286695,feby.amasia35,"feby amasia"
1134025262,jsbayuanindito,aninditobayu
1958962410,adira196970,adibahabubakar
11040876549,sehell99,"WHO I AM"
11070480681,saifulamri9594,"saiful amri"
11084257702,mandanoke,pengusahamuda
10957657503,triple_a_tour,"triple A tourr and travel"
3986608839,ri_yanti23,Riantini
635501176,edwardhendra,"Edward Hendra"
104820303,pittyafm,"Ayu Mandarasari"
3063087600,ekipratama151,"Eki Pratama"
4578366584,karadeniz.guzeldir,"Nuri Yazıcı (Dut🖐)"
26791186,alteku,"al Bert"
8063521271,sofia_dhawan097,Fia
11050195444,ryustriani,RonaYustriani
1990625138,dyadyo_,"Diana Ulandhari"
2045088067,peidewana,"pei dewana"
1221127133,yuiiiika__abdullah,"ika Abdullah"
4576554094,shandishandii,"shandi oliver simanjorang"
7924810279,afifah1431,afifah_husna
10867741721,putririskashop,bandaacehmurah
8674294732,noviantiromadhoni,"Novianti Romadhoni"
10929115303,sunset_bargrill,"Sunset Bar & Grill@Pulau Weh P"
10921636739,mhmdazkaa_27,MhmdAzkaa
6036786748,sansan_2580,"san san"
2296455991,chyomnoppo_,ⒸⒶⒽⓎⓄ
10902270442,amakmach,AmakMach
2242432065,fadli_dp,"In My Dream 🌈"
9731082849,gallery_ririn,"RIRIN GALLERY"
5588415123,lia111008,"Lia Hendro"
1962346379,sukaikhlas,"I K H L A S  A M A L🌿"
10733702697,auliadayanti_38,dayan
1536510543,andllyni29,"Eko Rizki Andilliany"
10747863776,travelleraddict_indonesia,"Traveller Addict Indonesia"
5153189539,papsbyzar,papsBIZARE
8582214653,sedulur_jokowi_pangandaran,"Sedulur Jokowi Pangandaran"
999541602,elissabethclara,eyiss
1737264921,b5rds,"Bima Rds"
2952116567,luluk_1221,Luluk
1500555829,candra_kurniawan_akbar,"Candra Kurniawan Akbar"
3574008498,rhini_ve2170,"rini ibux e verena"
4491059757,tetiana.zahaietska,"Tetiana Zahaietska"
224137717,khwarenah,TX
7987385844,belum.kepikiran,"Vicky & Bernie"
5477979353,asmah.ulhusnaf27,"Asmah Ul Husna Faronsyah"
311412613,der_hati,Gerhard
10912803712,danielnoldy.s,"Daniel Noldy Sutroadi"
10926842169,kharismatik_hijabers,kharismatik_hijabers
1682868363,vennylaura21,"Venny Laura"
9028479465,ayukitatour,"AyuKita Tour & Travel"
10979280594,sisiromanda97,SisiRomandaFitriya
10196897099,tf_adventure,"Tf adventure"
8888534901,maz_yudha10,Ardian_B_Yudha
3963866388,andi.mh,"Andi Maulana Hidayat"
2176459857,princes_jutek,"Andi Fitri"
6011618164,ratihrevhatania95,RatihRevhatania95@gmail.com
8889631534,adithahaq,adithaha
6211034887,lia_ns1011,"Lia N S"
1504168454,viviiherawati,
7370068292,j3olq,"حمودي العراقي"
10327383741,jokowinners,#jokowinners
5877665255,okisuasonow,"oki suasono widjajanto"
5969886134,kentos0909,Kentos
10028017177,novarmorotai,"Novar Lastory Morotai"
1607970886,bet.sw,bet.sw
3577536916,irahlalmaktabat,"Irahlal Maktabat"
4827336120,ayik1203,"ayi'1203 08563466985"
11052161802,aldomaulana27_,꧋ꦄꦭ꧀ꦢꦺꦴ꧉
10965616625,mblakrak_soerabaya,#mblakraksoerabayacuk
10914820642,yusuf42183,yusuf42
1632288811,jimmyprawira,"Jimmy Prawira"
3931999158,donnybsusetyo,"Donny Boedi Susetyo"
2190497203,yayastegil,"Zulfi Yahya"
3210624880,rima.wanti,"Rima Wanti"
2096216440,aura_mutiara13,🐾
5865248645,hitraveler,"PESONA INDAH INDONESIA"
2272239221,enimalika2015,eni
8951302592,brewanakmalam,"Brew Anakmalam"
7267046361,munthejonro,"Jonro Munthe"
187618370,en_les,"Endang Lestari"
7941320047,rkriswanti,"Rini Kriswanti"
7909494161,andreasyanuardi3,andreas
2010566739,saptajejakpesona,"Sapta Jejak Pesona"
6681458621,mami_wiranta,"Mami Al Buchori Wiranta"
8369214916,spamyunicorn,"spam yunicorn"
1950711759,afrialis_w_yahya_24,"𝓐𝓯𝓻𝓲𝓪𝓵𝓲𝓼 𝓦 𝓨𝓪𝓱𝔂𝓪  ™"
10746375101,jaya_tourandrentcar,"Jaya_TOUR & TRAVEL"
11086456542,dohyungsoo_,D.O
260730546,aliffryamizard,"Alif Fajri Ryamizard"
4621335589,_afrizalardiansyah,
8581419868,ngurah506,"Ngurah Ari"
7856162765,200_www.the,nika
3972445661,galihaby65,galih
3585074401,rikadwi.a_,"Rika Dwi Anggraeni"
2266328977,ridwan_fariadi_harahap,"Ridwan Fariadi Harahap"
5410011771,wandissiagian,"Wandi Sardino Siagian"
9877052535,idazein78,IdaZein78
2320469736,fajarpasha8,"Fajar Pasha"
10743559332,fadlialmalik_,fadlimalik
1714105427,rka_store,"MASKER JERAWAT  15K"
7346597403,kacamatagayaa,"KACAMATA DIBAWAH 100K"
8072869296,asuryanag,"suryana g a"
6332327836,mazmurdiman,"Sepatu Sandal Murah Jogja"
1981774417,daffamaulanaaa_,"D Λ F F Λ Μ Λ Ȕ L Λ Ν Λ Η"
3657567662,fenta_mince,"Ferry F Mince"
10873547883,johnnmikee,"Michael John"
4419642647,mambora___,Mambora
1527895990,adechandra11,"Ade Chandra"
9238120852,botak_haw20,haw_botak
3977394271,yadisaxa,yadisaxa
1289240822,silatserak,"Silat Serak"
6069082051,ping.0522,"Ping Kan"
1211561430,ilhampolong,"ilham teguh wahyuda"
7089552172,alikaram555,alikaram
5007539981,kisahfrisco,"Frisco Imanudin"
7877014547,apriano_rino,"Rino Apriano"
5434464599,tedy_riskiyanto01,"Bhetet || Si Monyet"
4256891116,melani_al20,melaniamalia
2039262140,evawildan4,"Soraya eva"
9294933057,amazingdieng,"Amazing dieng tour"
4150849207,firmannurwahyu_,"fireman 🇮🇩"
4562312786,wijianjar,w_jianjar
10843070104,nonaktifkan11159911,"nonaktifkan 11"
8303528908,samrikho,"Wisata Jogja"
787636322,ssmyname,sheenashasha
6833542687,efbika,"Efbi'ka Aji"
5746168599,tom__fw,Tom
8917756079,jsungkesuma,"Redy, Rizki P. Kesuma"
401172950,enricochellino,Enrico
10743236625,kaolinsoon,kaolin
6339775813,kaynunahijabstore,"GROSIR HIJAB MURAH BANDUNG"
5652049609,hilmikh_12,H
10850241971,maknyak66,MakNyak
9901774387,noviyuli3,"Novi Yuli"
10754059637,sv.personal,SV
11082416732,merbabu_purworejo,"MERBABU DISTRO DAN OUTDOOR"
3170368825,aceprisman28,"Acep Risman"
10893117355,mjamilmile21,"jamil mile"
5972039316,yayuk.srirahayu.1213,"Yayuk Srirahayu"
3099027963,gunawanjuniarto,"Gunawan Juniarto"
10834590396,banned_rusak,banned
9243987256,eksalby,Eksalby
9007950994,fanimaria250389,fanimariya
3045662342,mutmainah1912,mutmainah😚
10753099091,curugcikuluwungberseri,curugcikuluwungberseri
7451144427,septianirana,"banana 😙"
297323477,agensarlemjus.tin,"DISTRIBUTOR UTAMA SARLEMJUS"
9928773449,annisa2598,"Annisa rahmawati"
9404806439,blessingtravell,"Bless Tour & Travel"
2214802774,tfkbudiman,"Taufik Budiman"
10887274835,indonesiaa_view,"View of Indonesia"
10572541282,junkeyzz,Jun
1185843753,kaneka.shop,"your daily outfit"
10715818739,zona.traveller,"Zona Traveller"
2036457822,iqbaltaufiq_,"Iqbal Taufiq"
1284447355,sasuka.collections,"sasuka collection"
7663511458,sautaan,"Saut Aan"
8632352864,danautobaindonesia,"Danau Toba Indonesia"
10460515537,az_yoez,wTcproject
1811535377,kang_palui,Ul
852945704,tarmidziali,"Tarmidzi Ali"
2190583167,terakusuma_d,Terakusuma
1930342815,nuco.yotoho,"Nuco Yotoho"
9023094483,ss_shopcrbn,"SS SHOP CIREBON"
10842161549,cokelatmalang6,agengobanchocomalang
284240465,zanul94,"Muhammad Mirzanul Hakim"
6235270873,askeri.aydinll,"Askeri aydin"
7033825133,pe.ter669,Peter
4264862148,eko_prasetiy0,"Eko Prasetiyo"
4187722195,pelangiistianeu,"Pelangi Istianeu Mahardika"
2272939104,diyanofficial,ديان
1584520504,igo_09,Igo
6532628729,travelkecebeudh,"Travel Guide 🇮🇩"
7728740907,husein108,Hussein
4719082224,lawyer_yulaw99,YuliatiHalim
5683696860,kurniawan_hari89,"Hari Kurniawan"
10946728578,andisyamsulbahri8,andisyamsulbahri
10956136024,infopenginapanmalangbromo,"INFO PENGINAPAN MALANG & BROMO"
6862094703,wahyu_surokarto,"surokarto hadiningrat"
1726254183,dorisubrilyandri,INTASARI
11064936979,putrawinatamojokerto,Putrawinatamojokerto
3510002962,ronelraders,"Ronel Raders Sitompul"
8120427764,wonderfuldlingo,"EXPLORE DLINGO❄️"
10861998690,_febryan2513,febry
9840426603,alice_8892,Alice
9120151414,nadiaputri1091,"nadia putri"
10847175907,ennjjeee,Enjee
9762057181,rifky_0110_,RIFKY
8710071440,ahmeed.jribi,"Ahmed Jribi"
10694991088,kopi_keceh,"Kopi Keceh Dolan Kali mBedog"
10886452890,mattelor3,mattelor
10884612414,andri_maller,andri
10719999622,henly_haurissa,"henly haurisa"
9490902233,art.tock,
11069088824,titansravel35,ALAM_INDONESIA
9223496245,andaikanmaulana,andhikaBima.1314
8093299782,samuderaekajaya,"PT Samudera Eka Jaya"
8768948560,eas.majalengka,"EAS Majalengka"
7715275038,enjankmulyana395,"Enjank sami"
3275316457,mtmarembang,"My Trip My Adventure Rembang"
10720856148,14pacific,"Hotel Pacific"
50417374,foxkorner,"adit setiawan"
371510991,kosimkevin,"𝕂𝕖𝕧𝕚𝕟 𝕂𝕠𝕤𝕚𝕞"
10941296902,aksarasabda,Sabdaaksara
403574670,iirmaapriani,"iRma haRis"
6088279196,anakhti,"mawardia ahmad"
10219426193,ningpary20,Ningpary20
1997482467,amydianti,Ameee
2331710685,noang1,
3113487976,carpediem_residence_kohphangan,"🌴🌴🌴🌴CARPE DIEM RESIDENCE🌴🌴🌴🌴"
3957346972,izaura_asharri,"iZaura Asharri"
9453754014,denihidayat1012,Deni_1012
10892595016,prastyougit,"Ugit Prastyo"
2017617635,bule.syamsudin,syamsudin'85'
1932058349,umikaylaula,"Kayla Ula"
1598014669,adialmarsis,"Adi Almarsis"
10886460733,jelijiro_indonesia2016,JeLiJiRo_Indonesia2016
2130980353,muhmurtadho,"Muh Murtadho"
2550045913,phaery_88,"ɖąཞųƖ ƈɧơıཞყ"
318191032,dhansboy,"Dhany Endraniasto"
10864893973,paketwisatamurahdijogja,"PAKET WISATA MURAH DI JOGJA"
6210846694,yanaa_mardianaa,"Yana mardiana"
9374242206,corosquadd,"-Bukan teman-"
4051149578,sucipto_mbcrb2,"Sucipto Cipto"
4789807104,genth00_,sidik
5814688093,achmadrifai163,pay
8264238875,muhammadfulan2425,@F_besar
8541562708,kelilink.id,KeliLink.id
10000002215,bangrentaljogja,"Rental Kamera | Jogja"
10166404488,dasiralmu,"Almu Dasir"
1534466889,dani_endik,id_rinjani
1369293075,oomnivoora,"Safitri Ayu"
10801619517,moraanhy,"Anhy Mora"
10819686849,mediscina.co,mediscina.co
2086584665,rikinugrahap,"Riki Nugraha Pamungkas"
5616273591,erickundi,"erick undi"
4643046260,ikanurfiana77,
1417437931,riadi_yadi,"Riadi Yadi"
10860429798,suarapendaki.id,"Suara Pendaki Indonesia"
973160626,ibnuriyadi,"Ibnu Riyadi"
10725365246,villa_namosamsah,"Villa Namo Samsah Landak River"
1599582335,andrean_zee,Andrean
10670035870,jajsidhu9721,jajsidhu
10738877619,review.pendaki,review.pendaki
10744488446,brianbusinesssandi,@BRIANBUSINESS/WA082257321841
2123525728,gustnani,gustininani
6301540685,iputuadithyaperabawa,I.P.AD-PWA
8615040737,maryantistella,.
8182970333,sambastourism,"Sambas     Tourism"
2061500587,keanulaksana,"ĸen | тravel enтнυѕιaѕт 🏃"
4356272565,2204ricardo,Ricardo
10826383404,riskifebri_023,"Riski Febriyanto"
5855741155,yoruara,よる
6167210749,vmprjctmks,"VM. PROJECT"
10851214423,pentolgunungadventure,"Pentol Gunung Adventure"
10115460029,nop.vi.yan,Nop.Vi.Yan
2268237312,sepri_ajaa,sepri
2084893191,evilin_kumala,"Evilin Kumala Warangian"
328024945,thapsari,"trihapsari 🌬"
3193612452,fajaragungaryono,"Fajar Agung Aryono"
4355209230,richiethefarmer.id,"Richie's Camp Resort"
2166676936,fahfdf,"Fat-Hiyah Dwif"
9154893913,azura.syafitry.bakkara,Azura.s.bakkara
7723720576,khaspalembang.id,"ᴋʜᴀꜱ ᴘᴀʟᴇᴍʙᴀɴɢ"
9733648992,interiorkemang,"kemang interior"
10674814592,idzroil5,idzroil
4040250137,tamarpaungs,"vinatama marpaung"
10327554593,populartoursid,"POPULAR TOURS & TRAVEL"
547538809,afudms,"Muhammad Mahfud Syaifullah"
10751820109,sidhezmr,"Sidhe Zmr"
10833465436,rh122215,"rahmat 🙏🙏"
10849917415,inginkesini,"Dari Sabang sampai Merauke"
8100860205,adninangel_zue11,"adninniazurayma fairy Princess"
5956061757,arezzpeck,Herman
9223167090,lukmanhakim2117,"Lukman Hakim"
1450070647,ricardoresendeprata,
10500414560,collection_wd,"W & D"
8354310412,sally_taly,"Nyayu mentari"
8056876366,husnul6452,"husnul khotimah"
8739569596,efiayuk,"ayuk efi"
11042441054,jokoprasetyo279,"Joko Prasetyo"
9016997467,oaaa_oooeee,horeee
1169731048,grcms,"Gracezella Mutia"
10897234503,dasarkebolu,
5392066300,nova_riry,"Nova Riry"
9268227230,kitaroou8,おいきたろう
250590456,mcfrew,"Michael Frew"
215678826,andra_andrean_andriyanto,"Andra Andrean Andriyanto"
7263005309,andityatriantara_,Anditya_Rhmt
6667212914,lalahwatours,"La Lahwa Tours Tangerang"
1482226588,kardinalyacob,kardinalyacob
4327940251,aqil_artaz,M.-AQIL
1695254453,rezak41,"Sita Abderrezaq"
10186874118,01jokmin,"01 Jokowi-Amin Kab. Bekasi"
1528515213,frnewbie007,"Ferdiansyah (Official Account)"
10723261671,k0takpand0ra,kotak_pandora
3184053679,wisnu_6789,"wisnu w"
10136124366,ikookgnuj,tata_v
1574996322,luis.fas62,"Luigi 0+ Gi"
2549155544,zohrah_a,ZOHRAH
10745452341,ellanurlaela90,ellanurlaela
7363749495,rossaerwin,"rosa erwin"
8419303083,papercasebyjasjus,"MODAL BUAT PULANG KAMPOENG!"
7428966797,pusat_belanja_ptk,PUSATBELANJAPONTIANAK
10220165650,nay.ccp.edit,"nay. ccp."
8134659736,taniaayu722,taniaayu
10718221851,r3xbackpacker,"RXXX BACKPACKER"
9718536465,sssyyattilaaa__,"Nakita indah syatila"
10698684280,muh.riyandaming9,muh.riyandaming
1299355208,imaam_,"Syaifudin, Imam."
10108545398,___nakiiitaaa._,"Nakita indah syatila"
2370729390,nyong_jhuan_mabez_182,NyongJhuanRickhardoMabez
6138526020,s_3714_aku,"Setiawan Arkebcy"
2326263006,erbientogas,Togas
9141877654,monicarobinchan,"Eva Romario"
1433455493,nurlaila48,Nurlaila
10579663947,savtaji5,savtaji5:
10868971401,rendy_algumer,boy
11047408371,meme_paplon,meme_paplon
3245872010,lorettalyn_,Loretta
2287160789,kafi__kafi,kafi
4935207289,way_andrian,
8745309994,aqualvan,Aqualvan
5909171601,rudiranger,"Rudi R@nG3R"
9249101212,abriyantbayu,"ATTORNEY GENERAL'S OFFICE"
6914497085,msiny_,imania.yushal
8410818502,muhamad_asad147,"Asad Muhamad"
10729232007,verga.store,verga.store
1297127966,rr108108,RR108
8117377639,ielsyar_febryandi_vhis,"Bung iieL"
8948550812,adelliacantika6,"Adelia Cantika Fitriyani"
8771062055,its_me__idan,"Idan Karlinsky"
646600226,rulianisaprianti,"Rulianis Aprianti🌻"
6797883542,ssn_kn,StevaniCllara
238201580,aryapraditha,"I Made Arya Praditha"
10869713381,anggchy05,AnggaCahyaFebrianto
10012737405,kosonggggaja,kosong
7235679104,rivki_afriezall,"Rivki Afriezal"
10701318553,yanahyah,yanahyah
5618121173,_bayuupratama,"Bαყυυ Pɾαƚαɱαα"
5744093990,kuitzint,kingpin
6884596676,kilahotels,"Kila Hotels"
6885491253,pramahotels,"Prama Hotels"
7592887528,rightinthedev,EV
8959637005,paridjpg,parid.jpg
11047688011,crackerismic,Crackerismic
2315640553,alainmaulana,"Alain Maulana"
7033961376,felinaapriliana,"Felina Apriliana"
9890282217,anaktimur21__,"ANAK TIMUR 👣"
9553098463,haiomtravel,"Hai Om Travel"
4098458976,ickmajahar,"ickma jahar"
3021911194,halimfakhri,fakhri
8524077668,abang_idhan,"Idhan Soekamtiz"
1078309499,kalazhnykov,nykov
2259416794,pikkisa_,"Ficky ramadhan"
8603138613,izzal_zfr,AFRIZAL
10851228858,erdilazuardi,erdiLazuardi
2073436696,fristintan.rj,"Frist Intan Rinjani#02"
10396561154,niky.keni35,Enzorez
7342794729,juanitoxevara,"Juanito Alfa Nanlohy"
3041434771,sianakpungut,pelo
3416009832,saveciharus,"#SaveCiharus #sadarkawasan"
6117183624,dhimas.purnama,"dhimas purnama"
7600997665,katakata_hati17,"Curahan Hati"
5350342860,reyfalfadila,"Andhika Reyfadillah Septiana"
5805055337,renteria.florencia,"Florencia Rentería"
205011863,bassal_moussa,"Bassal Moussa"
1795344206,ayyu_vitta,ayyu_vitta
7865971,canikalangi,"Cani Kalangi"
6491400806,idan2018king,Idan
9235756290,the_nomadic_bug,"Riddhi Gandhi & Sara Save"
10877874794,cristal7w7,|ᴄʀɪsᴛ∆ʟ:3
3070564352,h.alee_11,"Hoor Ali"
5647676471,karinjpurba,"Karina Jaqueline Purba"
1629062251,iamhasy,"H A S Y 🌸"
7494017819,oyiio2,"y i'"
10709693589,mountain.calling_,MountainCalling
10105229958,sukmasangiswara,"Sukma S Iswara"
1036872299,fujita_siahaan,"Fujita Siahaan"
1621833371,koka__store,
2165867230,desyst96,دسي
10862403773,james.ribonsss,james.x
10351939994,bandung_jalanjalan,"Cv.Paperclip Event Organizer"
6627759115,viplovemaino,"Viplovemaino Ever"
7097272415,muhammad_alfa_ricci04,ipo288
7715872057,263aries,"Aries #236"
1660063224,lenibulee,"Leni Dewi"
10636131748,homestayyanties_batumalang,homestay_yanties_batumalang
3691449803,tyas.s.wahyuni,"Tyas S W"
281828845,abdupramu,
2421539228,opacarophillia,
1189366420,empuy24,"Purnomosidi Zanuar Ali"
1504855529,salvatore_suryo,salvatore
10682391142,hnfamily_shoping,👩‍👧‍👧☀
7329117679,nevzka,Nevzka
7416133065,dikihanafi1404,"diki hanafi"
9222805004,kinar_healthyshop,healthy_shop_id
10118003656,ihwankppa7,ihwankppa
10909024096,arvandps,𝔸𝕣𝕧𝕒𝕟𝕕.ℙ.𝕊𝕒𝕞𝕞𝕒𝕟𝕖
3150784913,cecep_achmad27,"cecep achmad"
7024499126,tayothelittlebusindonesia,"TayotLB id Iconix (Official)"
10463519134,_riyana___74,MRY
10680694711,wuladariwindi,"windi wuladari"
3980387049,anarki2307,"awang anarki"
1335357941,arrafi_naufal,Arrafi
8637495132,roti_mr.johnjogja,roti_mr.johnjogja
9861254189,shyrly224,شیرعلی
647623528,rianprasetyoo,"Rian Prasetyo"
2053067997,wisatadieng.id,"Dieng Jawatengah"
10624889844,shopqoala,"Qoala Shop"
930637192,aditya_kristianto90,"Aditya Kristianto"
6960384038,ade_yunida09,ade_yunida
3424577789,hudjokam,"Be good & more"
284788576,hazen2901,dinda
4514419218,henriiwiranata,"Henrii Wiranata Nugraha"
9705947839,nachaazura,"Nacha Azura"
10725268347,meilianmei,"lian mei mei"
7662008163,bts.armypedia.id,"BTS Armypedia Id"
978517443,indah_iwp,"Indah Wulan Pratiwi"
4638159484,syaiful.anw17,"syaiful anwar"
5577217173,raghvendra_st,"raghvendra _T"
2922782790,bunga_davi,HildaMaulidia
10825120937,netflix.dz.shop,Netflix
4662686749,sudy_dio,Dio
1544450769,husnulsachot,"Husnul Sachot"
6282284453,kartikaqueenn,kartika
7104608796,igcentralmass,igcentralmass
235390840,dadang_makalalag,"Dadang Hermanto Makalalag"
3624265253,habibie_teuku,"Teuku Habibie"
10691017904,anthiascruise,"Anthias Cruise"
10744938847,sdyitsezgin4,sezgin
2785362090,nicepicture222,BOY
4052748013,zoell.fikar,zoel
1626737186,adimnhussein_,amnur
235528113,metemeto,
10863986807,vzgvnz,Gvnz
7537608400,ayu_sundy,"Ayu Sundary"
10801255343,ngehitswisata,"wisata ngehits"
2188746352,dokta.kkrr,Devyoktatendra
2066917424,lukman.setiadi,"lukman setiadi"
3549778231,akbarfirdaaus,"akbar firdaaus"
2010064908,amirulaik,"Amirul Iqbal Hanif"
1431193998,dawaaam,"Dawam Faizul Amal"
2988885054,masdwi1,Santoso
7567878227,khanaya_coshop,"Khanaya Coshop"
10100308399,ariekopur,"Ari Eko Purwanto"
7568139082,6z5cbijkhpv,Namama
5891290524,roni_iswahyudi,"Roni Iswahyudi"
9375673062,melatiforesta,"Melati Foresta"
7788404524,putrisabilia__,
2109129232,erna.sl,ivanraka54
10835947179,rinjanilombokexplore,@rinjanilombokexplore
651144793,herlinalmighty,"Herlina Almighthy"
1749469474,ulul15hidayah,"Nurul Hidayah"
4869498863,qkan_plur,"umbu Tamu"
3217013055,bahar.hsb,"Baharudin Efendi H"
1177046006,evisintia31,"evi sintia hutabarat"
387639015,nophiejulia,Nophie
3022482963,hedirahmad,"haedir ahmad"
8585204900,pencaksilatsekarwangi,"pencak silat sekar wangi"
8580361274,3koraoutdoorsala3,"T R I K O R A"
10618444116,pt.narmada_jaya_abdi,"Development property & tourism"
6047674933,whatthesh.t,SHIT
10727449471,sekarti.anisa25,"🌷Anisa Sekarti. N🌷"
5849000105,rahardianharry,"Harry Rahardian"
5728537210,tsakais,"ikhlas (public picture)"
1742563625,citrawatiagung,"Agung Puteri Citrawati"
4439690766,volked.stuff,"Volked Outdoor Stuff"
4106285419,indra_indrox,indra_indroX
2996911935,ddams12,"Аdam Novianto"
8050089353,menanza_24,"Iqbal Wirya Menanza"
4975954056,sabtomo,"Sabtomo Silla"
1752479458,difanss,"Andi Febrian Mappasessu"
2202083610,richalsyaputra,"Richal Syaputra"
6127531916,theotheronebroken,"The Broken Laptop"
5453228833,rifandinurdin,Rifan
7113837159,bptd2sumut_,"BPTD Wilayah 2 Sumatera Utara"
