Userid,Username,Fullname
853992361,destrianins,나탈리아
1309889701,navyza89,"david navyza"
1309533381,yehudanowa13,"Yehuda Nowa [Kambu]"
1383516665,dknissaa,
2336976425,wawanikuwawan,wawan
1826924521,n.julianty20,"N I A  J U L I A N T Y"
296788410,kristalwidian,"Kristal Widian"
1391934519,nabiilarhm,Biilaa
2122295298,dlv_putri,Delviaa
1810814209,didyahayuu,DAN
1060991092,ellianasusan,"Elliana Susan"
522762568,vyrawinata,"VyRa WinaTa"
263710432,rullyaustin,"Rully Austin Siregar"
274026659,agethas,Margareth🙌(ageth)
568521883,felixjshf,"Felix JSH"
1937289460,aseprohmat8,"Eubeuh 👷"
1198409797,destikarahadiyanti,donatmanis
1091668320,venousd,"Dian Christy Moron"
563830177,aprilnink,"Ainir Rohmah"
2108651720,iceeyen_,"Iceyen Cornelius is here"
5919491788,delwale16,Delwale16
1700968279,nengsh232,Nengsih
1233472985,rohisotulmz,Ois
1689877921,lilissumi,"Li | S.Ds"
1924127466,alvicha_sp,"🌸 Alvicha Elyna.sp"
1090884572,gety_c,Gety
266893179,afrillasiregar,"afrila m srg s.ab"
607397367,virdaamalia_,VA
2160605024,mariaulfamuhibah,"MARIA ULFA MUHIBAH"
2089031975,dasawijayana_bsyrd,"dasa wijayana"
2179328722,khaerularham,"Ahmad Khaerul Arham"
4682241487,ewiink_,"Ewink Syarifuddin SH."
3419899648,ayrasetyana,
1613960239,yoga_liantono,"YOGA LIANTONO"
4374377485,indobz67,"Regina A."
2021840858,innemaryana,InneM
514415179,lilissandi,
1445672935,septi_winarsih,"Septi Winarsih"
1513119991,oveeyhs,RadenNovyanaHS
266472959,vidasarii,"Mufida Sari"
596566269,adhiet17,"F Adhietya Caca Danu Wicaksono"
7476983452,nisya_jannah_collection99,"N.J.C by Ukhty Jannah"
2218129956,ikhwanerrawan,"Ikhwan Errawan"
6534715577,sisdaniagung,"Sisdani Agung D"
2188610909,yennifriska,"yenni friska"
678756696,ayuweedhee,"Ayu Widiani"
1835008006,diahwulandariee,
2323014665,uniksafitri,"Unik Safitri"
7831742862,isur_17,"imas suryani"
1416399989,ulvabc98,"ulva ditami"
2065724877,deviniaputriab,devinia
4030026425,fatrasofia,"Y E L L O W ®"
1519535732,ratuayunuraeniellasari,Ratu
216665028,ulinpurba,"Roma Ulina Purba"
1344731478,ep_0990,"MJ PARFUME SUPLIER/VIRGO🐴"
467324635,sofiaayu,"Sofia Ayu Fitriana"
1976966841,oktafiyanaauliya,"Oktafiyana Auliya"
1622688077,audriargtpr,"Audria Regita Pramesuari"
1203051271,lusydj,"L u c y"
271760249,a_education.official,"A Education"
3285323999,dyhasnsh,
1428426096,khafidriadi,"Khafid Riadi"
1654447048,ayndiana,
1633628912,lnvianti,"Lifia Novianti 👀"
2871223147,laelimfl,"Laeli Mufliya Oktaviana"
3834504211,mhmmaddikaa,Dikaa
1520228840,selviii_78,Mpy
622965285,tikaprimanda,"Atika W Primanda"
1250157225,ranips444,RUN_NIE
5351406159,fatwaamal,"MUH. FATWA AMAL"
3864364162,dckhry_,
1997078907,aprianto_rh,Rian
2022702145,aji_sije,"Jik Setyawan"
2547379817,valucy_wulan,Valucy
636208158,fitriramadhona,"Fitri Ramadhona"
4006218042,ayuuu.anggraini,"ayu anggraini"
1826712967,febay11,Febyratnasari
253484381,fadli.febrian,"Fadli Febrian"
1314798065,angga26prayitno,"Angga Prayitno"
8409713679,dea_adys,
2269245028,rizal_bpradana,"R I Z A L   B R E N D H I"
2055102568,farzilanovia,
1744407875,dsofa7,diana
1738735491,agnislm,"Agnis Lutvia"
503991552,chenunk,chenun'k
3207390762,lilis.mrln,"Instagram of lilis mrln"
52459212,aayuratiih,"Ratih Ayu Apsari"
521414072,riskiwj,
2154845082,nurinurdiani93,"Nuri Nurdiani"
4561824446,anggreini2609,"Karina Anggreini"
5785650242,samsul1_,samar
1283249613,devitaketty,"Devita Ketty"
4348000381,cyeburiantlilis,"Lilis Cyeburiant"
790760109,dwi.okna,"Dwi Okna"
9061741750,merrymar181,"Merry Maryam💛"
1048771851,resti_kw,
297919487,fjooo_,Jøday
1650568454,anggianggraini._,"Anggi Anggraini"
2620365535,ewul.rwuland,"Retno Wd"
661307157,sasmita.ekadmy,"سسميتا دميانة"
7300709184,prihndini_,"P R I H A N D I N I"
2058865622,alfia_ryh,"Alfiatu Rohmaniyah"
1428486623,shemayrizqi,"May Rizqiyani"
1506053510,armel.kusuma,"Armelia Kusumawardani"
1442394815,brndngrh,
7007971541,resaads,
7557518753,nenniasz,"Nenni Aszari"
3615409377,edosandy61,"Edo Sandy"
8005696799,fmaulaaa,𝔸𝕚
1391791397,aldanashifah,Aldanazhifah
3057031995,rytha_angle,"Rita mulyani sidik"
502455469,yasintafatiawan,yasintafatiawan
545076759,alifhdyh,
1069538845,karuniard,"Della Karunia R"
4303990855,aagungdw,흣zII.∅O0รีคาร์โด
850273777,adi_daya,"Adi Daya Catur Pamungkas"
2314881081,rimakireiga,"Hujan bulan Februari"
5929167397,nofiayesi,"yesi nofia sari"
2130905842,nurul_azzahra92,NurulAzzahra92
2933292517,nadyantm_,"Nadya Nargatina ThessaMonica"
2886383705,risaa.rahmt,
3899809643,triaaa.r,"t r i a   r a h a y u"
8117655375,suree_cibro,SuriAa_cibro
4341925978,ladisa_berutu,"Ladisa B"
