Userid,Username,Fullname
1732080385,sagalatraveller,"Traveller of Sumbar Indonesia"
2215889566,paulanataliaflorsb,"FOLE 🍑"
6236906711,mredho55,"Mredho  (old man big dick)"
3277628108,rengganis.pratitaswari,"rengganis pratitaswari 🐚"
2279257278,ny.niceforyou,"SKIN CARE - NY OFFICIAL"
4908705292,butterliefe,"Jundi Maulana"
2348953494,erwinampera,"Erwin Ampera"
12320624874,lensaawe,lensaAWE
5390185207,wahyuokvianti,
4756832923,agmrta,"visual laboratory"
2461674272,slingbagkonveksi,"slingbag production"
12125157990,dear.sick,Rami
12123140256,homenckoalina,"Алина Анатолиевна"
646642784,aliyahuznav,"Aliya Huzna V."
8595819062,positivejourney.co,"Positive Journey"
3145583326,ashton_vargas__,"Ashton Vargas"
2028509834,baqicot_store,"PARADISE SHOES"
2348989712,hnfyheryu,"Hänafy Heryu"
11817560891,fashionmo_de,fasmoda
4761577396,ti.ti.ti.na.na.na,馬筱婷
9522921566,ballin_hard360,"شازف تنویر ♠️"
11821152482,alfazzidan,"Zidan Bintang Alfaz"
7171272729,berdinra,"Berdi Nur Agustian"
4488511258,taufikhandoko12,"Taufik Handoko"
6941698642,traveluriel_0711,"Luriel Princess Beroin"
5345569051,tessar_syah19,TessarSahrulli
1523781021,deviwpr,"Devi W. Prawesti"
4020646784,its.lisnasw,its.lisnasw
11690411159,my_video_and_photo,"Иван Шиляев"
2300601156,heri_hermawan_03,Heri
8099192168,ponpesabudardalombok,"PONPES ABU DARDA' LOMBOK"
2076602885,j_lbyn,Eyjey
10390678743,lekmukiyo,"Lek Mukiyo Official"
325355000,muwarik,mumu
1516850687,ayu_yuliati,
6979156895,ana.kopik,"Ana-travel, beauty, lifestyle"
1957777313,innasetiawatii,"Inna Setiawati"
8606512958,swagbags19,SwagBags
2137059388,pergiyuk,pergiyuk!
4934933432,iedmahd,Mahdavi
4095293305,abatphotos,"abat 📷🆎"
1594099389,heryauliaa,bbno$
264741905,rafadnan,"Rafhana Adnan"
791459560,stas.scream,"丂 匚 尺 乇 卂 爪"
1438154485,stan_nsk,Stepan
6054818784,tian19_08,"bang tian"
12159339635,karinakarina6124,"Карина Карина"
12050105715,daffaardiansyahd,"daffa ardiansyah dapling"
226964447,fameisficklefood,fameisficklefood
1402921891,mnrhen,"𝙍𝙖𝙝𝙢𝙖𝙣 𝙃𝙚𝙣𝙙𝙧𝙖𝙬𝙖𝙣 𝙎.𝙁𝙖𝙧𝙢"
9644411565,nafikakesehatan.5,"KESEHATAN TERBAIK"
362147512,gungaditz,
1319168935,mishka_srn,"Миша Surnikov"
8664424648,mbojonesia_,mbojonesia
4067668588,anerevanelkniz,
3916784438,rchknsa,Richie
8124645415,jatnika746,jatnika746
4133639135,astitiaanisa,"Anisa Astitia K"
6891390572,bujangsn,pelat
5688663863,ajuforever___,🍁أجمل∆
1059683264,rardhikagun,"RAG ®️"
12324336275,rizadiancahyani,"Dian cahyani"
1276455343,ipansumantri,"Ipan Sumantri"
3228721316,rvillarl,"Rubén Villar"
12170426966,ratri025,Ratri_Anggraeni
5738633337,benedictus_fandy09,"Benedictus Fandy Kurniawan"
307115570,ajitkaunsal,"Ajit Singh Kaunsal"
1449817161,arhdehhab,"Artem Meshcheryakov🌪"
7787155077,lost.in_greece,Anthia
3189363931,resakhr,
46002185,lianasofiani,"Liana Sofiani"
5491127736,kataufikh___,"𝐌𝐮𝐡𝐚𝐦𝐦𝐚𝐝 𝐓𝐚𝐮𝐟𝐢𝐤𝐡||محمد توفيق"
504713134,hendramartan,"Mahendra Martanto🇮🇩"
12128788325,pecintaalamhitz_,pecintaalamhitz
5520771532,sanos.del.mundo,Sandrine
1591808248,_31.days,"Helmi Prayudy"
12310033512,syarifffhidayat2019,Syarif
3878903816,eggyrijal_04,"Eggy Rijal"
3557089871,aldo_leonardo_subandi,"Aldo Leonardo Subandi"
2323118051,lapaktraveler,"Lapak Traveler"
1208229136,maaesari,Mayangsari
223827986,ilyasahibma,"ilyas ahibma"
3688784750,dawamucup,"DAWAM YUSUF"
10121441238,onlyy_humans,"Only humans"
12263076712,i_love_u_jk_not,Daniella.R.J
1944627652,chindyragilrii1616,chindya
5638036295,novialala__,"Novia Larasati"
4331155039,teukuakhyar_,"Teuku Akhyar"
12265753612,mommentbagus_,"NB Photo-Hobby"
5928959407,wearechipsndips,"chips & dips"
10508708372,kampunk_gesut_sablon,kampunkgesut
8882396878,hausilmuu,"Ilmu fajar"
12124530846,nakedcameraeye,"🔺harshaspicgraphy 📷"
12185033898,kojack773,kojack77
8926197493,wanderers_hub,"PHOTOGRAPHY | EXPLORE | TRAVEL"
3567907004,bennypr_,"Benny Prasetyo"
262821601,ampsalms,azalia
3127751850,andi.swandaru,"Andi Swandaru"
6752088533,shyreenauliya,shyreenauliya
10676995230,widyaastari234,"Widya Astari"
12280411347,katanya_studio,"Katanya Studio"
5524395031,santiagomr_,"Santiago Mahecha"
5390470747,mtprau2565mdpl,"History 24 Jam Media Informasi"
9456825287,clothingmakers_catalog,"Made In Pleasure"
5668984650,radistaap_,"Stroberi 🍓"
1448960254,cndyknti,ChindyanaKinanti
507378484,hafilafania,"FANIA HAFILA 💫"
8261969650,sulvy.collection,"fashion import HK dan Korea"
3025511385,jongkun_lee,이종건
6857029557,kurnia9433,"Kurnia Pratama"
5651694895,nadyafaradilla97,"Faradilla Nadya Bleizensky"
1458827181,frenky_frenkk,"فرانكي اغوس"
1590417930,okstariotn,RIO
9767823449,folk_luwu,folk_luwu
12268236241,ayukaproject,"AYUKA PROJECT"
12251724700,ramblerstrove,"Rambler's Trove"
4482802610,adriene_hamilton,"Photographer. Adriene Hamilton"
10650989589,noob.film,
446163149,naandacarmo,Amanda
2169492016,awil_firmansyah,"wildan firmansyah"
2180172783,bellakptr,"Bella k"
8272765949,_elolshop,"eL Olshop sport"
4998757720,chika.av1,"Chika A"
5719679944,ahmadmursalinnn,"aнмad мυrѕalίn"
8888983506,pratamanugrahanunu,"N.N.P 192"
3550937634,hardiansyah030,DendyHardiansyah
6973233704,wahyuadigandek005,WAHYUADIGANDEK005
2247419922,ihafidhnx,"ʜᴀғɪᴅ 🚀"
1481367718,pujiwahyuu_,ManyollPJ.
3517902045,mukhrijaad,"Mukhrija Adha"
6456156248,yogiejumardi29,Yogiejsok
4962113069,viaeniv,"ᴠɪᴀ ᴇɴɪ ᴠᴇʀꜱᴀʀɪ"
7050473127,nandseilanisland_74,"NAND SEILANISLAND HLS"
1773806041,maryaniagst_,"👸Maryani Agustin"
1782095625,dennisknights,Dennis
33358937,r_i_zainawar,r_i_zainawar
2965172522,assismattaherry,"* Assis Matta Herry #"
9458127597,moonchaewonstar,"Moon Chae Won Star 🌟"
12173858611,shprese_qe_svdes,"little girl"
4328924848,olshoplina_,"Lina Olshop 🇮🇩"
7004695578,quinshasagita12,Quinsha
6151252712,ezr.trav,
11640155394,ld.nicres.plugins,Ld.Nicres.Plugins
12313120926,mytripmyadventure_tabagsel,"MTMA_TABAGSEL (Akun Resmi)"
4460974377,ridwan_nhakim_,"Ridwan N Hakim"
1602638784,sifaazhr,"sifa 💫"
5431978993,williamjourell_immanuel,"William Jourell Immanuel"
12139554971,shr_ii04,cil
2303795843,dodibudimansyah,"Dodi Budimansyah"
1178895017,deera_bemz,A.R
11219463564,dabspopular,DABS_POPULAR
2236876326,ahmad_alfinas,
1830960723,helloesydney,엘리자베스
1179935315,andykurniawanr,"Andy Kurniawan"
2221184197,ronalddjeer,"Long JR"
5444911813,dieky_rwo,communice
2949136879,rahul_tauruz,rahuladi46
10091862858,kenshoes.store,"C O M I N G S O O N"
4039757287,aznfrp,
12122525996,johana_jona,johana_jona
558519053,rivanyo_,رفن
2930778446,darahmalis,"Ganda Rahmalis"
2985906816,eljay.smith,"☆ eljay."
1060383036,maddaga,galihprayogo
12119269921,asiktra,ASIKTRAVEL
6542624862,dinda_whyptr,"dinda wahyu putri"
2101861714,agungkurniawan_8,"Agung Kurniawan"
186776258,nisorayas,
1232124757,ramadikta,ed_
6241747636,twentyfive_frimework,twentyfive_frimework
1966278119,awhigreen,awigreen
279167987,vidinoer,"Vidi, Noer, Pidot, dan Lainnya"
12114126189,bung_pw,BUNG
369393036,rizzkyamalia,"Rizky Amalia"
2891209994,danitaufani,"Dani taufani"
3062978070,atinmagfirah,"Atin Magfirah"
6157871989,ajiwnt_,jo
12325136356,rickypangkatana,"Ricky Pangkatana"
3921111168,am_niz_vp,"Nizam vp"
4194863300,satryadufa31,"Satrya Dufa"
3558732906,my_mind01,"my feelings"
5729008883,yustikaaaps,Ciyusss😐
2947596082,diarydon,diarydon
6832348383,nadya_arsalan,"Nadya Arsalan Pelu"
12035182571,alfanurvirdaus,"alfa nur virdaus"
2162744317,evaw.am,
12098015552,auriliaasriana,"Aurilia Asriana"
1905929823,munawirahmad_hrp,"Ahmad Munawir"
1711456118,altri.03,"Altri Sulistiawan"
5383505598,royrenal,"Roy Renaldy"
9398536127,ilgnr_06,Ilgaaa
1967269539,lea_henperle,"• 𝓛𝓮𝓪 𝓗𝓮𝓷𝓲𝓷 •"
5451095927,wisnu.wjya,"Wisnu Wijaya"
11374205399,heyarss,ASA
2050525904,rendipsatya,"Rendi | Family Travel"
4189264246,shugei_leather,Shugei
8057637630,juraganjam94,JURAGANJAM94
574056558,aldairrorin,"Aldair Rorin Akis"
3293085606,anhrdarma,"Annahar Darma Yadin"
1648314333,wmhnr_,
434321383,liryaprilia,Liry
11187230450,acc21insta,instagramfreefollowersforyou
1700092518,zack_stroong,"Ryo ramadhan's"
12293785156,majalaya_marihunting,"Gumi Potret"
2898200795,n_angeln,Nathalie
6331787039,pelukislangit_opentrip,"Open Trip & Private Trip"
3504390837,harie_potter,"harie yaxley"
1622708500,farrel_setoaji,JISUNG
9629631952,ikewlkid,"Ivan Kurniawan"
941399,kimberlywoo,"Kimberly 🧡"
2766898522,dalamjingga,ways
12136947733,mawarrrela,mawar
1943659287,kalia.sm,"𝓀𝒶𝓂𝒾𝓁𝒾𝒶 𝓈𝒶𝓂𝒶𝒾𝓃𝒹𝓇𝒶 𝓏𝒶𝒽𝒾𝒹𝒶𝒽."
3057512557,budawm,"I Made Buda Wirawan"
4222159761,uzrel,Yuri
11659912908,mopjanc,Mopjan
326267273,sasshaedwards,"SASHA ED | DUBAI YOGA TEACHER"
11787546086,ki.ki3989,Крис💖💖💖
4429162,tomzdc,"⚡️Tomz DC ⚡️"
7300751727,ggr_photography,Georgia
7738240918,what.adventures,"𝚂𝙰𝚂𝙷𝙰 + 𝙺𝙰𝚁𝙻 | 𝚃𝚁𝙰𝚅𝙴𝙻 𝙲𝙾𝚄𝙿𝙻𝙴"
4285133000,parafraz_a,Farhan
4254453344,_farghin,"Farah Ghina A'idah"
2091175684,sasimardiansyah,"Sasi Mardiansyah"
5321795327,danu_noprianda,danu_nopriaanda
12172729507,antiantipro,lan
11104256658,rymsgraphy,"H E L L O :)"
9639934009,lembahrimba,"Lembah rimba"
3073295843,agusastrawigoena,
4127660408,vhy06_real,"Mega Novitha Assyafi'i"
12134869114,uhsiiup,ditto
12247429760,maii_ohmai,maiiiii
2072888212,ariadiko,Hariadi
8382585172,squidward.tentp0les,
4342941491,nadhia.sari,"Nadhia Indarwati Sari"
12164051223,tznktt,info
1727265663,mas.melloww,"Muhammad Hasan Alfarizi"
5744477409,moh_rifaiaskari,rifai
1734035822,yu_litaa,"Yulita 📲info PayTren"
7876764360,jenniefatma,jennieputri
7129660176,artravel_notes,"Artur Malesh"
6080040575,syafaru90,"Fajar syafaru"
1381388990,alvin_irham,"Alvin Diamond Irham"
207698466,floadventures,"Florian Adventure Photography"
8547151184,___lhu___,Lhu
1464445646,si_fuulan._,ariy
362517013,dhestiamoraa,"Dhestia N. Fatma 🌵"
3989709064,suryawimu,"Surya Wijaya"
8199032,gogungo,"Gunawan Saleh"
12164288369,tiar.2237,"Tini A.R"
213982110,jhony.id,
1437607224,iamharshrami,"Harsh Rami"
8117573532,windatris,"Winda Tristianti"
4110692907,egikpejalan27,EgiAldiansyah
3098557236,si.deh,"ᴰᵉᵈʸ ᴴ"
3322248233,sai_suny,I'M_SHIVAHOLIC🕉
8115555357,abu_hanzola,Hanzola
1684883493,intyas__utami,"intyas utami"
4107554942,bukanakram,
1035355841,fandygunady,"Fandy Gunady"
1566135820,chinnamonsugar,👽👽
450625345,hanxinho,Hans
12282050938,aboutborobudur,"About Borobudur"
5437493182,xxernn,Robi_Yahya
9043086382,danialnaqiu_21,DanialNaqiuddin
12306561390,dkk05520,datak845
12324104241,jindarberitan,jindarberitan
6679808905,efull_shae,shae°fazri
4412400968,wahyu_wibiksana13,"Wahyu Wibiksana"
7383533153,marrjolo,"Bayu ramadhani dewatama emha"
1646403817,nikkipeucang,"Nikki Peucang Resort"
259352571,hayariputri,"Hayari Putri"
8238981940,arrprassajaa,"ARDI PRASAJA !!"
1747041304,deep_bosk,
996098482,theclaudiaking,"(っ◔◡◔)っ ♥ Claudia ♥ (◠‿◠✿)"
3940746509,no_igor_no,"Igor Novoseltsev"
5691284025,swt.lil.boy,"ARIJ AFTAB†"
4355841708,alsyahrofi,Syahrofi
8991855841,fill_furniture,"Jual Furniture Mebel Minimalis"
367548461,vr.agusputri,"فيفي رزكي أغوس بوتري"
8125335333,lathifah_iryawan,"lathifah iryawan"
4118251619,cakka_hand,"CACA ☓ RANSEL.KU"
1234609770,ekky16ekky,"Rizky Nurul A"
8315699526,tofanfahruroji,TofanFahruroji
4712894339,ayukaism,"A Y U D I A K A N I A SHV AR I"
5696203332,nicaajh,Ray🥀
1797411208,rifanfitraa,
9516012231,fhimmah_,newaccnt
11542230784,amateur.an,"Amateur Photographer"
2010271293,fyokla_tanka,"Tanya | Fyokla"
376472945,clarapriliaukus,"Clara Michela Aprilia Ukus"
846037491,ilhamaprill,"Ilham Putra"
9910963326,riandi.prtm,"Riandi Pratama"
265806782,idaa.idaa,ida
834166560,i.amricko,"ᴘᴀᴛʀɪᴄᴋ ✘ ᴘʜᴏᴛᴏɢʀᴀᴘʜᴇʀ"
3462549754,adeeirawan_,"Ade Irawan"
5511212226,diengtravelers,diengtravelers
5750576245,larvacloth_,"L A R V A"
4001440547,bellasbods,"Isabella Ward"
534868534,livelovetravel_tv,"Tatjana Varchmin"
2311641584,st.hamidah66,"Sitti Hamidah"
10894145546,gitawijayanti22118,gitawijayanti2211
2011803822,miftahfajrr,Mfth
9602249769,abrezzy_,Abraham
11796273837,pecandualam.ind,pendaki.ind
3275046879,naylaakhonsa2,"Get Better Day by Day 👑"
12099431154,adjwalita,hellopeps
1691948946,aditya_pradipcha,dika
439641307,viviliviasulistiyo,"Makeup By Livia"
751752152,choirulanwar_s,"Choirul Anwar S"
6391359240,andnhq_,din¿🌵™
4231179904,pecintaalamsemesta,pecintaalam
12173354361,zandreloop,zandre
12138164428,sumbermotor8,sumbermotor
6440802976,just.gummy,just.gummy
7904365543,riskafireraa145_,firerariskaa
5808469392,nsemmagga,"nuraeni semmagga"
9071612680,indahnya.ndah,Park~Byun~Ooh~Do~Kim🐧🐣🐻
6006853854,baradzine87,"Rusli dhini p"
5337433798,imeliaerlinda,memel.
7044479680,daily_feed_coffee,"Daily Feed Coffee"
11828808279,hushpuppies.bouncemax,"Hushpuppies Original"
1419324196,andmalvin,"Andreas Malvin"
12161219020,maady.d96,"Dx Maady"
4158443957,upiksutejo_,"𝐔𝐩𝐢𝐤 𝐬𝐮𝐭𝐞𝐣𝐨"
2336037369,viona_kyungmi,"QUEENVII
노비타"
1983017740,dwiapriyadi010,"Dwi Apriyadi"
4095836105,grosirpakaianharian,"Grosir Pakaian Harian Padang"
2030664971,alfapermana_garment,"Konveksi Bandung"
2206993211,noesasoap,"noesa soap"
2038203049,mh.rosyid05,"instagram user"
2223044833,nofayuelpita,"Nofa yuelpita"
5913349931,jeena_nasrin,"Jeena Nasrin"
12145762582,jejak_langkahkita,Jejak_Langkah
5599017223,mr_barbbas,"Jose Photography📸"
5734444310,andi_azhar13,Andi_azhar
5420525184,rivandifalindo,"Rivandi Falindo"
1108122729,sr__botello,📸Bryan_Botello📸
12324648124,revaldireval03,Revaldi
12020246538,fikrii.alaq,"Fikri Alaq"
1289675615,yusmanto13,Yusmanto
1910458859,wahyufadly_id,"Wahyu Muhammad Fadly"
8217669452,rentalmaticbali,"sewa motor bali | rental"
669231187,ig.pulauharapan,"Travel Pulau Harapan"
11701067208,tommsphotography_,tommyphotography
3618998686,peaoutdoor,peaoutdoor
7077832800,_desakratna,"ॐ Desak Ratna ॐ"
2956291295,riyan_henriyan,"Riyanto riyan"
12246861634,arifaiman2572,arif
3519627432,nurbellafitriah,"Nurbella Fitriah"
12261212452,mochiliti,❤️Mochiliti❤️
2954292506,hamstershop_bandung,"Hamster.Damn 🇳🇱"
33913077,trsplanet,"Romal & Aneka ✈ Travel Couple"
12306649223,fotografi.smkn15bekasi,KFSMKN15BEKASI
4803746364,mas.oro,
11534744893,shopmacenning,"macenning shop"
12274419014,not00important,"february human"
2323675494,jessica_powelll,Jess
3286745217,rilleia,
12090766009,guyonan.medan,guyonan.medan
31986360,kulonurull,🤑
1525873525,deslianap,"Desliana Putri"
584351257,dikaandianggara,DANGGR.
14467175,gianciana,"Michelle Gianciana"
12097743342,boyy_010101,-
11940947137,ardhi.ar17,rey
12264844153,ali.m.malekmohamadi,ali.m.malekmohamadi
5482771901,jtravelasia.id,Jtravelasia.id
10826975234,azskaa_,"Dzulfikar U Al Azka"
11790886637,repostjateng,"Repost Jawa Tengah"
5330473949,haris.gg,RHN.
890924949,anggitpinasti,"Anggit Pinasti"
7310020762,juliadiana2564,"julia diana"
11682184019,nandaashaar,"Nanda Ashar"
532569432,dwialdyansyah,RizaldyDwiAldyansyah
3908807569,rca_zamhadi,ZAMHADI
12139971654,ciimbellstore,"C I I M B E L L store"
749156956,naawijaya,"naa, S.E"
2942950925,around_country,Travel/Influencer
2981561674,seblatadventure,"Seblat Adventure Indonesia"
1721089274,merbaburental.id,"rental outdoor Salatiga,Tngran"
12105268748,fiooooooo___,fiooooooo___
4663565913,fachri2802,FachriAkhmad
12180393840,solotravelbug,Travel_Bug
7288738382,mabellohome,"Mabello Home"
6779937439,arrazi_daulay,"Puncak Nusantara"
12163939056,helishop7,Helishop.id
1945275363,muhamadsyarif_,muhamadsyarif
1454936316,songkleng_sakho,"I m a m h i d a y a t"
2310314635,mywonder23,"A  M  I"
7753922030,wrappingcustom,"Wrapping Paper Custom 🇲🇨"
1607111708,suryaprattama,
3852833764,daswhiss,"Dasrila W.D Siregar"
5319050703,makejou,Markus
5634877583,rully_pranata95,"Marully Pranata Simamora"
3536682328,asselya_m1,"ASSELYA🍓sweet Strawberry✈️🌏"
11234581260,tun_srwngt,ta_tun
7872151006,suryakohler93,"Surya Bhakti Pahlawan"
7222947558,nova_putra22,"N O V A  P U T R A"
3757174723,riyo_janeiro,REmp❍Ng222♡彡
7066443851,adefaridz10,ΛDΣ_FΛЯIZ
12161147116,iiksaan,Iksaan
3021590130,penakata.id,"Pena kata 🔏"
6332585894,juniantari_tari,tari_antari
1401274027,arifkrnwan,"Arif Kurniawan"
1958499812,febriangaa_,"Febrian Galuh Aria Atmaja"
6335831329,travelshelter,travelshelter
1602780377,priyadidanu,"Danu Priyadi"
7420332142,saifdin_,"⚜  S A I F   E D D I N  ⚜"
12286778536,isaacksabiah,isaacksabiah
7376799378,travellensren,"TRAVEL & EXPLORE"
11531015333,natasyaviraa,🍦sasa
2340177298,jayajoan,"Joan Permana Jaya"
8687090706,pangeran_phonegraphy,"Pangeran Phonegraphy"
1699819359,ricky_riq11,"ريكي أندريان"
6024064006,dedik_armawann,"Dedik Armawan | BALI"
1976603359,devita_maharani20,Devita
10935442471,zldyqqq,R.K.W
2029755705,maritaaa29,"Marita Puspitasari"
3464241722,rudyahmadoo,
1955122296,yogautamayana,"I Wayan Yoga Utamayana"
7130679711,muhammadsyafrudin,"Muhammad Syafrudin"
11379421781,r.ikyjuliansah,BijiMhamanks
10478931533,moment.kuningan.o,moment.kuningan.Ori
478872690,nimasayucitradewi,"nimas ayu citra dewi"
1799188391,enchy.gaul,"FRENCHY THOMICK"
6186735317,wonderful.ntr,pesona_alam
1936745080,lekinofera,"Leki Nofera"
1590871276,denisemontanarin,"DENISE Montanari"
357913103,ryhnnara,"Rayhanna R"
1433690087,dominixbharata,Dominix
12264884018,naturerandom07,"Lets Folk"
10499336004,s1vaputr1,
6175743706,grosir_amplop.lebaran,"GROSIR AMPLOP LEBARAN"
5529631880,bakultraveling,"TRIP BROMO BATU BANYUWANGI"
2126105347,venna018,Venna
1681796978,apud_mahpudin,"Apud Mahpudin"
2244719227,whereisjosephine,"Josephine Bella"
9540459236,deanrusso.k,#DEANRUSSOKALALO
8725917946,theofani0305,"Yesua Edward"
2066974586,myprihouse,MYPRIHOUSE
480728318,ivanahidajat,"Ivana Hidajat"
10461851352,hanamantniralakeri,"Hanamant Niralakeri"
11083864514,dionisius.15,adi
2313676527,fahrizal.nasution32,Fahriizalnst
5392549580,pinaast,"Dwi pinastii"
6797174894,maqdhavikia,"D H A V I"
1443545108,innekesumilat,"Inneke Sumilat"
9065588400,gillang.90s,VJ.GLG
2309315433,bodeeng,"Adry Setiawan Ramadan 👽"
6420554542,piscokjkt,Piscokjkt
7331317776,sandytama9,"sandy pratama"
728003282,ahmadmaula,
590220065,dwinuur,"Dwi Nur Utami"
7997023885,nihayatulmunfadilah7231,"Ning Niha"
4051148861,mayerrts,"Setiandhika Muhammad Dyan"
7547766962,zalfadzdha,"Zalfa A R"
11127332496,chris_chan93,"Chris Chan"
1083521555,anitaabungaa,bungaa
5699333936,galaxy_arloji,"jam tangan"
2338598986,hanifartafani,"HANIF ARTAFANI BIASMARA"
11407773328,dendengunituti,"Dendeng Balado by @linmalini"
12109587889,smile__zone,Smile
12120013816,fuckyous213,Hiasshole
3571116492,enricovalerio_,"Viva La Vida"
1811580204,gustuayix,"IB Wijaya Natha"
5678363200,annisarosena,ROSÉNA
8427583368,_annisaayrahdny,"A N N I S A"
1836567067,enggar_dwi,"Enggar Dwi Panglipur"
535852089,dee_dzl,DeWi
12316288522,hosenjhnbin,حسین
9226268790,ngakanputuadnyana,adnyana.mdhsejahtera
3078459491,jcmvalley,"Jim C."
7216716745,nuuriandendi,"Dendi Nuuriansyah"
6028309484,m.yusuf_9,m.yusuf_9
642515413,fayjava1,FAYJAVA
11950501882,hotuptop3,"😍🔥The hot Babes🔥😍"
6307300906,auliaherbalis.id,"Herbal Murah Jogja"
1797398145,_hnurul,nurul
1168956530,fawziapp,"Fawzia Puti Paundrianagari"
7643374190,hello.atha,Atha
7094115029,adamantine191,clementine
4574657765,byshamantha,"SHEET MASK MURAH JOGJA"
1436028480,hnfani96,حنيفة
6248398776,dimas_lakita24,dimas_chandra
6917664775,snapbyrei,
6365106977,blaem_shop,"Blame Shop 🆗"
3088710015,exneviatravel,"INDONESIA TRIP | SABANG TRIP"
11297425847,raraasekar_,"Sekar Wijaya パブロ"
12295393226,pnlsamtr,"Ketika Kata Berkata"
16482397,plengza,"Pleng Bhusanisa W."
10414480359,anejual_jeans,"jeans murah kualitas terbaik"
7038899499,maptravplus,"Tour Organizer 🛫"
2376778392,reuben_january19,Reuben
6069175002,lensakelvin,"Lensa Kelvin"
2090297549,ayulut,ayulutvia
12135843267,mima.eyelash,"MIMA EYELASH"
351721346,zo_oz_ee,"Zeena Abrg"
8939582063,pedal_bali,"Pedal Bali Cycle Yoga Fitness"
1703347202,deni.nugrahaa,"Deni Nugraha"
35536106,benny_mack,"Benny Mack"
1449622751,az_sett,SETTI
4842544753,nmedina.found,
6120097767,mypicsde,Mypics
8705001269,___azzahraallysya,icha_🦄
4789213897,alvaro.remigio,Álvaro
1997265506,ilhamsuwanderi,"Ilham Suwanderi"
5624357068,abdougarrix,"A B D O U 🇹🇳"
640175668,glanzkanciid,"Gilang Cahyono"
483245690,danielmarco90,"Daniel Martin"
12129252558,cantiputcan,cantika.putri
12128676999,esmatskn____,"esma taşkan"
4074554075,koalalembut,"Ainun Kusudur"
1817569255,alfian.nz,"Alfian Nanda Z"
8124183052,dobriyvanechka,Иван
10833524724,nagadaratt,Ima
12020507911,greatdehnphoto,"Gabby Dehn"
5532921761,mujahidin_adventurer,"MUJAHIDIN ADVENTURER🌎"
11773663752,bham_beauyt,LoveArtLoveLife
2132989382,limit_dika,"Dika Damara"
1535628803,ieuilhamfaris,"Muhamad Ilham Faris"
446076647,bangkidtrvw,"ʀвᴀɴɢᴋɪт ᴛʀɪᴠɪᴀɴ ᴡᴀʜʏᴜᴀᴊɪ ᴋ. 🔘"
12267355696,miss_khal6,Miss_Khal
3473392290,mounir_discover,"M O U N I R"
8447432197,of_sonia,"s  o  n  i  a"
1705663197,immfahmi,
5684042561,daffaramadhanii_,+6231
10378700179,chellaphotography2,Chella•Photography
10598535310,ziya.baa,"Gentaş Naklıyat"
2264470247,kennygiandra,"Kenny Giandra"
12145251794,ahmetyalcin522,"ahmet yalçın"
2251945618,dee.iw,"Indra Wijaya."
10867576459,laali284,
12270435006,123456.9519,
311197452,munzilsz,"Munzil Sya'ban Zamilu"
175096357,culture.classic,"CULTURE CLASSIC"
12188137037,sahraakcan,"Sahra Akcan"
8406944510,mhmdrkn86,"محمد ركان"
12104446358,nandito.93,"Fernando Stanley"
12271259113,workart_10,Work.art
2185701234,andipridika_,
838629894,s.shafiraa,"salsabila shafira"
12147602310,febriansyah7614,"bagas febriansyah"
11843549753,12mp.diaries,"Vedang Bait | INDIA🇮🇳"
9968589318,manuskriptinta,"Menghadapi Yang Tanda Tanya"
12274137383,a_simple_traveler,Traveler
2305721264,aurobindoghose,"Aurobindo Ghose"
6085958128,_mrizkyyyy,"Muhamad Rizky"
5371740091,rknsfeb,"rika annisa febia"
8435212002,batik__mia,"PUSAT GROSIR DAN SERAGAM BATIK"
5658769785,buzalova,"Valya Buzalova"
1312983466,ranggajulianto,"G A G A"
261487335,avilalstef,"Stefania Avila"
2523887643,pesonaketawang,"P E S O N A 🔥 K E T A W A N G"
12039595941,grisfam,"Garis Fam"
3092883,aioria,"Salvador SC"
12297385532,adr_sastikania,"Adira Sastikania"
1215096273,prateek_sharma_2019,"Prateek Sharma"
3979826368,tonihofmannmedia,"Toni Hofmann"
3291117388,mahfudbarmawi,"Bakoel Gombal"
10842548874,banyupp.gallery,"B.T Gallery"
2160577558,hnfynnt,"hanif yunanto"
1788846056,dwaliana,"waliana dewi"
1545616002,mrvonda,"Meitra Vonda"
6312684709,samsmithenglish,"Sam Smith English"
6217594789,bagstorehca,"Tas Import"
12171481960,moskvich_m412,"Borysov Alexander"
12139180317,jammesgroover99,"James Groover"
272364648,g_armandho,"Abah Alesha"
4002323951,iwan_setyawan19,"iwan setyawan"
12152842411,aimamf,"A Imam Fauzan"
1551815176,lara.wick,"Dilara 🦋"
1692028602,stephanychp,"stephany christine P."
9130673809,luthfii131_,"A L K A H FI"
7115385580,rangga_wcksna,Ranggaa
1262254825,pejalan.irit,"Pejalan Irit"
1527422645,theuri.festus,"Festus Mwangi"
12250332774,sherlock8020,"Sherlock holmes"
1978360903,ihsannurh_,"Ihsan Nur Hakim"
2015876796,ikhsanstory,"Ikhsan Maulana S"
3648177227,dedheharrahap,"dedhe harrahap"
8981628246,hery.mczee,"🅷🅴🆁🆈 🅼🅲🆉🅴🅴"
5999763975,pacekepoo,Siapakek!!Kepoamat!
4549673758,nhory_r.one,"Nori Erwan"
2106944634,venuussssss,v̾e̾n̾u̾s̾
8574009220,rdkhrsng,"Rudi Khairuddin's"
12037784,crickle83,"Adventure Collector"
12129364806,take.some_,📷
1700425299,ade_riyanto23,"Ade Riyanto"
5790514164,muhunsocks,"GROSIR KAOSKAKI SKATE"
7482654602,jesper_lemmens,J̷e̷s̷p̷e̷r̷
1129086170,nurmita_lipursari,"Nurmita Lipursari"
12157882814,hendrajayaaaa2019,"Hendra Jaya"
4114059542,si.yuyu,"baby yuyu"
4657515481,sakhawat_hossann,"Sa sahan"
6041301889,biyan_kollop07,"Biyan kolop"
4049098123,thewonderswanderer,#thewonderswanderer
4324118506,foodiemooddd,
4126145388,harisrare_,"•B L E S S E D•"
4650689463,galeripromil,"GALERI PROMIL"
11554697773,irregular__beats__,"@irregular_,_beats_,_"
6028689999,gugum_026,"Gugum Gunawan"
11453249103,shrlcv_,shrlcv_
3303017298,millopajamas,"MILLO PAJAMAS | SLEEPWEAR"
4857299807,skinnysyan,famous
1593078012,derry_hydayats,derry
4370203127,muhfaqih10_oficial,"Futsal Is My Life🔟"
712677254,agaapokrywka,"Agnieszka Pokrywka"
8762388583,anastasya.pr,Anastasya
4309510180,helmyphalevi,"Helmy Phalevi"
40781711,justjoelz,"Joel Ang"
7183748171,kamera_hengpon,"kamera handphone"
1414332313,aderlijk_deugd,cherry🎀
6004856730,kartawida,"pemuda insyaf"
2900785595,kenan_riality,Kenanimix
2335071875,ihsan.alexsanders,ihsan
2210752818,_lapannam86,Trisna86
11840417648,bhetisp22,"bheti safitri"
3660379675,_kannida,annidakd
12119461512,hatake995,Hatake
3961141307,luqman_dinata,"Luqman Adelia Dinata"
5755379093,anak_jnow,"alam indonesia"
8121420170,lehmancityt,"Lehman Cityt"
2171511513,yazid_danish,"Yazid Danish"
8626372314,seriatik,Seriatik
12143512273,yaelahfer,Ferdy
12061506813,distributorkaos11,distributorkaos
2707195965,kimichanchut,"kimi juju"
9366971235,jasabordir_komputer_bandung,"HIKATY EMBROIDERY"
8125178616,kisahpotret,📷
3519246391,farazzuhdiy,"faris azzuhdiy"
12177096007,supernico24,"Nico Udayana Bahari"
12153234763,jerit.hati,"ada kamu di dalam hatiku"
9253956883,ilmukomunikasiuwm,"ILMU KOMUNIKASI UWM"
12165400688,alveiro08,alveiro
7238744971,rup3s_8,"R U P E S H"
2993593712,poviempo,Povie
1973900260,kadekaribawa16,Arik
3231903461,wisatamalamjogjakarta,"🆃🅴🅼🅿🅰🆃 🅱🅴🆁🅼🅰🅸🅽🎡Di Jogja"
2101791164,andriyt_,"popy andriyanto"
3158328595,fauziahnuraulya,나하영☀
412308088,hyldagustina.s,
1446694041,syntiaayuk,"Syntia Ayu"
1743499811,nana_mardiana118,"نانا مارديانا"
803755996,andreeafinyak.ro,"Andreea Finyak"
2116110583,ria.lz,
1069242042,mirandaavv,
12183920945,abiantara92,abiantara
3531697650,felixt__,"Felice Tufo"
9172156070,24_hourrss,Twentyfour_hours
12065641620,wawan.kumis1997,"wawan winata putra"
6176534556,zeeshu_officials,★☆Zeeshu☆★
6124611652,kitigers,
1493821956,tan.stanley6,"Jonathan Stanley Sandiaja, S.T"
12096582837,photcollect7,collector__
1515196230,halodieng,"Dieng Culture Festival"
3661445171,novitasusman,novitasusman
12072807674,nel_pic,•Nel•
1467543228,ikaandarini,I.K.A
6532567117,zkdriin,bchtrin
10981046198,anitagnl_,🌻🍓🌈
3289704010,padme.id,"Padme ID"
12259241599,jepretasiq,"Asal Jepret yg penting Asiq"
7986700004,_zoozap_,Thanveer
2077321078,muhammadiqbalk10,
5874151609,bagust_18,"Bagust Hadi"
3615024240,nasuhafashionhijab,"NASUHA Fashion - Hijab ☪"
12163554365,alqapaphoto,"Photo by @alqadripaweka"
7014699154,thehaslims,"Al Haslim"
4117799452,dhiyauh__,"DHIYA' ULHAQ"
8643229448,robik_aldi,Robik_Aldi
606716411,natta_yaaa,"Tangtang Panasittiwana"
2237866712,pesulapcinta,Nis
2093305637,sp0iledwifey,𝕳𝖆𝖟𝖊𝖑 𝕾𝖚𝖒𝖆𝖗𝖎𝖇𝖔𝖘 𝕾𝖎𝖆𝖟𝖔𝖓
12306832736,muhammadrizal3147,muhammadrizal314
11948953525,tanmimi7,"Tan Miemie"
279176476,divasavv,"𝔻𝕚𝕧𝕒 𝔸 𝕊𝕒𝕧𝕚𝕥𝕣𝕚"
12091086991,sinyuyun33,신유윤
12131700453,fathirlubis2019,"Fathir Lubis"
12255612136,faten4233,Faten
1212682387,the.barrow.gang,●🅢🅘🅝🅔🅜●
1837505976,erwinputra_,"Erwin Putra Sharla"
12303928763,ekae.pict,"Eka E.Pict | EKA EVI"
4041257048,yosepuraneto,
2939512814,shopwith.you,"You’re shopping with Me🙆🏻‍♀️"
7359230363,perfect_capture___,perfect_capture___
2269270954,arry_pdg,"Arry hasmi padang"
2370207861,giar21,"Giar Hermawan"
612963708,alhndrwmchel,"Alehandrew Michael"
6334868800,pawanshori143,"Pawan Shori"
3093422265,sriirmayani30,"sri irmayani"
1558138986,_aditida,"aditya pratama bachroni"
6840401221,risasolihah,"Risa Solihah"
6990190214,z4photography_,coffelate
202080631,leonard_leymena,"Leonard Leymena Sinabutar"
3818511659,eka.daoun,"eka septiarti"
1413773247,putuhira,"Asef Putuhyra Wibowo"
1596782851,imewwwww,"Ikrimah Al-ghifariah"
4164508021,nitnits_,"Syiamira yunitta fitri"
6761645297,calustocheese,"Mozzarella Cheese by Calusto"
6334408660,yogadwis525,Yoga_Dwi_Saputra
11293207249,basit_453,𝕬𝖑𝖋𝖎𝖆𝖓
11169897613,mhdlf_,"Muhammad Alif Rizky Naufal"
6700626669,renimanilaka_,Renn
11709004387,arionmanola,ArionManola
1243252687,arsyahfatiaa,
2166789998,cv.sufijaya_kategori_unik,"order overload mhn bersabar"
4272508688,khnursalim,"Nur Salim"
7477318481,binszstore,"SNEAKERS ORIGINAL"
11701175777,fahroulpro_08,Fahroul_Pro08
5315377521,vaista_05,"V A I S T A"
1642500886,angkringan.bento,"Waza-Waza Angkringan Bento®"
8283395325,luiz.palitobaterias,"Palito Baterias"
4278469767,mr_ayoub_fun,"Rokho Mr-ÄyǾùß"
8273094816,enhaken,Azax
578473297,ariesmsofyan,"Aris Munandar Sofyan"
12108245205,models_home_,moundir😊
966129450,zekesuh,"Zeke Suh"
5969886134,kentos0909,Kentos
10733574383,banupradana_,BAP💁‍♂
432314542,ahmaddaqil,"Ahmad Aqil"
9614439268,prolicense,prolicense
9374861167,kolonikaos,kolonikaos
11321633774,ruang_segalanya,RuangSegalanya
11877553324,pemimpin_dunia,"The Leader"
12137780081,hamzahassgf,hamzah
1215777397,nedyelshadio,NED
1506925228,andrian_sirait,"ai ise haroa"
870521449,simoneiannone_,"Simone Iannone"
1093770276,arsitalika,cb-261
8282328916,she.shalindri,Daily
2261554953,cahkosong,Cahkosong
6784403289,menulissaja,"wp: @novikanostalia"
8240702986,fashionshop_0718,fashionshop_0718_
5372239254,nirmalahaerunisa,nirmala
11381169177,bukit_roso_wulan,"Taman Wisata Bukit Roso Wulan"
12010121961,pecandu_daki,Pecandu_daki
1831124868,zainahelmi,ELMI
7249220362,sidiney_silvaa,"Sidiney Silva"
12084670671,rizall_leader_paytren,MOHAMMED.F.AFRIZAL
6328170582,wulannnn843,"Retno Wulandari👑"
12087999223,venomgober,Omgober
2949014806,wahyu.nurxzn,"Wahyu Nurazian"
1779044941,folk.java,#FOLKJAVA
11091521799,bader_adventure_klaten24,BADER_ADVENTURE_KLATEN24
2264138164,alien_thy,Tika
9265126225,stringtheoryhammocks,"String Theory Hammocks"
3405361742,fhyt.prscila,"Fitry Lekeama"
3189875303,mhmmdipaaan,ipaaan
4926086810,prasetyobagus_21,Baa_gus
340482974,pictures_of_around_the_world,"Cynthia Bottini"
3117666066,hbiibbb,𝐂𝐇𝐎𝐄𝐑𝐔𝐑𝐈𝐉𝐀𝐋
9962983544,punyaafandi__,"M O C H A M A D . A F A N D I"
10607986977,ariefzshanjaya,"Ariefz Shanjaya"
295705019,pnji_hrdn,Panji.
411661541,kenmorenoo,"Ken Morenoo II"
3654285499,habibie_321,
5052451870,aditya_kadiirr,"aditya kadir"
12074995765,purnomodieska,"dieska purnomo"
8902094776,andisilvy_,"🌸اندي ديتا سيلفياني رزا🌸"
6016914557,grsk_kacamata,GRSK.
3965951890,yukpelesir,yukplesir
9150369040,grosirkacamatagresik,"GROSIR KACAMATA GRESIK"
1259946126,abyanaa1,dapeeee
4233650817,choridakam_,"🍃Chorida Kamila Ula"
6778753880,fabiolaayu123,ayuuuu
2009390048,mfathorrosyid,"M. Fathor Rosyid"
1701872376,moone.122,"- Simple life 🌿"
11811493659,thaichitea8,Thaichitea
12085199325,moremoods19,"MRTM x MDWR 2019"
1470346762,qamaruzz_,"Fahmi Huda Qamaruzzaman"
11586143939,fitfansbrasil,"Fit Fans Brasil"
2883106983,nieaartha,"Niea Artha Putri Wahyu Arrafi"
12016538531,epigram7,Epigram
1260335049,rjprabu2,"RJ Prabu"
12124140876,bagusaji222,bagusaji
5711151793,jawadwipa.mlg,"Anaphalish Javanica"
290111235,purpcorn__,🦄
2197493061,esanuraisyah,"S H A 🐼"
9380022348,muhammad_anpr,"M A N P"
11416914689,seftiaryaniii,"Sefti Aryani Retnaningtias"
12181153109,quotesntravelworld,"quotes and travel"
4782110119,rifki_alpadudani,"Rifki Ramadhan"
1920497272,oliviairsya,"olivia ramadhanesa putri irsya"
1495702961,kevinarvianzha,"Kevin Arvianzha"
3937241782,vivekmuralipo,"Vivek Murali"
12241884056,riadphotograpy,"RR STUDIO"
4264350614,radkoaccordion,"Yurii RADKO"
365340397,raysazdn,"Raysa Lestianti"
8300964904,ameliatte,"Theresia Amelia Jordana"
1401227304,arioyudhanto,リオ
904224058,iamnicholasryan,"Nicholas Ryan"
6854587158,nadaodyy,"Nada Audy"
12098174383,kiniakutahu_,"Kini Ku Tahu"
11284243312,liyaa.yaya,Yaya
12185144696,sweety_jee01,sweety_jee
4202061891,tasyaaprida21,"T A S Y A"
8075397921,merassegaf,"mecan x malia"
7317361980,fromtheeyesoflynn,lynn
1928062876,octalia_farisman,Oktaliafarisman
11588824024,numberwan113,
12102134124,print.ncreate,"Print N Create"
6887501508,n.ajm_islam,⭐️نجم
7498422929,villa_brilliants,"Afrilla Roiz Anwar"
313406026,stefnisuini,"Stefany U. | Florist"
11670254001,adventuredestinasi,NATURAL
369964109,rizkiyahya,BangIKI
12103688077,kurma_co,"Kurma Coklat Murah"
7752504390,thekiyadotcom,"KURSI STOOL"
2875147028,yuchil_gafur14,M.YchL.Gafur
7980338953,cacciagram,CACCIA
5337145060,ddimamr,"Imam Rahmatullah"
12141962933,indonesiaterviral.id,"🔊 ITVI ↪ Indonesia TerViral"
1534074043,annisadest_,"Annisa Destania"
12074079945,byeongchang.kim,"kim byeongchang"
11881624027,neeirastore,neeirastore
352145368,clarissa10901,"Clarissa Kristianto"
376216572,cl_nomventures,"VANCOUVER FOODIE"
9227923464,margofoodupdate,"Margo Food Update"
8065173657,dindanda21,딘다
6604591882,chaica_anisa,"Chaica Anisa"
1111716095,shaazzura,kei
11876224825,zullpazizi,zulitah
5602545116,matacutter,"Calligraphy and Mural Artist"
12148786677,bobbbyyxx,alien
9423780215,dimjproductions,"Dimj Productions"
9671072736,pencari.damai,"Pencari Damai"
1452405571,ikankooi,"Achmad Fajar M"
6004828961,_ayyyy18,yuninur_rahmatin
4502842607,mandiraja.grapher,"Fotografi Mandiraja"
27827808,lazuardi6690,"Lazuardi Nurfaiz"
12272961370,terinpirasi,"• Terinpirasi"
7484649288,evatrastudio,"Evatra Photo Studio"
11872419906,devnis_olshopmurahsolo,Welcome_customers
343401188,arynmazaya,"Syahrina Mazaya Nyaoemar"
5522859101,azzfaisal,"faisal aziz"
1687400105,ardyan.45,ardyan
4145649641,hardi_ay,"Hardiansyah Ay"
9548431399,bedur_foodcenterium,BEDUR_FoodCenterium
1513382905,messichenko,fandy
11933809798,maoebin.a,"ARI ++"
335904114,lisamedria,Lisa
7421272045,davidbaskyta,Baskyta
4434764324,mamain.yuk,"Mam & main yuk!"
5576881904,nadias_05,"nadia salsabila"
12075523824,amanahbisnismiliioner,"AMANAH BISNIS MILIIONER"
1810267385,nidamhrni,"𝐀𝐧𝐧𝐢𝐝𝐚 𝐌𝐚𝐡𝐚𝐫𝐚𝐧𝐢 ✨"
9403208640,market_herbal_jaminan,"PENINGGI PEMUTIH PELANGSING"
9161572259,tukang_kelayapan,"Info destinasi keren kekinian😍"
2713092099,emeraldcity73,"Chris S."
6197439329,fahmi_andri79,fxzhmmm
3442197971,31.days_,Helmi
1903660917,davinaazhr,"다비나 아자라"
7736081,chapter3d,"𝕳𝖊𝖗𝖒𝖆𝖓 𝕯𝖆𝖒𝖆𝖗"
6674465346,moodybooks.id,"CUSTOM NOTEBOOK BUKU SOLO"
12140491257,desainpro08,"design creative"
3933134996,renitaa.__,"RENITA IRANI"
331996687,christian_saragih,"Christian Saragih"
4368860477,renitaa.rn_,"Renita irani"
7633540927,nomadic.nandy,Nomadic.Nandy
7173654865,r_kalaska,"Rika Annisa Febia"
1454969544,apriliaram,"aprilia rahmawati"
3930040245,jual_beli_mobil_bekas_djogja,"Yudhi Pradika"
6651901423,rinasari__d,
3221899517,laferobowk,"BUKET PERMEN & SNACK - MALANG"
12032033440,balutangaleri,"Batik & Tenun Nusantara"
638015396,tanziltros,"Tanzil Tundzira"
1307289881,kalilamaiac,"Kalila Maia Conerisman"
12165937525,pusattaskameraadslr,"Produsen Tas Kamera Dslr"
6887339847,morfosispictures,"A L I  📷📝"
10497657776,nanabonggg,.
3543214148,diantriyo,DXXNT
7895681091,hello.syam,syam
446560319,febryanekap,bif
4499297716,rainder.pieter,"ɌΛḯN༙ԀєɌ  ƤḯєṭєɌ  ΛʟɓєɌṭ  Ƭøøƴ"
12244594390,dialogsederhana_,"dialog - cerita"
12112941426,onecintaqu,"Cinta ❤️"
12028331067,allmayusri,allmayusri
11186213662,_alhsaeri_,"Black & White"
4453819039,teukuakmal_na,"Teuku Akmal"
5482072670,alisaa_aw,Alisa
5728767378,natashaaakai,نتش
5590077786,angkitwijaya_,"SRI YULIA NINGSI 🖤"
1556146889,putriiiiv_,
4152867883,ahmadkurniiawan,"Ahmad Kurniawan"
12065863890,grosirtaskameradslr,"Grosir Tas Kamera Dslr"
5907021433,ciimbellcolombia,"C I I M B E L L  Colombia"
8732172661,maskforever,"🌸Organic Face Mask🌸"
3016672927,anf.project,"AnF Project"
5098238326,nazwanax08_,nazwaadhaniaputri
438229010,widyaliswanti,"Widya Liswanti"
203263302,astridpadmanita,"Astrid Padmanita K"
11595232479,eg_imaging,"ngurah abiseka"
2137675855,makekimia,"Supplier Bahan Kimia"
1831708109,niketiyasnovitasari,"Nike Tiyas Novitasari"
5021066116,harto2567,"Muhammad Harto"
7534161535,bandangsurvival,"BELI SENTER E17 GRATIS PISAU"
3051927789,isaac_19120,"Isaac Proaño"
7799846234,agunkrisanto,
12273074544,xtreme_adventurecomunty,Xtreme_AdventureComunty
4136853714,arthur_cns,"Arthur 🇧🇷"
1924865974,maydiesm,"Meidy Ferdian"
12135875794,cankaya_alim,"Alim Çankaya"
3570328600,vsecond_outdoorwear,VSecond_Outdoorwear
259716085,nisankris,"Nisan Kristiyanto"
6217261107,ercoll.id,"Kemeja Monalisa | Baju | Gamis"
11607622808,ansor_silver_mungkid,"ansor silver mungkid"
6044236115,nashirrama_senju,"نشحررم سنجو"
1811222084,staceypsychology,"S   T   A   C   E   Y"
6435246658,semborobikecommunity,"Semboro Bike Community💯"
12179040662,galerykopi_indonesia,kopi
1641232330,andung_pardila,"andung pardila"
7427548017,abdadyasykur,"naufal abdad yasykur"
12182072807,jualfolsaktif,"TRUSTED&MURMER GAN SIS😱"
2228368586,kuring_asep,"Asep Arif Shadikin"
501656957,mohamedmahmouddali,"Mohamed Mahmoud"
515410967,farisfajri,"Faris Fajri"
6834123564,gracia_vi,"Gracia Vi"
6191434814,genwitiongkok,"Genwi Tiongkok"
1225367693,bellabelindabb,
2338234978,adan2386,"MUHAMMAD FADLANSYAH"
6206599119,imammasrukhin,
12299224516,milea.indo,milea
4241189587,nyonyojejepian,"Vian Ahmad"
1902467692,_intun,"Intan febriani"
12154242567,scarletlissetruizprado,"Scarlet Lisset Ruiz Prado"
3422226500,muhammadbenfarhan,Ben
12160938072,elianov1ta,Elia
11622089506,iyus.mama,"Mama Iyus"
10905851648,permanadimas__,"dimas adi permana"
12302472106,tempattaskamera,"Tempat Tas Kamera Dslr"
11088639227,mfahmiaali,"Moh. Fahmi Ali"
11789394951,lie_diuz,Lie_diuz
8256085690,bromo_ina,"WISATA BROMO DAN BANYUWANGI"
4615424962,danzurcher,"Dan Zurcher 🇺🇸 🇨🇭"
11545640430,qasm.ahmd,"آحۣۗـۙمۣۗـۙد قۣۗـۙآسۣۗـۙمۣۗـۙ"
12097174186,woibil,woibil
12293880362,alfian_347,alfian_34
11597907035,jopakaenoni,jo
11369975528,la_puerta_al_amor_,"🔛FRACES CON SENTIDO🔛"
9474700464,db_worldtraveller,
9167777987,adinsyahfedrotogatorop16_,"FEDRO TOGATOROP"
5724863998,rahulfzira,"Fahrul Riza"
32771097,adeniarps,"A D E N I A"
2290882782,beadecarv,❕BEA
5325011951,trianyaseptiana,"Trianya Septiana"
2272058066,pranawa_aji,"Restu Aji Pranawa"
8696532568,_iwndwichyo,"Kurniawan Dwi Cahyo"
175128315,wahyu2707,"Wahyu Hidayat Jati"
2052097306,re_musa,musa
1469693206,wgcnd,Wijaya
11799113014,is_gogle,Isgogle
6879196053,kurniawan11_11,Kurniawan
7990335930,brightside.life,"The Bright Side of Life"
34032533,deaayu,"Dea Ayu Nuritalinda"
4438896792,imanjaman,Imanjaman
10501107184,cicik_ka,Cicik_Siska
3103910333,aykon0991,Aykut
11858265633,super_high_official3,"SOLUSINYA PENINGGI BADAN"
8192026470,ellenrolos,"Ellen Pinkan Rolos"
11309405259,egalaxy19,Egalaxy19
22549977,khrisraymond,krayseeworld
4747572765,d3ny_1407,RiderYr15
1468686990,widyasyarafina,widyas
7687042273,dane_lan,Zidanemlana23
5360199715,allyazr,allya
4844836667,putrinopianti30,"Putri nopianti"
8890341303,nyonya_kecil1,"nyonya kecil"
10594242291,sfnadventure,sfnadventure
3048059902,yasminafnan,-
9970300413,hnfidh,Hanafi
2269252793,wildasahila,اءلا،
3232815168,baharudin.joesoef,"baharuddin yusuf"
7519242471,rizky_mhmdh,"RizTech Official ⏺"
12254987581,mashradent,"Mash Radent Wdjiodiningrat"
2426183265,adityaabagas86,"Bagas Aditya"
10220843181,batamlokerbaru,"BATAM JOB INFO 2019 🎏"
2167118965,afioo27,Mrfii_27
11215417864,win.a.gopro87,"GoPro for free"
1659764905,iroel.iman,iroelefhi
5380251611,faezal_barul,Faezal_barul
12056375005,beringinindah_coffee,
1136828197,endahmulatasih,"Endah Ratnasari Mulatasih"
5475028398,sn.arum_,"s i m p l e"
4364386900,actionlombokcamera,"Sewa Gopro Lombok"
1821211851,suhmedeyros,"SUH MEDEYROS"
8924837414,wingslott_,wingslott_
2281700783,rizky_hutagalung90,"Rizky Hutagalung Chanel"
2870708159,dinirizky.n,"D R N✨"
2154944251,arxxy,"Aryo Sigit"
12180592627,shl.do,shl.do
2231322007,sibolang_07,IndraPratamaSaleh
4520483325,yesim_tpkya,"Yeşim Topkaya"
8004990105,_rahmasarita28_,Sary_Rhm
5510614999,dayanaraelsaa,"Dayanara Elsa A"
5658448634,krymme,krymme
5440392800,ara123___,"Tiαrα Sukmα Dewi"
3271536033,yunusmujadidi,
1707031787,jesichasihombing,JES
9648178430,doklots,fajar
1946857889,ikayanrahayu,"I k a R a h a y u"
12090094604,rabilou898,rabilou
4218427199,rksufardy,Erka
28568250,erhska,"Erhan Kara"
4174637062,niicckoaw,Nicadprat
3610898000,natural_new_zealand,"Chatin Brar 🇳🇿"
252290121,fenyrahma,"Feny Rahmadhania"
4668809335,jldrone85,Foto&Drone📸
5955076067,mikexz__,"Im Mike😀🍁🌺🌊⚡📒💰🔱"
2028589225,setiohendro,"Hendro Setio"
10903411788,newview_photography_939,"NEW VIEW"
5836006283,cahreview,"Dinda ♾♍"
185481267,ib_19,"Ivan Bernarthdus"
12274864721,destination.spotter,destination.spotter
3219084438,ajidwitama,
2242516701,bang.baha_,"Wedding Photography"
12160697695,ayotualang,"A Y O B E T U A L A N G"
11889672074,mimiaustin_,"MiMi 🌎✈️"
1414281732,oliver_sumtaki,"Oliver North Sumtaki"
3078560518,rudisolushit,"Danang Rudiyanto"
8390376312,sara__travels,"Sara Hamilton"
3681142533,wndapr_,"Windi Apriani"
12117548805,sis_theexplorer,sis
12073191720,ka3ra2ranj,toranj
12067663918,komunitas_turut_gunung,"komunitas turut gunung"
2030925066,anggabdls,Angga
12095094044,hafidznih,hafidz
3622807610,saltyledgy,
4222934348,indra_syu12,"Indra Syu"
4199090985,lf_shintta,nonis
9641533991,redduud18,redduud
2929272020,maunyayaya,"gamau yang lain"
9068900584,ajipamungkas2412,Ajipamungkas2412
297177403,visualalfha,"Alfredo Juanacio"
10240614791,ahlmbrk,"👤 AHLUL MUBARRAQ"
3499130571,m_iiirwn,m_iiirwn
9859968025,purnama3475,"jasa fotografer"
4560267546,s_u_g_u_clxics_editz,sugu@sugunan***
11207793729,spirulina.indonesia.1,"SPIRULINA INDONESIA ORIGINAL"
4491968245,rajialfauzi,"Raji Arif Al-fauzi"
660964219,supersatria,satria
6105985822,jidan_guetta_97,Nias?
6511942678,gunturlaksa33,Guntur
6010929432,_rzll20,"Muhammad Rizal"
2063780023,fransiscayesi,Yesi
6964482658,palsfaced,palsfaced
2725889002,rnd.ant,RindiAntikaa
9282587919,anyel.feliz,"anyel feliz"
12161449862,gunung_kembang_via_lengkong,"gunung kembang via lengkong"
764606356,oswaldobtt,"Oswaldo Bautista"
9067757639,dyansesa,dyande
6184119635,antajayacc__,"Panggil Saya Cc🐼🤪"
10681315549,henrique_00010,Henrique
8362837428,framdanie,"Fikri Ramdani"
5405825197,haidir.11,"H Λ I D I R"
1573008797,rizanfmajid,"Riza Nur Fajrin Majid"
8491115783,rentalmobiljogja_arthabima,rentalmobiljogja_arthabima
12059167977,hikeitoutfitters,"Hike IT! Outfitters | HIKE IT!"
4005476253,galeri_photo0,"photograper wisata"
12156792254,jafradns,JAFRA.ID
12170737200,oomploomp42,"Oompa Loompa"
27299171,borboleta_8,"Diana Musan"
4102289745,zamxzami,"ᴢᴀᴍ ᴢᴀᴍɪ"
4487487025,dedurenanjogja,"SPESIAL DURIAN JOGJA"
5613248937,heyitstutus,"I M A"
12119892503,oggisy_drafts,"oggi satriyo yudhanto"
12173449055,masyostory,masyostory
7297939974,alvinsaputra67,🦂skorpio✨
1809305440,fahelfaisal,"FAHEL FAISAL"
1701571790,raryodar,Yo
4952123341,photo._.books,RedLine
4133787999,sayaorg08_,"R I F Q I_F A T H I R"
6054387344,elmondays,"Muhammad elmonda"
8033616632,free_access_17,"jam tangan kediri"
2136620004,bixrahman,"Orang Pinggiran"
8622625480,airgadiskalimantan,"Air Gadis Kalimantan"
5452073780,r._angrh,"rivani anugrah"
12290560803,batik_mozaik,"BATIK TULIS SUTRA PEKALONGAN"
8636181570,nrwhydi_,"Nur Wahyudi"
11467677350,ibputuaditya_,"ida bagus putu aditya pratama"
9000660058,astracer,"astra ahkdika"
2943575147,laura.v.b0,Laura
12265057748,friancell474,Emon°
12257707106,gn.kembang_route,"Gn.kembang Route"
1410671427,ppiyng,"أستيارنا كورنيا ابريليا"
6066064330,jessegrossert,"Jesse Grossert"
392139594,rahmxtc,
1586792639,ciaohelmy,helmindrawan
2958818911,fhmianwar,"Fahmi Anwar"
11608559473,blessedtravel.id,"BLEESED TRAVEL 🙏"
5703388571,deepeshh25,"D E E P E S H"
11575789319,albertusfsp,"Albertus Femi Setiawan P."
12183280005,jualtaskameraadslr,"Jual Tas Kamera Dslr"
186028649,a_rama91,
2226357871,ulfiahasa9,"Ulfiah Asa Ustadzah"
1522886516,rodadanroti,"Roda dan Roti Travel Blog"
7101641839,irfanfahrurozi_,"Irfan Fhr"
12141747023,cyberdonus2,gendis
1473620471,regiliashinta,
3257895095,faisal.alnajran,"فيصل ال نجران"
12292064902,pojesk,𝙈𝙖𝙧𝙞𝙖
8927277805,buanayellow46,"I STAND WITH VALE"
182651300,dhikaaufar,"M.Dhika Aufarzulfathi"
12273992664,ditya_shotz,"Ditya Photo Shotz"
8539704427,rollsenja,"K a l a S e n j a"
6655475765,ar_sha_k_,ARSHAK.....🌻
11800083982,perapigigipremium,"Perapi Gigi Premium Quality"
1463091162,blusuker,"Ridho Madya Ramadhan"
2147410628,mbieebesst14,"Debby Septhya Handayana"
478925070,ferrowbradley,"Bradley Lonan"
7611545952,dimasfirman30,dimasfirman30
184752776,nabilafithriani,"Nabila Fithriani"
192173926,herwin_jhie,"Herwin Jhie"
215291477,kellyzhx,"Kelly Tay"
6366048679,valenciannabella,"Valencia Nabella Hendrawan"
12120403006,joko_mamas,"Mamas Joko"
2310820882,arya_dhatu_photographic_design,"Arya Dhatu Design Art"
267335416,_hasanah,"en ha"
11928180106,essentials.project,"Essentials Project"
1121323003,stivenpatras,stivenpatras👽
4723559821,malang_interior,"Malang Interior"
12103077588,garamerah,"Gara merah"
9255261724,febyanantony,"F_Byan Antony"
10676469913,rrivalefendi,RICKO_OFFICIAL.リッキーエフェンディのライバル
7489527820,hetafatwa,"Heta Fatwa"
12267698443,tomiris_dulatova_,tomiris
4639872337,novakkuntala_,"NOVA KRISDAYANTI KUNTALA"
1991542934,desisyafrl,"Desi Syafrilia"
12159649848,satriawahidi05,satriawahidi05
36696519,samwinaldijunaib,"Sam Winaldi Junaib"
288423267,rossely7,"尺丨丂Ҝ卂 尺ㄖ丂丂乇ㄥ丨"
242378238,katherinepic.l,Katherine
1767618545,muchariefsetiawan,"N E O | Much Arief Setiawan"
12051599924,robbedcardi,
9702733339,amat_bear,"Muhammad ahyadi"
3919219483,hevintsc,CXKL💈
12168456244,sabinazarinl,"сабина   заринова"
12090526326,shutterusd,shutterusd
12065469858,no_idea.000,"الوريث الشرعي للمملكة العضيمة"
2915423631,fadhlidarise,RIS3
607250017,ig8k,Pervaan
6803210746,halimpratama_20,"Muhamad Halim Pratama"
12179152305,si_pendaki_jentel,"si pendaki jentel"
5779709647,donycaptureit,"דוני אריסנדי"
10594372670,turritellaterebra,🦄
8573630827,dimasadty13,dimasadty
2035400526,restuw_,"Restu Wahid"
503763705,goyagotravel,"Goyago Travel"
6974045021,tripzilla.id,"TripZilla Indonesia"
7018290763,cassie_fx,cassie_
12242172201,enolatrembath,"Lowe's Home Improvement"
2125939001,ayamgeprekmasyo.id,"Ayam Geprek Mas Yo (AGMY)"
8581662825,andre.taufan.52,"Andre Taufan"
8005313200,_mwtdf,"Hardcase 🔄 Custom Case"
12116108787,diwp_,
3478689670,haerulsaputrapratama,HaerulSaputraPratama
4642606743,abata_mukena,@abata_mukena
3982827848,mran73_,"Muhammad Ryan"
1995505444,faqih.faiq_,Capres
1527412773,poundriz,
5812447733,johnptrckk,blessed
12096765983,traveluhuy,Traveluhuy
2075739679,rizkaarahma_,
10975679726,muhammadrobyy_,"pergi jauh tuk kembali🍃"
12065647940,aliflifetime7,Alif@lifetime
2034207741,rizalpauji_,"Rizalpauji_ 🔵"
11092120000,mielikki73,"Heather Fleming"
3500199024,zakiaidi,"Zaki Aidi"
255443615,tanthyqaliaw,"Tata Inc."
5452740201,asnaindry___,"asnie 🌹"
11207498225,cumabuatkerja,"BUKAN PERSONAL AKU!"
8334276699,nasyatilaa,"Syatila Na Ⓡ"
8278785155,kunssecondbrand,"kuns second"
12029674957,occasionscafe,"occasions cafe ,kakkanad"
1952131713,nikafitriani_,"N I K A🌻"
1732566336,elsayms,"elsa sirait"
3279223900,anhar.ma08,Anhar.ma08.
7893718988,maulidya.nrl86,"Maulidya NA"
5745181540,silviadianariska06,silviadianariska06
8086922729,frannomediardana,"Franno Mediardana"
253812392,bima.wirata,Mbim
591392810,tommy_wp,tommy
1628588473,ambarwahyu94,"Wahyu Ambar"
12268626222,kabut_mesra,"akhairul Anwar"
7068742307,aji.1089,Aji
3994323898,dionnsp,"mardion saputra"
12084941719,ho.pe9256,hope
4163481540,naufalabyy,naufalabiyyu
4467951410,coorneliushrn,CoorneliusHarun
3197095943,yessica_newyorkartbali,黄莉賢
1478820545,matheoschelter12,"City Lights 🌆---🌃"
6922288294,orca.picture,"Orca Picture's"
291029707,santydwi,"Dwi Santy  Ratnasari"
41345982,evvaen,"Eva Nanda"
366407524,fabian__mp,"Fabian 📷🇵🇷"
8106614846,tanianism,
12157097891,hikingmountain2019,"Hiking Mountains Indonesia"
2157430191,revina.clara,Lala~
10934481444,knopp_pics,"Sandra Knopp"
11203802194,igble_wolfie,"Ignibellè Wolfià Giè"
5768572647,payskedai,"PUSAT KEBAB FROZEN MALANG"
6905768559,junaidi8653,junaidi
1511751607,anandyta.citra,"ᴀɴᴀɴᴅʏᴛᴀ ᴘ. ᴄɪᴛʀᴀ ツ"
1390504734,satrio_1905,"satrio utomo"
7043379133,dheadjngg,dhea
751073958,al.rasyd,"𝑅𝒶𝓈𝓎𝒹 𝒜𝓁 𝑀𝓊𝒸𝒽𝒶𝓂𝓂𝒶𝒹"
8210425940,khadafi5094,"Muhammad Khadafi"
2953009883,bobi_soetrisno,Bobi.S
11917636923,iphotograph_gallery,IP
7050236178,cologne_view,CologneView
7897456760,dapong_r,@ńuibnū
11582390113,framelauthenticleather,"FRAMEL AUTHENTIC LEATHER"
8228651467,ratnaa__na,"Ratna Na"
313841319,haryonoerani,Haryo
2236808904,grs.24,"Galih Raka Siwi"
10204281751,ekhikiks,Kumis_Tipis
9277212417,dendiiirukmana,
8526137323,pergerakan_bawah_tanah,"underground moving official 🔵"
11874410584,_ssyahara,
1118316732,ragil_gitano.p,"Gitano Prayogo"
1904160463,karinapebrianiputri,
2010066753,aldrin.aldo,"Aldrin Aldo"
12089294328,natrgreeenn,"N A T U R E"
1559078928,yukiyudiansyah,Yuki_keke
5747408113,robex87,
2282969269,rumahcom_depok_,rumahdijual
10678652065,wanoobi,
11763791240,ahli_herbal.asia_9,Ahli_herbal.asia_9
12129795641,odnan.od,AnF
8992894094,ladiesv.indonesia,"🌸 LADIES V 🌸"
7220425729,nurdhani._,"♠R▫A▫M▫A - D◾H◾A◾N◾I♣"
1479883608,rinalnaldi,"Rinaldi S"
1463174201,maria.austina,"Maria Austina"
11394208667,magenta198_,magenta
8119877208,galangharun07,M.Galang.Mardiansyah🔵
7293156278,jadulyo,"Ricky Jadul Yo"
11091953365,indonesiascenery_,"Photographer in Indonesia 🇮🇩"
2665848610,ricoajiprasetyoo,RAP
9996536991,_hywdltbr,
12141386819,dotgoid,madenami
9147292217,muhammadwiranda25,Wiranda
11290410534,not_ketawa,jangan_ketawa
2069326801,intannashucha,
45867779,febryarta,🕶
10476024208,everplus.id,EverPlus
11472691005,naishacollect.bgr,"Naisha Collection"
12074335279,peruzzi.peruzzi.961,"Peruzzi Peruzzi"
12262321262,san_second_oudoor,san_second_outdoor
5642897670,sydan18,tilava
12284121119,hyewon661,
1777823717,ilaria_gug,"IᒪᗩᖇIᗩ ♡🐘⚓"
644150859,lisanuraenii,"Lisa | lisanuraeni.com"
1505064462,erlincw,"🌹 e r l i n d e v i n a 🌹"
1760365596,carparazzi_official,"32.5k+ || Cars and more"
1986995296,cah_kopi,"Abdullah Azzam Ash-Shiddiqy H."
5843334433,breastmask.ofcl,"JUAL MASKER PAYUDARA TERBAIK😲💯"
7088706181,iinmeiraa,"iin meirasari"
7473348947,andrikiawan,"Andri Kiawan"
11954942933,vanessa_ngo1,"The World Through My Lens"
12071991398,klickphotobooth3,klickphotobooth
2302697095,novawza,"NOVA WINDY ZUKA APRILINDA"
8893839654,ricki_j_sirait,"ricki sirait"
5477602131,radjarcmunansa_,RadjaRiciMunansa_
7320924703,isengiseng.hehe,"Armada Bagas P"
12105772406,notnormalcase,"NOT NORMAL CASE"
3607389755,arhamkhibarrr,arham
1325518987,sykryuliansyah.s,"Syakur Yuliansyah Sulistio"
3192415756,zn.nrml,"Zania Nirmala"
11308972856,rajaampattraveller,"Raja Ampat Traveller"
9901629311,yunahere123,Hi!
4315098806,fadhlanyassar,Dilan
5060308394,thobiin_,"Manusia Biasa"
2034669403,shyktn,"S H A R A R E"
12259506827,grenda_.merta,grenda
1372833303,duvidgalih,"Duvid Galih"
12282913151,bagstar007,"Bag Star"
7667054736,putri_ranandra,Re!
12280425016,citradil,"citra dilayanti"
3137473392,samuelpapare,사무엘
12256626902,merahputih_hits,POTRET_INDONESIA
1953703129,viassi,
6563633207,stanysrossngamel,"Karel Azoca Ngamel"
12147289966,hausjalan2,jejaklangkah
9856115894,sendal_kiri,sendal_kiri
11455653101,sumini_icha_r,"sumini Icha R -"
267026621,esthiyas,
5058831408,gianpus,puspwargiant
10876507745,hajidhidayat,"Hajid Arif Hidayat"
5109952164,capuzziclaudio,"claudio capuzzi photographer"
12166273256,travelloveindonesia,Travelme
8270752031,anisafalmarani,"Anisa Alya Falmarani"
2097724834,fille_89,"ايو فرمتاسري"
9931842873,nayyyeees,
8593601925,purwanto7352,"arif purwanto"
6216585180,natasya246,natasya246
8327597587,deljehiercami,"Cami Deljehier"
8987021451,1979ub,Carlos
1040521637,triatmodjoajiwijaya,"Triatmodjo A"
8058679511,topfashionova,Fashion_Style
6323353269,taylor_gwyyn,
3042454503,bachtiar.alfathan,Active
1344931635,eduardovolume,"ᴀʏʀᴛᴏɴ ᴇᴅᴜᴀʀᴅᴏ ᴀʀʏᴀᴘʀᴀʙᴀᴡᴀ"
2103289322,rindukelana_,"Akbar Dwi Muntaha"
2536345881,ciba_adventure,"Ciba Adventure 🔵"
2925432992,commongoodsnap,Dahri
1405528866,elviakhlm,"Aehda Elvia Khilmish 🐰"
6256438668,korotchenko.nastyaa,"уют/обстоновка /советы"
964603266,tesarmardika,"Tesar Mardika"
3322473765,mhmdrfkymaulana_,RifkyMaulana
1692598967,_henryricardo,"Henry Ricardo Tampaty"
1631214298,krisnamurti17,"Krisna Murti"
10129074594,kamargelap.pict,Rzk
352026452,yolandachrisman,yola
2032722900,arissuesilo,"aris 16 🚁"
7344490654,cindygustyani,"Cindy gustyani"
1901297502,smahitz.id,"PELAJAR HITZ"
3652081221,rsk.dstr,"R I S K A"
6041554169,ladiesv.distributor_,"Pusat LadiesV INFINESSE"
3160955110,suluakbar,"Sulu 🇲🇨"
4313160703,idan_untaaz,"Muhammad Wildan Al Mumtaaz"
1496044099,aderizalh,"Ade Rizal H"
2138093935,auliyaaa_sj,Auliyasj
259926132,antohda,"T O T O"
5617102267,_moody_arts_,"IvanaKregar 🍃♎🍃 #moody_arts"
1476909951,alanx_bella,"A L A N G"
3637231272,mkpictureart,"Konstantin M. | Fotograf"
4524095507,nadyaasdfghjkl,
3183355868,sdboraa,"sarah debora kalalo"
7363671071,janmbois,"• orang dalem."
12036879332,del_200807,"DELVIA 💙"
585098624,bagusfitrian,"Bagus Fitrian"
490239883,ninanseranti,"Seranti Ninan"
7527554860,nadhifhilmi_,"Nadhif Hilmi"
9751250067,bantal300,"GUARDIAN DELTA"
8273761421,tsaniaazkari,
8167515383,arian_abdllh,Akrama_sajwa
9906459394,thegundeidgallery,"Martin Gundeid"
7964253106,pipe.id,"PIPÉ Event Stylist"
3157368358,kopiirengofficial,kopiireng
9265463821,visit_nusantara_id,Visit_nusantara_id
352426631,boyrialdino,"Boyri Aldino"
12121948008,____ryanaristu__,ryan.aristu
312632912,zefanyasiahaan,"Zefanya Siahaan"
12065535376,shoot.exp,SHOOT.EXPLORE
4306073805,heppy_fad,"mohammad heppy fadlillah"
1601049740,ekaprasetian_,"Eka Prasetia Ningsih"
11633177567,mmaulana_ferio,
10105039834,jsebelastimor,J.sebelastimor
12060623347,alviansyahrmdn_98,"Alviansyah Ramadhan"
3658275133,sagra.fradcly,
1186856388,bagoesbarker,"Bagus Wijaya Saputra"
1793019994,jefriant_,"HAĔ HAĔ HAĔ"
5796991368,italian.survival,"Andrea and Valentina"
12079821638,aracloth24,Ara.Style
3194810949,grusergi,Sergi
11446887474,muthscarf,"Muthscarf | Daily Hijab✨"
1336372491,fokus.photograpy,"Aman & Terpercaya"
11946727216,dns_jutawan,WA:087814900104
1394540961,iamr_h_n,"Rohan Chatterjee"
10117938664,wrldissucc,JuanMB
1653241800,indyars,cha.
232135570,ambroelio,"Elio Ambrosino"
1697606330,marullisa46,
1327773904,nu_lom,🇹🇭
1230936333,urfanaindrawan,Ifan
9239407556,ngabdul_kholik,"Ngabdul Kholik"
5615943385,tam.pbu,
5938102119,cab_024,Audy
3272878948,nurfathonah_nur,"Nur Fathonah"
3315496745,ilhamart_furniture,"JUAL FURNITURE JEPARA"
7549785169,dedesukimon_vollyball3411,"Dede sukimon07"
4971178899,rivaldorheiva,"Rheiva Rivaldo"
3811532278,agungrent,Agungrent
7459718072,zidanflorist,zidanflorist
268852561,fandasfavourite,"Fanda’s Favourite"
10948311139,bysarahmh,"by sarahmh 🇮🇩"
8121705522,krizzle.mynizzle,Krizzie
1375712473,fransiscicha,
9204867110,yokel__ostler,"Akash T Varghese"
2759928028,izzat_sarwat,"Noda Kecil"
11949567173,ptryfebriani,Ptry
10150418278,_syarif06,"Muhammad Syarifullah"
3950075466,budhy_budzz,Buddybudzz
212379203,dindaafifahw,
4460799776,jheky95,jainuddin
12242115475,adindabrutt,"Adinda Luthfia"
2154504475,komarudinmz,
8522277039,steward_margrave,"Custom Sepatu dan Tas kulit"
10265102319,beyoucity,"Beautycity | Skincare & Makeup"
11894661783,_barbermercy,BARBERMERCY
11103924293,guntaara,"Guntara Journey"
1716241586,rosita.ads,rositaaaaaa
11714813772,elanojoelag,"elano joel ag"
5595168052,baihaqi40,"بيهقى احمد"
5695070478,muhammad.yusmir15,"Muhammad Yusmir Yazis"
5582896085,mindsetstore1,mindset
2355121568,dhedyn.dandis,dheedy
8109319445,ar.ghaz,A.Ghazali
8201924884,risky_pratama137,"Risky pratama"
7366670473,dekos.dekos,Dekos
11418567839,2nd.ekopaytren,"M. EKo A."
11828766594,pemuda_brewing,brewing
1087119914,brendakristii,BRENDA
12250465347,gilngprks_,"Gilang Prakoso"
12085990445,lianani._,nia
12086846107,gaktau_karya,Gaktautaugak
4399306511,tiyaland_,Tiya
1541619570,bagusmartawan,"Bagus Martawan"
49390893,macroptic,"Travel Blogger | M. Moko"
4133315915,ireneinengah,"Irene Pasca"
1725463283,putra.setyoo,"ʀɪᴅᴇ ғᴏʀ ᴍᴏᴍᴇɴᴛ"
3603531126,herlinmaulida97,"Herlin Maulida"
504450339,mochamaddhani,"Mochamad Dhani"
8946654802,setea_aji,setea_aji
1421217953,yolandha_02,"Yolanda Rizky 🌹🌼🌺🍀"
3918130355,niaevodie,"Antonia Elysia Evodie"
8759485549,ayurul06,Ayurul
12108203310,wisnugroho.wisnugroho.1865,Wisnugroho
6100744053,sunfish.foods,sunfishfoods
12138178902,reanarey34,Reana
8045454274,ekobudiisantoso,"Eko budi santoso"
8472558638,diego.rangel.dasep,"Diego Rangel"
247060626,johendry93,"John Hendry Andri"
12070401120,linavd9,linavd99
288069480,ohmartan,"Artan Hertanto"
3176330702,yuli.sitiasiyah409,"yuli sa"
11186825339,nova_kasirun,"nova kasirun"
12093117724,wangsa467,wangsa
1995686070,babang_ic4l,Babang_Ical
12117578930,yannahashem12,"Yanna Hashem"
487216691,dwipaaa,Dwipa
2165231078,coklatcafe,"Coklat Cafe"
11411059291,ar.frlomri,"αяιғ я ℓσмяι"
12069287432,el_corazon_bandito,#sitúquieretellevo
4103446872,ballo.co,Ballo.co
10105912587,bikincincinemas.id,"jual cincin emas nikah murah"
4338659519,gallantsdney,"Finger Lord"
3562575594,angganelson,"Angga Nelson"
12164320772,candumendakii_,candumendakii_
1349625889,khsnnlhd,"Khusnul Huda"
11861934673,wandasekarmawarni,"wanda sekar mawarni"
6651432047,gurusinga_alta,"Alta Gurusinga"
894903470,ariawanputu86,"Putu Ariawan"
3187223124,andreantri_saputra,MyBad
12086876945,marshall_kenshin,"marshall kenshin"
3666646498,kayzphotographs,"kezia r."
9244713322,poornima_baba,"Poornima Menon"
1673686911,carlosandres32_,"carlos andres"
3586849699,waks.aln,"Alan alfiansyah"
7950659707,lutfi_zun,"Lutfi Z"
4221839760,yayangpitino_17,yayangpitino_17
261239757,lapak_ummat,"Pusat Grosir Baju Muslim"
4857900498,poemgalery,
9211319171,salmonloe,"Salmon Loe"
12072222995,francoisflachet,"François Flachet"
3404158414,jsierephotographie,🐘
1580192267,tian_y4n,"Tian S Hugo"
2082570980,ezamahendraa_,"Muhammad Fakhrurriza Mahendra"
8037773975,wahyu_tramadan,"Wahyu T R Daaliuwa"
11947135397,nvcxhi864rhut,
1744763528,hackchris91,"Buzzchris MJ Chrißtian 🇮🇩🇪🇺"
12246523392,istianeu,"Perahu Kertas"
1906298181,rmbella_,"𝗿𝗺𝗯𝗲𝗹𝗹𝗮 | 𝗳𝗮𝗺𝗶𝗹𝘆"
7749917965,aaalamm_,MuhammadNurAlam
11177928689,rimba_kalahari,rimba_kalahari
1380589339,toplin2906,"Vale 🐁🐭"
10695092573,pinjam.dana.cepat,pinjaman.uang
8788277710,rizkyhag.id,RHA📷
9186948624,sadagh.watmani,sadagh
3127854696,galeri.kabepe,"Kresna Budi Putra"
12077118672,miroslava.koloyeva,Лика
5882858523,adtyiskndr,"Aditya Iskandar"
255571105,myrysmira,"Myriam Conte 🌍📷"
6054443658,septianlwd_,septian🔵
11934263934,nikostogram,Niko
8990151792,feng_oxs21,"(Alvin backtiar)"
12110444490,ospreymakassar,Ospreymakassar
5708352243,miloudrabehh,miloud_rabeh
11949350891,naturezas1846,
12079014606,belajarhijrah.untaiankata,"YUK HIJRAH ! 💓"
12058823949,mhwdrshd,"مهاود راشد"
8147852772,today_official_,"TO - DAY"
12075086877,nasunarya,"Nanang Sunarya Jr"
6066245257,mafinstakram,
12119083960,exploreparigimoutong,"Explore Parimo"
2061571582,dhanikiddrock_mv,DHANIKIDDROCK_MV
45230220,ackq,"Acku | अकु Chauhan"
12111748499,hd_tit321,hd_tit321
190182401,jmchavero,"J.M. Chavero"
1358215242,alisaislamiati,"𝓐𝓵𝓲𝓼𝓪 𝓲𝓼𝓵𝓪𝓶𝓲𝓪𝓽𝓲"
1507314419,dmosisboy,"jurisma dimas"
9879550992,its_me_arman_111,😎😎😎😎its_me_arman_111_😎😎😎
9050511065,timberr_12,"losing 002"
1746774429,hendra_aprandi,hendraafrand@yahoo.com
12066471130,kholil_cnylcloth,kholilurrohman
12160577229,jamelia_nindya,"👀 Jamelia Nindya 👀"
12113716244,southern_shelter,Southern_shelter
11768366151,go.see.travels,"Go See Travels"
12094316732,roomstyle_shop,"RoomStyleShop - #GetHypeBeast"
9743014026,indonesiaseksii,"Cewek Model Wanita Sexy"
10870832427,fishionee,Dreamer
2089721314,miro_yanna,"Yana 🌸"
10916694684,ollielythephotography,"Ollie Lythe Photography"
21955249,mafer_castillo,"Ma Fer Castillo"
4119237528,korbi_ru,Korbi
12157609190,clas_sified,Clas_sified
8305523506,storenoise,"Rachmat Hidayat"
8728064984,keimylife,KEI
5628214627,candra_jr197,Candra_Jr97
1462945935,penjelajahgila,"Agung Septyan Permana"
5898827631,shabriwidyanto,shabri
8940262118,the_dream_maker_2001,"Jømíñ Jøséph"
6098351950,shishadouu,
7795047737,shopaholicy_,shopshop
353252555,itolawputrapalu,"Ito Lawputra"
3650553246,dwi6672,"dwi wulandari"
11415201280,_rajib291,"R A J I B"
5382043779,hafid_n.i,"Hafid nur"
1735889520,lutfindaresmi,"Lutfi Yulfinda Resmi Alyaqub"
8730760744,kr_shop24,Kr_Shop
5727822496,bonangg03,Bonang
2235404953,nevasid,MahendraPutraP
9297853164,ateam_bandung.id,"AHHA GANG"
8756388607,lifiakastriani__,"Lifia Kastriani"
12244835307,memphis5788,Memphis
8131432175,kurniawan.ckp,"Sunday Adventure Outbound"
9399233479,h.rhonda.wilkins,"Rhonda Wilkins"
8397804720,longor.secondshouse,longor.secondshouse
9010285175,desemberrid,Desemberrp
2000133835,fs_rinno,Rinno
2275339328,dashajourn,Даша
1527279746,kornelius_kaweono,"Kornelius Kaweono"
900082964,febrianisafitri_,febs
47224232,aufahashfi,"T.M.Aufa Hashfi"
12245610991,arip_lasmana,arip_lasmana
2336578720,bains_model,"bains fan club"
2116904597,nsyahpp,"nadaa syahputra prabowo"
9374270612,mamen4931,Mamen_4931
2251698612,dillon_lusikooy,"Imanuel Dillon Lusikooy"
11846446078,uyyrara,Raa_1112
7147070021,nertssk_,nertssk_official
7360161538,iqbalmfz,"iqbal maulana"
9705686504,eki.fortin,noy
1490870606,xx666th,
5777362921,pun_pun93,"Irfan Rinaldi"
2023340554,afriyantodeny_,"Deny Setya Afriyanto"
2257036588,fauzanmahmuda,Fauzan
11932896160,lightroom.vibes,"Jual Preset Lightroom Mobile"
11872189206,pandasoundreal,"KHUSUS BUAT VIDEO YOUTUBE😊"
11855336193,sugirahayufitri,"Fitri Sugirahayu"
6226280206,jambuluwukhealthclub,"Jambuluwuk Health Club"
11936091282,adventuretourandtransport,adventuretourandtransport
8747754375,davedesarnophotography,"Dave DeSarno"
374266824,dwitavysata,Dwita
12149152983,bgiki_,
5673947460,stephanie_yokhu,"Papua Girl"
12113044315,go.ndhis_,Jago!
3281857872,sarah.sexsmith,"Sarah Sexsmith"
6769526042,hos_boukaidi,"hoš ain"
4466669042,infotour_jogja,"SEWA MOBIL MURAH JOGJA"
6312815951,iron_thius99,Iron_thius99
12240603636,sendawar_videography,sendawar_videography
1457332451,end4n9,"Sri Endang Kusdiarini 🐱"
1353395328,ranggasdhp,
1249393579,ageng.r,
5954405362,agoes_soesiloe,"AGOES SOESILOE"
4714587387,riyansalvalova_,"rnsl for life"
9070276736,muhammadhattaakbarpangestu,"gk duwe jeneng😵"
11796774461,triyana.id,"Bisnis Pintar"
11853551121,kriss_malysh,KRIS
3483011574,va_ppon,appn
11530459999,compass__travels,"Travel Photos"
8103175179,kkwanderlusttravel,"☼тяανєℓ αη∂ ƒσσ∂ вℓσg☼"
2975103095,ione_sumbingexplore,"Iwan sumbingexplore.com"
12249058934,cutrisaaa,cutrissaa
3590372646,alex_nosyura,"Hulio FirmanSyah"
2156229204,riswan3rr,"Riswan RR"
7408647854,rianleo442,Rian
7488731894,rzkms_,"R M S"
11863263825,ridha.fridayani,Ido
12260058104,mata_masyud,"matamasyud 👁️"
1538385651,rezadhty,"Reza Adhty."
10975935682,holarizal,Rizal
4769416127,reza_fk60,"Reza,fazely"
11407823213,ejae.ja,"2nd acc"
2478943503,ryn.eriko,"Riyan Eriko"
12027023246,erika_tour_travel,"Erika Tour & Travel"
1623691850,moch.luqman,Alusmilik.id
3425242207,dolanekapan,DOLANEKAPAN
12168416275,lontong.balap9,lontong.balap
5976678057,hanifahfadilah_26,"Hanifah siti Nurfadilah"
4819847424,leander_1406,"∂яєαм,вℓα¢к,αωєѕσмє |""ʟɢʀ"""
12060911620,kalemokuluvakfi,Kalemokulu
3638863989,depaviljoenbandung,"Hotel De Paviljoen Bandung"
3304602158,michelle_starlight,"michelle davina"
11121199600,nopainnogain.nopainnogain.16,Nopainnogain
3693198291,zenrrahouse,"Zenrra House"
2071729660,dhelfiputri,"Dhelfi P.R"
9448559563,lonelylife4life,Sadsadgirl
5493199898,hub081215,
11219970394,kad98301,"Kadek Santhi Dwi Handayani"
1597021563,yudhiypbh,Yudhi
2890523954,sahirarambe,"S A H I R A"
5780752781,sheilarezky,Sheila
4118782841,royanderry,-/Manusia
5727881506,arielsgram_,
11366372509,skjeree,
568578499,andri_harsono,"Andri Harsono"
5313035105,aliakbarar7,"A   L   I   A   K   B   A   R"
12068095147,lup.peace,
389903917,its_miesha89,"Miesha (Life In Swahili)"
2203606789,ferryakbar17,fenyok
8616680905,911__team,"911 Team"
4154818993,devanirahman,"devani rahman"
179706484,landarosya,"Ian Darosya"
6773287678,kebeletpiknik,"Kebelet Piknik"
9145981552,muhammad.salim.muaji,"muhammad salim muaji"
2901886505,deshar88,Dee
6935986032,noellaachris,"Akingeneye noella"
5466689868,noeew1999,BJ
3558217094,ecky.satria,"Ecky Satria"
11080663952,soniapyt,"S O N I A"
12085053195,purapura_outdoor,PuraPura_NGOutdoor
3860106927,galery_febriandi,"just try"
8970358953,handoyo_liem,"Handoyo Liem - Xavier Marks"
1909671053,aiman.jasmi,"Aiman Jasmi"
11641913227,bung_mochammad,Black
6936583574,dianpryg,
6247877662,19qiais,jiji
1484189868,krisnawiryana,"Krisna Wiryana Nugraha"
9263214501,salsabila.m.1297,"Salsabila M"
11938313098,kenkai.idn,KENKAI
4262598530,ayuksekarp,"ayuk sekar prabandari"
3046644329,febriandabukke,"b u kk e"
7279844170,dicky_adamp,"Dicky Adam Permana"
5901058661,medinaamelia_,medinaamelia_
4061520040,surajit_pal_,"Surajit Pal"
5592001348,rahmaykc_,
4260228856,arrayyan11,
289716503,meshari9666,Meshari
289520602,meioza,"Meidiana Indriati"
7711905382,tiny_tourists,
9872547545,fokus___nik,fokus___nik
1091315207,rivma62,"Marie's travel life🧭"
8082580674,gharib__jawad,"Jawad Gharib"
5416384568,ss_imelda26,imeldasanitasitorus
8093030001,photooftravels1,"travel feels"
5372989885,masyitah7936,"Masyitah Itah"
11687717183,ro_67g,"قهوهء""💛""☕`📸•°"
12128075252,sintaadianitaa,sintaadianitaa
2038179258,eyanputra,eyanputra
3895659679,imammn09,"Imam Muslim Nasution"
1673845699,tanramli,"Ramli Tan"
11588511152,carbonegrip_,carbone
12124795452,indostoic,
1777770061,dedebarlin,"ⓓⓔⓓⓔ ⓑⓐⓡⓛⓘⓝ"
7095275481,daffariby,"Daffa Gamer ²"
3674892248,heruu_setiiawann,اَللّهُ
2039551254,syakilladiba19,"Adiba Syakilla Choirullah"
4228099117,s_mghm_,🦋
4789975945,jndw_aqry,jndw
8117926196,jenggot.store,Jenggot.Store®️
12258266200,tokoresearch,research
2103767351,estheroliviaaa,ter.
1505658160,jiieun_jean,jeanie
12098212032,godegode.id,GodeGode
12151728993,motoplore2019,MOTOPLORE
10468908457,klubbukupetra,"Klub Buku Petra"
1586896365,pxpcloth,"PXPC SUPPLY C/O 🌐"
7666595095,picturepatch99,Picturepatch
8913879182,pagasi_forhumanity,PagasiForHumanity
3212227959,sitikhoirurisma_11,"Siti Khoiru Risma"
5722023065,herdin_diin,@HerdinDiin
2448522329,diky_pratama_,"D ⬆ K Y"
18985259,armel.cabansag,"Armel Cabansag  🇵🇭 ✈️"
7294549623,warunk_mabar,Warunk_Mabar
2226458441,dian_azis,"Masa depan mu"
1464892828,dewantara_krisna,"Krisna Eby Dewantara"
2117541636,angsana_shop,"Adventure || Army || Outdoor"
9378158006,auliamh___,Mahh.
9192347470,kaosonline1,"eja store"
5683125133,anissa_danikurniasari,"Anissa Dani Kurniasari"
1556998192,balecraft,"Balecraft Tulungagung"
11168425072,novy_494,novy_49
2018086582,iqbalb.i,"Iqbal B.i"
10940734616,brooksideuniquesphoto,"MT Morrison"
6886729700,reffiaprilia,reffiaprilia
3651817794,zyizah,"Sitti Azyizah"
6264562385,asengkeos,osek¤keos¤
1652442395,triyogimarco,"M A R C"
7690291894,pirah_anisa_al,"Pirah Anisa Al"
4094136344,ramdhani013,"Dani_Triyanto pradito"
3960732107,rff_san,"Raffina Saniva"
8094982815,ryantraaa,newaccount*
12080163808,riyan.769,riyan.f
5465079470,carlos_salomo,"Carlos Salomo"
3193252548,royaljaya_properti,"royal jaya properti"
8417976941,zuhriyyahaya_,ÃÄ
11907097893,lapaktraveler.catalog,"Tas Sandal Jaket Bandung"
11829566293,setaanhijaau,SetanHijau
4260993255,anggapraatamaa,xanarchy
12139434231,hafsat5017,"hafsat aliyu"
12128802842,romifau_02,romi
1729950450,imashith,"ASHITHASHOK👑 || INDIA🇮🇳"
2105818468,eastrip,eastrip
7839838330,aizzatakif14,Aizzatakif14
10887964471,celanabandungque,"CELANA COWOK MURAH"
5519380224,naluripetualang,"NALURI PETUALANG"
1737413412,hendra_cndng,TalenSH👭
4529077102,davaadityah_,EDANKUEN
8651253073,pikolovs,"anything you want 🐾"
3029596224,zroyyy_,"Azroy Hafiz Firdaus"
9185909284,id77113,Id7
2132501749,lulullabi,"SKINCARE & SLIM BEAUTY TEA"
200993548,aditya.achmad1,"Aditya Achmad Prasetya"
12286160430,diesalone_,
7719917775,fadhilfauzifazri,"Fadhil Fauzi fazri"
12140706218,dntomat,Yasa
3251319276,officine_zero,"Officine Zero - Espresso Bar"
12074346784,artikeljaket,"Jualan Jaket Hoodie Sweater"
10129812521,traveilers_community,"T R A V E I L E R S"
11954037911,mrtravelvibes,🌍MrTravelVibes🌍
1961026155,imeldawahjoeni,"Imelda Wahyuni"
4365076392,ragilayun_,
7215697940,joniselow,"Joni Selow"
2220539422,najihirfn,mabzy
12095587870,its_me_o__,𝕺𝖑𝖎𝖛𝖎𝖆🌻
4766088762,papadansa,"Daniel Santosa"
8880557716,kyyyyyy3,Rizky_
12075017230,p.whd,"واحد پ"
9954008953,pathjakarte,"Semua Tentang Jakarta"
9900823212,miftakhulrozai,"@Miftakhul Rozai"
4201727607,kieu_hillary98,"Mỹ Kiều"
11913103445,jurnal.kelana,"Ferdi Perwiranata"
2038769445,indahalvi_,"indah vitayaningrum"
3270269331,riza_zulfahmy,riza_zulfahmy
18740123,louisletheux,"Louis Letheux"
12128083067,fita_loka26,"Fita Loka"
456604935,hhanahanifah,"Hana Hanifah"
2440491629,pigo_1986,Marco
6025411557,mas.evan,"Mas Evan"
3128989934,eco.racing,"BISNIS ECORACING AJA"
9604142060,tiungl,S.J
2225158405,dianfirmansyah33,"Dian Firmansyah"
4249683540,ipal_genshter,"Ïpäl Penshter"
3893785040,rikoandrian23,
2248918749,mikha.salu,"T A N 탄"
11361647,agnessendjaja,"agnes sendjaja"
10120661964,imam_thdd,IMam
1319954062,consept_pandil,"Ngaguar Jati Diri"
1244463943,mrvanrir10,mrvr
54039399,ainirindayanto,"Aini Rindayanto"
4024447930,alfiyarwlez,"Alfiya Ŕ Hasyim"
5751665867,mang.gigit,aasige
7861670246,danszidans,MZAS_001
1789453670,celia_islam11,
3123751492,bushcraft_and_sons,"Bushcraft Man"
11832326119,lydiafebi1,lydiafebi
1554929042,agungnurihsan,"Agung Nur Ihsan"
2201987614,nurulanniissaa,ANNIS
2232485177,rifkiadam98,"Muhammad Rifki Adam"
3093068480,alwan.beje,ALWN.FKR.MHMMD
10364877843,aiisy.id,"Teman Hijrah mu 🌸"
199872968,helene_blh,"LNB 🐼"
1591701287,prdnaw,"Ichsan Wahyu Pradana"
11856146413,hoteldlirapekanbaru,"hotel dlira pekanbaru"
692992489,ogikadnan,"Muhammad Adnan"
6030025394,herniarawatiriani,"RDKA SHOP by riani"
7049367331,galihprnta_87,"Σ(°д°(ू•ᴗ•ू❁)#THE INGIS NOTING"
4365332835,raulsimatupang_,raulimanuelsimatupang.
7463168167,hamtaro.berlarii,c/o
4493583784,mkhabibi_,"M Khaerul Habibi"
2257532888,nurul_izzati0497,"Nurul Izzati"
1644780193,lnulhakim14,"Lukman Nulhacim"
198850301,ainunardhi,"Ainun Ardhi"
11859977028,frdachmd,"Achmad Firdaus"
10354737356,ulilrahmah21,Ulilrahmah21
1683401030,angga_f_rohmana,"Mazz Ang"
2933414500,souvenirandcraft,"Souvenir and Craft Jogja"
4309905394,twinpan.co,TWINPAN_Products
4668977771,rismaayules_,"Risma Ayu"
12128954222,dsunoriginalstuff,"D'sun ."
12087018301,ekasaputrimartri,"Eka Saputri Martri Yani"
371321560,agusngidem13,@instakameramini
10958126977,hollyhoo96,"Hello Green"
4789885356,nilmaniphotography,Photography
11364333792,kopi_tubrukk,"Boejang Lapoeak"
11707818109,noviahenna_art11,noviahenna_art11
7632881779,visualillumination,"Visual Illumination"
10681660330,aqza.id,"Naisha Hijrah"
12083269121,shopee_sf,shopee_sf
5406841345,ac.an2_100296,AC.AN
791146613,yudihendiandi,kiduyz
11596239519,undanganresepsi,"Undangan Nikah Pernikahan"
6688082300,dirahstore2,"Tas Branded Import"
11920653133,kameradulu,"Jurnal Kamera"
2082460755,ahmad.ajabbar,ahmadajabbar
12267313595,ujboov168,권우용
1253830833,fauznawnd_,"Fauzan Awanda Alviansyah"
8436632148,bikincincinkawin.id,"CINCIN KAWIN MURAH CUSTOM"
2182652532,la_vinia,ʅαʋιɳια
11577914628,backpacker_total,"Total Backpacker"
11953229272,maindimana.id,maindimana.id
5679623678,yandri_pasaule,"K A G A N"
8439692410,milkyway_1679,milkyway_1679
4020207362,02_irawadi,Hydro°
7419791849,_sniper_boomb_,_Hashim_
11773119521,mof.obay,"Rifza Mofiga"
3465933236,zigizagizu,Sukmahervian
10639501243,31_iryul,style
9153470690,glasstreatment,"poles kaca bekasi"
712298880,maayes_,
2354996496,leliyulianiii,"L e l i i"
2216427674,anakho.07,"SENJA | 17.20 WIB"
1723174950,agushendrawan11,"AGUSHENDRAWAN_MUA ♚"
398486921,permanar_,"Richie Permana"
11213158995,damsjpeg,ꦄꦢꦩ꧀​ꦥ꦳ꦶꦂꦩꦤ꧀ꦱꦾꦃ
4086564740,riskitrisdi,"Dreamer, Visioner, Influencer"
4738465086,rizal_marchell,"Rizal Marchell"
8230464901,aayin93,"Sekar Niyaa K"
1746970959,gusdiwan,"Gusdiwan Doank"
9617032533,bikers_berbagi_bdg,"BIKERS BERBAGI BANDUNG"
8716369522,sahabatkopma_adibuana,SahabatKopma
7235754726,fahry_elgho,"fahry elgho"
11355235830,tasyapersue,"Tasya Persue"
4322527386,huavanloi,"Lợi Lợi"
7309547260,produsenbatiknusantara,"JASA PEMBATIK 085865502781"
10887250352,pecinta_buku_murah,"pecinta buku"
5315235328,bawanggoreng_kriuk,"Bawang Goreng 08158050888"
31404062,dikamigi,"⠀⠀⠀⠀⠀⠀⠀⠀⠀⠀⠀ Dika Migi Priyono"
11124381053,hudaifla,"hudaif la masia"
12102964533,insanialivia_,"Alivia Putri Insani"
7552372621,cindy.meiby,"Cindy Meiby"
11928895634,illahirahmad179,"rahmad ilahi"
12061495350,gunarmimarhaeni,"marhaeni gunarmi"
1984209074,noosen13,Noesen
1802881827,widiafera,"F E R A"
11894835946,dndyngrh_,dndyngrh_
3075319819,wayne_peters78,"Wayne Peters"
12241746645,brownmonkey44,"BM (boneka mountain)"
8641516657,rizawidyaantini19,rizawidyaantini
367539321,mivtech,Miftach
11930173660,ozie_0715,"The Dud's"
4877996579,syahputrarino28,"R I N O"
4708295533,ydursic,"Rudy Ariananta"
9791576643,bancet.mas,"mas bancet"
5404175111,lukman_raja_terakhir18,"raja terakhir 18"
4017923605,sharly_za16,Sharly_Za
3433050159,isi.mz,"Isi M."
12048928766,bestshortstories,"Best Inspiring Short Stories"
1536544493,christaatika,"Christa Atika"
8287825645,nisrinajauza991,nisrinajauza
8754198700,nightpurplesky,"Ruby Mathew"
251086527,rohit.vinu,"Ro ro ro your boat ⛵"
9214160067,doodler.co,Doodler.co
12050342286,ebprasetyoo,PRAS
2104542821,tamam.fr,"Tamam Falah"
1723134945,devina.rds,Devina
548709406,allhafidzi,"Abdulah Al Hafidzi"
3581787123,e_levara,"E. Levara"
9669262270,naturalhealthylemona,"Lemona Asli Sari Lemon Murni"
1959097461,amlaeli_,"Amalia Laeli"
428383076,josh.lacombee,Josh
11935214584,wiguna_hutama,"Alfian Wiguna Hutama"
5487445172,niezzz943,SN~_943
7727114639,erhan_akmal,akmal_s
3307940368,_silags,"ZHISILYA GHLORIA SAVIO"
7013425912,putriin.sivaa,"Putrii N. Sivaa"
2061355580,de_wiratno19,"Aryo Wiratno"
2431560131,asyrilf,Asyril
8261186023,afiqhaikal_a.h,"Mohamad Afiq Haikal"
7440915428,risomasbr,"EMI BUSSINES"
2279736042,prajawdinata,"Pradja Wangsa Dinata"
2403713017,teman.bercakap,"Teman Bercakap"
1900746070,luqmanfajar,"Luqman Fajar"
2130959035,madliqrn,"Muhammad Adli Qur'ani"
8740036479,triiiiii_3,IDTrainTravel
4059913490,ariewidanto009,widanto
8108072795,findmehwi,"WMP OMG NESV VITAMALE"
1702197020,ccisuu,Jisu
8735052530,surgabuton,"SURGA BUTON"
10198786638,moto.torres.19,Moto.Torres.19
9282636075,dolannocom,DOLANNO
528837682,selvya_andas,SelvyAndasari
2316397305,syafriana_f,"syafriana fadillah"
2276005103,masdoni_real,"DONI FAJAR NUGROHO"
3539258618,bang__lana,Lana
9671225176,senko_chan77,senko_chan77
9884476205,iibnuaffann,IbnuAffan
9612982778,sirajaseafood01,"Si Raja Seafood"
12248305133,selfreminder02,"SELF REMINDER"
7662521523,nahwah1234,lailanahwahmatyazid
6145768491,anisa_melani27,Casuik
11940867801,mndla_putra,"M A N D A L A    P U T R A"
1643367033,nabilahzakiyahs,
1001031734,eko_nugroho_21,"Eko nugroho"
12054593322,sourlife_,"an ENTP's diary"
8477567830,fard.kharie,"Fardy Kharie"
1474858755,hermawanggif,"Anggif Hermawan"
11349177104,gurjant7043,gurjant
4091559436,madhariq,"Muhammad Hariq Musyaffa 🌞"
7344091137,wgs_id,"Jasa Buat Batik - 085697508440"
3933794263,bb_squadstory,
11615294201,casuals.ins,"Casual Culture🍻"
9240805186,jamilkiki3022018,jamil
1495538893,yani_kemal_azzam,"yani kemal azzam"
2075264727,willyana_jhon,Wilyana
1305318488,stevanidianrofista,"Stevani Dian Rofista"
1517864339,yunita.irma,"Irma Yunita"
6717290906,farelhannan,"farel hannan pramudhya"
2917914915,rachid.loussadi,"Rachid Loussadi"
9492024174,aldisyarr,"Aldisyar RMDN93"
12245914801,thisnature.co,thisnature.co
7211677466,rtramadhani,رمضاني
2141132263,ryluf,"Ery Lufy"
12091209520,agenkuota.realtesti,"PROMO JOIN BISNIS CUMA 50.000"
9188409182,rinierr_,"Rini Rosmayanti"
55989685,cradz_k,"Radha Kurniawan"
6282535156,casebymayra,"PREMIUM CUSTOM PHONE CASE"
330682959,megiesun_shine,"Dancer 👑"
12267305392,johnefndi34,fndi
12030883252,michelleziuds,"Ｍｉｃｈｅｌｌｅ Ｚｉｕｄｉｔｈ ."
11437577356,in.qolam,"Indra use Qolam"
387716312,sepri112,"sepri aza"
10867522020,armanmuradyan_,"Արման Մուրադյան"
8960878146,gunawan0za_,"g u n a w a n O z a"
9013758211,scuerpans_,RzkyNvnsyh
6074984198,tergrafis,Tergrafis
5854216782,breastmask_premium,"Masker Payudara Alami"
9282749266,ramadhanalfloresi,Ramadhan
12098172867,ftome487,Ftome
1393912866,pebriap70,pebi
6053490204,annisalsss,salmaannisa
10747424591,vamali_channel,VAMALI_CHANNEL
2360971117,arkn_h,"Arkan Hidayatulloh"
10127025476,mr_fhrn,"Mr. F"
1507298694,nurfa.dlilah,"nur fadlilah"
5717979194,ezzllk,ezzllk
4101687035,hridayballav,"Hriday Ballav Mandal"
6189839315,notsince1945,notsince1945
1829772028,giorgpillo,"Giorgio Pilloni"
7360057679,04.19.pm,"dawam pemulutan"
12139473288,dailyshootingg,dailyshooting
9244000652,radjapropertymandiri,radjapropertymandiri
8327949235,nstya_wati02,Nunik_setiyawati02
1339931547,alonso_wolf,"Rick Alonso Martinez 💡"
4795166656,ariyo_noegroho,"Ariyo Nugroho"
2213944303,bestpicturetv,bestpictuetv
4685185438,lapakkita23,"Jual Beli Gopro Lombok"
3575269711,_hidemyass,💩
7719023426,mi.ka______,
12272992922,___a_u_r_o_r_a___,"Sylwia 🌱"
1826767834,sarahlhalford,"Sarah Halford"
12126106907,sikubangku,SikuBangku
8787147453,thomasjeffersson.s,"Thomas Jefferson"
12084117591,design_lab.art,"Design Lab"
12080269905,mr.x7013,"Mr. X"
5602353602,adityo_ad,adityo
1915043678,richardpatandk,richard
4770370945,ayusw.18,"Ayu Shinta Wardhani"
201641503,elina_melnik,"Elina Melnik"
12074324839,iracky_2.0,iracky_2.0
2117835931,evyynmx21,Evy
8315600892,candra99ij,"gak perlu tau"
5374798743,santiwdianti,
12003696965,expedition_word,"Expedition word"
2036962745,shahamanat_photography,"Sнαн Aϻαηαт קн๏т๏gгαρнү"
12270480825,6_iraqi_9,🇮🇶 ɪʀᴀϙɪ🇮🇶
5422668173,khusnifuadi,"Khusni Fuadi II"
11662791720,baker_adventure,"baker adventure"
3525625579,nvalsz_,ᏙᎯᏞ
4166373571,artynat_,
10732779342,mozzlla_,skidipapap
5863438173,robeth_fajar,Kickout
12075381928,as_ham6,"as,ham"
11930215467,dialogsenja29,
1827037284,goapindul_jogja_081392279476,"ENDI SUBOWO"
2303866762,pomegranate.id,PomeGranate
4791289869,irfanuh_,"muhammad irfan"
3450909282,st.fatimahhh,"St. F A T I M A H👑"
1538458627,lesocashop,"Preloved and New Stuff"
5744912018,sydney.spar,"Sydney Spar"
582538954,javidshojaeii,"|Photo & Video| 🧿"
11521399661,js6210762,Aventurando...
11676603105,______beauty1,beauty
1975733634,syahrulgifarii,"Syahrul Gifari"
11353178657,kosgladys1gladys2,"Kos Gladys 2 Semarang"
1025257441,andrewsansan,"Andrew Yonathan"
11077702073,story.cindynoona,story.noona🐣
535620183,iracky_,daniel
6183472620,brarka_999,"BRYAN ARKA"
3549048607,mohamed_fakhry50,"MôhâMêd Fâkhry"
39229884,anirudh_9,"Anirudh Pradhan"
2067297259,prut.daprut,"Ahmad Daffa Baihaqi"
12159056031,exsploreindonesiaa,Exsploreindonesia
246777550,michaelboegl,"Michael Boegl"
1336792760,mryanrizaldi,"Andi Muhammad Ryan Rizaldi"
4649766852,alkadier_paytren,pebisnis_muda
12070198309,eyesbible,Welcome
10400561828,firdausrahayuputra,"τον παράδεισο"
