Userid,Username,Fullname
535655801,angelgabee,"Gabriella AngeL"
2459506556,rivaldibramantyo,"Rivaldi Bramantyo 🇲🇨"
2134506856,devianarahayu36,ddenara
1613827186,baguspangestu1056,
3468829758,akhyar_lubis92,"Akhyar lubis"
2316739555,i.n.a.v,Ni.
8266637641,bebyarkan,"Muhammad Arkan Al Hakim"
2304701328,lisnaauliasantika_97,"lisna aulia santika hasibuan"
8736220865,deborafebys31,Feby
5800670724,rit.msy,rita
2172756499,handayanin09,"Novi handayani"
9755438930,_r54k2_,"•raja""rencang•"
5898494237,dellastfn_,Dellastefnii
2342383523,aditia_nugroho26,"aditia nugroho"
11364953811,afnimulyasari19,afnimulyasari
2122307504,deny_arifinn,denyarifin
1398943226,yudha_s29,yudha
8738368331,_faizah1415,faizah
3491244949,dara_irma01,"dara irma"
628536536,febrinapjt,"Febrina Panjaitan"
1799672139,alyasalsabell_,Yaaa
1439386820,bungafei,"Bunga Disha Fajrin"
10968439264,rakatio16,Rakatio
3179134926,veronicatiolentatambunan,"veronica tiolenta tambunan"
3076314791,nurindahsari39,Nurindah
1332589776,yettys0,
1734912933,ningrumfauzi,"Surya Ningrum"
5855942056,faraaahhhray,"Farah Ray"
1524663943,debb.armanda,"Debbie Armanda"
4844254678,gatesyudi,YUDDY
2005666068,nrbanii,Nrbanii
1383334582,cutainasyafitrii,"Cut Aina Syafitri S.KG"
2252151352,haniseptiany,
7313039354,davidlits,David
4025858165,sptiaanggraini,Ani
3546311130,mithabatubara62,mitha_harthantah
4139487492,aldosinagazee,"Aldo sinaga"
1791078905,nandasyafitri04,NandaPurnamaSyafitri
8312761580,ny.riantiprabowo,"NY. Rianty Prabowo"
2162796977,elchyne15,"E L S I N P A S A R I B U"
385039713,cindyeross,
7236837375,_iqbalseptiawan_7966,_Iqbalseptiawan_
1538202978,betidelima,"Beti Yenny Delima"
1541405554,tegarryansaputra,
4026370071,sihotangmeri51,"mommy Hans"
2067116035,nursahadah03,Nursahadah
2353975261,resti_laia,"Resti Mayang Sari Laia"
8565459086,didithtry,"DIDITH TRY ANDIKA"
2994867754,nila_nasution85,"nila nst"
4912141145,ayubbmanurung,"Ayub Manurung"
