Userid,Username,Fullname
3513877546,aiueooeuia_____,+×
8657133076,andarani_chemot,Andaranii_G_dragon
8368868255,s.h._supriyadi,"H. Supriyadi, S.H."
4211420367,mhmdr1zky,"Muhamad Rizky"
2924055146,listsupplierimportir,"Info supplier importir"
4927045595,auction.bible,"DAILY AUCTION❗️❗️❗️"
1366871190,ilhammad_,
336774756,thafakrnwn,"Muhammad Thafa Kurniawan"
1910235047,aferziofe,₹
8628558426,kristopelgurik,"Kristopel Gurik"
7274795481,alfincandra.p,"alfin candra pratama"
6000686940,coybarbar,mythicalshadow
5891896578,klemens_jl,"Klemens JL"
8159901489,daryl.n1,Daryl.N1
1599555334,itsyourboi_twentyone,
2086377548,egasumantri,"perindu janah"
1669745655,maximilian_aditya,MAXX
7600564197,andiniandini481,"Andini Spam"
2177638876,wendi.halim11,"PELATIH DIET ONLINE"
1596841504,immanuel_albert,"Immanuel albert"
8179291194,ibnusabilgmail,ibnusabil@gmail
3400508199,niatazyamumtaz_,
5041010990,casehpstore.99,"CASE HP CUSTOM"
6163621367,tegar7232,"Tegar Putra"
7428278245,godofhype.id,Est.2018
3470910576,ade_kn29,"Wawan Kurniawan"
7090459475,kumala_vina,"vina kumala"
3401848786,youcrazeybruh,
1300522826,fouuuuur,
8174208261,bajurenang.muslimahonline,"BAJU RENANG MUSLIMAH"
5592510724,ilmanrd,ilmanRd
5576591283,ardhza_94.03,jaнѕeн
5564872895,herdinsy,herdiansyah
5727659337,lamboorrr,"Kurang Lengkap..."
7186974201,naswa.al,"Naswa AL"
4161394706,fadhli_massyur_,"Fadhli Masyur Alamsyah_"
5577387130,__dapek,RaihanH
5637087779,hardyancore,koloradoBULLDOG
1036626973,matthewpldg,"Matthew Palandeng"
7758627491,rizal_skyzzhi,RizalSkyzzhi
8253140473,neza_rp,nezah
1511073642,gklaury,ᴳᵉᵏᵃ
4529167885,mutiara8davitha,ㅡㅕ샴ㄱㅁ
3437625892,rey__reza,
1798978006,dhiaul_quthbi,Aul
308460346,hendraharsanto,"Hendra Harsanto"
7445270278,black.unchh,
8651455097,xoneightx,"XNEW-SX,100"
8653590709,sitiriamaaulia,"Siti riama aulia"
8142298207,beautifulsanset21,BeautifulSanset
5605063770,guruhlianda_,byog
2012349229,faza_n_izza,Faza
8625464249,90tze,Fhry
8213238204,kelvin.mekana,"Kelvin mekana"
963144755,edgarbezm,"Edgar Bezaliel"
1367906614,ivanfadhila_,"Ĵєяʊϟαℓєηη ☯"
1417028784,akang_jeni15,"jhenni berjiwa setan merah"
4249635769,anggitubagus158,anggitubagus
2033174722,second_store90,secondstore90
8154292755,rizkauraa_,"Rizka Aura Putri"
1776432837,iqballl06,Iqbal
3089339693,mvooth.id,MVooTH.ID
3638666096,ribelrahmantumpu,"RibeL Rahman Tumpu"
8246451569,saipulamin01,"Saipul amin"
6054633128,fa.za.1865,"FA Za"
1816828723,bravo698523,JiwaKorsa
8283124175,arul_pratama_4,arulpratama
7317652159,notariggertype,"Not one, but many."
1528920061,christopher.v.1,"Christopher Viery"
6064581733,vianovia246_bisnis_online,"OWNER DROPnSHOP INDONESIA"
2149747355,salsabilabilla88,"B I L L A"
1709681030,rackamr,"Racka Mochamad Ramadhan"
6355712369,vheecious,"Novia Agatha"
16699057,em_lauren_,"Emily Moore"
3665737795,a_ubaid_,423_
6832929740,royan_ganda,"rgp 351"
3235817071,rayn_chris,"Christopher Ryan"
7407621287,nurulnatasyah17,@Helmihrf_
8993996996,arkyanlinggan,"arkyan linggan"
8267522941,enjelbuacot,
5781297512,onal_1999,"Ronaldo Franklin Djawa"
7867307351,atta_fans01,AttaFans.bekasi
8673959139,azriel_alvino_19,"alvino 19"
8533947977,arulmulya_01,arul
3175888358,titschyo,"titus cahyo"
6963150968,hypesensation.id,hypesensation.id
5379360121,dylan_nt2,"Dylan Natta"
2177549604,dadannurulhaq,"Dadan Nurul Haq"
7980205265,morat_esp_,"Morat España 🇪🇸🇪🇸🇪🇸"
3498926653,vincent_mb3,vincent
2005567855,miranohindarta,Mirano
1913727455,raamaadhaannn,🌵
8520864383,supaishichips,"Supaishi Chips Produsen"
2089241385,blessingbeautyshop,"BLESSING BEAUTY SHOP"
8642493563,iskandar.nano2,yulyArt
3267865885,joy_lae,
568734317,saladinmuhammad,"Muhammad Saladin"
8994412363,usup_oxs_skp,"usup scubidu"
1671136861,ezchnd,Ez
2266836991,ahmdhnfy_96,"Ahmad Hanafy"
