Userid,Username,Fullname
9234196763,nabila13504,"Nabila 13"
7745056420,ridhobdr,"Badar Ridho"
8720199911,ranitonggg,"2nd Acc"
2268043239,riasari7195,"Ria Ratna Sari, S.Pd"
9741918590,l._maulidiyah,"L. Maulidiyah"
8616421526,wiant_c21d0,"Venice 6D329"
7158642387,ek_bie,Sim_bie
6857236512,rbf.robbi,Rbf.robbi
10003028575,heru_yudistira19,yudistira
593361651,exactn_,"Exact Narrate"
2972000196,lalujnwn,"Lalu Ahmad Juniawan Putra"
5618916404,rivaldiiifr,"ʀɪᴠᴀʟᴅɪ ғᴀʜʀᴇᴢʏ⚡"
8459407944,vonny.ksp90,"Iloy Iloy"
1701320957,mas_dydot,"Mas Didot"
4218375649,herins__,헤린
2108929776,diegoreza_,"M. Diego Reza"
6599849710,camms.joy,CamilleRaymundo
10403268896,sobat.kucing,"Kucing Lovers"
6523099656,pakar.jambang.viral.38,"🔥NO.1 MINOXIDIL JAMBANG BEARD🔥"
485599370,glentimothyt,"glentimothy |"
7814795045,audy.angelique,"Audy Angelique A.S"
4182445906,azmiazizahnurul,AZMINURULAZIZAH
1910607624,steflorgarden,"Steflor Garden"
2201834043,zulfazhaar,zulfa🍃
3858890459,shafahouseoftreatment,ShafaHOT
3267824547,refitaa.k,"Refita Kaorila"
10328283578,babeh_aing,ampundahh
1707022752,husseinhbsyi,"الله محمد"
1429000425,villalingga,"Villa Lingga Puncak"
4530132292,bmbarp,"Miss Childhood"
1599105340,novendra09,"irwansyah novendra"
6191200404,eva_2f,"eva yuniar"
10816806536,dwiapri525,"Dwi Apri"
4199045302,sariii.aw,sari
10473518142,nur_3528,Nurjanah
4253399443,metahpsr,"Meta hapsari"
8459192431,welcca,welcca
1571079213,magentax_,magentax_
6115669629,santi.fadilah.1694,"Santi Fadilah"
1390438749,dhinadhesti,"Dhina Dhestiwulan"
1964280478,jihanaadriyanii,"Jihan aulia adriyani pangestu💐"
10682409364,kanvaonline,"Kanva Online"
571093280,nikeneka,"Niken Eka Septyani"
1489098414,dithandut24,"Ditha Jak GBastian"
9161503041,leoni_bong,"Rafelito Bong"
8549911785,lowellrodgerst,
206197367,andiniain,"Andini Ainun M"
8362818256,lovishsingla6,lovishsingla
1386141115,astrirhm,"Astri Rahma H"
9003382367,dps_88,"D.P.S ❤"
1474563160,suad4.20,sukasukadaus
4442957678,mahlarose,"Auri, Mahla Rose Alba"
9956813532,vivian.avin.37,"Vivian Avin"
4196723355,ayu_yolanda23,"Ayu Yolanda R"
3045892471,kartika_zack,citra
10854067352,myanto1981,dwi
2880012024,irfannursyafaat,Irfan
1606565948,daniqar,ChocoTOP🍫
6112000391,caca.r,"caca rahayu"
2020722734,fonita_wibowo,FhoFho
6646770386,nugrohoagungs_1745,"Nugroho Agung S"
10204744388,jb_hunter_02,j_advind
1431330370,ati_khaila,"Ati K Sularja"
4473749690,devoy_abyan,"Vhii Syafqia"
6334474151,siahtic28,"Ratna Afsiah"
1728564644,sabrinipasaribu,"Sabrini Gabriella Pasaribu"
5363845175,haniyuliati_25,hani_yuliati
6656801336,maromaa_26,FajriatulMikaRomah
5572882786,yuyundevicopa,
1548641567,mailufar,"yuyun mailufar"
4208299464,est_ne_pereest,Есть-Не-Переесть
7272135180,amalialiyaa,
6920941942,kenapaguehappy,
9428289260,abycell_i,abycell_co.id
4834200002,chaniasaragih,"Chania Saragih"
2326509983,mika.nikita,
1633727764,daniellatheresia,"F A N N I N G"
2106570824,mega_bode,"Mega Bode"
2150569784,dindaayupramita,"Dinda Ayu Pramita"
1980232471,ashmndz12,Ashmnd
8044255798,nell.apendiansyah_,Nellamawarni
5623539645,followers.indo.bergaransi,"Followers Indo Bergaransi"
638648111,lidyaasafitri,"Lidya Safitri Simbolon"
4483412499,raadhhh,RaRaudhah
4388703061,andrewfahmii2,Meidita🖤
1958907031,hanny.chigga,Hanny.chigga350
1598293298,nurrahmi_tarigan,"Nurrahmi Tarigan💉"
211550614,ciciox_,"Andi Asriana Tenriawaru"
2360689324,novita1180,"novita anggraini"
8615305182,ferratt_73ab1,"Providencia Ferratt"
7281976551,tikanadapdap_,
4265303414,shantysn_,"shanty setyaa ningsih"
8436461812,lambertco_store,LambertCO_Clothes
4556369494,zalia.az,zac
2986994363,astriiwdy,"Astri widya astuti🔥"
9602947674,babyametta,by
1990133816,yuliacitrapertiwi,Citra
10436332405,riskianiikke,
3847624677,tatapnd__,
3954178050,verrrhwanh,HELLO
