Userid,Username,Fullname
41342468,viramhrv,"Vira Mahriva"
1543653127,leo.fontanel,"Leo Fontanel"
3004121865,trochaz,ocas
265833226,heckels.photography,"Graeme Heckels"
231223307,satriosakti,"Satrio Sakti Utomo"
1351625231,syahrulrmdd,Syahrul
8370045968,darrenns_,fine
401724439,xavierklam,"Xavier K. Lam"
3267686680,raflym28,RaflyM
6625285146,artbyte_life,"Neelam Shukla"
2030952986,barahwana,"Nabil Bara"
192579866,joax86,"Jonathan Axel"
1342156060,zubadhil,"Zubadhil Mi'roj"
3999774,dubsbydesign,"Malcolm Webb"
1563143967,mullettino,"Rich U."
305855264,iqnahard,"Iqna Hardianti Y"
10724129,zeekyan,"Zeek Yan • Los Angeles CA"
1158211623,alamsyahjr_,"Jafar R Alamsyah"
6664215595,nymphaea_photography,"Romy Zuidveld"
2321001525,visualsbyanthony,"Anthony Poon"
366725176,fardhaniw,"Fardhani Wulandari"
1901851448,gabriellastephp,Gaby
32047930,nibrasdhy,
296224319,amliadp,"Amalia Dwi"
273919041,rifkynurhidayat,
1681215051,rifaikukuh,rifaikukuh
207602252,ani_khirzin,"Ani Khirzin"
2116720971,juniartaeka_,"Eka Juniarta⏺"
3495955028,_faqihnugroho_,"Muhammad Faqih Nugroho"
1668140886,abdillahilhaq,"abdillah ilhaq"
1681773914,dickysukma,"Dicky Aditya Sukma"
209708381,gcvesuvio,Gerry
365616990,citraprmtha,
312618082,nissadmynti,"C. nissa damayanti"
5480051302,wujingli0717,"Wu Jingli"
9262430823,mentiono774,"Mention Maranda"
216124774,firaaymn,"Ayumna Syafira🍒"
3734688873,didanng,
1937400686,ma.zanjabil,"Annisa | MA.Zanjabil"
10653297,kime011,"Alberto Chimenti Dezani"
1441389428,rendy.satriia,"Rendy satria"
3043582324,adampryg,"Adam Prayogi"
269275769,hannahfarache,🥵
1596780923,sisfayeralda,"Effrina Hayyu Sisfayeralda"
3580950398,fakhripribadi,"Fakhri Irfan Pribadi"
1822599554,mjbachtiar,"Jibriel Bachtiar"
2243343749,ryansugandi,"Ryan Sugandi"
1723027078,agus.prass,AgusPrass
2097310343,putraopo,
3722474631,andre_kembo,"St. Andreas"
6433124230,adventureaddictz,"Adventure | Travel | Nature"
1738062215,dimakmal,"Dim/Akmal 🍉"
1561509260,hilmihandala,"Hilmi Handala"
20029843,mackkuhr,"Mack Kuhr"
1429430683,dendynfl,"Muhammad Dendy Naufal"
5589784987,aprilliadd,
221547421,lestaridwi,"Dwi Lestari"
1436073379,atikaandam,
5479984807,renjanadibulanjuni,Juni
48773040,justinfoutsmedia,"Justin Fouts"
1429422517,_thomas.russell,"Thomas Russell"
5707033788,cori.jonar,"Cori Jonar Natanail Sidabutar"
556315580,dindaannisyah,"Dinda Annisyah"
399579068,tomo_brian,Tomo
483791551,fathulk11,"Fathul Rachman Rauf"
20884418,burakkaravit,BurakKaravit
5922642376,easphoto,"Emily Ann Stone"
3215177674,fjrbriantm,"Fajar Brian"
317405901,deborachrisan,
1974482900,mokougay,"Tri Yatmoko"
269426135,faidzpla,"Mohammed Faidz Al Salam"
30632152,putratamaditya,"Aditya Putratama"
522728410,shanti.wahyunita,"C H A N🐱🐶"
453081052,viraanl,Aìnál🦄
579333342,edgar.ptryns_,"Edgar Putrayansa"
2010092259,daniswara.dimas,
1590126309,ajiedm,
2109112293,gianluca.ferrara_,"Gianluca Ferrara"
1162870251,yves_haehle73,"Yves Hähle"
1561906925,aditkurniawaann,
1387519217,izzatur.r,"Razak Izzatur"
3307249906,mkaypasa,"Coeur de Lion"
1725092849,rrpratino,Robirangga
1537327605,azelnute,"sad boi with a laptop."
4526224118,menikahisenja,"kaleb sitompul"
3194109175,vivekchawdhary3,"Vαgαвσи∂ ( INDIA ) Vivek_Yadav"
4161423861,omardziriphotographer,"Omar Dziri"
5413592059,rizki_jogjajogja,"Rizki Kurniawan"
484483583,anggads15,"Angga Saputra"
